LogLikelihood = -354134.00274512020405

y0 1.4045432097384167314
y0_prime 0
y1 2.8609689796219264224
y1_prime 0
y2 1.0007037321612045734e-12
y2_prime 0
y3 0.19782234312468760518
y3_prime 0
rho 0.00043398112719670233969
theta 0.00077781065836316160347
