parameter	estimate	se	z-score	p-value
intercept	-23.244672264033543	1970.2406747087412	-0.011797884675926601	0.990586868336548
DomesticCarbon_coeff	-0.5302415995151729			
MetalStress_coeff	-0.5614928022667339			
OxidativeStress_coeff	-0.8331008245415451			
HeatStress_coeff	-0.04642766861009661	10199.193929882827	-4.552091952489229e-06	0.9999963679561118
OsmoticStress_coeff	-0.3877115916964277			
Meiosis_coeff	-1.1558364586963152	14908.283165326615	-7.752981653746264e-05	0.9999381401564449
MultipleCategories_coeff	-0.3276292125054796	3894.3000477244345	-8.413044924386963e-05	0.9999328736135341
