parameter	estimate	se	z-score	p-value
intercept	-24.899383776872597	5181.213555345299	-0.004805704978360652	0.9961656169530501
DomesticCarbon_coeff	-0.4594095413072567	16586.517230163914	-2.769777011847813e-05	0.9999779003768566
MetalStress_coeff	-0.9572224826731003			
OxidativeStress_coeff	-1.1700485435640533			
HeatStress_coeff	0.10959196048305718	21193.42455327685	5.171035960118699e-06	0.999995874110244
OsmoticStress_coeff	-0.4115632011713887			
Meiosis_coeff	-1.8910359554512757	60305.73980657435	-3.135747876597844e-05	0.9999749803518311
MultipleCategories_coeff	-0.24320230834572307	11842.91042665634	-2.053568756192876e-05	0.99998361489195
