parameter	estimate	se	z-score	p-value
intercept	-24.299900936447933	5973.7600201011655	-0.004067773203925326	0.9967543955144594
CORate_coeff	-3.088903893185697	36251.37651689402	-8.520790629139814e-05	0.999932013927194
