parameter	estimate	se	z-score	p-value
intercept	-24.342424299407156	2701.0446053289534	-0.009012225955610442	0.9928093813889503
RSA_coeff	2.3993801908985284	3533.203940066707	0.0006790947342975135	0.9994581608378281
CORate_coeff	-3.5479408748351497	18977.391804660816	-0.00018695619036351356	0.9998508305430314
DomesticCarbon_coeff	-1.6767124428354783			
MetalStress_coeff	-2.8192202894499747	39355.0581758243	-7.163552590507448e-05	0.9999428431199242
OxidativeStress_coeff	-0.3767281537973488			
HeatStress_coeff	0.358112264397819			
OsmoticStress_coeff	-0.8670729404222977			
Meiosis_coeff	-1.4475842830354648	30080.561066605092	-4.812357987040831e-05	0.9999616029386257
MultipleCategories_coeff	-1.405650886387633	19568.454295792875	-7.18324945414744e-05	0.9999426859616907
