parameter	estimate	se	z-score	p-value
intercept	-25.638741475639286	9287.130093137144	-0.0027606743114953667	0.9977973033873634
RSA_coeff	1.7017226505740533	8740.895739315743	0.0001946851559983563	0.9998446637207927
CORate_coeff	-3.9655168868756525	70580.06858709131	-5.6184656182112616e-05	0.9999551711303019
DomesticCarbon_coeff	-1.9225108000769826			
Stress_coeff	-2.9469171401759087			
Meiosis_coeff	-1.342589126036989			
