parameter	estimate	se	z-score	p-value
intercept	-25.777461533459604	6589.973698167821	-0.003911618272562513	0.9968789881315443
DomesticCarbon_coeff	-1.1853813027206723	48356.55602415782	-2.451335248375594e-05	0.9999804411745217
MetalStress_coeff	-1.3548485657742166	40706.58846823198	-3.328327469229116e-05	0.999973443788995
OxidativeStress_coeff	-0.687147464543024			
HeatStress_coeff	-0.02147044888741125	25335.29834640974	-8.474519855201871e-07	0.9999993238311448
OsmoticStress_coeff	-0.6039873053413004	43013.291969241705	-1.4041875840919235e-05	0.9999887962040622
Meiosis_coeff	-1.0923939342705935			
MultipleCategories_coeff	-0.8042197461430088			
