parameter	estimate	se	z-score	p-value
intercept	-24.220060826158598	5307.770515239083	-0.004563132629155809	0.996359159561344
RSA_coeff	1.5818476444665708	4358.418409190433	0.0003629407495918676	0.9997104151857721
CORate_coeff	-3.6994017885648867	29998.805030378622	-0.00012331830500643764	0.9999016062286203
