parameter	estimate	se	z-score	p-value
intercept	-16.829481062219944	819.1270116621383	-0.020545630680729555	0.9836081117280125
DomesticCarbon_coeff	-0.3457046637954535	0.10695747381183066	-3.2321693050047973	0.0012285424305610484
MetalStress_coeff	-0.2815158890690674	0.12595635620919116	-2.23502725500823	0.025415559483160707
OxidativeStress_coeff	-0.503232422699106	0.11083084002791797	-4.540545055621189	5.610898645544775e-06
HeatStress_coeff	0.2633579941775474	0.11720683977110567	2.2469507299391545	0.024643176082728046
OsmoticStress_coeff	0.010003424777613932	0.10084532805950204	0.09919571853355055	0.9209828742093944
Meiosis_coeff	-0.1786735506306315	0.10195227002994744	-1.7525215532537721	0.07968416706809126
MultipleCategories_coeff	15.168839144090946	819.1270279917348	0.018518298903261194	0.9852253796545906
