parameter	estimate	se	z-score	p-value
intercept	-29.284504122149414			
RSA_coeff	7.517030626030521			
CORate_coeff	-5.025513175761016			
DomesticCarbon_coeff	-2.5208770535411427			
MetalStress_coeff	-4.639376774373797			
OxidativeStress_coeff	-0.3680965599277039			
HeatStress_coeff	1.2523423565726979	7717.776202350914	0.00016226725467774272	0.999870529463337
OsmoticStress_coeff	-1.4277077697641107			
Meiosis_coeff	-1.02651711986719	34299.37007855468	-2.992816245651721e-05	0.9999761207812463
MultipleCategories_coeff	-2.109051474645846			
