parameter	estimate	se	z-score	p-value
intercept	-25.486264408413014	10771.395182088421	-0.002366106152227495	0.9981121221934514
CORate_coeff	-3.7469712891509452	61371.64019709728	-6.105379092227956e-05	0.9999512861228749
