parameter	estimate	se	z-score	p-value
intercept	-24.350808180160325	4640.048270927997	-0.005247964408631083	0.9958127494429881
RSA_coeff	1.8536575999281282	4326.476413898229	0.0004284450954068535	0.9996581502836818
CORate_coeff	-3.80237446843074	32095.69394029379	-0.00011846992545181077	0.9999054746757836
DomesticCarbon_coeff	-1.939534778711611			
Stress_coeff	-2.8509052666793235			
Meiosis_coeff	-1.3057243373223533			
