parameter	estimate	se	z-score	p-value
intercept	-24.535883438051528	3875.865655619383	-0.006330426701575282	0.9949490840068638
DomesticCarbon_coeff	-0.23660681868092046			
MetalStress_coeff	-0.34922369919955537	12320.76069638945	-2.8344329364492404e-05	0.9999773844972167
OxidativeStress_coeff	-0.9823041333052156			
HeatStress_coeff	-0.01660554270998927	18825.08582607592	-8.820965207493392e-07	0.999999296188805
OsmoticStress_coeff	-0.8073586653094562	30025.561356999227	-2.688904482784145e-05	0.9999785456462797
Meiosis_coeff	-1.3462646679493244	41117.703233909255	-3.27417283083817e-05	0.9999738758804934
MultipleCategories_coeff	-0.48443724416808903			
