parameter	estimate	se	z-score	p-value
intercept	-2.10522122951927	0.1708183531292382	-12.324326929475172	6.70005616445279e-35
DomesticCarbon_coeff	-0.08592968749318619	0.05722991466707844	-1.5014820132628526	0.13323093547444098
MetalStress_coeff	-0.10316513789498749	0.053563297266692976	-1.9260415836860403	0.054099181743711075
OxidativeStress_coeff	0.14534929681755432	0.089714882524844	1.620124696449376	0.10520549330150326
HeatStress_coeff	0.17881836286985303	0.0677108342750464	2.6409121196687617	0.008268316337167108
OsmoticStress_coeff	0.16296652589148905	0.07544273710211093	2.1601353841512356	0.030762190510418716
Meiosis_coeff	0.2889876266039459	0.07361744698267515	3.9255317652071677	8.653834857494001e-05
MultipleCategories_coeff	-8.345721695239268	48.74220611378041	-0.17122166517776394	0.8640494726943555
