parameter	estimate	se	z-score	p-value
intercept	-34.769619902539006			
RSA_coeff	13.660692534048579			
CORate_coeff	-6.191906266957247	56182.48666380848	-0.00011021061249939185	0.9999120646540282
DomesticCarbon_coeff	-3.8854101464004915	228115.9498320605	-1.7032610605531705e-05	0.9999864099429684
Stress_coeff	-4.970891063379592	435073.98010860034	-1.1425392670319634e-05	0.9999908838555874
Meiosis_coeff	-2.4692613374939345	66861.89204141956	-3.69307727032953e-05	0.9999705335066482
