parameter	estimate	se	z-score	p-value
intercept	-25.375234951333063	6357.88185864862	-0.003991146031884055	0.996815534655608
DomesticCarbon_coeff	-0.9515991030484033	96557.65003144853	-9.855242984253142e-06	0.9999921366537801
MetalStress_coeff	-1.0646168492632897	43986.72778357192	-2.4203138148887283e-05	0.9999806886897499
OxidativeStress_coeff	-1.0809892953545097			
HeatStress_coeff	-0.29802943451470526	27356.329463026326	-1.0894350242327261e-05	0.9999913075661419
OsmoticStress_coeff	-0.5391218032156376	131738.98388058145	-4.092348273342839e-06	0.9999967347784953
Meiosis_coeff	-1.9162845511968247	182372.8370620347	-1.0507510778839254e-05	0.9999916162193773
MultipleCategories_coeff	-0.9935103724000021	28846.415933247936	-3.444137998630524e-05	0.9999725197546616
