parameter	estimate	se	z-score	p-value
intercept	-22.787303639397745	3003.891202869874	-0.0075859284176561	0.9939473628874074
CORate_coeff	-3.207619203523228	16670.109457440783	-0.00019241740503938271	0.9998464731242367
