time_index	left_time_boundary	right_time_boundary	lambda
0	0	1.96275e-05	1659.44
1	1.96275e-05	4.28279e-05	1659.44
2	4.28279e-05	7.02518e-05	1659.44
3	7.02518e-05	0.000102668	1659.44
4	0.000102668	0.000140985	1659.44
5	0.000140985	0.000186278	227.16
6	0.000186278	0.000239816	300.786
7	0.000239816	0.000303099	435.578
8	0.000303099	0.000377903	655.495
9	0.000377903	0.000466325	766.257
10	0.000466325	0.000570842	761.149
11	0.000570842	0.000694387	760.496
12	0.000694387	0.000840421	782.909
13	0.000840421	0.00101304	816.405
14	0.00101304	0.00121708	845.139
15	0.00121708	0.00145827	841.68
16	0.00145827	0.00174336	798.734
17	0.00174336	0.00208035	738.617
18	0.00208035	0.00247869	683.967
19	0.00247869	0.00294954	625.976
20	0.00294954	0.0035061	545.552
21	0.0035061	0.00416398	473.683
22	0.00416398	0.00494163	476.319
23	0.00494163	0.00586083	656.398
24	0.00586083	0.00694737	3417.91
25	0.00694737	0.00823171	0.927481
26	0.00823171	0.00974985	0.927481
27	0.00974985	0.0115443	0.927481
28	0.0115443	0.0136655	0.927481
29	0.0136655	inf	0.927481
