time_index	left_time_boundary	right_time_boundary	lambda
0	0	1.27839e-05	3218.32
1	1.27839e-05	2.7895e-05	3218.32
2	2.7895e-05	4.5757e-05	3218.32
3	4.5757e-05	6.68706e-05	3218.32
4	6.68706e-05	9.18277e-05	3218.32
5	9.18277e-05	0.000121328	643.905
6	0.000121328	0.000156199	757.649
7	0.000156199	0.000197417	866.969
8	0.000197417	0.000246139	941.304
9	0.000246139	0.00030373	988.156
10	0.00030373	0.000371806	1058.97
11	0.000371806	0.000452273	1120.02
12	0.000452273	0.00054739	1075.69
13	0.00054739	0.000659821	941.119
14	0.000659821	0.000792719	822.526
15	0.000792719	0.000949811	762.761
16	0.000949811	0.0011355	758.16
17	0.0011355	0.00135499	799.098
18	0.00135499	0.00161444	857.939
19	0.00161444	0.00192112	889.132
20	0.00192112	0.00228362	873.936
21	0.00228362	0.00271212	808.264
22	0.00271212	0.00321862	679.895
23	0.00321862	0.00381733	539.986
24	0.00381733	0.00452502	449.682
25	0.00452502	0.00536154	653.074
26	0.00536154	0.00635035	653.074
27	0.00635035	0.00751916	653.074
28	0.00751916	0.00890074	653.074
29	0.00890074	inf	653.074
