time_index	left_time_boundary	right_time_boundary	lambda
0	0	6.77466e-06	3640.68
1	6.77466e-06	1.47826e-05	3640.68
2	1.47826e-05	2.42483e-05	3640.68
3	2.42483e-05	3.54371e-05	3640.68
4	3.54371e-05	4.86628e-05	3640.68
5	4.86628e-05	6.42961e-05	290.135
6	6.42961e-05	8.27753e-05	682.919
7	8.27753e-05	0.000104618	1235.91
8	0.000104618	0.000130438	1841.18
9	0.000130438	0.000160958	2407.73
10	0.000160958	0.000197033	2882.17
11	0.000197033	0.000239676	3206.4
12	0.000239676	0.000290082	3357.85
13	0.000290082	0.000349663	3401.34
14	0.000349663	0.000420091	3360.13
15	0.000420091	0.000503339	3144.99
16	0.000503339	0.000601742	2683.72
17	0.000601742	0.000718059	2047.3
18	0.000718059	0.000855549	1406
19	0.000855549	0.00101807	911.468
20	0.00101807	0.00121017	611.958
21	0.00121017	0.00143725	475.868
22	0.00143725	0.00170566	478.629
23	0.00170566	0.00202294	732.667
24	0.00202294	0.00239797	11217.1
25	0.00239797	0.00284128	2.68709
26	0.00284128	0.00336528	2.68709
27	0.00336528	0.00398467	2.68709
28	0.00398467	0.00471682	2.68709
29	0.00471682	inf	2.68709
