time_index	left_time_boundary	right_time_boundary	lambda
0	0	6.13768e-06	4857.99
1	6.13768e-06	1.33927e-05	4857.99
2	1.33927e-05	2.19683e-05	4857.99
3	2.19683e-05	3.21052e-05	4857.99
4	3.21052e-05	4.40873e-05	4857.99
5	4.40873e-05	5.82507e-05	189.705
6	5.82507e-05	7.49924e-05	404.162
7	7.49924e-05	9.47817e-05	773.532
8	9.47817e-05	0.000118174	1298.71
9	0.000118174	0.000145824	1904.51
10	0.000145824	0.000178507	2473.58
11	0.000178507	0.000217141	2927.78
12	0.000217141	0.000262807	3239.86
13	0.000262807	0.000316786	3434.23
14	0.000316786	0.000380592	3559.92
15	0.000380592	0.000456013	3510.45
16	0.000456013	0.000545164	3072.2
17	0.000545164	0.000650543	2293.94
18	0.000650543	0.000775107	1501.42
19	0.000775107	0.000922346	931.769
20	0.000922346	0.00109639	612.474
21	0.00109639	0.00130211	478.528
22	0.00130211	0.00154529	487.898
23	0.00154529	0.00183273	752.387
24	0.00183273	0.0021725	13707.4
25	0.0021725	0.00257413	2.96596
26	0.00257413	0.00304886	2.96596
27	0.00304886	0.00361002	2.96596
28	0.00361002	0.00427332	2.96596
29	0.00427332	inf	2.96596
