time_index	left_time_boundary	right_time_boundary	lambda
0	0	6.83577e-06	7366.42
1	6.83577e-06	1.49159e-05	7366.42
2	1.49159e-05	2.4467e-05	7366.42
3	2.4467e-05	3.57568e-05	7366.42
4	3.57568e-05	4.91018e-05	7366.42
5	4.91018e-05	6.48761e-05	1168.99
6	6.48761e-05	8.3522e-05	1819.88
7	8.3522e-05	0.000105562	1937.07
8	0.000105562	0.000131615	1988.94
9	0.000131615	0.00016241	2331.88
10	0.00016241	0.000198811	2965.46
11	0.000198811	0.000241838	3704.68
12	0.000241838	0.000292698	4150.2
13	0.000292698	0.000352817	3828.36
14	0.000352817	0.00042388	3015.16
15	0.00042388	0.00050788	2319.15
16	0.00050788	0.00060717	1857.52
17	0.00060717	0.000724536	1494.35
18	0.000724536	0.000863267	1121.54
19	0.000863267	0.00102725	802.239
20	0.00102725	0.00122109	623.7
21	0.00122109	0.00145022	582.389
22	0.00145022	0.00172105	655.202
23	0.00172105	0.00204119	897.721
24	0.00204119	0.0024196	2230.64
25	0.0024196	0.00286691	276.414
26	0.00286691	0.00339564	276.414
27	0.00339564	0.00402062	276.414
28	0.00402062	0.00475937	276.414
29	0.00475937	inf	276.414
