time_index	left_time_boundary	right_time_boundary	lambda
0	0	1.98307e-05	2442.55
1	1.98307e-05	4.32714e-05	2442.55
2	4.32714e-05	7.09793e-05	2442.55
3	7.09793e-05	0.000103731	2442.55
4	0.000103731	0.000142445	2442.55
5	0.000142445	0.000188207	1372.31
6	0.000188207	0.000242299	1220.75
7	0.000242299	0.000306238	1070.89
8	0.000306238	0.000381817	805.107
9	0.000381817	0.000471154	576.123
10	0.000471154	0.000576754	470.664
11	0.000576754	0.000701577	433.649
12	0.000701577	0.000849124	426.105
13	0.000849124	0.00102353	445.358
14	0.00102353	0.00122969	491.113
15	0.00122969	0.00147337	548.438
16	0.00147337	0.00176141	597.757
17	0.00176141	0.00210189	634.175
18	0.00210189	0.00250436	664.366
19	0.00250436	0.00298008	682.53
20	0.00298008	0.00354241	675.376
21	0.00354241	0.0042071	637.307
22	0.0042071	0.0049928	571.376
23	0.0049928	0.00592153	514.948
24	0.00592153	0.00701932	508.212
25	0.00701932	0.00831695	661.943
26	0.00831695	0.00985081	661.943
27	0.00985081	0.0116639	661.943
28	0.0116639	0.013807	661.943
29	0.013807	inf	661.943
