time_index	left_time_boundary	right_time_boundary	lambda
0	0	1.94526e-05	2687.25
1	1.94526e-05	4.24465e-05	2687.25
2	4.24465e-05	6.96261e-05	2687.25
3	6.96261e-05	0.000101754	2687.25
4	0.000101754	0.000139729	2687.25
5	0.000139729	0.000184619	1142.49
6	0.000184619	0.000237679	1129.36
7	0.000237679	0.000300399	1091.74
8	0.000300399	0.000374537	881.575
9	0.000374537	0.000462171	641.368
10	0.000462171	0.000565758	515.11
11	0.000565758	0.000688201	459.34
12	0.000688201	0.000832935	434.884
13	0.000832935	0.00100402	443.37
14	0.00100402	0.00120624	485.554
15	0.00120624	0.00144528	543.158
16	0.00144528	0.00172783	592.399
17	0.00172783	0.00206182	628.872
18	0.00206182	0.00245661	663.281
19	0.00245661	0.00292327	691.132
20	0.00292327	0.00347487	696.182
21	0.00347487	0.00412689	667.217
22	0.00412689	0.00489761	596.042
23	0.00489761	0.00580863	517.314
24	0.00580863	0.00688549	489.97
25	0.00688549	0.00815839	632.477
26	0.00815839	0.009663	632.477
27	0.009663	0.0114415	632.477
28	0.0114415	0.0135438	632.477
29	0.0135438	inf	632.477
