time_index	left_time_boundary	right_time_boundary	lambda
0	0	1.56967e-05	4441.16
1	1.56967e-05	3.42509e-05	4441.16
2	3.42509e-05	5.61826e-05	4441.16
3	5.61826e-05	8.21069e-05	4441.16
4	8.21069e-05	0.00011275	4441.16
5	0.00011275	0.000148972	1841.14
6	0.000148972	0.000191788	1617.55
7	0.000191788	0.000242398	1434.66
8	0.000242398	0.000302221	1282.82
9	0.000302221	0.000372935	1132.56
10	0.000372935	0.000456521	1005.86
11	0.000456521	0.000555323	905.906
12	0.000555323	0.000672111	805.818
13	0.000672111	0.00081016	685.877
14	0.00081016	0.000973339	566.703
15	0.000973339	0.00116622	482.238
16	0.00116622	0.00139422	447.106
17	0.00139422	0.00166372	462.504
18	0.00166372	0.00198229	522.564
19	0.00198229	0.00235884	606.476
20	0.00235884	0.00280394	671.689
21	0.00280394	0.00333007	683.998
22	0.00333007	0.00395198	645.297
23	0.00395198	0.0046871	576.152
24	0.0046871	0.00555604	484.594
25	0.00555604	0.00658316	451.26
26	0.00658316	0.00779726	451.26
27	0.00779726	0.00923238	451.26
28	0.00923238	0.0109288	451.26
29	0.0109288	inf	451.26
