time_index	left_time_boundary	right_time_boundary	lambda
0	0	1.55261e-05	5616.54
1	1.55261e-05	3.38786e-05	5616.54
2	3.38786e-05	5.5572e-05	5616.54
3	5.5572e-05	8.12145e-05	5616.54
4	8.12145e-05	0.000111525	5616.54
5	0.000111525	0.000147353	1310.79
6	0.000147353	0.000189704	1480.84
7	0.000189704	0.000239764	1545.6
8	0.000239764	0.000298936	1448.72
9	0.000298936	0.000368881	1218.24
10	0.000368881	0.000451559	964.83
11	0.000451559	0.000549287	784.352
12	0.000549287	0.000664806	678.673
13	0.000664806	0.000801354	600.506
14	0.000801354	0.00096276	526.058
15	0.00096276	0.00115355	464.818
16	0.00115355	0.00137907	428.449
17	0.00137907	0.00164564	417.646
18	0.00164564	0.00196074	425.543
19	0.00196074	0.0023332	444.685
20	0.0023332	0.00277347	479.388
21	0.00277347	0.00329388	546.533
22	0.00329388	0.00390902	652.885
23	0.00390902	0.00463615	862.903
24	0.00463615	0.00549565	2709.16
25	0.00549565	0.00651161	49.3476
26	0.00651161	0.00771251	49.3476
27	0.00771251	0.00913204	49.3476
28	0.00913204	0.01081	49.3476
29	0.01081	inf	49.3476
