Chr	Start	Stop	BlockSize	BlockLength
XVI	2095	2161	46	66
XVI	2161	2202	46	41
XVI	2202	2225	46	23
XVI	2225	2257	46	32
XVI	2257	2313	46	56
XVI	2321	2321	46	1
XVI	2321	2383	46	63
XVI	2383	2432	46	49
XVI	2432	2503	46	71
XVI	2503	2528	46	25
XVI	2528	2590	46	62
XVI	2590	2702	46	112
XVI	2702	2755	46	53
XVI	2755	2914	46	159
XVI	2927	3167	46	240
XVI	3167	3231	46	64
XVI	3231	3258	46	27
XVI	3258	3295	46	37
XVI	3295	3322	46	27
XVI	3322	3372	46	50
XVI	3562	3615	46	53
XVI	3615	3700	46	85
XVI	3700	3739	46	39
XVI	3739	3768	46	29
XVI	3768	3805	46	37
XVI	3805	3886	46	81
XVI	3886	3927	46	41
XVI	4119	4183	46	64
XVI	4183	4224	46	41
XVI	4224	4256	46	34
XVI	4256	4339	46	83
XVI	4339	4380	46	41
XVI	4380	4413	46	33
XVI	4549	4581	46	32
XVI	4581	4613	46	32
XVI	4638	4694	46	56
XVI	4694	4745	46	51
XVI	4757	4758	46	1
XVI	4943	4954	46	11
XVI	5312	5376	46	64
XVI	13083	13203	46	120
XVI	13203	14819	46	1616
XVI	14831	14969	46	138
XVI	14992	16361	46	1431
XVI	16377	16868	46	491
XVI	16868	16908	46	40
XVI	16922	16923	46	1
XVI	16946	17265	46	322
XVI	17275	17415	46	142
XVI	17425	17544	46	119
XVI	17554	17588	46	35
XVI	17588	17641	46	56
XVI	17641	18637	46	998
XVI	18637	18711	46	74
XVI	18711	25751	46	7061
XVI	25751	25798	46	47
XVI	26019	46583	46	20571
XVI	46600	55865	46	9275
XVI	56123	56290	46	179
XVI	56290	56446	46	182
XVI	62712	64167	46	1457
XVI	64187	64347	46	161
XVI	64376	76509	46	12138
XVI	76509	76567	46	58
XVI	76577	76599	46	22
XVI	76599	79795	46	3206
XVI	79795	80438	46	643
XVI	80438	80473	46	35
XVI	80473	80639	46	166
XVI	80639	85351	46	4712
XVI	85351	85395	46	44
XVI	85405	85406	46	1
XVI	85406	96415	46	11012
XVI	96431	96760	46	329
XVI	98253	99009	46	756
XVI	99021	117177	46	18169
XVI	117189	126525	46	9367
XVI	126540	132266	46	5729
XVI	132285	132286	46	1
XVI	132286	132453	46	168
XVI	132466	135804	46	3339
XVI	136443	139587	46	3146
XVI	139604	144683	46	5080
XVI	144713	151471	46	6759
XVI	151483	162368	46	10889
XVI	162384	165815	46	3434
XVI	165827	167757	46	1934
XVI	167777	169561	46	1785
XVI	169590	174144	46	4557
XVI	174632	185384	46	10753
XVI	185395	187308	46	1913
XVI	187328	188821	46	1497
XVI	188831	192962	46	4132
XVI	192977	193899	46	922
XVI	193911	194018	46	107
XVI	194031	194042	46	11
XVI	194056	194075	46	19
XVI	194082	197729	46	3676
XVI	197735	209889	46	12163
XVI	209901	210422	46	521
XVI	210429	210429	46	1
XVI	210436	210440	46	4
XVI	210452	210478	46	26
XVI	210478	211563	46	1085
XVI	211912	212895	46	995
XVI	212913	239112	46	26205
XVI	239130	245402	46	6276
XVI	245414	252304	46	6891
XVI	252325	298496	46	46181
XVI	298508	312936	46	14433
XVI	312960	338444	46	25490
XVI	338509	339380	46	871
XVI	339380	339438	46	58
XVI	339438	377330	46	37906
XVI	377974	381852	46	3889
XVI	381852	383270	46	1418
XVI	383270	383323	46	53
XVI	383323	393879	46	10556
XVI	393897	404753	46	10858
XVI	404770	435865	46	31104
XVI	435878	436474	46	596
XVI	436474	436884	46	410
XVI	443112	453382	46	10274
XVI	453394	453571	46	178
XVI	453588	453631	46	43
XVI	453644	455688	46	2045
XVI	455706	462238	46	6538
XVI	462272	462822	46	550
XVI	462828	481298	46	18471
XVI	481311	485920	46	4609
XVI	485936	502676	46	16740
XVI	502691	503381	46	690
XVI	503399	516226	46	12829
XVI	516238	520346	46	4108
XVI	520358	520942	46	585
XVI	521068	521072	46	4
XVI	521090	521105	46	15
XVI	521174	522056	46	882
XVI	522061	522109	46	54
XVI	522115	536703	46	14628
XVI	536748	560341	46	23604
XVI	560357	560474	46	117
XVI	560543	560702	46	166
XVI	560719	560737	46	18
XVI	561017	561468	46	451
XVI	561468	569001	46	7543
XVI	569036	581332	46	12315
XVI	581354	582077	46	725
XVI	582089	591715	46	9694
XVI	591733	606371	46	14639
XVI	606392	606706	46	314
XVI	606718	607472	46	754
XVI	607488	619933	46	12456
XVI	619962	620249	46	287
XVI	620262	621897	46	1636
XVI	621910	622572	46	662
XVI	622572	622647	46	75
XVI	622647	645637	46	23053
XVI	645637	646374	46	737
XVI	646384	650510	46	4130
XVI	650546	655073	46	4537
XVI	655084	687882	46	32815
XVI	687898	696358	46	8462
XVI	696370	698519	46	2149
XVI	698533	700593	46	2060
XVI	700593	728627	46	28037
XVI	728649	731365	46	2716
XVI	731571	743981	46	12411
XVI	743981	743992	46	11
XVI	744005	744029	46	24
XVI	744029	744042	46	13
XVI	744054	744063	46	9
XVI	744075	744077	46	2
XVI	744085	744086	46	1
XVI	744086	744113	46	27
XVI	744113	744181	46	68
XVI	744181	744207	46	26
XVI	744207	744270	46	63
XVI	744346	753239	46	8894
XVI	753256	769249	46	15994
XVI	769262	769319	46	57
XVI	769665	804645	46	35201
XVI	810455	810484	46	29
XVI	810495	810496	46	1
XVI	810496	810535	46	39
XVI	810567	810568	46	1
XVI	810568	819447	46	8931
XVI	819548	827512	46	7965
XVI	827522	830686	46	3164
XVI	830704	832885	46	2184
XVI	832909	835071	46	2162
XVI	835077	837819	46	2753
XVI	837841	837966	46	126
XVI	838026	840621	46	2595
XVI	840647	843123	46	2477
XVI	843135	844407	46	1275
XVI	850341	850613	46	273
XVI	856922	876236	46	19321
XVI	876250	880333	46	4085
XVI	880521	880522	46	1
XVI	880580	897109	46	16540
XVI	897127	921916	46	24807
XVI	921916	922811	46	896
XVI	922811	922863	46	53
XVI	922863	922867	46	4
XVI	922880	927308	46	4429
XVI	927342	927714	46	373
XVI	927714	929415	46	1704
XVI	929415	929480	46	65
XVI	929480	929725	46	245
XVI	929741	930085	46	345
XVI	930105	931990	46	1886
XVI	932206	932271	46	65
XVI	932271	932614	46	343
XVI	932614	932677	46	63
XVI	932705	932706	46	1
XVI	932706	937337	46	4632
XVI	937354	939186	46	1834
XVI	939186	942345	46	3162
XVI	942358	942359	46	1
XVI	946519	946545	46	26
XVI	946545	946565	46	20
XVI	946565	946629	46	64
XVI	946629	946693	46	64
XVI	946693	946888	46	195
XVI	946888	946894	46	6
XVI	946908	946952	46	44
XVI	946952	946979	46	27
XVI	946979	947043	46	64
XVI	947043	947073	46	30
XVI	947073	947133	46	60
XVI	947159	947197	46	38
XVI	947197	947232	46	35
XVI	947232	947258	46	26
XVI	947258	947479	46	221
IV	17699	17747	46	48
IV	17747	17930	46	183
IV	17930	17964	46	34
IV	17964	18496	46	532
IV	18508	20531	46	2046
IV	20552	29106	46	8558
IV	29124	30185	46	1061
IV	30206	32130	46	1924
IV	32144	36802	46	4659
IV	36871	44544	46	7676
IV	44544	46346	46	1803
IV	46466	56979	46	10516
IV	56997	57067	46	70
IV	57080	62126	46	5046
IV	62138	73910	46	11779
IV	73929	79403	46	5475
IV	79439	92676	46	13240
IV	92698	118263	46	25576
IV	118449	124568	46	6119
IV	124720	126531	46	1811
IV	126537	126537	46	1
IV	126537	132116	46	5609
IV	132116	132621	46	505
IV	132635	132636	46	1
IV	132636	132699	46	63
IV	132699	133643	46	944
IV	134480	137785	46	3306
IV	137866	149110	46	11255
IV	149145	155715	46	6570
IV	155723	169760	46	14041
IV	169917	205603	46	35694
IV	205615	211307	46	5695
IV	211316	212447	46	1136
IV	212459	218113	46	5664
IV	218299	220364	46	2065
IV	220518	221722	46	1204
IV	221735	226833	46	5098
IV	226873	227641	46	770
IV	227641	240132	46	12495
IV	240143	273629	46	33501
IV	273651	315169	46	41534
IV	315196	323690	46	8498
IV	323714	329666	46	5956
IV	329786	336200	46	6420
IV	336216	340279	46	4063
IV	340296	340395	46	99
IV	340403	343998	46	3597
IV	344020	346778	46	2760
IV	346778	350980	46	4202
IV	351004	355488	46	4485
IV	355500	355503	46	3
IV	355515	357112	46	1598
IV	357128	357276	46	148
IV	357287	359625	46	2339
IV	359625	369253	46	9639
IV	369283	370962	46	1680
IV	370978	382717	46	11746
IV	382717	382909	46	192
IV	382909	383011	46	102
IV	383023	383027	46	4
IV	383027	383109	46	85
IV	383121	383125	46	4
IV	383148	383153	46	5
IV	383159	383172	46	13
IV	383184	383188	46	4
IV	383188	383249	46	61
IV	383261	383278	46	17
IV	383291	383390	46	99
IV	383402	383414	46	12
IV	383426	383471	46	45
IV	383591	383704	46	113
IV	383718	383744	46	26
IV	383823	383832	46	16
IV	383832	383858	46	43
IV	383924	384149	46	243
IV	384161	384220	46	59
IV	384226	384226	46	1
IV	384232	384235	46	3
IV	384247	384268	46	21
IV	384317	384323	46	6
IV	384335	384343	46	8
IV	384357	384361	46	4
IV	384638	384798	46	160
IV	384805	384806	46	1
IV	384812	384831	46	19
IV	384843	384861	46	18
IV	384873	384894	46	21
IV	384962	384963	46	1
IV	384995	385044	46	49
IV	385058	385086	46	31
IV	385098	385122	46	24
IV	385122	385149	46	27
IV	385149	387304	46	2161
IV	387316	390422	46	3106
IV	390427	390458	46	61
IV	390470	392140	46	1670
IV	392158	394019	46	1861
IV	394032	408165	46	14135
IV	408178	409716	46	1539
IV	409721	409721	46	1
IV	409721	410365	46	653
IV	410438	411779	46	1345
IV	411800	432131	46	20341
IV	432147	434316	46	2175
IV	434329	434425	46	98
IV	434902	435096	46	194
IV	435096	435316	46	231
IV	435316	435922	46	608
IV	435938	436192	46	254
IV	436207	436208	46	1
IV	436222	437160	46	942
IV	437160	437164	46	4
IV	437171	437172	46	1
IV	437187	437188	46	1
IV	437196	437236	46	60
IV	437274	437299	46	33
IV	437701	437746	46	45
IV	437746	437801	46	55
IV	437801	437831	46	30
IV	437861	441305	46	3444
IV	441323	450182	46	8870
IV	450202	471851	46	21685
IV	472862	477793	46	4991
IV	477793	477925	46	132
IV	477925	478019	46	94
IV	478019	480448	46	2429
IV	480448	480511	46	63
IV	480511	480796	46	285
IV	480796	480939	46	143
IV	480939	482422	46	1483
IV	482422	482476	46	54
IV	482476	482519	46	43
IV	482519	488807	46	6289
IV	488807	489435	46	630
IV	489454	489556	46	102
IV	489556	491600	46	2044
IV	491638	492047	46	409
IV	492059	512987	46	20930
IV	519317	519522	46	213
IV	519522	519546	46	24
IV	519583	519634	46	51
IV	520238	520239	46	1
IV	520796	520990	46	242
IV	521003	521042	46	39
IV	521055	522981	46	1954
IV	522997	527249	46	4316
IV	535010	538726	46	3724
IV	538754	538910	46	156
IV	538931	538996	46	65
IV	539041	544674	46	5636
IV	544807	548553	46	3750
IV	548570	568932	46	20385
IV	568983	587832	46	18869
IV	587855	590233	46	2379
IV	590245	592533	46	2292
IV	592569	601115	46	8576
IV	601144	601380	46	236
IV	601386	604246	46	2860
IV	604258	617270	46	13015
IV	617287	621873	46	4590
IV	621890	645053	46	23171
IV	645053	645162	46	113
IV	645162	645166	46	4
IV	645179	645227	46	48
IV	651497	654805	46	3312
IV	654822	668046	46	13224
IV	668059	668084	46	25
IV	668442	668668	46	226
IV	668680	668697	46	17
IV	668703	668703	46	1
IV	668703	668946	46	243
IV	668959	678007	46	9049
IV	678048	681966	46	3936
IV	681974	701130	46	19170
IV	701157	747084	46	45935
IV	747086	747509	46	423
IV	747526	757375	46	9849
IV	757375	757403	46	28
IV	759740	759781	46	41
IV	759781	778759	46	18984
IV	778844	801462	46	22624
IV	801462	801526	46	64
IV	801526	801590	46	64
IV	801590	801674	46	84
IV	801697	801893	46	196
IV	801917	802740	46	823
IV	805980	810476	46	4498
IV	810492	812956	46	2471
IV	812974	835632	46	22665
IV	835644	840416	46	4780
IV	840434	843499	46	3065
IV	843514	851065	46	7556
IV	851083	871812	46	20750
IV	871834	871835	46	1
IV	877952	878302	46	350
IV	884225	884415	46	190
IV	884415	884588	46	173
IV	884598	886986	46	2388
IV	886994	892696	46	5703
IV	892701	892701	46	1
IV	892738	914267	46	21533
IV	914279	927546	46	13276
IV	927558	927587	46	29
IV	927620	930958	46	3341
IV	930980	945719	46	14739
IV	945783	945840	46	57
IV	945840	945954	46	114
IV	946300	946349	46	49
IV	946361	946513	46	152
IV	946525	975947	46	29469
IV	975947	975960	46	13
IV	975972	975989	46	17
IV	976001	976007	46	6
IV	976014	976015	46	1
IV	976021	981171	46	5201
IV	992335	992337	46	2
IV	992529	992534	46	5
IV	992642	1023136	46	30553
IV	1023482	1035644	46	12163
IV	1035666	1038643	46	2978
IV	1038661	1079004	46	40395
IV	1079017	1080938	46	1921
IV	1080975	1087784	46	6810
IV	1087794	1087795	46	1
IV	1088724	1095274	46	6552
IV	1095303	1095760	46	460
IV	1101691	1101987	46	297
IV	1102001	1111974	46	9980
IV	1112004	1150879	46	38894
IV	1150879	1150953	46	75
IV	1150953	1151069	46	116
IV	1151313	1151332	46	19
IV	1151344	1151362	46	18
IV	1151629	1154315	46	2687
IV	1160958	1161016	46	58
IV	1161016	1161041	46	25
IV	1161281	1162488	46	1217
IV	1162507	1162514	46	7
IV	1162539	1175195	46	12691
IV	1175511	1175514	46	5
IV	1175730	1201548	46	25826
IV	1201560	1206699	46	5141
IV	1212622	1224541	46	11923
IV	1224547	1233612	46	9071
IV	1233628	1239035	46	5413
IV	1239047	1241106	46	2059
IV	1241118	1245761	46	4644
IV	1245761	1251238	46	5477
IV	1251273	1252506	46	1234
IV	1252522	1296718	46	44213
IV	1296749	1307618	46	10873
IV	1307968	1307994	46	26
IV	1308536	1334770	46	26240
IV	1334786	1341395	46	6609
IV	1341426	1341635	46	209
IV	1341652	1346531	46	4881
IV	1346549	1352496	46	5947
IV	1352508	1352629	46	121
IV	1352966	1353203	46	237
IV	1353209	1357469	46	4261
IV	1357515	1385465	46	27967
IV	1385484	1396525	46	11053
IV	1396537	1412219	46	15692
IV	1412233	1418463	46	6230
IV	1418481	1431936	46	13467
IV	1431941	1462001	46	30073
IV	1462013	1462014	46	1
IV	1462014	1466428	46	4438
IV	1466441	1474789	46	8349
IV	1474801	1478123	46	3322
IV	1478129	1492667	46	14567
IV	1492683	1498000	46	5321
IV	1498035	1501050	46	3017
IV	1501061	1503957	46	2896
IV	1503981	1503999	46	18
IV	1504176	1504182	46	6
IV	1504218	1504222	46	4
IV	1504240	1504330	46	90
IV	1504542	1518944	46	14413
IV	1518954	1520562	46	1608
VII	11100	23637	46	12546
VII	23642	43260	46	19627
VII	43276	44528	46	1266
VII	44541	69346	46	24812
VII	69374	75468	46	6097
VII	75486	75680	46	194
VII	75696	75708	46	12
VII	75953	78982	46	3030
VII	78994	78996	46	2
VII	79040	80596	46	1556
VII	80618	80619	46	1
VII	80626	110635	46	30026
VII	110635	110696	46	61
VII	110717	110775	46	58
VII	110775	110854	46	79
VII	111505	111532	46	27
VII	111532	111654	46	122
VII	111654	115091	46	3461
VII	115117	115118	46	1
VII	115118	115376	46	258
VII	115376	115537	46	161
VII	115537	121930	46	6394
VII	121930	122065	46	135
VII	122065	122117	46	52
VII	122123	122123	46	1
VII	122123	124369	46	2246
VII	124388	136635	46	12248
VII	136647	140260	46	3613
VII	140273	140303	46	30
VII	140303	140306	46	4
VII	140329	150161	46	9840
VII	150161	150391	46	234
VII	150403	156099	46	5697
VII	156123	156125	46	2
VII	156143	158859	46	2716
VII	158877	158952	46	75
VII	158958	158990	46	61
VII	158996	163130	46	4135
VII	163137	166209	46	3086
VII	166221	167244	46	1024
VII	167258	192187	46	24939
VII	192193	196615	46	4427
VII	196627	204591	46	7967
VII	204611	204927	46	316
VII	204945	205272	46	329
VII	205285	205291	46	6
VII	205334	205510	46	176
VII	205573	224813	46	19264
VII	224823	224891	46	68
VII	224908	228060	46	3152
VII	228148	245635	46	17488
VII	245671	254655	46	8987
VII	255294	272285	46	16999
VII	272301	274711	46	2411
VII	274732	278773	46	4042
VII	278806	280075	46	1269
VII	280137	280158	46	21
VII	280182	287405	46	7226
VII	287405	287734	46	332
VII	287734	307173	46	19502
VII	307202	319415	46	12221
VII	319760	321481	46	1725
VII	321487	324200	46	2741
VII	324234	324538	46	304
VII	324557	326264	46	1708
VII	326276	348114	46	21890
VII	348126	355495	46	7383
VII	355507	358110	46	2603
VII	358131	364404	46	6273
VII	364892	366193	46	1308
VII	366212	378020	46	11811
VII	378038	379156	46	1118
VII	379177	385777	46	6604
VII	385836	386689	46	853
VII	387204	397829	46	10625
VII	397845	400208	46	2364
VII	400575	401581	46	1007
VII	404422	404521	46	100
VII	404733	404857	46	124
VII	404869	404870	46	1
VII	405235	405266	46	31
VII	405266	405310	46	44
VII	405310	405341	46	31
VII	405341	405369	46	28
VII	405369	405398	46	29
VII	405527	412272	46	6748
VII	412286	412463	46	177
VII	412463	423112	46	10658
VII	423125	431415	46	8302
VII	431444	434514	46	3072
VII	434572	440435	46	5874
VII	440451	442178	46	1741
VII	442190	442202	46	12
VII	442214	469248	46	27038
VII	469275	479628	46	10353
VII	479640	492091	46	12454
VII	492100	496734	46	4634
VII	496745	498002	46	1258
VII	498020	508788	46	10772
VII	508800	516236	46	7436
VII	516249	518055	46	1809
VII	518061	518061	46	1
VII	518061	518071	46	10
VII	518451	519031	46	580
VII	519031	519051	46	20
VII	519063	519113	46	50
VII	519229	519273	46	44
VII	519273	519291	46	18
VII	519301	519312	46	11
VII	519368	529938	46	10574
VII	529943	530006	46	67
VII	530012	530012	46	26
VII	530018	531503	46	1489
VII	531519	531627	46	108
VII	531639	531838	46	199
VII	531857	535219	46	3366
VII	535219	535278	46	74
VII	541685	549053	46	7373
VII	549065	555362	46	6298
VII	555375	555975	46	602
VII	556013	561581	46	5572
VII	561581	561637	46	56
VII	561644	561644	46	1
VII	561683	561831	46	148
VII	561844	561845	46	1
VII	567760	568729	46	970
VII	568740	568741	46	1
VII	574700	582005	46	7307
VII	582033	593366	46	11341
VII	593387	611738	46	18372
VII	611756	627185	46	15431
VII	627212	627234	46	22
VII	627248	639667	46	12423
VII	639683	640611	46	929
VII	640641	640791	46	150
VII	640807	644768	46	3961
VII	644786	648524	46	3739
VII	648730	653235	46	4520
VII	653249	661139	46	7895
VII	661156	678064	46	16917
VII	678083	686674	46	8592
VII	686674	695360	46	8688
VII	695372	699970	46	4599
VII	699983	699993	46	10
VII	700013	701156	46	1143
VII	701435	707189	46	5955
VII	712545	712688	46	143
VII	712700	724958	46	12285
VII	724994	731153	46	6168
VII	731153	733115	46	1962
VII	733129	733162	46	33
VII	733167	735817	46	2662
VII	738442	739111	46	670
VII	739111	742152	46	3042
VII	742165	746569	46	4408
VII	746592	753290	46	6698
VII	753308	763822	46	10520
VII	763882	778930	46	15076
VII	778948	778966	46	18
VII	779117	779250	46	281
VII	779356	793886	46	14673
VII	793892	797950	46	4058
VII	798259	798350	46	91
VII	798413	802232	46	3821
VII	802242	807860	46	5625
VII	807885	808383	46	498
VII	808392	811093	46	2701
VII	811093	811440	46	347
VII	823323	845874	46	22564
VII	845891	848553	46	2666
VII	848553	857433	46	8881
VII	857447	858021	46	574
VII	858021	876160	46	18144
VII	876215	877203	46	988
VII	877215	878768	46	1554
VII	878768	878996	46	228
VII	879278	882234	46	2957
VII	882253	882811	46	558
VII	883123	883179	46	56
VII	883200	883201	46	1
VII	883393	910111	46	26735
VII	910131	930940	46	20819
VII	930949	931157	46	209
VII	931169	931170	46	1
VII	931541	931682	46	141
VII	932019	959774	46	27781
VII	959780	982257	46	22493
VII	982267	985716	46	3449
VII	985742	987351	46	1611
VII	987378	987912	46	535
VII	987924	989963	46	2039
VII	990617	1000925	46	10312
VII	1000925	1010983	46	10072
VII	1011008	1011071	46	63
VII	1011086	1022224	46	11143
VII	1022245	1043761	46	21520
VII	1043779	1067960	46	24182
VII	1068995	1069049	46	56
VII	1069065	1069229	46	168
VII	1069235	1069273	46	38
VII	1069299	1069408	46	109
VII	1069418	1069464	46	51
VII	1069490	1069511	46	21
VII	1069532	1069570	46	38
VII	1069584	1069600	46	16
VII	1069626	1069632	46	6
VII	1069653	1069691	46	38
VII	1069697	1069725	46	30
VII	1069731	1069807	46	81
VII	1069838	1069859	46	21
VII	1069896	1069919	46	23
VII	1069925	1070038	46	115
VII	1070044	1070093	46	53
VII	1070107	1070138	46	31
VII	1070152	1070223	46	71
VII	1070229	1071204	46	975
VII	1071204	1071343	46	139
VII	1071353	1071603	46	250
VII	1076587	1076838	46	255
VII	1076838	1076892	46	54
VII	1076892	1076927	46	35
VII	1076927	1076991	46	64
VII	1076991	1077051	46	60
VII	1077178	1077942	46	764
VII	1079647	1079763	46	116
VII	1079763	1079826	46	63
VII	1079826	1080067	46	246
VII	1080067	1080100	46	33
VII	1080100	1080114	46	14
VII	1080128	1080151	46	23
VII	1080151	1080157	46	6
VII	1080164	1080164	46	1
VII	1080164	1080183	46	19
VII	1080197	1080202	46	5
VII	1080202	1080265	46	63
VII	1080758	1080970	46	212
XII	13871	22805	46	8940
XII	22825	35420	46	12944
XII	35426	41214	46	5801
XII	41252	47541	46	6301
XII	47557	47898	46	341
XII	48438	48848	46	410
XII	48871	50115	46	1244
XII	50131	64213	46	14083
XII	64227	64294	46	67
XII	64754	81186	46	16443
XII	81199	84305	46	3106
XII	84315	84323	46	8
XII	84329	86718	46	2391
XII	86731	91511	46	4782
XII	91536	92584	46	1050
XII	92596	94929	46	2333
XII	94940	95818	46	878
XII	96040	103694	46	7812
XII	103699	103751	46	52
XII	103757	109263	46	5584
XII	109280	122002	46	12725
XII	122028	129207	46	7179
XII	129224	130071	46	847
XII	130077	132253	46	2199
XII	132264	132860	46	596
XII	132860	151135	46	18508
XII	151151	157585	46	6434
XII	157603	161647	46	4044
XII	161658	167997	46	6339
XII	167997	168768	46	771
XII	168804	169768	46	964
XII	169787	170682	46	900
XII	170689	172035	46	1353
XII	172035	195203	46	23181
XII	195218	196585	46	1367
XII	196601	196754	46	156
XII	196768	202317	46	5549
XII	202329	215073	46	12755
XII	221004	221348	46	344
XII	221360	222859	46	1499
XII	222870	237842	46	14977
XII	237866	245250	46	7385
XII	245266	248693	46	3427
XII	248706	251189	46	2483
XII	251202	264064	46	12864
XII	264100	279897	46	15799
XII	279909	280990	46	1081
XII	281003	281804	46	801
XII	281816	282683	46	870
XII	282701	292022	46	9330
XII	292035	329723	46	37691
XII	329729	329729	46	8
XII	329730	348729	46	19015
XII	348741	350804	46	2064
XII	350837	366139	46	15304
XII	366139	369560	46	3421
XII	369576	370490	46	914
XII	370502	373991	46	3497
XII	374342	374343	46	1
XII	374343	374409	46	66
XII	374409	421490	46	47118
XII	421506	424612	46	3110
XII	424642	448893	46	24262
XII	448893	448930	46	37
XII	448930	448956	46	26
XII	449532	451480	46	1953
XII	451765	451791	46	26
XII	451791	451797	46	6
XII	451814	451815	46	1
XII	463817	463875	46	58
XII	463986	464010	46	24
XII	464030	464031	46	1
XII	464509	464530	46	21
XII	465270	465280	46	10
XII	466864	466897	46	33
XII	466913	466923	46	10
XII	466933	466938	46	5
XII	467028	467068	46	40
XII	467260	467302	46	42
XII	468487	468544	46	57
XII	468555	468556	46	1
XII	468726	468754	46	28
XII	489375	489419	46	44
XII	489419	489464	46	45
XII	489479	489480	46	1
XII	490479	510419	46	19951
XII	510433	510434	46	1
XII	510434	511512	46	1078
XII	511535	513089	46	1554
XII	513154	555552	46	42444
XII	555565	556188	46	623
XII	556207	556464	46	257
XII	556472	563470	46	6998
XII	563490	563508	46	18
XII	563522	566356	46	2837
XII	566372	585915	46	19549
XII	585929	592561	46	6635
XII	592573	592772	46	199
XII	592772	592932	46	161
XII	593193	593206	46	13
XII	593468	593472	46	4
XII	593488	593489	46	1
XII	599055	599352	46	302
XII	599365	605390	46	6053
XII	605390	605676	46	286
XII	605692	628541	46	22901
XII	628565	647282	46	18728
XII	647301	650823	46	3522
XII	656748	657138	46	392
XII	657138	666007	46	8870
XII	666046	667986	46	1940
XII	667992	670215	46	2253
XII	670247	687586	46	17350
XII	687606	687607	46	1
XII	687638	687846	46	208
XII	687858	687978	46	120
XII	687978	688030	46	52
XII	688090	688123	46	33
XII	688190	688195	46	5
XII	688205	688205	46	1
XII	688269	688313	46	62
XII	688375	696956	46	8582
XII	696969	699932	46	2963
XII	699954	701192	46	1238
XII	701200	701367	46	167
XII	701397	704132	46	2735
XII	704147	706151	46	2004
XII	706181	708686	46	2505
XII	708713	712551	46	3858
XII	712563	723174	46	10615
XII	723189	731574	46	8387
XII	731586	731656	46	70
XII	732006	732110	46	135
XII	732148	734886	46	2739
XII	734915	766497	46	31596
XII	766518	783433	46	16924
XII	783433	784203	46	770
XII	784207	784207	46	1
XII	784207	784415	46	209
XII	784415	789140	46	4728
XII	789174	791098	46	1924
XII	791110	793756	46	2646
XII	793756	797046	46	3290
XII	797046	823439	46	26463
XII	823492	828339	46	4848
XII	828349	829392	46	1043
XII	829416	833739	46	4324
XII	833751	856765	46	23020
XII	856786	863448	46	6664
XII	863454	863690	46	236
XII	863705	875358	46	11657
XII	875368	875416	46	48
XII	875428	932243	46	56822
XII	932273	941191	46	8921
XII	947155	962988	46	15836
XII	963000	963139	46	139
XII	963139	963481	46	342
XII	963481	975991	46	12513
XII	976003	976067	46	64
XII	976067	976249	46	195
XII	976260	976261	46	1
XII	981697	1000197	46	18509
XII	1000219	1002208	46	1991
XII	1002224	1003472	46	1248
XII	1003472	1003706	46	234
XII	1003860	1019122	46	15279
XII	1019135	1024975	46	5840
XII	1025003	1026681	46	1679
XII	1026694	1031396	46	4706
XII	1031402	1052231	46	20842
XII	1052355	1053289	46	934
XII	1053303	1053317	46	14
XII	1053333	1059118	46	5785
XII	1059130	1059689	46	562
V	6791	14476	46	7687
V	14476	14729	46	254
V	14748	19381	46	4636
V	23259	23322	46	63
V	23322	31456	46	8135
V	31468	33332	46	1864
V	33344	42836	46	9494
V	42850	59423	46	16573
V	59436	61673	46	2239
V	61695	61695	46	1
V	61702	61806	46	104
V	61806	61944	46	138
V	61951	61951	46	1
V	61987	62000	46	13
V	62012	62055	46	43
V	62061	62132	46	71
V	62197	62198	46	1
V	62484	63812	46	1328
V	63825	63826	46	1
V	64036	65288	46	1252
V	65305	79225	46	13929
V	79238	81206	46	1968
V	81216	84886	46	3670
V	84903	86386	46	1486
V	86402	86463	46	61
V	86470	86485	46	15
V	86509	86567	46	58
V	86575	86656	46	81
V	86662	86662	46	1
V	86662	98217	46	11560
V	98247	99786	46	1542
V	99786	117076	46	17299
V	117088	118387	46	1300
V	118387	118572	46	186
V	118591	122722	46	4133
V	122739	131169	46	8436
V	131169	131236	46	67
V	131236	132543	46	1307
V	132580	133001	46	421
V	133017	135419	46	2405
V	135429	135469	46	40
V	135645	135646	46	1
V	135646	135665	46	27
V	135693	135703	46	10
V	135817	135855	46	38
V	135902	135905	46	3
V	135944	135967	46	23
V	135967	136008	46	41
V	136020	138216	46	2197
V	138216	138302	46	87
V	138314	138350	46	36
V	138350	138411	46	61
V	138411	138486	46	75
V	138549	142946	46	4398
V	142968	159021	46	16067
V	159035	174770	46	15739
V	174783	174788	46	5
V	174800	175632	46	833
V	175680	175688	46	8
V	175701	175802	46	101
V	175846	176979	46	1133
V	176979	177006	46	29
V	177006	177018	46	12
V	177032	177045	46	13
V	177059	177079	46	20
V	177089	177089	46	1
V	177181	187914	46	10743
V	187938	198586	46	10649
V	198604	207155	46	8552
V	207155	207348	46	193
V	207372	213849	46	6477
V	213876	225782	46	11924
V	225782	225805	46	29
V	225805	241861	46	16060
V	241887	243655	46	1769
V	243683	243780	46	102
V	243792	249923	46	6161
V	250269	256297	46	6034
V	256317	261458	46	5155
V	261478	267219	46	5745
V	267219	275904	46	8690
V	275920	277807	46	1887
V	277915	284379	46	6464
V	284399	288434	46	4036
V	288448	288936	46	488
V	288957	289835	46	878
V	290351	299924	46	9577
V	299938	305706	46	5774
V	305814	306785	46	972
V	306785	306844	46	59
V	307081	307144	46	63
V	307144	308996	46	1852
V	309004	311718	46	2714
V	311735	311971	46	236
V	311971	312080	46	109
V	312186	328451	46	16272
V	328471	351601	46	23131
V	351622	353387	46	1765
V	353387	353756	46	369
V	353768	353770	46	2
V	353770	354360	46	590
V	354736	363243	46	8514
V	363640	382292	46	18659
V	382311	384846	46	2535
V	384856	397485	46	12634
V	397496	420738	46	23248
V	420792	431405	46	10617
V	431405	431463	46	58
V	431463	431496	46	33
V	431516	431531	46	15
V	431861	434527	46	2669
V	434550	434551	46	1
V	436370	436444	46	74
V	436469	437163	46	694
V	437173	438498	46	1325
V	438498	438504	46	6
V	438516	438527	46	11
V	438569	438580	46	11
V	438585	438585	46	1
V	438595	438623	46	28
V	438722	438739	46	17
V	438752	438767	46	15
V	438774	438775	46	1
V	438775	441145	46	2372
V	441158	442755	46	1597
V	442783	442813	46	30
V	443015	443079	46	64
V	443079	443111	46	32
V	443111	443122	46	11
V	443135	443163	46	28
V	449635	449645	46	10
V	449657	449663	46	6
V	449663	449720	46	57
V	449720	449778	46	58
V	449894	455596	46	5707
V	455609	455614	46	5
V	455627	462945	46	7337
V	462969	469328	46	6365
V	469328	469392	46	64
V	469392	469450	46	58
V	469459	469563	46	104
V	469579	469601	46	22
V	469618	487508	46	17898
V	487538	487603	46	65
V	487630	487822	46	192
V	487847	487848	46	1
V	488165	490231	46	2067
V	490255	492361	46	2106
V	492361	492433	46	72
V	498510	498710	46	200
V	498710	498750	46	40
V	498750	503937	46	5189
V	503950	517527	46	13578
V	517548	520526	46	2978
V	520565	520781	46	216
V	520794	545180	46	24390
V	545201	551296	46	6099
V	551296	551341	46	45
V	551354	554200	46	2846
V	554200	555273	46	1073
V	555273	555344	46	71
V	555344	563294	46	7951
V	563294	563358	46	64
V	563358	563448	46	90
V	563448	569454	46	6014
V	571670	571735	46	65
V	571753	571765	46	12
V	571796	571797	46	1
VIII	6357	6401	46	44
VIII	6401	6424	46	23
VIII	6424	6459	46	35
VIII	6459	6530	46	71
VIII	6530	6586	46	56
VIII	6586	7274	46	688
VIII	7274	7937	46	663
VIII	7948	8402	46	455
VIII	8402	8460	46	58
VIII	8460	10613	46	2154
VIII	10626	11785	46	1160
VIII	12489	12511	46	23
VIII	12552	15908	46	3371
VIII	15908	16171	46	263
VIII	16171	17529	46	1359
VIII	17540	35294	46	17759
VIII	35860	36129	46	269
VIII	36141	36220	46	81
VIII	36234	39523	46	3291
VIII	39539	49372	46	9841
VIII	49378	58391	46	9114
VIII	58396	62823	46	4427
VIII	62839	66572	46	3733
VIII	66586	71900	46	5314
VIII	71915	75997	46	4090
VIII	76008	81851	46	5848
VIII	81872	85433	46	3562
VIII	85452	85518	46	66
VIII	85539	85540	46	1
VIII	92127	93339	46	1214
VIII	93363	100458	46	7336
VIII	100470	104895	46	4425
VIII	105031	111524	46	6494
VIII	111546	116099	46	4553
VIII	116112	116356	46	244
VIII	116356	116406	46	51
VIII	116419	116420	46	1
VIII	116749	119660	46	2935
VIII	119679	125831	46	6162
VIII	125847	133041	46	7199
VIII	133053	133591	46	538
VIII	133591	133654	46	63
VIII	133660	133823	46	163
VIII	134217	134334	46	117
VIII	134334	146319	46	11988
VIII	146349	146350	46	1
VIII	146671	146779	46	108
VIII	146779	167622	46	20854
VIII	167627	169166	46	1540
VIII	169178	169199	46	26
VIII	169202	173134	46	3933
VIII	173146	175435	46	2290
VIII	175441	175441	46	3
VIII	175441	175441	46	20
VIII	175446	184013	46	8568
VIII	184034	187023	46	2989
VIII	187042	188948	46	1910
VIII	188960	189091	46	131
VIII	189102	192891	46	3789
VIII	192891	192913	46	22
VIII	192913	192988	46	75
VIII	192988	193119	46	131
VIII	193119	193182	46	63
VIII	193182	193292	46	110
VIII	193292	193355	46	63
VIII	193355	193553	46	198
VIII	194816	195363	46	547
VIII	195380	202649	46	7269
VIII	202649	212265	46	9617
VIII	214262	214721	46	459
VIII	214737	215193	46	457
VIII	215193	223012	46	7821
VIII	223017	223054	46	37
VIII	223054	229019	46	5966
VIII	229019	229083	46	64
VIII	229083	229165	46	83
VIII	229165	229219	46	55
VIII	229219	229544	46	325
VIII	230080	236960	46	6884
VIII	236990	237881	46	891
VIII	237894	237997	46	112
VIII	237997	238191	46	227
VIII	238203	252944	46	14749
VIII	252962	282539	46	29584
VIII	282550	287553	46	5005
VIII	287566	288029	46	463
VIII	288442	289307	46	865
VIII	289318	292975	46	3659
VIII	293077	293266	46	189
VIII	293288	314721	46	21439
VIII	314730	358512	46	43798
VIII	358524	359183	46	659
VIII	359183	359241	46	58
VIII	359241	373085	46	13856
VIII	373094	378114	46	5022
VIII	378150	382137	46	3990
VIII	382235	388949	46	6714
VIII	388955	388955	46	1
VIII	388955	389187	46	232
VIII	389513	389936	46	423
VIII	389936	389994	46	58
VIII	389994	391835	46	1843
VIII	391956	392117	46	161
VIII	392134	396946	46	4812
VIII	396946	413602	46	16657
VIII	413614	420529	46	6926
VIII	420529	420551	46	22
VIII	420582	451325	46	30759
VIII	451325	453857	46	2534
VIII	453872	465796	46	11949
VIII	465830	466827	46	1000
VIII	466827	466890	46	63
VIII	466912	466960	46	48
VIII	466973	466985	46	15
VIII	466985	475543	46	8558
VIII	475557	475710	46	153
VIII	475722	475948	46	226
VIII	475948	498765	46	22821
VIII	498782	504479	46	5698
VIII	505210	505364	46	154
VIII	505387	508794	46	3407
VIII	508819	514833	46	6015
VIII	514833	514848	46	15
VIII	514848	518730	46	3885
VIII	518744	522455	46	3715
VIII	539670	539685	46	15
VIII	542557	542574	46	17
VIII	550243	550337	46	94
VIII	550369	550385	46	16
VIII	550409	550418	46	9
VIII	550423	550423	46	3
VIII	551727	551780	46	58
VIII	551780	552027	46	248
VIII	552057	552167	46	110
VIII	552167	552348	46	181
VIII	552348	552576	46	228
VIII	552583	552583	46	1
VIII	552583	552859	46	276
VIII	552859	552881	46	22
VIII	552881	553550	46	669
VIII	553635	553696	46	61
VIII	553696	553970	46	274
VIII	553970	554019	46	51
VIII	562010	562047	46	37
III	1430	1479	46	49
III	1504	4028	46	2526
III	4041	4415	46	378
III	4427	4729	46	303
III	4746	5202	46	459
III	5724	5788	46	64
III	5788	6211	46	424
III	6240	6348	46	108
III	6348	6396	46	48
III	6396	6439	46	43
III	6445	6445	46	1
III	6445	8280	46	1839
III	8280	8302	46	22
III	8302	8347	46	45
III	8359	8359	46	1
III	11110	11111	46	1
III	11122	11139	46	17
III	11218	11508	46	292
III	12943	13747	46	804
III	13864	13865	46	1
III	13954	13990	46	36
III	13990	14017	46	27
III	14017	14053	46	36
III	14053	14298	46	249
III	14311	22378	46	8075
III	22390	27652	46	5265
III	27670	29312	46	1654
III	29318	29452	46	134
III	29477	30776	46	1301
III	30788	37472	46	6684
III	37484	40879	46	3399
III	40885	41567	46	688
III	41571	41999	46	434
III	42017	50325	46	8343
III	50331	51781	46	1451
III	51794	52394	46	600
III	52407	52430	46	23
III	52446	57061	46	4615
III	57240	57325	46	85
III	57325	62740	46	5416
III	62747	70640	46	7893
III	70653	76040	46	5389
III	76040	78793	46	2756
III	78805	82268	46	3466
III	82278	82518	46	240
III	82518	82631	46	116
III	82698	82699	46	1
III	82738	82799	46	61
III	82832	82872	46	47
III	82896	82952	46	56
III	83245	84070	46	827
III	84094	84125	46	33
III	84155	84227	46	72
III	84233	84233	46	1
III	84498	84499	46	1
III	84617	84673	46	57
III	84702	84815	46	113
III	90779	90830	46	51
III	90919	92739	46	1820
III	92763	104466	46	11708
III	104477	112960	46	8490
III	112979	124107	46	11134
III	124450	127777	46	3338
III	127805	136658	46	8861
III	136671	141085	46	4414
III	141156	142574	46	1418
III	142716	142762	46	46
III	142762	142784	46	22
III	142784	142793	46	84
III	142793	142840	46	73
III	142840	142862	46	22
III	143061	143086	46	25
III	143086	143206	46	122
III	143218	143226	46	8
III	143233	143233	46	1
III	143240	149465	46	6226
III	149647	149688	46	41
III	149928	151185	46	1258
III	151185	151243	46	58
III	151272	151324	46	52
III	151336	151338	46	2
III	151422	151436	46	19
III	151833	151870	46	37
III	151870	168427	46	16568
III	169544	177679	46	8142
III	177691	190269	46	12583
III	190285	198670	46	8402
III	201177	204412	46	3235
III	204430	208080	46	3652
III	208097	209782	46	1686
III	209793	211617	46	1843
III	211617	212089	46	474
III	212119	224785	46	12674
III	224791	225631	46	841
III	225643	228007	46	2365
III	228020	233790	46	5775
III	233796	247888	46	14135
III	247888	247981	46	93
III	247997	247998	46	1
III	248009	252431	46	4422
III	252439	260007	46	7568
III	260041	264216	46	4177
III	264240	268657	46	4419
III	269170	269989	46	819
III	270020	271483	46	1463
III	271489	273020	46	1531
III	273035	291222	46	18194
III	291233	293031	46	1810
III	293736	294378	46	642
III	294378	294441	46	63
III	294507	295092	46	585
III	295092	295156	46	65
III	295156	295257	46	103
III	295269	295270	46	1
III	295270	295320	46	50
III	295363	296513	46	1152
III	296513	299927	46	3420
III	299954	303170	46	3218
III	303170	303831	46	661
III	303831	303916	46	85
XV	11888	11942	46	54
XV	12005	12248	46	243
XV	12262	17444	46	5212
XV	17739	18349	46	613
XV	19095	19097	46	2
XV	19110	21713	46	2608
XV	21726	22277	46	555
XV	22414	22442	46	28
XV	22442	22495	46	54
XV	27106	27232	46	129
XV	27232	27273	46	43
XV	27273	27347	46	75
XV	27435	27496	46	61
XV	27496	27911	46	421
XV	27923	27939	46	16
XV	27962	28043	46	81
XV	28055	28083	46	28
XV	28095	28120	46	25
XV	28132	28190	46	62
XV	28202	28407	46	207
XV	28419	28431	46	14
XV	28443	28454	46	11
XV	28461	28462	46	1
XV	28473	28517	46	44
XV	28529	28542	46	13
XV	28554	29186	46	632
XV	29366	29588	46	222
XV	30766	30779	46	13
XV	30779	30784	46	5
XV	30796	30828	46	32
XV	30828	30883	46	55
XV	31269	37832	46	6571
XV	37844	43006	46	5162
XV	43062	45686	46	2624
XV	45716	48851	46	3135
XV	48868	53996	46	5128
XV	53996	54054	46	58
XV	54054	55096	46	1042
XV	55125	60211	46	5087
XV	60228	60229	46	1
XV	60235	63052	46	2817
XV	63065	81634	46	18573
XV	81647	83316	46	1669
XV	83331	85372	46	2043
XV	85387	89528	46	4141
XV	89540	92006	46	2468
XV	92006	92059	46	53
XV	93254	93424	46	170
XV	93436	94573	46	1138
XV	94573	94809	46	237
XV	94827	110818	46	16024
XV	110818	110818	46	1
XV	110818	110836	46	18
XV	110839	110839	46	1
XV	110839	111024	46	185
XV	111045	113443	46	2398
XV	113491	115117	46	1633
XV	115123	117711	46	2588
XV	123642	145212	46	21574
XV	145212	145561	46	349
XV	145573	147203	46	1630
XV	147216	160212	46	12998
XV	160333	160333	46	1
XV	160490	162949	46	2459
XV	162949	164077	46	1128
XV	164089	170040	46	5951
XV	170046	171876	46	1851
XV	171888	196342	46	24464
XV	196345	200346	46	4008
XV	200363	204570	46	4207
XV	204584	218450	46	13901
XV	218460	226780	46	8324
XV	226780	226799	46	60
XV	227194	227294	46	152
XV	227321	228229	46	908
XV	228252	235371	46	7125
XV	235377	236280	46	926
XV	236292	236306	46	14
XV	236323	236982	46	664
XV	236988	238194	46	1206
XV	238215	238348	46	133
XV	238362	241556	46	3200
XV	241556	269403	46	27852
XV	269416	269750	46	355
XV	269751	274728	46	4988
XV	274741	277869	46	3128
XV	277887	298992	46	21107
XV	299022	301305	46	2289
XV	301309	307235	46	5927
XV	307259	315624	46	8366
XV	315640	316399	46	759
XV	316424	316471	46	47
XV	316482	323101	46	6619
XV	323117	326190	46	3073
XV	326207	326494	46	287
XV	326532	344905	46	18381
XV	344953	344996	46	43
XV	345047	346402	46	1355
XV	346441	354047	46	7609
XV	354059	355080	46	1021
XV	355097	361791	46	6696
XV	361797	426613	46	64968
XV	426627	427934	46	1307
XV	427975	430153	46	2179
XV	430177	438535	46	8359
XV	438535	438671	46	136
XV	438685	448411	46	9727
XV	448425	448670	46	245
XV	448687	448687	46	1
XV	448773	449020	46	247
XV	449032	464295	46	15266
XV	464307	487289	46	23001
XV	487289	487346	46	57
XV	487346	487373	46	27
XV	487373	487423	46	50
XV	487498	489773	46	2275
XV	489783	497108	46	7325
XV	497393	507469	46	10080
XV	507481	522804	46	15328
XV	522841	535161	46	12323
XV	535170	537052	46	1882
XV	537100	571876	46	34784
XV	571981	572038	46	57
XV	572038	575097	46	3062
XV	575097	581664	46	6569
XV	581682	594506	46	12831
XV	594523	594572	46	49
XV	600775	600805	46	30
XV	600805	609376	46	8573
XV	609397	618920	46	9525
XV	618932	619324	46	392
XV	619327	630486	46	11179
XV	630492	663938	46	33454
XV	663955	664050	46	95
XV	664050	664808	46	758
XV	665146	667558	46	2413
XV	667568	668861	46	1293
XV	668867	670732	46	1886
XV	670776	675320	46	4547
XV	675335	681093	46	5759
XV	681105	699201	46	18098
XV	699213	703512	46	4300
XV	710108	710209	46	101
XV	710221	720196	46	9979
XV	720212	746555	46	26358
XV	746568	768676	46	22110
XV	768694	769883	46	1189
XV	769896	813959	46	44075
XV	813975	815961	46	1986
XV	815979	822277	46	6298
XV	822291	822294	46	3
XV	822294	822918	46	624
XV	822924	822961	46	51
XV	822968	854215	46	31339
XV	854215	854262	46	47
XV	854262	854263	46	1
XV	854621	854981	46	360
XV	855006	859558	46	4552
XV	859568	880735	46	21170
XV	880735	882617	46	1882
XV	882642	888842	46	6200
XV	888863	896863	46	8015
XV	896875	896917	46	42
XV	896929	909082	46	12160
XV	909094	909753	46	659
XV	909765	923118	46	13365
XV	923130	944466	46	21345
XV	944501	954135	46	9635
XV	954158	970057	46	15922
XV	970069	970164	46	95
XV	970164	970285	46	121
XV	976245	979641	46	3403
XV	979647	980171	46	524
XV	980181	980260	46	79
XV	980596	981533	46	938
XV	981550	986673	46	5124
XV	986703	994949	46	8253
XV	994957	998339	46	3383
XV	998355	1013017	46	14672
XV	1013035	1019581	46	6567
XV	1019595	1031375	46	11787
XV	1031407	1037523	46	6118
XV	1037538	1045533	46	7995
XV	1045609	1053898	46	8298
XV	1053915	1060791	46	6887
XV	1060805	1069708	46	8914
XV	1070279	1070342	46	63
XV	1070392	1070581	46	189
XV	1070581	1070610	46	29
XV	1070610	1070901	46	292
XV	1084273	1084337	46	64
I	2109	2220	46	114
I	2237	2431	46	197
I	2638	2645	46	7
I	2656	6732	46	4086
I	6743	11563	46	4825
I	27067	27483	46	416
I	27483	30093	46	2618
I	30100	30401	46	301
I	30409	30745	46	338
I	30745	31114	46	371
I	31131	31131	46	1
I	31142	31499	46	357
I	31513	35107	46	3599
I	35122	42044	46	6922
I	42044	42155	46	111
I	42155	42833	46	678
I	42845	65564	46	22727
I	65577	68123	46	2547
I	68135	69828	46	1693
I	69845	70899	46	1058
I	70919	71110	46	192
I	71126	71524	46	398
I	71540	74993	46	3453
I	75008	77488	46	2480
I	77508	77563	46	55
I	77575	84696	46	7123
I	84707	92596	46	7889
I	92610	100002	46	7393
I	100015	101275	46	1260
I	101296	110705	46	9409
I	110722	113044	46	2322
I	113062	126869	46	13807
I	126893	128188	46	1296
I	128200	138775	46	10575
I	138775	138856	46	81
I	138856	138892	46	36
I	138917	138918	46	1
I	139132	139398	46	270
I	139414	139764	46	350
I	139986	152099	46	12117
I	152113	152117	46	4
I	152129	154822	46	2696
I	154835	160135	46	5300
I	160135	160191	46	57
I	160191	160238	46	47
I	166168	166173	46	5
I	166179	166179	46	1
I	166179	166192	46	13
I	166198	166277	46	79
I	166277	176431	46	10160
I	176431	176778	46	347
I	176791	176825	46	34
I	176838	176858	46	20
I	176858	179220	46	2364
I	179232	180356	46	1127
I	180356	180839	46	484
I	180852	180945	46	93
I	180945	181056	46	111
I	186887	187616	46	740
I	187616	187925	46	318
I	187941	188779	46	838
I	189702	190129	46	427
I	190141	192273	46	2133
I	192288	192545	46	257
I	192557	196455	46	3908
I	196466	198707	46	2244
I	198707	199068	46	365
I	199074	199085	46	14
I	199109	199498	46	438
I	199648	199698	46	51
I	199737	199844	46	139
I	199877	199887	46	10
I	199911	200200	46	315
I	200263	200276	46	13
I	200325	200868	46	559
I	200897	201019	46	309
I	201043	201163	46	125
I	201190	201725	46	557
I	201741	201751	46	10
I	201767	202534	46	781
I	202550	202890	46	343
I	202906	203508	46	602
I	203815	204317	46	505
I	204317	204461	46	144
I	204461	204545	46	84
I	204624	204666	46	42
I	204685	204686	46	1
I	207505	207698	46	193
I	207709	207709	46	1
I	207709	208082	46	374
I	208100	208117	46	17
I	219316	220009	46	694
I	220020	221029	46	1009
I	221042	221908	46	866
I	223232	223292	46	63
I	223292	223471	46	183
I	223488	223502	46	14
I	223518	223610	46	94
XI	2609	2668	46	59
XI	15475	15858	46	383
XI	16096	22041	46	5949
XI	22065	26533	46	4469
XI	26701	30118	46	3417
XI	30131	36598	46	6469
XI	36619	46691	46	10077
XI	46691	63992	46	17302
XI	64114	64339	46	225
XI	64345	64345	46	8
XI	64345	64345	46	1
XI	64345	64724	46	379
XI	64736	67886	46	3158
XI	67910	68337	46	432
XI	68358	68745	46	390
XI	68758	78771	46	10019
XI	78784	78793	46	9
XI	78804	80900	46	2101
XI	80913	84091	46	3180
XI	84091	84227	46	136
XI	84239	84397	46	158
XI	84397	114769	46	30385
XI	114780	136097	46	21323
XI	136117	142334	46	6220
XI	142375	142375	46	1
XI	142507	142718	46	211
XI	142718	144495	46	1778
XI	144501	144501	46	1
XI	144501	144717	46	324
XI	144734	144745	46	11
XI	144761	144775	46	14
XI	144780	144780	46	1
XI	144837	145626	46	789
XI	145639	162492	46	16856
XI	162504	164839	46	2336
XI	164866	169003	46	4138
XI	169015	171169	46	2154
XI	171181	179242	46	8066
XI	179250	182663	46	3413
XI	182674	196204	46	13546
XI	196217	196842	46	625
XI	196860	202177	46	5324
XI	202201	202639	46	438
XI	202989	203051	46	62
XI	203064	219858	46	16804
XI	219872	226086	46	6216
XI	226107	234115	46	8011
XI	234115	235321	46	1208
XI	235334	247947	46	12619
XI	247961	276854	46	28904
XI	276866	280171	46	3311
XI	280183	280382	46	199
XI	280389	280934	46	546
XI	280950	286442	46	5493
XI	286457	302518	46	16080
XI	302518	302563	46	45
XI	302643	302672	46	29
XI	302672	302754	46	82
XI	302754	302756	46	2
XI	302774	302814	46	42
XI	303028	304876	46	1850
XI	304936	308780	46	3849
XI	308797	313596	46	4918
XI	313918	314181	46	264
XI	314530	321759	46	7240
XI	321791	335063	46	13280
XI	335063	335103	46	40
XI	335121	335174	46	54
XI	335186	335187	46	1
XI	335187	335298	46	112
XI	335298	337461	46	2178
XI	337473	337561	46	91
XI	337577	364323	46	26782
XI	364341	380933	46	16596
XI	380945	382536	46	1596
XI	382540	382540	46	1
XI	382664	384840	46	2176
XI	384847	385098	46	251
XI	385125	387142	46	2019
XI	387154	400923	46	13769
XI	400935	428776	46	27842
XI	428789	432462	46	3676
XI	432462	432525	46	63
XI	432659	448071	46	15421
XI	448085	451562	46	3480
XI	451580	458128	46	6550
XI	458148	458149	46	1
XI	458471	458544	46	73
XI	458608	463255	46	4647
XI	463286	465166	46	1905
XI	465198	465255	46	57
XI	465267	489980	46	24723
XI	490009	513381	46	23396
XI	513394	514537	46	1146
XI	514586	517441	46	2855
XI	517454	517455	46	1
XI	517784	518048	46	264
XI	518127	524046	46	5931
XI	524057	525295	46	1238
XI	525307	537605	46	12301
XI	537605	537719	46	114
XI	537719	537898	46	179
XI	537898	555046	46	17149
XI	555046	576486	46	21449
XI	576506	578794	46	2288
XI	578806	579005	46	199
XI	579017	580891	46	1874
XI	580907	613277	46	32379
XI	613349	613367	46	18
XI	613397	613671	46	274
XI	613683	613685	46	2
XI	613715	614486	46	788
XI	614502	617565	46	3063
XI	617579	618059	46	481
XI	618234	631093	46	12867
XI	631105	635466	46	4365
XI	635487	643865	46	8382
XI	643888	647245	46	3358
XI	647657	647683	46	26
XI	647692	647692	46	1
XI	647706	647713	46	7
XI	647719	647765	46	46
XI	648066	649936	46	1870
XI	649952	658689	46	8747
IX	24646	24709	46	63
IX	24709	25164	46	455
IX	25164	25228	46	64
IX	25228	25350	46	122
IX	25771	30246	46	4493
IX	33186	37822	46	4638
IX	38436	38739	46	303
IX	39111	39152	46	41
IX	39152	39174	46	22
IX	39174	39277	46	104
IX	39277	39368	46	91
IX	39380	41585	46	2205
IX	41585	41655	46	70
IX	41655	51546	46	9901
IX	51558	69290	46	17737
IX	69462	76019	46	6557
IX	76031	102530	46	26506
IX	102547	105319	46	2772
IX	105352	105761	46	412
IX	105770	105807	46	37
IX	105814	128501	46	22688
IX	128519	128688	46	169
IX	128748	137674	46	8950
IX	137692	137901	46	209
IX	137913	138423	46	514
IX	138442	138956	46	515
IX	139251	139294	46	43
IX	139304	144111	46	4821
IX	144135	147056	46	2972
IX	147056	157162	46	10277
IX	157181	163238	46	6061
IX	163260	169469	46	6211
IX	169487	175024	46	5539
IX	175037	175140	46	104
IX	175181	177459	46	2278
IX	177479	187779	46	10303
IX	187792	187815	46	23
IX	187838	196712	46	8874
IX	197007	197023	46	16
IX	197023	197431	46	408
IX	197431	197488	46	57
IX	197488	197521	46	33
IX	197521	197551	46	31
IX	197602	204989	46	7389
IX	204989	205222	46	233
IX	210655	231667	46	21014
IX	231782	231840	46	58
IX	231840	239713	46	7874
IX	239728	241028	46	1300
IX	241043	245124	46	4081
IX	245136	245901	46	765
IX	245901	245971	46	72
IX	245982	245982	46	1
IX	245982	246280	46	298
IX	246543	248927	46	2387
IX	248942	293859	46	44940
IX	293859	293859	46	1
IX	293859	300282	46	6425
IX	300406	300570	46	164
IX	300577	300601	46	24
IX	301452	310456	46	9006
IX	310468	310476	46	8
IX	310490	310493	46	3
IX	310506	317437	46	6933
IX	317853	324316	46	6463
IX	324329	324568	46	239
IX	324918	324924	46	6
IX	324924	324981	46	57
IX	324993	325043	46	50
IX	325043	325102	46	59
IX	325167	325388	46	221
IX	325388	325767	46	379
IX	325780	325799	46	19
IX	325812	334217	46	8407
IX	334232	334284	46	52
IX	334297	334325	46	28
IX	334329	334377	46	57
IX	334380	336420	46	2050
IX	336420	336531	46	112
IX	336531	336531	46	1
IX	336541	339219	46	2682
IX	339244	339256	46	12
IX	339270	350036	46	10770
IX	350053	355605	46	5565
IX	355613	355698	46	85
IX	355698	357074	46	1377
IX	357084	363065	46	5983
IX	363081	366525	46	3444
IX	366573	368424	46	1851
IX	368457	369837	46	1380
IX	369849	370467	46	630
IX	370480	375785	46	5306
IX	375809	385512	46	9718
IX	385548	385634	46	86
IX	385661	385915	46	254
IX	385940	387119	46	1188
IX	387133	387141	46	8
IX	387163	387164	46	1
IX	387169	387287	46	118
IX	387293	389977	46	2687
IX	390004	390744	46	740
IX	390807	390847	46	40
IX	390910	390967	46	57
IX	390992	390993	46	1
IX	393062	393258	46	196
IX	393258	393330	46	76
IX	393330	400018	46	6746
IX	400018	419491	46	19475
IX	419495	419495	46	1
IX	419495	419536	46	46
IX	419536	425203	46	5680
IX	425203	425233	46	30
IX	425246	425302	46	56
IX	425302	427302	46	2002
IX	427314	428564	46	1252
IX	428597	429158	46	561
IX	429188	432771	46	3590
IX	434532	434731	46	213
IX	434747	434830	46	88
IX	434987	435075	46	88
IX	435125	435142	46	20
IX	435239	436119	46	881
IX	436134	436151	46	17
IX	436167	436366	46	207
IX	436389	436847	46	466
IX	436874	436974	46	101
IX	436988	436989	46	1
II	8329	8925	46	596
II	9462	9480	46	18
II	9489	9490	46	1
II	9490	9524	46	35
II	9614	29638	46	20036
II	35602	35688	46	89
II	35749	35758	46	10
II	35758	35777	46	19
II	35810	35815	46	5
II	35815	35839	46	24
II	35892	35893	46	1
II	36221	36285	46	64
II	36291	36291	46	1
II	36291	36418	46	127
II	36418	40586	46	4169
II	40606	43098	46	2492
II	43133	59978	46	16848
II	59989	62996	46	3022
II	63013	68274	46	5263
II	68295	68303	46	8
II	68322	72377	46	4055
II	72389	88478	46	16097
II	88495	88521	46	26
II	88981	115434	46	26462
II	115448	122594	46	7147
II	122623	127630	46	5007
II	127654	133028	46	5374
II	133040	133866	46	826
II	133880	137652	46	3774
II	137657	137657	46	1
II	137677	138278	46	601
II	138291	145893	46	7611
II	145913	153967	46	8056
II	153979	165896	46	11938
II	165925	167972	46	2053
II	167986	169282	46	1296
II	169294	174707	46	5413
II	174723	192226	46	17505
II	192238	196528	46	4295
II	196528	197202	46	674
II	197207	197493	46	286
II	197509	197555	46	46
II	197614	197642	46	28
II	197650	197650	46	1
II	197776	197818	46	43
II	197991	208434	46	10443
II	208446	212795	46	4351
II	212828	220658	46	7830
II	220658	220715	46	57
II	220715	221036	46	321
II	226963	227129	46	166
II	227142	251600	46	24466
II	251612	255445	46	3834
II	255480	255481	46	1
II	255531	256461	46	930
II	256482	259578	46	3100
II	265500	266367	46	867
II	266367	266429	46	62
II	266442	270423	46	3981
II	270450	272531	46	2081
II	272549	274303	46	1754
II	274321	296120	46	21810
II	296137	296139	46	2
II	296151	300030	46	3892
II	300042	300043	46	1
II	300053	300107	46	54
II	300107	300164	46	57
II	301182	301300	46	118
II	301300	301356	46	56
II	301356	307390	46	6034
II	307390	307442	46	52
II	307442	307533	46	93
II	307533	307655	46	122
II	307655	308058	46	403
II	308058	308171	46	114
II	308171	316939	46	8772
II	316958	326411	46	9457
II	326411	326596	46	185
II	326596	326802	46	206
II	326802	326956	46	154
II	326968	327033	46	65
II	327066	327127	46	64
II	327133	327133	46	1
II	327133	327152	46	19
II	327158	327158	46	1
II	327214	327272	46	61
II	327272	327323	46	52
II	327323	327347	46	24
II	327347	327381	46	35
II	327387	333535	46	6148
II	333547	347274	46	13730
II	347286	350720	46	3437
II	350732	350747	46	15
II	350758	350759	46	1
II	350765	351444	46	679
II	351475	353587	46	2124
II	353627	358025	46	4398
II	358037	372360	46	14326
II	372375	381531	46	9160
II	381561	386202	46	4648
II	386215	395470	46	9259
II	395491	405514	46	10024
II	405514	405572	46	58
II	405572	405919	46	347
II	405988	406379	46	392
II	406379	406431	46	52
II	406431	414257	46	7826
II	414269	415758	46	1489
II	415771	427655	46	11885
II	429503	429775	46	272
II	429775	429857	46	82
II	429857	455768	46	25920
II	455784	464217	46	8460
II	464223	465693	46	1470
II	465717	477083	46	11368
II	477105	477670	46	565
II	477670	499530	46	21894
II	499546	499594	46	48
II	499627	541452	46	41878
II	541509	541598	46	89
II	541610	561214	46	19610
II	561240	563011	46	1771
II	563049	571322	46	8273
II	571336	591751	46	20417
II	592313	592376	46	63
II	592376	604471	46	12097
II	604483	628563	46	24082
II	628578	643018	46	14442
II	643018	643484	46	467
II	643484	643595	46	111
II	644986	646110	46	1124
II	646133	646134	46	1
II	646143	650261	46	4118
II	650261	660237	46	9985
II	660752	679492	46	18746
II	679504	697447	46	17949
II	697449	698022	46	573
II	698035	700356	46	2322
II	700356	702000	46	1648
II	702015	712777	46	10766
II	712801	714126	46	1325
II	714138	720635	46	6497
II	720648	723657	46	3009
II	723673	746356	46	22689
II	746375	774663	46	28316
II	774676	779839	46	5163
II	779850	780413	46	572
II	780430	793196	46	12780
II	793208	796539	46	3331
II	796559	799910	46	3354
II	799930	801878	46	1948
II	801890	801929	46	39
II	802700	802743	46	43
II	802750	802750	46	1
II	802776	802823	46	47
II	802871	803042	46	171
II	803042	803630	46	591
X	1810	1834	46	24
X	5608	5775	46	167
X	9454	9466	46	12
X	9869	10550	46	681
X	15383	16524	46	1141
X	16538	16636	46	99
X	16636	16674	46	38
X	16674	16737	46	63
X	26081	26105	46	27
X	29019	29037	46	18
X	29053	29055	46	2
X	29073	29090	46	17
X	29124	36390	46	7269
X	36403	50364	46	13964
X	50376	59060	46	8687
X	59158	59266	46	108
X	59266	59329	46	63
X	59329	74385	46	15060
X	74397	76566	46	2170
X	76582	99510	46	22932
X	99530	99531	46	1
X	99531	114874	46	15352
X	114895	116350	46	1455
X	116362	120894	46	4532
X	120980	121143	46	163
X	121157	134112	46	12958
X	134122	136905	46	2787
X	136923	141050	46	4127
X	141060	153522	46	12472
X	153522	159423	46	5901
X	159434	177916	46	18502
X	177928	189051	46	11136
X	189060	197495	46	8435
X	204198	204244	46	46
X	204244	204253	46	9
X	204271	207446	46	3178
X	207463	245291	46	37847
X	245315	251750	46	6435
X	251770	265866	46	14097
X	265883	285360	46	19479
X	285389	289581	46	4192
X	289608	317074	46	27646
X	317092	330214	46	13125
X	330226	332661	46	2435
X	332721	338713	46	5993
X	338990	339038	46	48
X	339163	342342	46	3179
X	342360	354264	46	11904
X	354276	354513	46	238
X	354513	354537	46	24
X	354761	354814	46	53
X	354814	354835	46	21
X	354835	354847	46	12
X	355100	355101	46	1
X	355204	355420	46	216
X	355474	358218	46	2745
X	358233	366819	46	8588
X	366832	366876	46	44
X	366889	367101	46	212
X	367113	367419	46	306
X	367489	374473	46	6984
X	374535	374670	46	135
X	374670	377658	46	2988
X	377664	377664	46	1
X	377668	377669	46	1
X	377669	388254	46	10591
X	388266	393706	46	5442
X	393852	396732	46	2882
X	396744	396747	46	3
X	396760	400165	46	3405
X	400171	400171	46	1
X	400171	400220	46	49
X	400226	400227	46	1
X	400227	400263	46	36
X	400335	400398	46	63
X	400398	402049	46	1651
X	402069	402070	46	1
X	402070	415993	46	13927
X	415993	422992	46	7001
X	423005	424170	46	1165
X	424178	424900	46	722
X	424918	424919	46	1
X	424933	448846	46	23944
X	448856	453745	46	4889
X	454327	456071	46	1745
X	456096	457896	46	1800
X	457912	470175	46	12281
X	470175	470175	46	1
X	470182	472462	46	2280
X	483977	497303	46	13332
X	497314	519249	46	21938
X	519271	524444	46	5176
X	524450	524450	46	1
X	524450	524513	46	63
X	524513	525710	46	1197
X	525726	525774	46	49
X	525792	537792	46	12004
X	537804	538028	46	224
X	538040	538091	46	51
X	538118	538119	46	1
X	538446	539488	46	1044
X	539515	540919	46	1404
X	540973	541098	46	125
X	541566	541590	46	25
X	541590	580234	46	38650
X	580248	586424	46	6177
X	586438	586457	46	19
X	586466	594181	46	7715
X	594202	604423	46	10221
X	604456	613832	46	9379
X	613846	617965	46	4120
X	617965	617966	46	1
X	617979	635773	46	17800
X	635779	639192	46	3418
X	639219	639702	46	484
X	639727	640000	46	273
X	640027	667218	46	27209
X	667228	701740	46	34512
X	701767	702030	46	263
X	702030	709566	46	7542
X	710394	711525	46	1131
X	711525	711588	46	63
X	742737	742810	46	73
X	742831	742883	46	54
X	743061	743092	46	31
X	744853	744889	46	36
X	744906	744907	46	1
Mito	26389	26400	46	11
Mito	26414	26489	46	77
Mito	26501	26516	46	15
Mito	26529	26569	46	41
Mito	26581	26586	46	5
Mito	26598	26606	46	8
Mito	26618	26642	46	24
Mito	26649	26650	46	1
Mito	29202	29203	46	1
Mito	29217	29220	46	3
Mito	29234	29246	46	12
Mito	29260	29266	46	6
Mito	29456	29482	46	27
Mito	29489	29489	46	1
Mito	36935	36949	46	14
Mito	36958	36958	46	1
Mito	41096	41152	46	59
Mito	41167	41243	46	77
Mito	41252	41252	46	1
Mito	41260	41292	46	34
Mito	41300	41314	46	14
Mito	41323	41323	46	1
Mito	43435	43463	46	28
Mito	43477	43483	46	6
Mito	43489	43489	46	1
Mito	43791	43795	46	4
Mito	43803	43803	46	1
Mito	45280	45308	46	36
Mito	45318	45327	46	9
Mito	45376	45468	46	128
Mito	45487	45712	46	227
Mito	45712	45760	46	48
Mito	45772	45824	46	57
Mito	45830	45916	46	99
Mito	45922	45973	46	51
Mito	45989	46050	46	61
Mito	46066	46157	46	92
Mito	46157	46364	46	208
Mito	46364	46368	46	4
Mito	46385	46422	46	37
Mito	46699	46704	46	5
Mito	46717	46746	46	29
Mito	46821	46913	46	92
Mito	46913	46918	46	5
Mito	46930	46948	46	18
Mito	46960	46975	46	15
Mito	46983	46994	46	11
Mito	47010	47107	46	98
Mito	47120	47429	46	311
Mito	47441	47617	46	177
Mito	47642	47875	46	237
Mito	47887	47888	46	1
Mito	47900	47943	46	43
Mito	47955	48014	46	65
Mito	48024	48066	46	42
Mito	48086	48168	46	82
Mito	48180	48198	46	18
Mito	48198	48260	46	62
Mito	48260	48287	46	27
Mito	48287	48363	46	80
Mito	48383	48419	46	36
Mito	48431	48464	46	60
Mito	48468	48501	46	37
Mito	48549	48572	46	23
Mito	48612	48631	46	19
Mito	48643	48720	46	82
Mito	48720	48775	46	56
Mito	48787	48791	46	4
Mito	48949	48999	46	50
Mito	49011	49079	46	69
Mito	49140	49145	46	5
Mito	49157	49217	46	60
Mito	49217	49278	46	63
Mito	49278	49289	46	11
Mito	49301	49350	46	49
Mito	49556	49734	46	182
Mito	49818	49827	46	9
Mito	49839	50144	46	308
Mito	50234	50244	46	10
Mito	50256	50284	46	28
Mito	50284	50310	46	26
Mito	50323	50384	46	63
Mito	50396	50439	46	44
Mito	50439	50443	46	4
Mito	50455	50478	46	23
Mito	50526	50561	46	35
Mito	50592	50602	46	10
Mito	50602	50655	46	53
Mito	50670	50719	46	49
Mito	50734	50746	46	12
Mito	50877	50926	46	54
Mito	52403	52438	46	35
Mito	52971	53000	46	29
Mito	53000	53021	46	21
Mito	53033	53041	46	8
Mito	53130	53157	46	32
Mito	54013	54054	46	41
Mito	54253	54335	46	82
Mito	54364	54367	46	3
Mito	54379	54404	46	25
Mito	54414	54415	46	1
Mito	54415	54495	46	88
Mito	54507	54526	46	19
Mito	57452	57507	46	57
Mito	57545	57580	46	36
Mito	57595	57595	46	1
Mito	57629	57640	46	11
Mito	57654	57655	46	1
Mito	57655	57656	46	1
Mito	57667	57668	46	1
Mito	67990	67990	46	2
Mito	68006	68006	46	1
Mito	70911	70918	46	7
Mito	72154	72162	46	8
Mito	72183	72184	46	1
Mito	78035	78055	46	20
VI	14418	16271	46	1853
VI	16277	19299	46	3025
VI	19315	20253	46	938
VI	20269	20500	46	235
VI	20506	27547	46	7048
VI	27551	57950	46	30405
VI	58009	62883	46	4874
VI	62895	68942	46	6050
VI	68960	73351	46	4394
VI	73357	75915	46	2579
VI	75927	78004	46	2077
VI	78028	97614	46	19694
VI	97627	99354	46	1742
VI	99367	101206	46	1840
VI	101206	103930	46	2724
VI	103940	104562	46	622
VI	104592	106282	46	1690
VI	106292	106875	46	583
VI	106893	107819	46	929
VI	107825	110293	46	2468
VI	110309	111507	46	1199
VI	111507	111627	46	120
VI	111627	111731	46	105
VI	111750	111757	46	7
VI	111757	115145	46	3390
VI	115187	117415	46	2228
VI	117931	118414	46	483
VI	118422	137662	46	19242
VI	143542	143576	46	34
VI	143588	143589	46	1
VI	143589	143649	46	60
VI	143649	143689	46	40
VI	143707	143709	46	2
VI	143721	143722	46	1
VI	143722	143794	46	72
VI	143875	144189	46	314
VI	144232	157938	46	13709
VI	157975	161975	46	4002
VI	161975	162023	46	48
VI	162023	162074	46	51
VI	162074	162101	46	27
VI	162101	162244	46	143
VI	162244	168313	46	6072
VI	168350	169653	46	1304
VI	169673	179306	46	9633
VI	179333	181027	46	1694
VI	181040	181499	46	459
VI	181499	181557	46	58
VI	181557	185968	46	4425
VI	185986	186218	46	232
VI	186243	191539	46	5296
VI	191716	191825	46	109
VI	191825	199337	46	7513
VI	199379	205293	46	5915
VI	205293	205350	46	57
VI	205350	205415	46	65
VI	205415	205473	46	58
VI	205473	210338	46	4868
VI	210398	210508	46	110
VI	210529	220585	46	10062
VI	221001	222190	46	1190
VI	222208	226673	46	4477
VI	226687	226690	46	3
VI	226703	227473	46	770
VI	227488	227489	46	1
VI	227502	241519	46	14020
VI	241530	258030	46	16508
VI	258051	258729	46	678
VI	258757	265373	46	6665
VI	265384	267551	46	2233
VI	267572	267698	46	126
VI	267724	268129	46	469
VI	268149	268193	46	44
VI	268211	268608	46	436
VI	268645	269266	46	626
XIII	8215	9529	46	1318
XIII	9529	13783	46	4256
XIII	13795	21952	46	8157
XIII	21978	26554	46	4581
XIII	26604	26810	46	209
XIII	26827	41950	46	15126
XIII	41958	43912	46	1954
XIII	43922	45962	46	2041
XIII	45964	47105	46	1148
XIII	47247	56524	46	9286
XIII	56536	58777	46	2242
XIII	58789	65921	46	7133
XIII	65942	68890	46	2954
XIII	68890	68961	46	71
XIII	68961	69017	46	56
XIII	69025	69025	46	1
XIII	69025	86941	46	17918
XIII	87060	146081	46	59066
XIII	146100	158391	46	12292
XIII	158409	159846	46	1437
XIII	159868	162796	46	2928
XIII	162849	164386	46	1537
XIII	164407	165416	46	1009
XIII	165444	168285	46	2842
XIII	168285	168320	46	35
XIII	168320	168348	46	28
XIII	168711	169418	46	713
XIII	169418	169496	46	78
XIII	169522	169522	46	1
XIII	169522	175835	46	6313
XIII	175835	175917	46	82
XIII	175917	179561	46	3645
XIII	179561	179693	46	133
XIII	179718	179752	46	34
XIII	179752	183564	46	3812
XIII	183564	183906	46	344
XIII	183906	184158	46	255
XIII	184179	184180	46	1
XIII	190083	191998	46	1915
XIII	192004	192008	46	4
XIII	192008	196103	46	4101
XIII	196115	196116	46	1
XIII	196128	196225	46	97
XIII	196242	196331	46	89
XIII	202119	202160	46	55
XIII	202178	209851	46	7675
XIII	209878	238757	46	28883
XIII	238778	239352	46	574
XIII	239371	255034	46	15681
XIII	255040	259179	46	4139
XIII	259179	259283	46	104
XIII	259283	259341	46	60
XIII	259341	266854	46	7518
XIII	266854	266854	46	1
XIII	266874	267966	46	1093
XIII	267991	279352	46	11362
XIII	279352	305326	46	25982
XIII	305362	321322	46	15976
XIII	321344	348572	46	27239
XIII	348584	354538	46	5954
XIII	354556	357005	46	2450
XIII	362924	367517	46	4593
XIII	367538	372409	46	4872
XIII	372409	372436	46	27
XIII	372436	372472	46	36
XIII	372645	372653	46	8
XIII	372665	372673	46	8
XIII	372695	372696	46	1
XIII	378630	378641	46	11
XIII	378647	379398	46	751
XIII	379411	387094	46	7683
XIII	387108	388678	46	1570
XIII	388706	409188	46	20488
XIII	409215	409504	46	289
XIII	409519	409582	46	63
XIII	409589	433346	46	24012
XIII	433367	442296	46	8931
XIII	442308	462688	46	20383
XIII	462697	463269	46	574
XIII	463342	463610	46	269
XIII	463623	475720	46	12102
XIII	475732	480898	46	5168
XIII	480898	480924	46	26
XIII	480956	481019	46	63
XIII	481019	481862	46	843
XIII	481905	483737	46	2096
XIII	483754	503852	46	20098
XIII	504128	504347	46	219
XIII	504347	504406	46	59
XIII	504406	504428	46	23
XIII	504614	504675	46	61
XIII	504701	504702	46	1
XIII	504715	504724	46	9
XIII	504758	504821	46	63
XIII	504956	510076	46	5122
XIII	510087	514622	46	4667
XIII	514640	538609	46	23971
XIII	538639	552128	46	13514
XIII	552145	561876	46	9733
XIII	561886	571244	46	9358
XIII	571256	573053	46	1797
XIII	573059	587646	46	14587
XIII	587659	588572	46	913
XIII	588572	588572	46	22
XIII	588577	588629	46	52
XIII	588636	599553	46	10929
XIII	599963	599993	46	30
XIII	599993	600640	46	647
XIII	600728	601763	46	1036
XIII	602938	608902	46	5964
XIII	608902	609001	46	99
XIII	609041	609042	46	1
XIII	609202	609203	46	1
XIII	609390	609404	46	14
XIII	609418	609452	46	34
XIII	609480	609481	46	1
XIII	609495	609496	46	1
XIII	609510	609515	46	5
XIII	609552	609609	46	57
XIII	609786	609816	46	30
XIII	609822	622162	46	12366
XIII	622168	622172	46	6
XIII	622184	625419	46	3236
XIII	625453	625703	46	251
XIII	625728	632663	46	6939
XIII	634144	646849	46	12705
XIII	646877	651974	46	5097
XIII	651986	654910	46	2934
XIII	654930	674862	46	19952
XIII	674875	703554	46	28685
XIII	703579	733011	46	29433
XIII	733024	756830	46	23813
XIII	756844	756960	46	116
XIII	757008	758899	46	1892
XIII	758915	768372	46	9464
XIII	768385	768536	46	151
XIII	768885	769080	46	195
XIII	769151	769244	46	93
XIII	769261	772665	46	3404
XIII	772686	774417	46	1731
XIII	774462	795053	46	20604
XIII	795062	807685	46	12631
XIII	807701	808528	46	833
XIII	808903	811690	46	2788
XIII	811702	822594	46	10896
XIII	822636	828317	46	5683
XIII	828341	837916	46	9576
XIII	837923	837963	46	40
XIII	837969	837969	46	1
XIII	837975	837989	46	14
XIII	837989	851707	46	13721
XIII	851727	860899	46	9176
XIII	860911	873954	46	13050
XIII	874001	874002	46	1
XIII	874080	874553	46	473
XIII	874570	908162	46	33616
XIII	908500	910317	46	1817
XIII	910325	917623	46	7305
XIII	917828	917888	46	60
XIII	918139	918196	46	57
XIII	918196	918224	46	28
XIII	918238	918258	46	20
XIII	918258	918342	46	84
XIII	918342	918491	46	149
XIII	918567	919188	46	621
XIII	919228	919346	46	118
XIII	919346	919420	46	74
XIII	919420	920970	46	1552
XIII	920983	921420	46	437
XIII	921426	921427	46	1
XIII	921442	922597	46	1157
XIII	922609	923328	46	719
XIII	923328	923363	46	35
XIII	923371	923490	46	119
XIII	923490	923574	46	84
XIV	9465	9521	46	56
XIV	9544	9545	46	1
XIV	11375	12735	46	1360
XIV	12747	12925	46	179
XIV	13145	14220	46	1075
XIV	14220	14256	46	36
XIV	14256	14387	46	132
XIV	14387	14885	46	498
XIV	15932	15995	46	63
XIV	15995	16468	46	473
XIV	16480	26624	46	10145
XIV	26822	51862	46	25042
XIV	51878	61984	46	10112
XIV	61996	63599	46	1617
XIV	63611	70023	46	6418
XIV	70031	90523	46	20498
XIV	90544	96259	46	5716
XIV	96272	96294	46	22
XIV	96307	96469	46	162
XIV	102461	102513	46	52
XIV	102528	102770	46	242
XIV	102783	105020	46	2238
XIV	105061	107288	46	2227
XIV	107301	110751	46	3451
XIV	110768	118981	46	8221
XIV	118999	129421	46	10425
XIV	129427	131634	46	2222
XIV	131643	139523	46	7886
XIV	139536	144076	46	4544
XIV	144148	154919	46	10772
XIV	154935	172228	46	17296
XIV	172238	172371	46	133
XIV	172381	174733	46	2353
XIV	174733	198268	46	23545
XIV	198280	231047	46	32783
XIV	231064	252538	46	21476
XIV	252538	270173	46	17641
XIV	270185	282659	46	12483
XIV	282673	284384	46	1711
XIV	284384	290001	46	5617
XIV	290046	300932	46	10896
XIV	300952	306433	46	5487
XIV	306454	307237	46	784
XIV	307252	331796	46	24553
XIV	331817	331905	46	88
XIV	332009	354439	46	22443
XIV	354460	357006	46	2548
XIV	357046	359339	46	2297
XIV	359388	359577	46	189
XIV	359594	374962	46	15368
XIV	374975	376636	46	1662
XIV	376649	392260	46	15617
XIV	392272	392461	46	189
XIV	392473	413443	46	20979
XIV	413474	415044	46	1570
XIV	415080	415080	46	1
XIV	415084	415084	46	1
XIV	415084	416973	46	1892
XIV	416985	421145	46	4160
XIV	421145	421253	46	108
XIV	421253	421420	46	167
XIV	421420	427007	46	5589
XIV	427007	429776	46	2775
XIV	429779	429779	46	1
XIV	429786	437548	46	7768
XIV	437563	441268	46	3711
XIV	441303	442487	46	1185
XIV	442503	442991	46	488
XIV	443074	444882	46	1808
XIV	444893	479456	46	34591
XIV	479483	486549	46	7069
XIV	486565	490184	46	3619
XIV	490196	498354	46	8170
XIV	498372	499861	46	1491
XIV	499945	503010	46	3067
XIV	503025	506857	46	3832
XIV	506865	510331	46	3466
XIV	510345	512461	46	2117
XIV	512463	512463	46	1
XIV	512519	519180	46	6663
XIV	525086	546737	46	21691
XIV	547082	547127	46	45
XIV	547139	547142	46	3
XIV	547155	560681	46	13535
XIV	560695	560930	46	235
XIV	560936	561506	46	570
XIV	561506	561531	46	25
XIV	561543	561616	46	73
XIV	561915	561966	46	51
XIV	568154	568219	46	65
XIV	568219	568315	46	96
XIV	568315	569880	46	1565
XIV	573930	575847	46	1919
XIV	575918	577021	46	1103
XIV	577048	579929	46	2881
XIV	579941	579942	46	1
XIV	579954	598361	46	18410
XIV	602371	605729	46	3389
XIV	605738	605738	46	1
XIV	605738	605758	46	20
XIV	605771	606153	46	386
XIV	606163	619117	46	12970
XIV	619117	627311	46	8249
XIV	627327	631908	46	4596
XIV	631990	632052	46	64
XIV	632410	632455	46	49
XIV	632471	633699	46	1228
XIV	633711	644216	46	10507
XIV	644225	652048	46	7840
XIV	652071	652343	46	272
XIV	652349	662243	46	9924
XIV	662261	663591	46	1330
XIV	663607	667309	46	3710
XIV	667330	667343	46	13
XIV	667350	678597	46	11248
XIV	678614	690065	46	11451
XIV	690081	694960	46	4883
XIV	694971	703100	46	8131
XIV	703117	704280	46	1163
XIV	704422	704472	46	50
XIV	704492	704492	46	1
XIV	704501	720270	46	15777
XIV	720297	721910	46	1662
XIV	721922	725337	46	3417
XIV	725354	725638	46	285
XIV	725650	726155	46	505
XIV	726155	726250	46	97
XIV	726623	726674	46	52
XIV	726935	728029	46	1097
XIV	728029	728087	46	58
XIV	728087	751090	46	23015
XIV	752943	752996	46	53
XIV	752996	753087	46	91
XIV	753087	753128	46	41
XIV	755089	755151	46	63
XIV	755314	759607	46	4299
XIV	759623	772621	46	13003
XIV	772631	772631	46	1
XIV	773454	773624	46	170
XIV	773624	774154	46	530
XIV	774154	774558	46	404
