LogLikelihood = -1572921.8725367269944

y0 4.2453334667892557164
y0_prime 0
y1 0.0047112084388976072091
y1_prime 0
y2 0.73183610444802826844
y2_prime 0
y3 0.21344608607481474483
y3_prime 0
rho 0.0054517133231694672735
rho.alpha 0.33565856537337240839
r_ii 0.9994173813047366739
theta 0.0021883665723671590596
