,Population,Isolates_IDs,Assembly_IDs,Zygosity,Ploidy,Aneuploidy
0,African Beer,AEN,AEN_3,heterozygous,2,aneu;+1*1;+1*3;+1*4;
1,African Beer,AFL,AFL_5,homozygous,1,aneu;+1*8;
2,African Beer,ANL,ANL_2,heterozygous,4,euploid
3,African Beer,ANM,ANM_2,heterozygous,4,euploid
4,African Beer,ASC,ASC_6,heterozygous,3,aneu;+1*1;
5,African Beer,AVN,AVN_5,heterozygous,4,euploid
6,African Beer,AVP,AVP_5,heterozygous,5,aneu;-1*14;
7,African Beer,AVQ,AVQ_5,heterozygous,5,aneu;+1*4;
8,African Beer,AVR,AVR_6,heterozygous,5,aneu;-1*15;
9,African Beer,AVS,AVS_5,heterozygous,5,aneu;+1*12;+1*13;
10,African Beer,AVT,AVT_6,heterozygous,5,aneu;+1*2;+1*5;
11,African Beer,BEI,BEI_7,heterozygous,3,euploid
12,African Beer,BEK,BEK_7,heterozygous,4,euploid
13,African Beer,BEM,BEM_7,heterozygous,4,euploid
14,African Beer,BEN,BEN_7,heterozygous,3,euploid
15,African Beer,BHA,BHA_2,heterozygous,3,euploid
0,African Cocoa,ANN,ANN_4,heterozygous,2,euploid
1,African Cocoa,CQC,CQC_6,heterozygous,2,euploid
2,African Cocoa,CQE,CQE_6,heterozygous,2,euploid
3,African Cocoa,CQG,CQG_6,heterozygous,2,euploid
4,African Cocoa,CQI,CQI_6,heterozygous,2,euploid
5,African Cocoa,CQL,CQL_4,heterozygous,2,euploid
6,African Cocoa,CQN,CQN_4,heterozygous,2,euploid
7,African Cocoa,CQD,CQD_6,heterozygous,2,euploid
8,African Cocoa,CQF,CQF_6,heterozygous,2,euploid
9,African Cocoa,CQH,CQH_6,heterozygous,2,euploid
10,African Cocoa,CQK,CQK_4,heterozygous,2,euploid
11,African Cocoa,CQM,CQM_4,heterozygous,2,euploid
12,African Cocoa,CQP,CQP_4,heterozygous,2,euploid
0,African Palm Wine,ADV,ADV_4,homozygous,1,euploid
1,African Palm Wine,AKB,AKB_2,heterozygous,2,euploid
2,African Palm Wine,AKC,AKC_4,heterozygous,3,aneu;+1*14;
3,African Palm Wine,AKD,AKD_2,heterozygous,3,euploid
4,African Palm Wine,AKE,AKE_3,homozygous,2,euploid
5,African Palm Wine,AKG,AKG_3,homozygous,2,euploid
6,African Palm Wine,AKH,AKH_3,homozygous,2,euploid
7,African Palm Wine,APQ,APQ_4,homozygous,2,euploid
8,African Palm Wine,AVV,AVV_8,heterozygous,3,euploid
9,African Palm Wine,BAA,BAA_6,heterozygous,3,euploid
10,African Palm Wine,BAB,BAB_8,heterozygous,3,euploid
11,African Palm Wine,BAC,BAC_8,heterozygous,3,euploid
12,African Palm Wine,BAD,BAD_8,heterozygous,3,euploid
13,African Palm Wine,BAE,BAE_6,heterozygous,3,euploid
14,African Palm Wine,BAF,BAF_6,heterozygous,2,euploid
15,African Palm Wine,CFA,CFA_4,homozygous,2,euploid
16,African Palm Wine,CPS,CPS_4,heterozygous,3,euploid
17,African Palm Wine,CPT,CPT_4,heterozygous,2,aneu;+1*9;
18,African Palm Wine,CQA,CQA_6,heterozygous,2,euploid
19,African Palm Wine,CQB,CQB_6,heterozygous,2,euploid
20,African Palm Wine,SACE_YAC,YAC,homozygous,2,euploid
0,Ale Beer,AAC,AAC_6,heterozygous,2,euploid
1,Ale Beer,AEB,AEB_8,heterozygous,4,aneu;+1*1;+1*2;+1*15;
2,Ale Beer,AEC,AEC_8,heterozygous,Xn,
3,Ale Beer,AGB,AGB_1,heterozygous,2,euploid
4,Ale Beer,AQT,AQT_4,heterozygous,3,aneu;+1*6;
5,Ale Beer,ASH,ASH_3,heterozygous,4,aneu;-1*1;-1*5;-1*7;-1*8;+1*9;-1*14;+1*16;
6,Ale Beer,ATV,ATV_5,heterozygous,4,euploid
7,Ale Beer,BRP,BRP_4,heterozygous,4,aneu;+1*1;-1*3;
8,Ale Beer,BRQ,BRQ_4,heterozygous,4,aneu;-1*1;-1*5;+2*9;-1*10;+1*13;
9,Ale Beer,BSI,BSI_3,heterozygous,4,aneu;+1*1;+1*9;-1*14;
10,Ale Beer,CBR,CBR_2,heterozygous,4,euploid
11,Ale Beer,CFC,CFC_2,heterozygous,4,aneu;-1*12;
12,Ale Beer,CFD,CFD_4,heterozygous,4,aneu;-1*1;-1*5;+1*6;-1*12;
13,Ale Beer,CFG,CFG_4,heterozygous,4,aneu;-1*6;
14,Ale Beer,SACE_CFH,CFH,heterozygous,4,aneu;-1*1;-1*7;
15,Ale Beer,CFM,CFM_4,heterozygous,4,aneu;-1*1;-1*5;-1*9;
0,Alpechin,ABM,ABM_5,homozygous,1,euploid
1,Alpechin,AHM,AHM_1,homozygous,1,euploid
2,Alpechin,AQA,AQA_4,heterozygous,2,euploid
3,Alpechin,ATQ,ATQ_7,homozygous,2,aneu;+2*9;+1*11;
4,Alpechin,AHL,AHL_3,homozygous,1,euploid
5,Alpechin,AQD,AQD_4,heterozygous,2,aneu;+1*8;
6,Alpechin,BRK,BRK_4,homozygous,2,euploid
0,Asian Rice Fermentation,BEF,BEF_7,heterozygous,2,euploid
1,Asian Rice Fermentation,BEH,BEH_7,homozygous,2,euploid
2,Asian Rice Fermentation,BHP,BHP_4,heterozygous,2,euploid
3,Asian Rice Fermentation,BHQ,BHQ_4,heterozygous,2,euploid
4,Asian Rice Fermentation,BHR,BHR_4,heterozygous,2,euploid
5,Asian Rice Fermentation,BHS,BHS_1,heterozygous,2,euploid
6,Asian Rice Fermentation,CGN,CGN_5,heterozygous,2,euploid
7,Asian Rice Fermentation,CGR,CGR_5,heterozygous,2,euploid
0,Bioethanol,AEG,AEG_8,homozygous,1,euploid
1,Bioethanol,AEH,AEH_3,homozygous,1,euploid
2,Bioethanol,AFD,AFD_4,homozygous,1,euploid
3,Bioethanol,AFR,AFR_5,homozygous,1,aneu;+1*1;
4,Bioethanol,AGM,AGM_1,homozygous,1,euploid
5,Bioethanol,AHC,AHC_2,homozygous,1,euploid
6,Bioethanol,APG,APG_4,homozygous,1,euploid
7,Bioethanol,BVB,BVB_6,heterozygous,2,euploid
8,Bioethanol,BVD,BVD_5,homozygous,2,euploid
9,Bioethanol,BVF,BVF_5,heterozygous,2,euploid
10,Bioethanol,BVH,BVH_1,heterozygous,2,euploid
11,Bioethanol,CNB,CNB_4,heterozygous,2,euploid
12,Bioethanol,CNE,CNE_4,heterozygous,2,euploid
13,Bioethanol,CNG,CNG_4,heterozygous,2,euploid
14,Bioethanol,CNI,CNI_4,heterozygous,2,euploid
15,Bioethanol,CNL,CNL_4,heterozygous,2,aneu;+1*3;
16,Bioethanol,CNN,CNN_1,heterozygous,2,euploid
17,Bioethanol,CNQ,CNQ_1,heterozygous,2,euploid
18,Bioethanol,CNS,CNS_4,heterozygous,2,euploid
19,Bioethanol,CNV,CNV_4,heterozygous,2,aneu;+1*6;
20,Bioethanol,BVA,BVA_4,heterozygous,2,euploid
21,Bioethanol,BVC,BVC_6,heterozygous,2,euploid
22,Bioethanol,BVE,BVE_4,homozygous,1,euploid
23,Bioethanol,BVG,BVG_4,heterozygous,2,euploid
24,Bioethanol,CMT,CMT_8,heterozygous,2,euploid
25,Bioethanol,CNF,CNF_4,heterozygous,2,euploid
26,Bioethanol,CNH,CNH_4,heterozygous,2,euploid
27,Bioethanol,CNK,CNK_4,heterozygous,2,euploid
28,Bioethanol,CNM,CNM_1,heterozygous,2,euploid
29,Bioethanol,CNP,CNP_1,heterozygous,2,euploid
30,Bioethanol,CNR,CNR_1,heterozygous,2,euploid
31,Bioethanol,CNT,CNT_4,heterozygous,2,euploid
0,Dairy,AQM,AQM_4,heterozygous,2,aneu;+1*9;+1*16;
1,Dairy,ARR,ARR_6,heterozygous,2,aneu;+1*1;+1*3;
2,Dairy,ASN,ASN_8,heterozygous,2,euploid
3,Dairy,BFH,BFH_3,heterozygous,2,euploid
4,Dairy,BFS,BFS_8,heterozygous,2,euploid
5,Dairy,BFT,BFT_8,heterozygous,2,euploid
6,Dairy,BFV,BFV_8,heterozygous,2,aneu;+1*11;
7,Dairy,BGA,BGA_7,heterozygous,2,euploid
8,Dairy,BGB,BGB_7,heterozygous,2,euploid
9,Dairy,BGC,BGC_8,heterozygous,2,euploid
10,Dairy,BGD,BGD_8,heterozygous,2,euploid
11,Dairy,BGE,BGE_8,heterozygous,2,euploid
12,Dairy,BGF,BGF_8,heterozygous,2,euploid
13,Dairy,BGG,BGG_8,heterozygous,2,aneu;+1*11;
14,Dairy,BGH,BGH_1,heterozygous,2,euploid
15,Dairy,BGI,BGI_1,heterozygous,2,euploid
16,Dairy,BGK,BGK_1,heterozygous,2,euploid
17,Dairy,BGL,BGL_1,heterozygous,2,euploid
18,Dairy,BGM,BGM_1,heterozygous,2,euploid
19,Dairy,BGN,BGN_1,heterozygous,2,euploid
20,Dairy,BGP,BGP_1,heterozygous,2,euploid
21,Dairy,BGQ,BGQ_1,heterozygous,2,euploid
22,Dairy,BGR,BGR_1,heterozygous,2,aneu;+1*12;
23,Dairy,BGS,BGS_1,heterozygous,2,aneu;+1*10;
24,Dairy,BGT,BGT_2,heterozygous,2,euploid
25,Dairy,BGV,BGV_2,heterozygous,2,euploid
0,Ecuadorian,CCC,CCC_3,homozygous,2,euploid
1,Ecuadorian,CCD,CCD_4,homozygous,2,euploid
2,Ecuadorian,CCE,CCE_6,homozygous,2,euploid
3,Ecuadorian,CCF,CCF_6,homozygous,2,euploid
4,Ecuadorian,CCG,CCG_4,homozygous,2,euploid
5,Ecuadorian,CCH,CCH_4,homozygous,2,aneu;+1*16;
6,Ecuadorian,CCI,CCI_4,homozygous,2,euploid
0,Far East Asian,BAI,BAI_7,homozygous,2,euploid
1,Far East Asian,BAK,BAK_7,homozygous,2,euploid
2,Far East Asian,CCN,CCN_1,homozygous,2,euploid
3,Far East Asian,CCQ,CCQ_1,homozygous,2,euploid
4,Far East Asian,CCR,CCR_1,homozygous,2,euploid
5,Far East Asian,CCS,CCS_1,homozygous,2,euploid
6,Far East Asian,CDL,CDL_3,homozygous,2,euploid
7,Far East Asian,SACE_YCR,YCR,homozygous,2,euploid
0,Human French Guiana,BCB,BCB_3,heterozygous,2,euploid
1,Human French Guiana,BCD,BCD_8,heterozygous,2,euploid
2,Human French Guiana,BCF,BCF_8,heterozygous,2,euploid
3,Human French Guiana,BCH,BCH_5,heterozygous,2,euploid
4,Human French Guiana,BCK,BCK_8,heterozygous,2,euploid
5,Human French Guiana,BCM,BCM_8,heterozygous,2,euploid
6,Human French Guiana,BCP,BCP_8,heterozygous,2,euploid
7,Human French Guiana,BDP,BDP_5,heterozygous,2,euploid
8,Human French Guiana,BDR,BDR_6,heterozygous,2,euploid
9,Human French Guiana,BDT,BDT_6,heterozygous,2,euploid
10,Human French Guiana,BEA,BEA_6,heterozygous,2,euploid
11,Human French Guiana,BEC,BEC_6,heterozygous,2,aneu;+1*12;
12,Human French Guiana,BEE,BEE_6,heterozygous,2,euploid
13,Human French Guiana,BCC,BCC_3,heterozygous,2,euploid
14,Human French Guiana,BCE,BCE_8,heterozygous,2,euploid
15,Human French Guiana,BCG,BCG_8,heterozygous,2,euploid
16,Human French Guiana,BCI,BCI_8,heterozygous,2,aneu;+1*4;
17,Human French Guiana,BCL,BCL_5,heterozygous,2,euploid
18,Human French Guiana,BCN,BCN_8,homozygous,1,euploid
19,Human French Guiana,BCQ,BCQ_8,heterozygous,2,euploid
20,Human French Guiana,BDQ,BDQ_6,heterozygous,2,euploid
21,Human French Guiana,BDS,BDS_6,heterozygous,2,euploid
22,Human French Guiana,BDV,BDV_6,heterozygous,2,euploid
23,Human French Guiana,BEB,BEB_6,heterozygous,2,euploid
24,Human French Guiana,BED,BED_6,heterozygous,2,euploid
0,Italian Wine 1,AIA,AIA_1,homozygous,1,euploid
1,Italian Wine 1,AIR,AIR_1,homozygous,2,euploid
2,Italian Wine 1,APT,APT_7,homozygous,2,aneu;+1*14;
3,Italian Wine 1,BHV,BHV_1,homozygous,2,euploid
4,Italian Wine 1,BIG,BIG_1,homozygous,2,aneu;-1*1;
5,Italian Wine 1,BIR,BIR_2,heterozygous,2,euploid
6,Italian Wine 1,BKG,BKG_3,heterozygous,2,euploid
7,Italian Wine 1,BKL,BKL_1,homozygous,2,euploid
8,Italian Wine 1,BNF,BNF_4,homozygous,2,euploid
9,Italian Wine 1,BPC,BPC_4,homozygous,2,euploid
10,Italian Wine 1,BPP,BPP_4,homozygous,2,aneu;+1*1;
11,Italian Wine 1,BQE,BQE_4,heterozygous,2,euploid
12,Italian Wine 1,BQI,BQI_4,homozygous,2,euploid
13,Italian Wine 1,BQS,BQS_4,heterozygous,2,euploid
14,Italian Wine 1,BRF,BRF_4,heterozygous,2,euploid
15,Italian Wine 1,CRC,CRC_2,homozygous,2,euploid
16,Italian Wine 1,CRI,CRI_2,homozygous,2,aneu;+1*4;+1*8;+1*15;
17,Italian Wine 1,SACE_YBY,YBY,homozygous,2,euploid
18,Italian Wine 1,AIN,AIN_1,heterozygous,2,euploid
19,Italian Wine 1,AIT,AIT_2,homozygous,2,euploid
20,Italian Wine 1,ASR,ASR_1,heterozygous,2,euploid
21,Italian Wine 1,BIF,BIF_1,homozygous,2,euploid
22,Italian Wine 1,BIM,BIM_3,homozygous,2,euploid
23,Italian Wine 1,BKE,BKE_1,homozygous,2,euploid
24,Italian Wine 1,BKH,BKH_1,homozygous,2,euploid
25,Italian Wine 1,BLV,BLV_3,homozygous,2,euploid
26,Italian Wine 1,BNG,BNG_4,heterozygous,3,euploid
27,Italian Wine 1,BPL,BPL_2,heterozygous,2,euploid
28,Italian Wine 1,BQB,BQB_4,heterozygous,2,euploid
29,Italian Wine 1,BQH,BQH_4,heterozygous,2,euploid
30,Italian Wine 1,BQM,BQM_4,heterozygous,2,euploid
31,Italian Wine 1,BRE,BRE_4,homozygous,2,euploid
32,Italian Wine 1,BVK,BVK_2,homozygous,2,euploid
33,Italian Wine 1,CRD,CRD_2,homozygous,2,euploid
34,Italian Wine 1,CRK,CRK_2,homozygous,2,euploid
35,Italian Wine 1,SACE_YBX,YBX,homozygous,2,euploid
0,Italian Wine 2,ADR,ADR_4,homozygous,1,euploid
1,Italian Wine 2,AIF,AIF_1,heterozygous,2,euploid
2,Italian Wine 2,AIP,AIP_2,heterozygous,2,aneu;+1*9;
3,Italian Wine 2,BIA,BIA_1,homozygous,2,euploid
4,Italian Wine 2,BIC,BIC_1,homozygous,2,euploid
5,Italian Wine 2,BIP,BIP_3,homozygous,2,aneu;+1*8;
6,Italian Wine 2,BIS,BIS_2,homozygous,2,euploid
7,Italian Wine 2,BKF,BKF_3,heterozygous,2,euploid
8,Italian Wine 2,BKN,BKN_2,homozygous,2,euploid
9,Italian Wine 2,BNE,BNE_2,homozygous,2,euploid
10,Italian Wine 2,BPM,BPM_4,heterozygous,2,euploid
11,Italian Wine 2,BQG,BQG_4,homozygous,2,euploid
12,Italian Wine 2,BQQ,BQQ_4,homozygous,2,euploid
13,Italian Wine 2,BRB,BRB_4,heterozygous,2,euploid
14,Italian Wine 2,BSL,BSL_4,heterozygous,2,euploid
15,Italian Wine 2,BSN,BSN_5,heterozygous,2,euploid
16,Italian Wine 2,CQV,CQV_4,homozygous,2,euploid
17,Italian Wine 2,CRB,CRB_2,homozygous,2,euploid
18,Italian Wine 2,AGI,AGI_1,homozygous,2,euploid
19,Italian Wine 2,AIM,AIM_2,heterozygous,2,euploid
20,Italian Wine 2,BAV,BAV_7,homozygous,2,euploid
21,Italian Wine 2,BIB,BIB_1,homozygous,2,euploid
22,Italian Wine 2,BIN,BIN_3,homozygous,2,euploid
23,Italian Wine 2,BIQ,BIQ_3,homozygous,1,aneu;+1*3;
24,Italian Wine 2,BIT,BIT_2,homozygous,2,euploid
25,Italian Wine 2,BKM,BKM_1,heterozygous,2,euploid
26,Italian Wine 2,BKP,BKP_1,heterozygous,2,aneu;+1*8;
27,Italian Wine 2,BPB,BPB_4,homozygous,2,euploid
28,Italian Wine 2,BPT,BPT_5,heterozygous,2,euploid
29,Italian Wine 2,BQP,BQP_4,homozygous,2,euploid
30,Italian Wine 2,BQT,BQT_4,homozygous,2,euploid
31,Italian Wine 2,BRC,BRC_4,homozygous,2,euploid
32,Italian Wine 2,BSM,BSM_3,heterozygous,2,euploid
33,Italian Wine 2,BVM,BVM_3,homozygous,2,euploid
34,Italian Wine 2,CRA,CRA_2,heterozygous,2,aneu;-1*1;
0,Malaysian,AKM,AKM_4,homozygous,2,euploid
1,Malaysian,BMA,BMA_2,homozygous,2,euploid
2,Malaysian,BMB,BMB_1,homozygous,2,euploid
3,Malaysian,BMC,BMC_1,homozygous,2,euploid
4,Malaysian,SACE_MAL,MAL,homozygous,2,euploid
5,Malaysian,SACE_YCY,YCY,homozygous,2,euploid
0,Mediterranean Oak,BBQ,BBQ_3,homozygous,2,euploid
1,Mediterranean Oak,BBS,BBS_3,homozygous,2,euploid
2,Mediterranean Oak,BFP,BFP_3,homozygous,2,euploid
3,Mediterranean Oak,BTG,BTG_3,homozygous,2,euploid
4,Mediterranean Oak,CCL,CCL_1,homozygous,2,euploid
5,Mediterranean Oak,CLB,CLB_5,homozygous,2,euploid
6,Mediterranean Oak,CLC,CLC_4,homozygous,2,aneu;+2*3;
7,Mediterranean Oak,CLD,CLD_5,homozygous,2,aneu;+2*3;
0,Mezcal,CPI,CPI_4,heterozygous,2,euploid
1,Mezcal,CPL,CPL_4,heterozygous,2,euploid
2,Mezcal,CPN,CPN_4,heterozygous,2,euploid
3,Mezcal,CPR,CPR_4,heterozygous,2,aneu;+1*12;
4,Mezcal,CPK,CPK_4,heterozygous,2,euploid
5,Mezcal,CPM,CPM_4,heterozygous,2,euploid
6,Mezcal,CPQ,CPQ_4,heterozygous,2,aneu;+1*11;
0,North American Oak,ACD,ACD_7,homozygous,1,euploid
1,North American Oak,AKN,AKN_3,homozygous,2,euploid
2,North American Oak,ANC,ANC_4,homozygous,2,euploid
3,North American Oak,AND,AND_4,homozygous,2,euploid
4,North American Oak,ANE,ANE_4,homozygous,2,euploid
5,North American Oak,ANF,ANF_4,homozygous,2,euploid
6,North American Oak,ANG,ANG_4,homozygous,2,euploid
7,North American Oak,ANH,ANH_4,homozygous,2,euploid
8,North American Oak,ANI,ANI_4,homozygous,2,euploid
9,North American Oak,ANK,ANK_4,homozygous,2,euploid
10,North American Oak,AVI,AVI_5,homozygous,2,euploid
11,North American Oak,SACE_YBS,YBS,homozygous,2,euploid
12,North American Oak,SACE_YCU,YCU,homozygous,2,euploid
0,Sake,AAD,AAD_6,homozygous,2,aneu;+2*8;
1,Sake,ADQ,ADQ_4,homozygous,1,euploid
2,Sake,AFM,AFM_5,homozygous,1,euploid
3,Sake,ANR,ANR_2,heterozygous,2,aneu;+1*1;
4,Sake,ANT,ANT_2,heterozygous,2,aneu;+1*1;+1*8;
5,Sake,APA,APA_2,heterozygous,2,euploid
6,Sake,APD,APD_4,heterozygous,2,aneu;+1*9;
7,Sake,APF,APF_4,heterozygous,2,euploid
8,Sake,AVC,AVC_3,heterozygous,2,aneu;-1*1;+1*9;+1*15;
9,Sake,AVL,AVL_6,heterozygous,2,aneu;+1*3;
10,Sake,BTS,BTS_3,heterozygous,2,aneu;+1*11;
11,Sake,CLK,CLK_4,heterozygous,2,aneu;+2*9;
12,Sake,CLM,CLM_4,heterozygous,2,aneu;+1*3;
13,Sake,CLP,CLP_4,heterozygous,2,euploid
14,Sake,CLR,CLR_4,heterozygous,2,euploid
15,Sake,CLT,CLT_5,heterozygous,2,aneu;+1*9;
16,Sake,CMB,CMB_6,heterozygous,2,aneu;+1*11;
17,Sake,CMD,CMD_6,heterozygous,2,aneu;+1*3;+1*9;
18,Sake,CMF,CMF_6,heterozygous,2,aneu;+1*3;
19,Sake,CMI,CMI_6,heterozygous,2,euploid
20,Sake,CML,CML_8,homozygous,2,aneu;-1*1;
21,Sake,CMN,CMN_8,heterozygous,2,aneu;+1*1;
22,Sake,CQR,CQR_4,heterozygous,2,aneu;+1*3;
23,Sake,ADN,ADN_4,homozygous,1,euploid
24,Sake,AEF,AEF_8,homozygous,1,euploid
25,Sake,AFN,AFN_4,homozygous,1,euploid
26,Sake,ANS,ANS_2,heterozygous,2,euploid
27,Sake,ANV,ANV_5,heterozygous,2,aneu;+1*1;+1*8;
28,Sake,APC,APC_4,heterozygous,2,euploid
29,Sake,APE,APE_4,heterozygous,2,aneu;+1*3;+1*11;
30,Sake,AQN,AQN_7,heterozygous,2,euploid
31,Sake,AVD,AVD_3,heterozygous,2,aneu;+1*3;+1*11;
32,Sake,AVM,AVM_5,heterozygous,2,aneu;+1*3;+1*11;
33,Sake,CLI,CLI_4,heterozygous,2,euploid
34,Sake,CLL,CLL_4,heterozygous,2,euploid
35,Sake,CLN,CLN_4,homozygous,2,euploid
36,Sake,CLQ,CLQ_4,homozygous,1,aneu;+1*1;
37,Sake,CLS,CLS_4,heterozygous,2,euploid
38,Sake,CLV,CLV_5,heterozygous,2,aneu;+1*3;+1*9;
39,Sake,CMC,CMC_6,heterozygous,2,aneu;+1*14;
40,Sake,CME,CME_6,heterozygous,2,aneu;+1*9;
41,Sake,CMH,CMH_6,heterozygous,2,euploid
42,Sake,CMK,CMK_6,heterozygous,2,euploid
43,Sake,CMM,CMM_8,heterozygous,2,aneu;+1*3;
44,Sake,CQQ,CQQ_4,heterozygous,2,aneu;+1*3;
