time_index	left_time_boundary	right_time_boundary	lambda
0	0	3.53767e-06	23846.4
1	3.53767e-06	7.71934e-06	23846.4
2	7.71934e-06	1.26623e-05	23846.4
3	1.26623e-05	1.8505e-05	23846.4
4	1.8505e-05	2.54113e-05	23846.4
5	2.54113e-05	3.35749e-05	58.8569
6	3.35749e-05	4.32246e-05	300.186
7	4.32246e-05	5.46309e-05	1142.8
8	5.46309e-05	6.81136e-05	2671.06
9	6.81136e-05	8.40508e-05	4240.14
10	8.40508e-05	0.000102889	5178.71
11	0.000102889	0.000125157	5365.14
12	0.000125157	0.000151478	4931.48
13	0.000151478	0.000182591	4224.18
14	0.000182591	0.000219368	3625.99
15	0.000219368	0.00026284	3148.08
16	0.00026284	0.000314225	2561.23
17	0.000314225	0.000374964	1798.08
18	0.000374964	0.000446761	1078.7
19	0.000446761	0.000531627	594.85
20	0.000531627	0.000631943	340.428
21	0.000631943	0.00075052	233.462
22	0.00075052	0.000890683	222.652
23	0.000890683	0.00105636	350.663
24	0.00105636	0.0012522	7813.94
25	0.0012522	0.00148369	5.14579
26	0.00148369	0.00175732	5.14579
27	0.00175732	0.00208076	5.14579
28	0.00208076	0.00246309	5.14579
29	0.00246309	inf	5.14579
