time_index	left_time_boundary	right_time_boundary	lambda
0	0	9.37784e-07	164962
1	9.37784e-07	2.04628e-06	164962
2	2.04628e-06	3.35658e-06	164962
3	3.35658e-06	4.9054e-06	164962
4	4.9054e-06	6.73616e-06	164962
5	6.73616e-06	8.90021e-06	58324.4
6	8.90021e-06	1.14582e-05	15539.4
7	1.14582e-05	1.44818e-05	3128.87
8	1.44818e-05	1.80559e-05	746.705
9	1.80559e-05	2.22806e-05	463.97
10	2.22806e-05	2.72744e-05	701.904
11	2.72744e-05	3.31772e-05	1531.36
12	3.31772e-05	4.01546e-05	3134.25
13	4.01546e-05	4.84022e-05	4799.9
14	4.84022e-05	5.81512e-05	5036.24
15	5.81512e-05	6.96749e-05	3824.99
16	6.96749e-05	8.32963e-05	2647.17
17	8.32963e-05	9.93975e-05	2133.36
18	9.93975e-05	0.00011843	2027.31
19	0.00011843	0.000140927	1838.37
20	0.000140927	0.000167519	1355.33
21	0.000167519	0.000198952	908.723
22	0.000198952	0.000236107	808.339
23	0.000236107	0.000280026	1605.37
24	0.000280026	0.00033194	30537.1
25	0.00033194	0.000393304	67.8327
26	0.000393304	0.00046584	67.8327
27	0.00046584	0.00055158	67.8327
28	0.00055158	0.000652927	67.8327
29	0.000652927	inf	67.8327
