time_index	left_time_boundary	right_time_boundary	lambda
0	0	2.68707e-06	42141.1
1	2.68707e-06	5.86329e-06	42141.1
2	5.86329e-06	9.61771e-06	42141.1
3	9.61771e-06	1.40556e-05	42141.1
4	1.40556e-05	1.93014e-05	42141.1
5	1.93014e-05	2.55021e-05	346.214
6	2.55021e-05	3.28316e-05	407.888
7	3.28316e-05	4.14953e-05	840.095
8	4.14953e-05	5.17362e-05	1874.41
9	5.17362e-05	6.38414e-05	3537.49
10	6.38414e-05	7.81502e-05	5177.03
11	7.81502e-05	9.50639e-05	5946.23
12	9.50639e-05	0.000115056	5670.66
13	0.000115056	0.000138689	4767.13
14	0.000138689	0.000166623	3777.96
15	0.000166623	0.000199642	3021.82
16	0.000199642	0.000238672	2476.95
17	0.000238672	0.000284807	1978.82
18	0.000284807	0.000339341	1452.32
19	0.000339341	0.000403802	981.694
20	0.000403802	0.000479997	671.11
21	0.000479997	0.000570064	540.938
22	0.000570064	0.000676526	602.413
23	0.000676526	0.000802368	1117.96
24	0.000802368	0.000951119	27196.8
25	0.000951119	0.00112695	6.77471
26	0.00112695	0.00133479	6.77471
27	0.00133479	0.00158046	6.77471
28	0.00158046	0.00187086	6.77471
29	0.00187086	inf	6.77471
