time_index	left_time_boundary	right_time_boundary	lambda
0	0	1.2311e-06	87469.5
1	1.2311e-06	2.6863e-06	87469.5
2	2.6863e-06	4.40642e-06	87469.5
3	4.40642e-06	6.43966e-06	87469.5
4	6.43966e-06	8.84304e-06	87469.5
5	8.84304e-06	1.16839e-05	33111.3
6	1.16839e-05	1.5042e-05	14329.6
7	1.5042e-05	1.90113e-05	8008.61
8	1.90113e-05	2.37033e-05	5659.61
9	2.37033e-05	2.92494e-05	4645.44
10	2.92494e-05	3.5805e-05	4590.28
11	3.5805e-05	4.35541e-05	5325.01
12	4.35541e-05	5.27139e-05	6288.17
13	5.27139e-05	6.3541e-05	6964.93
14	6.3541e-05	7.63392e-05	7440.4
15	7.63392e-05	9.14672e-05	7698.14
16	9.14672e-05	0.000109349	7266.65
17	0.000109349	0.000130486	6049.08
18	0.000130486	0.000155471	4324.53
19	0.000155471	0.000185004	2516.81
20	0.000185004	0.000219914	1333.41
21	0.000219914	0.000261178	917.803
22	0.000261178	0.000309955	1190.7
23	0.000309955	0.00036761	3808.04
24	0.00036761	0.000435761	26671
25	0.000435761	0.000516319	14.7869
26	0.000516319	0.000611541	14.7869
27	0.000611541	0.000724098	14.7869
28	0.000724098	0.000857145	14.7869
29	0.000857145	inf	14.7869
