time_index	left_time_boundary	right_time_boundary	lambda
0	0	7.76463e-07	87375.7
1	7.76463e-07	1.69427e-06	87375.7
2	1.69427e-06	2.77916e-06	87375.7
3	2.77916e-06	4.06155e-06	87375.7
4	4.06155e-06	5.57738e-06	87375.7
5	5.57738e-06	7.36915e-06	573047
6	7.36915e-06	9.48711e-06	65328.4
7	9.48711e-06	1.19906e-05	46539.9
8	1.19906e-05	1.49499e-05	23552.8
9	1.49499e-05	1.84478e-05	5301.4
10	1.84478e-05	2.25825e-05	1333.98
11	2.25825e-05	2.74699e-05	805.487
12	2.74699e-05	3.32471e-05	1093.32
13	3.32471e-05	4.00759e-05	2110.74
14	4.00759e-05	4.81478e-05	3894.83
15	4.81478e-05	5.76891e-05	5392.28
16	5.76891e-05	6.89673e-05	4856.41
17	6.89673e-05	8.22987e-05	2864.9
18	8.22987e-05	9.80569e-05	1495.64
19	9.80569e-05	0.000116684	1038.82
20	0.000116684	0.000138701	1076.09
21	0.000138701	0.000164727	1398.75
22	0.000164727	0.000195491	2057.68
23	0.000195491	0.000231855	4270.44
24	0.000231855	0.000274838	15186.4
25	0.000274838	0.000325647	924.114
26	0.000325647	0.000385704	924.114
27	0.000385704	0.000456694	924.114
28	0.000456694	0.000540608	924.114
29	0.000540608	inf	924.114
