time_index	left_time_boundary	right_time_boundary	lambda
0	0	8.00091e-07	126762
1	8.00091e-07	1.74583e-06	126762
2	1.74583e-06	2.86373e-06	126762
3	2.86373e-06	4.18514e-06	126762
4	4.18514e-06	5.7471e-06	126762
5	5.7471e-06	7.5934e-06	151929
6	7.5934e-06	9.7758e-06	119495
7	9.7758e-06	1.23555e-05	64043.1
8	1.23555e-05	1.54048e-05	29888.9
9	1.54048e-05	1.90092e-05	15200.2
10	1.90092e-05	2.32697e-05	9968.93
11	2.32697e-05	2.83059e-05	8496.45
12	2.83059e-05	3.42588e-05	7961.76
13	3.42588e-05	4.12954e-05	6726.81
14	4.12954e-05	4.96129e-05	4737.87
15	4.96129e-05	5.94446e-05	3062.54
16	5.94446e-05	7.1066e-05	2185.24
17	7.1066e-05	8.48031e-05	1873.86
18	8.48031e-05	0.000101041	1720.86
19	0.000101041	0.000120234	1390.83
20	0.000120234	0.000142922	954.484
21	0.000142922	0.00016974	695.73
22	0.00016974	0.00020144	743.463
23	0.00020144	0.00023891	1652.89
24	0.00023891	0.000283202	24129.3
25	0.000283202	0.000335556	22.7526
26	0.000335556	0.000397441	22.7526
27	0.000397441	0.000470592	22.7526
28	0.000470592	0.000557059	22.7526
29	0.000557059	inf	22.7526
