time_index	left_time_boundary	right_time_boundary	lambda
0	0	8.64456e-07	305525
1	8.64456e-07	1.88628e-06	305525
2	1.88628e-06	3.09412e-06	305525
3	3.09412e-06	4.52183e-06	305525
4	4.52183e-06	6.20944e-06	305525
5	6.20944e-06	8.20427e-06	41149.5
6	8.20427e-06	1.05622e-05	66285.1
7	1.05622e-05	1.33495e-05	67350.2
8	1.33495e-05	1.66441e-05	28862.8
9	1.66441e-05	2.05384e-05	9767.3
10	2.05384e-05	2.51417e-05	4458.69
11	2.51417e-05	3.0583e-05	2878.74
12	3.0583e-05	3.70148e-05	2434.53
13	3.70148e-05	4.46175e-05	2563.08
14	4.46175e-05	5.36042e-05	3031.43
15	5.36042e-05	6.42268e-05	3291.02
16	6.42268e-05	7.67832e-05	2671.72
17	7.67832e-05	9.16253e-05	1668.6
18	9.16253e-05	0.000109169	1104.14
19	0.000109169	0.000129907	1002.89
20	0.000129907	0.00015442	1171.77
21	0.00015442	0.000183395	1446.24
22	0.000183395	0.000217645	1800.04
23	0.000217645	0.00025813	3009.52
24	0.00025813	0.000305985	28883.3
25	0.000305985	0.000362551	21.2449
26	0.000362551	0.000429414	21.2449
27	0.000429414	0.00050845	21.2449
28	0.00050845	0.000601873	21.2449
29	0.000601873	inf	21.2449
