time_index	left_time_boundary	right_time_boundary	lambda
0	0	1.04941e-06	123650
1	1.04941e-06	2.28985e-06	123650
2	2.28985e-06	3.7561e-06	123650
3	3.7561e-06	5.48927e-06	123650
4	5.48927e-06	7.53795e-06	123650
5	7.53795e-06	9.95957e-06	90085.7
6	9.95957e-06	1.2822e-05	57565.9
7	1.2822e-05	1.62056e-05	32695.8
8	1.62056e-05	2.02051e-05	16545.2
9	2.02051e-05	2.49326e-05	9334.38
10	2.49326e-05	3.05208e-05	6666.28
11	3.05208e-05	3.71262e-05	5847.1
12	3.71262e-05	4.49341e-05	5771.97
13	4.49341e-05	5.41634e-05	5936.52
14	5.41634e-05	6.50727e-05	6028.72
15	6.50727e-05	7.79681e-05	5837.35
16	7.79681e-05	9.32109e-05	5258.58
17	9.32109e-05	0.000111228	4321.61
18	0.000111228	0.000132526	3205.73
19	0.000132526	0.000157701	2179.78
20	0.000157701	0.000187458	1464.74
21	0.000187458	0.000222632	1135.6
22	0.000222632	0.00026421	1244.53
23	0.00026421	0.000313357	2558.95
24	0.000313357	0.00037145	44425.9
25	0.00037145	0.000440118	17.3471
26	0.000440118	0.000521287	17.3471
27	0.000521287	0.000617232	17.3471
28	0.000617232	0.000730643	17.3471
29	0.000730643	inf	17.3471
