time_index	left_time_boundary	right_time_boundary	lambda
0	0	9.65694e-08	1.0396e+06
1	9.65694e-08	2.21476e-07	1.0396e+06
2	2.21476e-07	3.83035e-07	1.0396e+06
3	3.83035e-07	5.92002e-07	1.0396e+06
4	5.92002e-07	8.62287e-07	1.0396e+06
5	8.62287e-07	1.21189e-06	68212.9
6	1.21189e-06	1.66407e-06	27303.4
7	1.66407e-06	2.24894e-06	12850.1
8	2.24894e-06	3.00544e-06	6813.33
9	3.00544e-06	3.98392e-06	4096.26
10	3.98392e-06	5.24952e-06	2857.62
11	5.24952e-06	6.8865e-06	2314.33
12	6.8865e-06	9.00384e-06	2111.28
13	9.00384e-06	1.17425e-05	2039.03
14	1.17425e-05	1.52848e-05	1930.04
15	1.52848e-05	1.98665e-05	1718.95
16	1.98665e-05	2.57926e-05	1427.72
17	2.57926e-05	3.34577e-05	1087.07
18	3.34577e-05	4.33721e-05	745.359
19	4.33721e-05	5.61957e-05	461.808
20	5.61957e-05	7.27823e-05	267.902
21	7.27823e-05	9.4236e-05	158.854
22	9.4236e-05	0.000121985	108.686
23	0.000121985	0.000157877	99.6812
24	0.000157877	0.0002043	148.546
25	0.0002043	0.000264347	20.2575
26	0.000264347	0.000342013	20.2575
27	0.000342013	0.000442469	20.2575
28	0.000442469	0.000572403	20.2575
29	0.000572403	inf	20.2575
