time_index	left_time_boundary	right_time_boundary	lambda
0	0	6.25583e-07	13755.8
1	6.25583e-07	1.36505e-06	13755.8
2	1.36505e-06	2.23913e-06	13755.8
3	2.23913e-06	3.27232e-06	13755.8
4	3.27232e-06	4.4936e-06	13755.8
5	4.4936e-06	5.9372e-06	29.0995
6	5.9372e-06	7.6436e-06	29.0994
7	7.6436e-06	9.66063e-06	29.0994
8	9.66063e-06	1.20448e-05	29.0994
9	1.20448e-05	1.48631e-05	29.0994
10	1.48631e-05	1.81944e-05	29.0994
11	1.81944e-05	2.21321e-05	29.0994
12	2.21321e-05	2.67866e-05	29.0994
13	2.67866e-05	3.22884e-05	29.0994
14	3.22884e-05	3.87918e-05	29.0994
15	3.87918e-05	4.64791e-05	29.0994
16	4.64791e-05	5.55658e-05	29.0994
17	5.55658e-05	6.63067e-05	29.0994
18	6.63067e-05	7.90028e-05	29.0994
19	7.90028e-05	9.40101e-05	29.0994
20	9.40101e-05	0.000111749	29.0994
21	0.000111749	0.000132718	29.0994
22	0.000132718	0.000157504	29.0994
23	0.000157504	0.000186801	29.0994
24	0.000186801	0.000221433	29.0994
25	0.000221433	0.000262368	29.0994
26	0.000262368	0.000310755	29.0994
27	0.000310755	0.000367951	29.0994
28	0.000367951	0.000435559	29.0994
29	0.000435559	inf	29.0994
