time_index	left_time_boundary	right_time_boundary	lambda
0	0	5.7807e-07	9156.5
1	5.7807e-07	1.26137e-06	9156.5
2	1.26137e-06	2.06907e-06	9156.5
3	2.06907e-06	3.02379e-06	9156.5
4	3.02379e-06	4.15231e-06	9156.5
5	4.15231e-06	5.48628e-06	31.4912
6	5.48628e-06	7.06307e-06	31.4912
7	7.06307e-06	8.92691e-06	31.4912
8	8.92691e-06	1.113e-05	31.4912
9	1.113e-05	1.37342e-05	31.4912
10	1.37342e-05	1.68125e-05	31.4912
11	1.68125e-05	2.04512e-05	31.4912
12	2.04512e-05	2.47522e-05	31.4912
13	2.47522e-05	2.98362e-05	31.4912
14	2.98362e-05	3.58456e-05	31.4912
15	3.58456e-05	4.29491e-05	31.4912
16	4.29491e-05	5.13456e-05	31.4912
17	5.13456e-05	6.12707e-05	31.4912
18	6.12707e-05	7.30026e-05	31.4912
19	7.30026e-05	8.68701e-05	35.9905
20	8.68701e-05	0.000103262	47.7485
21	0.000103262	0.000122638	88.7773
22	0.000122638	0.000145541	109.253
23	0.000145541	0.000172614	118.82
24	0.000172614	0.000204615	103.493
25	0.000204615	0.000242441	31.4912
26	0.000242441	0.000287154	31.4912
27	0.000287154	0.000340005	31.4912
28	0.000340005	0.000402478	31.4912
29	0.000402478	inf	31.4912
