Chr	Start	Stop	BlockSize	BlockLength
XIV	7829	7889	8	63
XIV	8111	8196	8	85
XIV	8946	10819	8	1953
XIV	10819	12185	8	1366
XIV	12185	12923	8	738
XIV	13416	14824	8	1412
XIV	14824	14926	8	102
XIV	14926	14990	8	64
XIV	15014	15078	8	64
XIV	15078	15836	8	758
XIV	15836	16399	8	563
XIV	16783	96672	8	80116
XIV	102461	252523	8	150394
XIV	252523	257512	8	4989
XIV	257512	519180	8	262030
XIV	525086	546737	8	21689
XIV	547082	561289	8	14243
XIV	561289	561662	8	377
XIV	568003	568105	8	102
XIV	568154	572435	8	4302
XIV	572575	598229	8	25658
XIV	598229	599753	8	1525
XIV	602110	632125	8	30082
XIV	632125	632163	8	38
XIV	632163	632290	8	127
XIV	632290	632331	8	41
XIV	632429	726255	8	94207
XIV	726255	726296	8	41
XIV	726940	751090	8	24161
XIV	753205	772616	8	19491
XIV	773603	773808	8	205
XIV	773808	773937	8	129
XIV	773937	774102	8	165
XIV	774221	774439	8	218
XIV	774502	774560	8	58
XIV	774624	774736	8	112
XIV	774736	774824	8	88
XIV	774824	774860	8	36
XIV	774860	774924	8	64
XIV	774967	775010	8	43
XIV	775010	775104	8	94
XIV	776300	781410	8	5127
XIV	782810	783004	8	195
I	2437	11806	8	9432
I	11814	12426	8	633
I	12467	12547	8	80
I	12547	12656	8	109
I	12860	13185	8	334
I	24986	25053	8	67
I	26485	26510	8	25
I	26741	139764	8	113179
I	139764	160299	8	20554
I	166100	183149	8	17198
I	183149	184723	8	1598
I	184723	186876	8	3283
I	186876	187152	8	276
I	188300	198707	8	10437
I	198707	204383	8	6049
I	206721	207089	8	443
I	207089	207130	8	41
I	207130	207269	8	139
I	207842	207937	8	95
I	207937	223145	8	15362
I	223258	223321	8	63
I	228064	229095	8	1109
X	13208	16827	8	3619
X	19179	19366	8	187
X	19366	19409	8	54
X	19465	23202	8	3741
X	23811	24414	8	606
X	24454	27048	8	2594
X	27048	59073	8	32111
X	59159	59183	8	61
X	59391	153522	8	94258
X	153522	197507	8	43996
X	204108	204723	8	617
X	204793	233928	8	29152
X	233928	354605	8	120968
X	354708	378296	8	23592
X	378296	415981	8	37865
X	415981	454022	8	38069
X	454264	472462	8	18301
X	483977	538097	8	54126
X	538434	540925	8	2491
X	541031	541089	8	58
X	541427	543011	8	1675
X	543011	543056	8	45
X	543056	702030	8	159350
X	702030	728103	8	26874
X	728544	728624	8	80
X	729739	729955	8	217
X	729955	743399	8	13609
X	744655	744686	8	31
X	744686	744741	8	55
X	744741	744814	8	73
VII	300	686	8	409
VII	866	928	8	106
VII	1032	1193	8	477
VII	1421	2028	8	607
VII	2028	2092	8	64
VII	2092	2355	8	263
VII	2355	2738	8	472
VII	2738	6333	8	3596
VII	7225	110833	8	103752
VII	111505	254655	8	143616
VII	254655	319415	8	64835
VII	319760	328658	8	8937
VII	328658	364467	8	35850
VII	364892	401616	8	36745
VII	401890	401904	8	21
VII	405159	405232	8	75
VII	405232	535219	8	130292
VII	541624	541681	8	57
VII	541681	561755	8	20080
VII	567972	568741	8	769
VII	574706	707189	8	132691
VII	712545	731125	8	18597
VII	731216	735989	8	4790
VII	736327	763822	8	27504
VII	763822	794393	8	30612
VII	794427	811440	8	17023
VII	823323	876102	8	52860
VII	876152	876375	8	223
VII	876414	931192	8	54858
VII	931192	931250	8	59
VII	931477	931541	8	64
VII	931541	931682	8	141
VII	932019	1000925	8	68965
VII	1000925	1067897	8	67113
VII	1067960	1068218	8	258
VII	1068538	1068767	8	229
VII	1068767	1076129	8	7374
VII	1077764	1080392	8	2646
VII	1080626	1081322	8	706
VII	1081322	1081483	8	167
VII	1081991	1082064	8	73
XVI	6709	6979	8	289
XVI	7410	7935	8	531
XVI	8327	14494	8	6303
XVI	14494	14771	8	277
XVI	14888	18249	8	3464
XVI	18249	23021	8	4788
XVI	23021	53048	8	30042
XVI	53084	56358	8	3343
XVI	63068	63976	8	920
XVI	63976	96760	8	32799
XVI	96760	135804	8	39132
XVI	135804	174144	8	38398
XVI	174207	174569	8	362
XVI	174569	210355	8	35802
XVI	210355	377393	8	167150
XVI	377911	435954	8	58067
XVI	435954	436889	8	937
XVI	443117	560257	8	117288
XVI	560306	582119	8	21830
XVI	582119	700593	8	118655
XVI	700593	769326	8	68774
XVI	769665	775927	8	6351
XVI	775927	804645	8	28947
XVI	810454	810568	8	114
XVI	810568	837966	8	27446
XVI	837966	844446	8	6482
XVI	856416	860028	8	3613
XVI	860028	880348	8	20329
XVI	880348	942244	8	61924
XVI	942244	942345	8	101
XVI	942345	942431	8	86
XVI	942514	942576	8	78
VIII	6343	11937	8	5597
VIII	12114	12154	8	40
VIII	12154	35294	8	23167
VIII	35294	85557	8	50447
VIII	85557	85571	8	14
VIII	85888	85909	8	21
VIII	92127	116420	8	24543
VIII	116420	116503	8	83
VIII	116749	146332	8	29968
VIII	146332	146475	8	204
VIII	146671	192967	8	46543
VIII	193262	194167	8	907
VIII	194299	194462	8	163
VIII	194525	212265	8	17747
VIII	214263	229607	8	15350
VIII	230017	358730	8	128825
VIII	358730	451325	8	92707
VIII	451325	475933	8	24731
VIII	475933	504479	8	28556
VIII	504479	526360	8	21909
VIII	526378	526905	8	1077
VIII	526905	528621	8	1811
VIII	528621	528705	8	86
VIII	539617	539647	8	30
VIII	549781	549894	8	113
VIII	549894	549995	8	118
VIII	549995	551389	8	1395
VIII	551516	553355	8	1839
VIII	553424	554758	8	1334
VIII	555823	556046	8	224
VIII	556046	556914	8	878
IV	939	960	8	21
IV	17208	17660	8	452
IV	17660	17723	8	63
IV	17930	44529	8	26663
IV	44529	127635	8	83425
IV	128997	133772	8	4776
IV	133772	227770	8	94085
IV	227770	329641	8	101915
IV	329666	384019	8	54442
IV	384019	384185	8	518
IV	384185	384224	8	54
IV	384224	434425	8	50269
IV	434902	437143	8	2257
IV	437518	471851	8	34381
IV	471851	512987	8	41278
IV	519317	527249	8	8145
IV	535010	645227	8	110278
IV	645501	645563	8	62
IV	645591	645835	8	244
IV	651497	668966	8	17505
IV	668966	757444	8	88537
IV	757444	757547	8	137
IV	757547	757607	8	60
IV	757622	757636	8	14
IV	757699	757736	8	37
IV	759701	802924	8	43286
IV	805524	871835	8	66388
IV	877799	878302	8	504
IV	884225	884402	8	177
IV	884402	884587	8	185
IV	884587	945954	8	61398
IV	946300	946371	8	71
IV	946371	981492	8	35170
IV	991101	1023136	8	32126
IV	1023482	1087853	8	64409
IV	1087853	1088326	8	473
IV	1088326	1095766	8	7444
IV	1101697	1150902	8	49380
IV	1150902	1154646	8	3763
IV	1154663	1154959	8	296
IV	1154959	1155130	8	171
IV	1155380	1159752	8	4411
IV	1161068	1163184	8	2146
IV	1163252	1175310	8	12132
IV	1175647	1206699	8	31059
IV	1212622	1243229	8	30611
IV	1243229	1257090	8	13862
IV	1257090	1352629	8	95757
IV	1352966	1523359	8	170669
IV	1524332	1524548	8	217
IV	1524606	1524759	8	198
IV	1524759	1524857	8	98
XV	293	443	8	152
XV	809	957	8	185
XV	957	989	8	32
XV	1121	2038	8	917
XV	2657	2745	8	119
XV	11998	22585	8	10816
XV	22585	22803	8	218
XV	22921	23880	8	1062
XV	24045	25303	8	1262
XV	27072	110864	8	84078
XV	110864	113707	8	2910
XV	113786	117691	8	4047
XV	123622	218393	8	94946
XV	218462	438171	8	220072
XV	438171	438691	8	520
XV	438691	575097	8	136559
XV	575097	594823	8	19733
XV	600742	640414	8	39686
XV	640414	664812	8	24404
XV	665150	703512	8	38392
XV	710108	854276	8	144204
XV	854621	970285	8	115768
XV	976257	980259	8	4011
XV	980596	1071109	8	90671
XV	1072621	1076314	8	3694
V	6378	6638	8	260
V	6638	6748	8	111
V	6748	19530	8	12807
V	22880	23123	8	243
V	23123	63784	8	40678
V	63978	64142	8	164
V	64142	86426	8	22294
V	86607	225786	8	139258
V	225786	249923	8	24197
V	250269	277758	8	27581
V	277931	289835	8	11994
V	289835	354446	8	64823
V	354610	354623	8	108
V	354623	363243	8	8633
V	363306	363640	8	334
V	363703	431531	8	67984
V	431861	434625	8	2766
V	434971	436007	8	1036
V	436262	438575	8	2375
V	438575	443396	8	5010
V	449742	487833	8	38135
V	488170	492438	8	4271
V	498515	566702	8	68199
V	566702	566955	8	255
V	569021	569070	8	49
V	569454	569543	8	89
V	569733	570297	8	736
XII	12332	12357	8	25
XII	13465	47898	8	34620
XII	48401	92532	8	44224
XII	92532	95818	8	3412
XII	95818	122035	8	26548
XII	122035	215073	8	93514
XII	221004	373998	8	153219
XII	374343	451417	8	77563
XII	451778	451835	8	57
XII	459762	459810	8	48
XII	459810	459834	8	24
XII	459834	459845	8	11
XII	459845	459898	8	53
XII	459925	459946	8	21
XII	459946	460039	8	93
XII	460039	460127	8	88
XII	460127	460227	8	100
XII	460227	460249	8	22
XII	460329	460401	8	72
XII	460401	460421	8	20
XII	460421	460541	8	120
XII	460541	460568	8	27
XII	464249	464313	8	64
XII	464324	464390	8	66
XII	464390	464457	8	67
XII	464520	464584	8	64
XII	464584	464614	8	30
XII	464663	464705	8	42
XII	464705	464769	8	64
XII	464791	464846	8	55
XII	464846	464917	8	71
XII	464917	464981	8	64
XII	464981	465027	8	46
XII	465027	465154	8	127
XII	466891	466904	8	13
XII	466904	466946	8	42
XII	466946	467013	8	67
XII	467028	467050	8	22
XII	467068	467136	8	68
XII	467136	467147	8	11
XII	467147	467217	8	70
XII	467217	467236	8	19
XII	467236	467248	8	12
XII	467248	467302	8	54
XII	467302	467390	8	88
XII	467390	467407	8	17
XII	467471	467511	8	40
XII	467511	467538	8	27
XII	467538	467611	8	73
XII	467611	467675	8	64
XII	467675	467692	8	17
XII	467729	467743	8	14
XII	467764	467801	8	37
XII	467801	467865	8	64
XII	467865	467902	8	37
XII	468014	468050	8	36
XII	468116	468135	8	19
XII	468135	468249	8	114
XII	468249	468345	8	96
XII	468345	468370	8	25
XII	468370	468412	8	42
XII	468412	468435	8	23
XII	468476	468487	8	11
XII	468487	468537	8	50
XII	468537	468618	8	81
XII	468618	468685	8	67
XII	468685	468775	8	90
XII	468775	468925	8	150
XII	489390	489480	8	90
XII	490524	592569	8	102123
XII	592770	592904	8	222
XII	592904	593132	8	228
XII	599055	650823	8	51829
XII	656748	688113	8	31391
XII	688113	697228	8	9115
XII	697228	941191	8	244752
XII	947155	976257	8	29198
XII	981697	1002919	8	21226
XII	1002919	1003706	8	787
XII	1003845	1059329	8	55524
XII	1059838	1060318	8	480
XII	1061307	1061338	8	31
XII	1061338	1061380	8	42
XII	1061380	1061402	8	22
XII	1061703	1061836	8	133
XII	1061836	1061953	8	117
XII	1061953	1062080	8	127
XII	1063840	1063884	8	44
XIII	6596	168348	8	162186
XIII	168686	184164	8	15560
XIII	190083	196331	8	6255
XIII	202119	237261	8	35159
XIII	237261	357005	8	119978
XIII	362924	372690	8	9767
XIII	378621	379353	8	732
XIII	379353	599553	8	220844
XIII	599963	600215	8	252
XIII	600215	600278	8	63
XIII	600278	601763	8	1508
XIII	601826	602111	8	285
XIII	602837	609775	8	7211
XIII	609775	632663	8	22994
XIII	632663	808547	8	176154
XIII	808924	917896	8	109670
XIII	924111	924200	8	89
XI	2158	144877	8	143111
XI	144915	202638	8	57808
XI	202983	313459	8	110714
XI	313482	313596	8	114
XI	313918	458134	8	144286
XI	458471	513642	8	55299
XI	513728	517478	8	3857
XI	517737	517779	8	42
XI	517779	518048	8	269
XI	518130	555046	8	36993
XI	555046	578948	8	23908
XI	579012	647401	8	68409
XI	647401	647470	8	69
XI	647470	647500	8	30
XI	647500	647639	8	139
XI	647762	648038	8	285
XI	648038	648101	8	63
XI	648101	661350	8	13284
XI	661464	663334	8	1875
XI	663334	663489	8	155
XI	663557	665429	8	1881
XI	665429	665675	8	247
XI	665675	665995	8	466
VI	6601	6680	8	79
VI	10278	10908	8	630
VI	14451	14502	8	51
VI	14565	30088	8	15556
VI	30088	101359	8	71364
VI	101359	117415	8	16081
VI	117415	137662	8	20248
VI	143542	161954	8	18426
VI	161954	180983	8	19125
VI	181213	181719	8	723
VI	181719	210392	8	28700
VI	210392	220663	8	10351
VI	221001	266225	8	46019
III	848	1079	8	443
III	1115	1430	8	315
III	11218	12301	8	1084
III	14000	84815	8	70893
III	90779	124107	8	33377
III	124450	142668	8	18235
III	142710	151298	8	8692
III	151782	168427	8	16700
III	169544	198670	8	29146
III	200103	200913	8	810
III	200956	201061	8	105
III	201061	201097	8	36
III	201160	268912	8	68011
III	268912	293031	8	24286
III	293128	294378	8	1250
III	294378	294484	8	106
III	294484	295253	8	769
III	295253	303907	8	8657
III	305224	305288	8	64
III	305389	305455	8	66
III	305455	305768	8	313
III	306538	306621	8	83
III	306621	306860	8	260
III	307240	314344	8	7123
III	315671	315777	8	106
II	6454	6688	8	235
II	8540	9277	8	737
II	9279	29638	8	20451
II	35602	35845	8	243
II	36221	88521	8	52395
II	88918	197509	8	108656
II	197509	197650	8	142
II	198054	221047	8	23006
II	227103	259571	8	32483
II	265493	300039	8	34565
II	300164	347590	8	47536
II	347590	347628	8	38
II	347663	428769	8	81174
II	428769	477670	8	48934
II	477670	591751	8	114545
II	591751	643068	8	51323
II	643068	643481	8	515
II	644428	645148	8	727
II	645226	801929	8	157002
II	801929	801940	8	11
II	801940	802518	8	662
II	803762	809143	8	5382
IX	21253	128454	8	107478
IX	128567	175052	8	46738
IX	175052	183452	8	8402
IX	197202	205222	8	8141
IX	210655	246219	8	35627
IX	246557	300616	8	54090
IX	301452	317437	8	16021
IX	317437	317775	8	338
IX	317775	325129	8	7417
IX	325129	391174	8	66244
IX	391944	392137	8	222
IX	392369	392625	8	370
IX	392625	392638	8	90
IX	392696	432591	8	40172
IX	432591	433687	8	1101
IX	434281	438308	8	4094
IX	439311	439382	8	72
IX	439382	439451	8	70
IX	439451	439510	8	61
Mito	140	256	8	131
Mito	259	329	8	94
Mito	329	400	8	76
Mito	400	458	8	66
Mito	458	684	8	269
Mito	684	738	8	380
Mito	738	832	8	116
Mito	832	910	8	91
Mito	910	957	8	67
Mito	957	991	8	59
Mito	991	1181	8	221
Mito	1181	1186	8	159
Mito	1186	1297	8	154
Mito	1297	1447	8	160
Mito	1447	1498	8	68
Mito	1498	1549	8	77
Mito	1549	1580	8	37
Mito	1580	1639	8	72
Mito	1639	1682	8	50
Mito	1682	1767	8	86
Mito	1767	1906	8	251
Mito	1933	2052	8	174
Mito	2052	2117	8	97
Mito	2117	2196	8	85
Mito	2196	2281	8	94
Mito	2281	2303	8	25
Mito	2303	2384	8	84
Mito	2384	2462	8	82
Mito	2462	2499	8	41
Mito	2499	2734	8	242
Mito	2734	2928	8	211
Mito	2928	2958	8	35
Mito	2958	3060	8	150
Mito	3060	3149	8	89
Mito	3149	3190	8	74
Mito	3190	3223	8	34
Mito	3223	3257	8	47
Mito	3257	3286	8	37
Mito	3286	3306	8	21
Mito	3306	3334	8	37
Mito	3334	3363	8	33
Mito	3363	3480	8	168
Mito	3480	3525	8	65
Mito	3525	3603	8	89
Mito	3603	3659	8	85
Mito	3659	3726	8	72
Mito	3726	3768	8	105
Mito	3768	3898	8	136
Mito	4332	4405	8	201
Mito	4405	4494	8	89
Mito	4494	4537	8	55
Mito	4537	4735	8	198
Mito	4735	4816	8	82
Mito	4816	4880	8	171
Mito	4880	5000	8	120
Mito	5000	5064	8	145
Mito	5064	5130	8	66
Mito	5130	5208	8	79
Mito	5208	5277	8	69
Mito	5277	5300	8	23
Mito	5300	5336	8	36
Mito	5336	5428	8	92
Mito	5428	5526	8	117
Mito	8196	8330	8	134
Mito	10346	10409	8	64
Mito	12453	12760	8	308
Mito	26581	26664	8	83
Mito	31817	31874	8	137
Mito	34368	34404	8	43
Mito	34609	34632	8	59
Mito	34795	34873	8	149
Mito	35053	35099	8	46
Mito	35133	35273	8	141
Mito	37199	37319	8	158
Mito	39162	39348	8	186
Mito	39348	39461	8	176
Mito	39461	39695	8	234
Mito	39859	39933	8	74
Mito	49293	49379	8	96
Mito	52156	52250	8	94
Mito	52250	52300	8	63
Mito	56453	56484	8	33
Mito	57270	57362	8	92
Mito	66806	66869	8	64
Mito	73440	73473	8	186
Mito	77091	77113	8	48
Mito	77113	77159	8	67
Mito	77159	77198	8	46
Mito	81704	81750	8	46
Mito	82212	82291	8	195
Mito	83297	83415	8	123
