Chr	Start	Stop	BlockSize	BlockLength
XIV	0	6618	1	6618
XIV	6618	6654	5	51
XIV	6654	6807	6	154
XIV	6807	6900	7	107
XIV	6900	6946	6	46
XIV	6946	7181	5	296
XIV	7181	7224	7	67
XIV	7224	7282	6	58
XIV	7282	7390	7	108
XIV	7390	7531	4	142
XIV	7531	7557	5	27
XIV	7557	7666	3	109
XIV	7666	7681	6	15
XIV	7681	7733	2	52
XIV	7733	7829	3	101
XIV	7829	7889	8	63
XIV	7889	7994	2	105
XIV	7994	8057	4	63
XIV	8057	8082	6	25
XIV	8082	8111	5	29
XIV	8111	8196	8	85
XIV	8196	8339	6	143
XIV	8339	8403	2	64
XIV	8403	8474	7	71
XIV	8474	8556	2	82
XIV	8556	8584	2	28
XIV	8584	8690	2	106
XIV	8690	8788	2	98
XIV	8788	8828	2	40
XIV	8828	8877	2	49
XIV	8877	8946	2	69
XIV	8946	10819	8	1953
XIV	10819	12185	8	1366
XIV	12185	12923	8	738
XIV	12923	13416	7	543
XIV	13416	14824	8	1412
XIV	14824	14926	8	102
XIV	14926	14990	8	64
XIV	14990	15014	2	24
XIV	15014	15078	8	64
XIV	15078	15836	8	758
XIV	15836	16399	8	563
XIV	16399	16476	2	77
XIV	16476	16522	3	46
XIV	16522	16569	2	47
XIV	16569	16626	4	57
XIV	16626	16783	2	157
XIV	16783	96672	8	80116
XIV	96672	102461	1	5789
XIV	102461	252523	8	150394
XIV	252523	257512	8	4989
XIV	257512	519180	8	262030
XIV	519180	525086	1	5906
XIV	525086	546737	8	21689
XIV	546737	547082	1	345
XIV	547082	561289	8	14243
XIV	561289	561662	8	377
XIV	561662	568003	1	6341
XIV	568003	568105	8	102
XIV	568105	568154	2	49
XIV	568154	572435	8	4302
XIV	572435	572575	2	140
XIV	572575	598229	8	25658
XIV	598229	599753	8	1525
XIV	599753	602110	7	2376
XIV	602110	632125	8	30082
XIV	632125	632163	8	38
XIV	632163	632290	8	127
XIV	632290	632331	8	41
XIV	632331	632381	2	50
XIV	632381	632429	3	50
XIV	632429	726255	8	94207
XIV	726255	726296	8	41
XIV	726296	726512	6	216
XIV	726512	726574	2	62
XIV	726574	726940	1	366
XIV	726940	751090	8	24161
XIV	751090	753205	7	2115
XIV	753205	772616	8	19491
XIV	772616	772701	6	85
XIV	772701	772764	5	63
XIV	772764	772970	7	206
XIV	772970	773007	5	37
XIV	773007	773076	6	69
XIV	773076	773139	5	63
XIV	773139	773603	2	464
XIV	773603	773808	8	205
XIV	773808	773937	8	129
XIV	773937	774102	8	165
XIV	774102	774156	5	55
XIV	774156	774221	3	65
XIV	774221	774439	8	218
XIV	774439	774502	4	63
XIV	774502	774560	8	58
XIV	774560	774624	2	64
XIV	774624	774736	8	112
XIV	774736	774824	8	88
XIV	774824	774860	8	36
XIV	774860	774924	8	64
XIV	774924	774967	1	43
XIV	774967	775010	8	43
XIV	775010	775104	8	94
XIV	775104	776300	6	1196
XIV	776300	781410	8	5127
XIV	781410	781476	2	66
XIV	781476	781606	2	130
XIV	781606	781635	2	29
XIV	781635	781717	2	82
XIV	781717	781833	2	117
XIV	781833	782060	1	227
XIV	782060	782220	3	160
XIV	782220	782243	7	23
XIV	782243	782283	6	40
XIV	782283	782328	6	48
XIV	782328	782359	5	34
XIV	782359	782454	7	206
XIV	782454	782576	4	122
XIV	782576	782597	6	21
XIV	782597	782628	5	31
XIV	782628	782723	4	95
XIV	782723	782810	7	88
XIV	782810	783004	8	195
XIV	783004	783585	5	616
XIV	783585	783627	4	43
XIV	783627	783715	5	90
XIV	783715	783781	4	67
XIV	783781	783813	5	32
XIV	783813	783846	6	33
XIV	783846	784075	2	237
XIV	784075	784113	2	40
XIV	784113	784158	4	49
XIV	784158	784333	1	175
I	0	39	1	39
I	39	94	6	62
I	94	150	4	58
I	150	218	1	68
I	218	273	3	59
I	273	336	4	63
I	336	381	5	46
I	381	390	2	59
I	390	466	3	83
I	466	624	3	159
I	624	683	4	183
I	683	727	4	44
I	727	1110	1	383
I	1110	1168	4	58
I	1168	1293	4	125
I	1293	2190	1	897
I	2190	2437	7	247
I	2437	11806	8	9432
I	11806	11814	7	140
I	11814	12426	8	633
I	12426	12467	1	41
I	12467	12547	8	80
I	12547	12656	8	109
I	12656	12742	7	86
I	12742	12783	4	42
I	12783	12860	1	77
I	12860	13185	8	334
I	13185	13231	1	46
I	13231	13326	2	95
I	13326	19542	1	6216
I	19542	19627	5	85
I	19627	24203	1	4576
I	24203	24356	6	153
I	24356	24462	2	106
I	24462	24986	1	524
I	24986	25053	8	67
I	25053	26485	1	1432
I	26485	26510	8	25
I	26510	26741	7	445
I	26741	139764	8	113179
I	139764	160299	8	20554
I	160299	166100	1	5801
I	166100	183149	8	17198
I	183149	184723	8	1598
I	184723	186876	8	3283
I	186876	187152	8	276
I	187152	188300	3	1151
I	188300	198707	8	10437
I	198707	204383	8	6049
I	204383	206721	1	2338
I	206721	207089	8	443
I	207089	207130	8	41
I	207130	207269	8	139
I	207269	207505	7	257
I	207505	207579	7	74
I	207579	207667	6	88
I	207667	207754	2	87
I	207754	207779	3	25
I	207779	207842	7	63
I	207842	207937	8	95
I	207937	223145	8	15362
I	223145	223258	1	113
I	223258	223321	8	63
I	223321	228064	1	4743
I	228064	229095	8	1109
I	229095	229100	3	59
I	229100	230218	1	1118
X	0	7563	1	7563
X	7563	7693	7	130
X	7693	7772	5	79
X	7772	7865	4	93
X	7865	8204	1	339
X	8204	8253	4	49
X	8253	8283	5	30
X	8283	10542	1	2260
X	10542	10576	6	34
X	10576	13208	7	2641
X	13208	16827	8	3619
X	16827	17163	1	336
X	17163	17226	2	63
X	17226	18122	1	896
X	18122	18225	6	103
X	18225	18350	6	125
X	18350	18778	5	428
X	18778	18905	2	127
X	18905	19113	1	208
X	19113	19179	6	66
X	19179	19366	8	187
X	19366	19409	8	54
X	19409	19465	3	57
X	19465	23202	8	3741
X	23202	23811	1	609
X	23811	24414	8	606
X	24414	24454	6	40
X	24454	27048	8	2594
X	27048	59073	8	32111
X	59073	59159	7	87
X	59159	59183	8	61
X	59183	59313	6	130
X	59313	59388	7	78
X	59388	59391	6	175
X	59391	153522	8	94258
X	153522	197507	8	43996
X	197507	204108	1	6601
X	204108	204723	8	617
X	204723	204754	6	31
X	204754	204793	7	39
X	204793	233928	8	29152
X	233928	354605	8	120968
X	354605	354708	6	103
X	354708	378296	8	23592
X	378296	415981	8	37865
X	415981	454022	8	38069
X	454022	454264	5	242
X	454264	472462	8	18301
X	472462	483977	1	11515
X	483977	538097	8	54126
X	538097	538434	1	337
X	538434	540925	8	2491
X	540925	541031	7	106
X	541031	541089	8	58
X	541089	541427	1	338
X	541427	543011	8	1675
X	543011	543056	8	45
X	543056	702030	8	159350
X	702030	728103	8	26874
X	728103	728174	5	71
X	728174	728237	4	63
X	728237	728544	5	308
X	728544	728624	8	80
X	728624	728799	2	175
X	728799	729349	3	550
X	729349	729540	1	191
X	729540	729684	4	144
X	729684	729739	7	55
X	729739	729955	8	217
X	729955	743399	8	13609
X	743399	744655	1	1256
X	744655	744686	8	31
X	744686	744741	8	55
X	744741	744814	8	73
X	744814	745042	3	230
X	745042	745093	2	51
X	745093	745129	4	36
X	745129	745272	3	145
X	745272	745287	5	15
X	745287	745340	6	57
X	745340	745404	4	64
X	745404	745445	5	42
X	745445	745491	6	46
X	745491	745546	5	57
X	745546	745639	4	95
X	745639	745710	3	72
X	745710	745751	1	41
VII	0	300	1	300
VII	300	686	8	409
VII	686	767	2	81
VII	767	818	5	51
VII	818	866	2	48
VII	866	928	8	106
VII	928	1032	7	104
VII	1032	1193	8	477
VII	1193	1342	7	149
VII	1342	1421	4	79
VII	1421	2028	8	607
VII	2028	2092	8	64
VII	2092	2355	8	263
VII	2355	2738	8	472
VII	2738	6333	8	3596
VII	6333	7225	1	892
VII	7225	110833	8	103752
VII	110833	111505	1	672
VII	111505	254655	8	143616
VII	254655	319415	8	64835
VII	319415	319760	1	345
VII	319760	328658	8	8937
VII	328658	364467	8	35850
VII	364467	364829	1	362
VII	364829	364892	7	63
VII	364892	401616	8	36745
VII	401616	401677	2	61
VII	401677	401890	4	213
VII	401890	401904	8	21
VII	401904	402719	1	815
VII	402719	403381	4	667
VII	403381	403817	7	436
VII	403817	403880	3	63
VII	403880	404494	1	614
VII	404494	404518	2	62
VII	404518	405159	1	641
VII	405159	405232	8	75
VII	405232	535219	8	130292
VII	535219	541624	1	6405
VII	541624	541681	8	57
VII	541681	561755	8	20080
VII	561755	567972	1	6217
VII	567972	568741	8	769
VII	568741	574706	1	5965
VII	574706	707189	8	132691
VII	707189	707280	3	91
VII	707280	712545	1	5265
VII	712545	731125	8	18597
VII	731125	731216	7	91
VII	731216	735989	8	4790
VII	735989	736120	1	131
VII	736120	736327	2	256
VII	736327	763822	8	27504
VII	763822	794393	8	30612
VII	794393	794427	4	34
VII	794427	811440	8	17023
VII	811440	823323	1	11883
VII	823323	876102	8	52860
VII	876102	876152	7	50
VII	876152	876375	8	223
VII	876375	876414	4	39
VII	876414	931192	8	54858
VII	931192	931250	8	59
VII	931250	931477	2	227
VII	931477	931541	8	64
VII	931541	931682	8	141
VII	931682	932019	1	337
VII	932019	1000925	8	68965
VII	1000925	1067897	8	67113
VII	1067897	1067960	7	63
VII	1067960	1068218	8	258
VII	1068218	1068538	7	320
VII	1068538	1068767	8	229
VII	1068767	1076129	8	7374
VII	1076129	1077764	1	1635
VII	1077764	1080392	8	2646
VII	1080392	1080626	1	234
VII	1080626	1081322	8	706
VII	1081322	1081483	8	167
VII	1081483	1081937	1	454
VII	1081937	1081991	4	54
VII	1081991	1082064	8	73
VII	1082064	1082521	1	457
VII	1082521	1082535	7	14
VII	1082535	1082810	7	275
VII	1082810	1082907	1	97
VII	1082907	1082975	2	68
VII	1082975	1083084	1	109
VII	1083084	1083221	3	137
VII	1083221	1083270	6	49
VII	1083270	1083414	1	144
VII	1083414	1083476	2	62
VII	1083476	1083561	3	85
VII	1083561	1083847	1	286
VII	1083847	1083946	2	99
VII	1083946	1084021	1	76
VII	1084021	1084340	3	322
VII	1084340	1090940	1	6600
XVI	0	6541	1	6541
XVI	6541	6578	4	37
XVI	6578	6656	4	79
XVI	6656	6709	7	53
XVI	6709	6979	8	289
XVI	6979	7031	4	52
XVI	7031	7139	5	108
XVI	7139	7410	2	272
XVI	7410	7935	8	531
XVI	7935	8065	2	130
XVI	8065	8145	2	80
XVI	8145	8181	2	36
XVI	8181	8288	2	107
XVI	8288	8327	2	39
XVI	8327	14494	8	6303
XVI	14494	14771	8	277
XVI	14771	14825	3	54
XVI	14825	14888	6	63
XVI	14888	18249	8	3464
XVI	18249	23021	8	4788
XVI	23021	53048	8	30042
XVI	53048	53084	7	36
XVI	53084	56358	8	3343
XVI	56358	63068	1	6710
XVI	63068	63976	8	920
XVI	63976	96760	8	32799
XVI	96760	135804	8	39132
XVI	135804	174144	8	38398
XVI	174144	174207	7	63
XVI	174207	174569	8	362
XVI	174569	210355	8	35802
XVI	210355	377393	8	167150
XVI	377393	377911	7	518
XVI	377911	435954	8	58067
XVI	435954	436889	8	937
XVI	436889	443117	1	6228
XVI	443117	560257	8	117288
XVI	560257	560306	7	49
XVI	560306	582119	8	21830
XVI	582119	700593	8	118655
XVI	700593	769326	8	68774
XVI	769326	769665	1	339
XVI	769665	775927	8	6351
XVI	775927	804645	8	28947
XVI	804645	810454	1	5809
XVI	810454	810568	8	114
XVI	810568	837966	8	27446
XVI	837966	844446	8	6482
XVI	844446	856416	1	11970
XVI	856416	860028	8	3613
XVI	860028	880348	8	20329
XVI	880348	942244	8	61924
XVI	942244	942345	8	101
XVI	942345	942431	8	86
XVI	942431	942514	7	99
XVI	942514	942576	8	78
XVI	942576	942809	7	387
XVI	942809	948066	1	5257
VIII	0	5018	1	5018
VIII	5018	5054	7	36
VIII	5054	5345	7	355
VIII	5345	5393	1	48
VIII	5393	5562	7	170
VIII	5562	5635	6	73
VIII	5635	5733	5	105
VIII	5733	5757	2	24
VIII	5757	6065	7	316
VIII	6065	6343	5	279
VIII	6343	11937	8	5597
VIII	11937	12024	6	87
VIII	12024	12114	7	90
VIII	12114	12154	8	40
VIII	12154	35294	8	23167
VIII	35294	85557	8	50447
VIII	85557	85571	8	14
VIII	85571	85609	6	38
VIII	85609	85656	5	47
VIII	85656	85680	5	24
VIII	85680	85888	4	208
VIII	85888	85909	8	21
VIII	85909	92127	1	6218
VIII	92127	116420	8	24543
VIII	116420	116503	8	83
VIII	116503	116749	1	246
VIII	116749	146332	8	29968
VIII	146332	146475	8	204
VIII	146475	146671	1	196
VIII	146671	192967	8	46543
VIII	192967	193036	7	69
VIII	193036	193199	2	163
VIII	193199	193262	7	63
VIII	193262	194167	8	907
VIII	194167	194230	3	63
VIII	194230	194299	5	69
VIII	194299	194462	8	163
VIII	194462	194525	7	63
VIII	194525	212265	8	17747
VIII	212265	214263	1	2002
VIII	214263	229607	8	15350
VIII	229607	230017	5	410
VIII	230017	358730	8	128825
VIII	358730	451325	8	92707
VIII	451325	475933	8	24731
VIII	475933	504479	8	28556
VIII	504479	526360	8	21909
VIII	526360	526378	7	227
VIII	526378	526905	8	1077
VIII	526905	528621	8	1811
VIII	528621	528705	8	86
VIII	528705	533109	1	4404
VIII	533109	533174	2	65
VIII	533174	539537	1	6363
VIII	539537	539546	6	13
VIII	539546	539617	3	71
VIII	539617	539647	8	30
VIII	539647	539711	2	64
VIII	539711	539820	2	109
VIII	539820	539926	2	106
VIII	539926	543164	1	3238
VIII	543164	543252	2	88
VIII	543252	543338	2	86
VIII	543338	549781	1	6443
VIII	549781	549894	8	113
VIII	549894	549995	8	118
VIII	549995	551389	8	1395
VIII	551389	551453	5	64
VIII	551453	551516	5	63
VIII	551516	553355	8	1839
VIII	553355	553424	5	69
VIII	553424	554758	8	1334
VIII	554758	555324	7	566
VIII	555324	555745	1	421
VIII	555745	555823	7	78
VIII	555823	556046	8	224
VIII	556046	556914	8	878
VIII	556914	562643	1	5729
IV	0	908	1	908
IV	908	939	7	32
IV	939	960	8	21
IV	960	1454	1	494
IV	1454	1651	2	197
IV	1651	16450	1	14799
IV	16450	17208	2	758
IV	17208	17660	8	452
IV	17660	17723	8	63
IV	17723	17796	3	73
IV	17796	17906	1	110
IV	17906	17930	2	24
IV	17930	44529	8	26663
IV	44529	127635	8	83425
IV	127635	128997	1	1362
IV	128997	133772	8	4776
IV	133772	227770	8	94085
IV	227770	329641	8	101915
IV	329641	329666	7	281
IV	329666	384019	8	54442
IV	384019	384185	8	518
IV	384185	384224	8	54
IV	384224	434425	8	50269
IV	434425	434902	1	477
IV	434902	437143	8	2257
IV	437143	437518	1	375
IV	437518	471851	8	34381
IV	471851	512987	8	41278
IV	512987	519317	1	6330
IV	519317	527249	8	8145
IV	527249	535010	1	7761
IV	535010	645227	8	110278
IV	645227	645501	1	274
IV	645501	645563	8	62
IV	645563	645591	4	50
IV	645591	645835	8	244
IV	645835	651497	1	5662
IV	651497	668966	8	17505
IV	668966	757444	8	88537
IV	757444	757547	8	137
IV	757547	757607	8	60
IV	757607	757622	7	15
IV	757622	757636	8	14
IV	757636	757672	2	36
IV	757672	757699	7	27
IV	757699	757736	8	37
IV	757736	757816	6	80
IV	757816	759701	1	1885
IV	759701	802924	8	43286
IV	802924	805524	1	2600
IV	805524	871835	8	66388
IV	871835	877799	1	5964
IV	877799	878302	8	504
IV	878302	884225	1	5923
IV	884225	884402	8	177
IV	884402	884587	8	185
IV	884587	945954	8	61398
IV	945954	946237	1	283
IV	946237	946300	7	63
IV	946300	946371	8	71
IV	946371	981492	8	35170
IV	981492	991101	1	9609
IV	991101	1023136	8	32126
IV	1023136	1023482	1	346
IV	1023482	1087853	8	64409
IV	1087853	1088326	8	473
IV	1088326	1095766	8	7444
IV	1095766	1101697	1	5931
IV	1101697	1150902	8	49380
IV	1150902	1154646	8	3763
IV	1154646	1154663	2	17
IV	1154663	1154959	8	296
IV	1154959	1155130	8	171
IV	1155130	1155166	1	36
IV	1155166	1155380	5	264
IV	1155380	1159752	8	4411
IV	1159752	1161068	1	1316
IV	1161068	1163184	8	2146
IV	1163184	1163229	6	45
IV	1163229	1163252	2	50
IV	1163252	1175310	8	12132
IV	1175310	1175647	1	337
IV	1175647	1206699	8	31059
IV	1206699	1212622	1	5923
IV	1212622	1243229	8	30611
IV	1243229	1257090	8	13862
IV	1257090	1352629	8	95757
IV	1352629	1352966	1	337
IV	1352966	1523359	8	170669
IV	1523359	1523552	7	193
IV	1523552	1523619	7	67
IV	1523619	1523794	6	175
IV	1523794	1523872	6	78
IV	1523872	1523930	1	58
IV	1523930	1524332	7	481
IV	1524332	1524548	8	217
IV	1524548	1524606	7	58
IV	1524606	1524759	8	198
IV	1524759	1524857	8	98
IV	1524857	1525043	6	187
IV	1525043	1525248	7	217
IV	1525248	1525373	6	126
IV	1525373	1525395	6	22
IV	1525395	1525422	4	33
IV	1525422	1531933	1	6511
XV	0	37	2	37
XV	37	79	3	45
XV	79	241	5	169
XV	241	293	6	56
XV	293	443	8	152
XV	443	536	7	95
XV	536	572	6	41
XV	572	658	6	86
XV	658	770	4	113
XV	770	809	3	39
XV	809	957	8	185
XV	957	989	8	32
XV	989	1121	1	132
XV	1121	2038	8	917
XV	2038	2120	2	82
XV	2120	2657	1	537
XV	2657	2745	8	119
XV	2745	11050	1	8305
XV	11050	11115	6	65
XV	11115	11162	4	47
XV	11162	11234	2	73
XV	11234	11302	6	68
XV	11302	11391	4	90
XV	11391	11531	2	142
XV	11531	11549	3	22
XV	11549	11671	2	122
XV	11671	11713	2	42
XV	11713	11740	2	27
XV	11740	11768	6	28
XV	11768	11838	6	70
XV	11838	11867	6	29
XV	11867	11888	6	21
XV	11888	11931	6	43
XV	11931	11998	2	67
XV	11998	22585	8	10816
XV	22585	22803	8	218
XV	22803	22866	7	63
XV	22866	22921	6	56
XV	22921	23880	8	1062
XV	23880	24045	4	216
XV	24045	25303	8	1262
XV	25303	26757	7	1454
XV	26757	26907	7	150
XV	26907	27072	6	165
XV	27072	110864	8	84078
XV	110864	113707	8	2910
XV	113707	113759	4	133
XV	113759	113786	7	75
XV	113786	117691	8	4047
XV	117691	123622	1	5931
XV	123622	218393	8	94946
XV	218393	218462	7	69
XV	218462	438171	8	220072
XV	438171	438691	8	520
XV	438691	575097	8	136559
XV	575097	594823	8	19733
XV	594823	600742	1	5919
XV	600742	640414	8	39686
XV	640414	664812	8	24404
XV	664812	665150	1	338
XV	665150	703512	8	38392
XV	703512	710108	1	6596
XV	710108	854276	8	144204
XV	854276	854338	2	62
XV	854338	854550	4	212
XV	854550	854621	1	71
XV	854621	970285	8	115768
XV	970285	976257	1	5972
XV	976257	980259	8	4011
XV	980259	980596	1	337
XV	980596	1071109	8	90671
XV	1071109	1072621	1	1512
XV	1072621	1076314	8	3694
XV	1076314	1076368	1	54
XV	1076368	1076655	3	287
XV	1076655	1077885	2	1230
XV	1077885	1078015	3	130
XV	1078015	1078060	2	45
XV	1078060	1091291	1	13231
V	0	6378	1	6380
V	6378	6638	8	260
V	6638	6748	8	111
V	6748	19530	8	12807
V	19530	20784	7	1254
V	20784	22478	1	1694
V	22478	22550	3	72
V	22550	22605	5	55
V	22605	22740	7	135
V	22740	22811	6	71
V	22811	22880	2	69
V	22880	23123	8	243
V	23123	63784	8	40678
V	63784	63978	7	194
V	63978	64142	8	164
V	64142	86426	8	22294
V	86426	86459	7	33
V	86459	86607	6	160
V	86607	225786	8	139258
V	225786	249923	8	24197
V	249923	250269	1	346
V	250269	277758	8	27581
V	277758	277931	4	173
V	277931	289835	8	11994
V	289835	354446	8	64823
V	354446	354463	2	17
V	354463	354539	7	76
V	354539	354610	1	71
V	354610	354623	8	108
V	354623	363243	8	8633
V	363243	363306	4	63
V	363306	363640	8	334
V	363640	363703	6	63
V	363703	431531	8	67984
V	431531	431861	1	330
V	431861	434625	8	2766
V	434625	434693	4	68
V	434693	434918	2	225
V	434918	434971	1	53
V	434971	436007	8	1036
V	436007	436262	1	255
V	436262	438575	8	2375
V	438575	443396	8	5010
V	443396	449742	1	6346
V	449742	487833	8	38135
V	487833	488170	1	337
V	488170	492438	8	4271
V	492438	498515	1	6077
V	498515	566702	8	68199
V	566702	566955	8	255
V	566955	569021	1	2066
V	569021	569070	8	49
V	569070	569454	1	384
V	569454	569543	8	89
V	569543	569601	4	59
V	569601	569664	5	63
V	569664	569733	1	69
V	569733	570297	8	736
V	570297	576874	1	6577
XII	0	11267	1	11267
XII	11267	11323	7	57
XII	11323	12090	3	789
XII	12090	12332	2	243
XII	12332	12357	8	25
XII	12357	12412	7	55
XII	12412	12479	6	68
XII	12479	12537	7	58
XII	12537	12583	6	46
XII	12583	12633	1	51
XII	12633	12696	3	63
XII	12696	12726	6	30
XII	12726	12765	7	39
XII	12765	12828	3	63
XII	12828	12940	7	112
XII	12940	13012	1	73
XII	13012	13032	6	20
XII	13032	13079	2	47
XII	13079	13302	1	223
XII	13302	13401	2	99
XII	13401	13422	2	21
XII	13422	13465	1	43
XII	13465	47898	8	34620
XII	47898	48401	7	503
XII	48401	92532	8	44224
XII	92532	95818	8	3412
XII	95818	122035	8	26548
XII	122035	215073	8	93514
XII	215073	221004	1	5931
XII	221004	373998	8	153219
XII	373998	374343	1	345
XII	374343	451417	8	77563
XII	451417	451480	7	63
XII	451480	451555	3	75
XII	451555	451590	5	35
XII	451590	451676	6	86
XII	451676	451701	5	25
XII	451701	451724	5	23
XII	451724	451778	6	54
XII	451778	451835	8	57
XII	451835	459689	1	7854
XII	459689	459762	2	73
XII	459762	459810	8	48
XII	459810	459834	8	24
XII	459834	459845	8	11
XII	459845	459898	8	53
XII	459898	459925	2	27
XII	459925	459946	8	21
XII	459946	460039	8	93
XII	460039	460127	8	88
XII	460127	460227	8	100
XII	460227	460249	8	22
XII	460249	460329	6	80
XII	460329	460401	8	72
XII	460401	460421	8	20
XII	460421	460541	8	120
XII	460541	460568	8	27
XII	460568	464249	1	3681
XII	464249	464313	8	64
XII	464313	464324	7	11
XII	464324	464390	8	66
XII	464390	464457	8	67
XII	464457	464520	7	63
XII	464520	464584	8	64
XII	464584	464614	8	30
XII	464614	464663	7	49
XII	464663	464705	8	42
XII	464705	464769	8	64
XII	464769	464791	5	22
XII	464791	464846	8	55
XII	464846	464917	8	71
XII	464917	464981	8	64
XII	464981	465027	8	46
XII	465027	465154	8	127
XII	465154	466863	1	1709
XII	466863	466891	6	28
XII	466891	466904	8	13
XII	466904	466946	8	42
XII	466946	467013	8	67
XII	467013	467028	6	15
XII	467028	467050	8	22
XII	467050	467068	5	18
XII	467068	467136	8	68
XII	467136	467147	8	11
XII	467147	467217	8	70
XII	467217	467236	8	19
XII	467236	467248	8	12
XII	467248	467302	8	54
XII	467302	467390	8	88
XII	467390	467407	8	17
XII	467407	467471	2	64
XII	467471	467511	8	40
XII	467511	467538	8	27
XII	467538	467611	8	73
XII	467611	467675	8	64
XII	467675	467692	8	17
XII	467692	467717	7	25
XII	467717	467729	7	12
XII	467729	467743	8	14
XII	467743	467764	7	21
XII	467764	467801	8	37
XII	467801	467865	8	64
XII	467865	467902	8	37
XII	467902	467941	2	39
XII	467941	468014	7	73
XII	468014	468050	8	36
XII	468050	468116	7	66
XII	468116	468135	8	19
XII	468135	468249	8	114
XII	468249	468345	8	96
XII	468345	468370	8	25
XII	468370	468412	8	42
XII	468412	468435	8	23
XII	468435	468476	7	41
XII	468476	468487	8	11
XII	468487	468537	8	50
XII	468537	468618	8	81
XII	468618	468685	8	67
XII	468685	468775	8	90
XII	468775	468925	8	150
XII	468925	479116	1	10191
XII	479116	489308	1	10192
XII	489308	489356	4	48
XII	489356	489390	5	34
XII	489390	489480	8	90
XII	489480	490133	1	653
XII	490133	490219	6	86
XII	490219	490257	4	38
XII	490257	490321	7	64
XII	490321	490334	7	13
XII	490334	490448	7	114
XII	490448	490461	7	13
XII	490461	490524	6	63
XII	490524	592569	8	102123
XII	592569	592770	7	201
XII	592770	592904	8	222
XII	592904	593132	8	228
XII	593132	599055	1	5923
XII	599055	650823	8	51829
XII	650823	656748	1	5925
XII	656748	688113	8	31391
XII	688113	697228	8	9115
XII	697228	941191	8	244752
XII	941191	947155	1	5964
XII	947155	976257	8	29198
XII	976257	981697	1	5440
XII	981697	1002919	8	21226
XII	1002919	1003706	8	787
XII	1003706	1003750	2	44
XII	1003750	1003845	7	95
XII	1003845	1059329	8	55524
XII	1059329	1059364	4	35
XII	1059364	1059627	6	264
XII	1059627	1059744	7	117
XII	1059744	1059838	6	94
XII	1059838	1060318	8	480
XII	1060318	1060557	1	239
XII	1060557	1060572	5	15
XII	1060572	1060704	5	132
XII	1060704	1060788	3	84
XII	1060788	1060851	3	63
XII	1060851	1060927	5	76
XII	1060927	1060990	6	63
XII	1060990	1061307	7	382
XII	1061307	1061338	8	31
XII	1061338	1061380	8	42
XII	1061380	1061402	8	22
XII	1061402	1061457	1	55
XII	1061457	1061703	7	246
XII	1061703	1061836	8	133
XII	1061836	1061953	8	117
XII	1061953	1062080	8	127
XII	1062080	1062285	1	205
XII	1062285	1062415	2	131
XII	1062415	1062474	2	61
XII	1062474	1062543	2	69
XII	1062543	1063349	1	806
XII	1063349	1063422	3	73
XII	1063422	1063840	1	418
XII	1063840	1063884	8	44
XII	1063884	1063907	2	23
XII	1063907	1063972	2	65
XII	1063972	1064060	4	88
XII	1064060	1064119	2	59
XII	1064119	1064593	7	474
XII	1064593	1064677	6	86
XII	1064677	1064720	7	44
XII	1064720	1065005	7	290
XII	1065005	1065060	5	56
XII	1065060	1065120	4	71
XII	1065120	1078177	1	13058
XIII	0	5564	1	5564
XIII	5564	5811	3	253
XIII	5811	5913	2	102
XIII	5913	5967	3	56
XIII	5967	6036	4	69
XIII	6036	6122	4	86
XIII	6122	6152	3	30
XIII	6152	6306	2	154
XIII	6306	6447	5	143
XIII	6447	6533	6	90
XIII	6533	6596	4	63
XIII	6596	168348	8	162186
XIII	168348	168686	1	338
XIII	168686	184164	8	15560
XIII	184164	190083	1	5919
XIII	190083	196331	8	6255
XIII	196331	202119	1	5788
XIII	202119	237261	8	35159
XIII	237261	357005	8	119978
XIII	357005	362924	1	5919
XIII	362924	372690	8	9767
XIII	372690	378621	1	5931
XIII	378621	379353	8	732
XIII	379353	599553	8	220844
XIII	599553	599616	7	63
XIII	599616	599900	2	284
XIII	599900	599963	5	63
XIII	599963	600215	8	252
XIII	600215	600278	8	63
XIII	600278	601763	8	1508
XIII	601763	601826	5	63
XIII	601826	602111	8	285
XIII	602111	602173	7	62
XIII	602173	602425	6	252
XIII	602425	602488	5	113
XIII	602488	602837	7	370
XIII	602837	609775	8	7211
XIII	609775	632663	8	22994
XIII	632663	808547	8	176154
XIII	808547	808924	1	377
XIII	808924	917896	8	109670
XIII	917896	918139	2	244
XIII	918139	923749	1	5611
XIII	923749	923879	2	132
XIII	923879	923986	2	108
XIII	923986	924022	2	36
XIII	924022	924111	2	89
XIII	924111	924200	8	89
XIII	924200	924336	6	136
XIII	924336	924361	5	27
XIII	924361	924401	4	40
XIII	924401	924431	5	32
XI	0	88	1	88
XI	88	252	2	168
XI	252	372	3	120
XI	372	405	7	33
XI	405	469	6	65
XI	469	1711	1	1242
XI	1711	1781	4	72
XI	1781	1846	4	65
XI	1846	1921	5	75
XI	1921	2029	3	108
XI	2029	2085	1	56
XI	2085	2158	3	73
XI	2158	144877	8	143111
XI	144877	144915	7	38
XI	144915	202638	8	57808
XI	202638	202983	1	345
XI	202983	313459	8	110714
XI	313459	313482	5	23
XI	313482	313596	8	114
XI	313596	313918	1	322
XI	313918	458134	8	144286
XI	458134	458471	1	337
XI	458471	513642	8	55299
XI	513642	513728	3	193
XI	513728	517478	8	3857
XI	517478	517737	1	259
XI	517737	517779	8	42
XI	517779	518048	8	269
XI	518048	518130	7	104
XI	518130	555046	8	36993
XI	555046	578948	8	23908
XI	578948	579012	7	64
XI	579012	647401	8	68409
XI	647401	647470	8	69
XI	647470	647500	8	30
XI	647500	647639	8	139
XI	647639	647660	3	48
XI	647660	647762	1	102
XI	647762	648038	8	285
XI	648038	648101	8	63
XI	648101	661350	8	13284
XI	661350	661413	5	63
XI	661413	661464	5	51
XI	661464	663334	8	1875
XI	663334	663489	8	155
XI	663489	663557	3	113
XI	663557	665429	8	1881
XI	665429	665675	8	247
XI	665675	665995	8	466
XI	665995	666244	7	455
XI	666244	666249	4	114
XI	666249	666619	6	431
XI	666619	666676	6	65
XI	666676	666816	2	143
VI	0	5244	1	5244
VI	5244	5310	2	66
VI	5310	6095	1	785
VI	6095	6169	2	74
VI	6169	6601	1	432
VI	6601	6680	8	79
VI	6680	7129	7	532
VI	7129	7191	1	62
VI	7191	7337	2	152
VI	7337	8626	1	1289
VI	8626	8912	3	305
VI	8912	10278	1	1366
VI	10278	10908	8	630
VI	10908	14388	1	3480
VI	14388	14451	7	63
VI	14451	14502	8	51
VI	14502	14565	7	63
VI	14565	30088	8	15556
VI	30088	101359	8	71364
VI	101359	117415	8	16081
VI	117415	137662	8	20248
VI	137662	143542	1	5880
VI	143542	161954	8	18426
VI	161954	180983	8	19125
VI	180983	181061	4	78
VI	181061	181090	5	48
VI	181090	181213	5	269
VI	181213	181719	8	723
VI	181719	210392	8	28700
VI	210392	220663	8	10351
VI	220663	220938	1	275
VI	220938	221001	5	63
VI	221001	266225	8	46019
VI	266225	270161	1	3936
III	0	308	1	308
III	308	330	6	22
III	330	342	6	16
III	342	392	1	50
III	392	482	4	90
III	482	544	5	63
III	544	577	4	44
III	577	642	5	66
III	642	694	4	56
III	694	728	5	34
III	728	848	5	133
III	848	1079	8	443
III	1079	1114	4	35
III	1114	1115	2	42
III	1115	1430	8	315
III	1430	11218	1	9788
III	11218	12301	8	1084
III	12301	13753	1	1452
III	13753	13796	2	43
III	13796	13901	1	105
III	13901	13937	2	36
III	13937	14000	7	63
III	14000	84815	8	70893
III	84815	90779	1	5964
III	90779	124107	8	33377
III	124107	124450	1	343
III	124450	142668	8	18235
III	142668	142710	4	50
III	142710	151298	8	8692
III	151298	151335	3	37
III	151335	151782	5	460
III	151782	168427	8	16700
III	168427	169544	1	1117
III	169544	198670	8	29146
III	198670	199400	7	730
III	199400	199509	6	109
III	199509	200103	5	594
III	200103	200913	8	810
III	200913	200956	1	43
III	200956	201061	8	105
III	201061	201097	8	36
III	201097	201160	7	63
III	201160	268912	8	68011
III	268912	293031	8	24286
III	293031	293128	5	97
III	293128	294378	8	1250
III	294378	294484	8	106
III	294484	295253	8	769
III	295253	303907	8	8657
III	303907	303968	7	61
III	303968	304234	3	267
III	304234	304348	4	114
III	304348	304859	3	511
III	304859	304922	5	63
III	304922	305176	7	254
III	305176	305224	6	48
III	305224	305288	8	64
III	305288	305320	5	32
III	305320	305389	7	69
III	305389	305455	8	66
III	305455	305768	8	313
III	305768	306538	1	770
III	306538	306621	8	83
III	306621	306860	8	260
III	306860	307240	7	444
III	307240	314344	8	7123
III	314344	314507	2	163
III	314507	315585	1	1078
III	315585	315671	3	88
III	315671	315777	8	106
III	315777	315874	7	97
III	315874	316095	4	222
III	316095	316169	3	74
III	316169	316200	4	31
III	316200	316577	1	377
III	316577	316602	6	25
III	316602	316620	3	18
II	0	6454	1	6454
II	6454	6688	8	235
II	6688	8540	1	1852
II	8540	9277	8	737
II	9277	9279	5	216
II	9279	29638	8	20451
II	29638	35602	1	5964
II	35602	35845	8	243
II	35845	36221	1	376
II	36221	88521	8	52395
II	88521	88584	7	63
II	88584	88918	2	334
II	88918	197509	8	108656
II	197509	197650	8	142
II	197650	197688	7	38
II	197688	197775	4	90
II	197775	197939	7	164
II	197939	198054	7	115
II	198054	221047	8	23006
II	221047	226952	1	5905
II	226952	227103	7	151
II	227103	259571	8	32483
II	259571	265493	1	5922
II	265493	300039	8	34565
II	300039	300164	7	125
II	300164	347590	8	47536
II	347590	347628	8	38
II	347628	347663	6	35
II	347663	428769	8	81174
II	428769	477670	8	48934
II	477670	591751	8	114545
II	591751	643068	8	51323
II	643068	643481	8	515
II	643481	643700	1	230
II	643700	643755	3	55
II	643755	643827	7	72
II	643827	644214	3	387
II	644214	644309	4	95
II	644309	644369	3	68
II	644369	644428	6	63
II	644428	645148	8	727
II	645148	645179	3	31
II	645179	645226	4	47
II	645226	801929	8	157002
II	801929	801940	8	11
II	801940	802518	8	662
II	802518	802592	6	74
II	802592	803762	7	1173
II	803762	809143	8	5382
II	809143	809474	1	331
II	809474	809608	2	134
II	809608	813184	1	3576
IX	0	10575	1	10575
IX	10575	21151	1	10576
IX	21151	21253	6	102
IX	21253	128454	8	107478
IX	128454	128507	7	53
IX	128507	128535	5	113
IX	128535	128567	7	32
IX	128567	175052	8	46738
IX	175052	183452	8	8402
IX	183452	196647	7	13197
IX	196647	197023	1	376
IX	197023	197202	5	179
IX	197202	205222	8	8141
IX	205222	210655	1	5433
IX	210655	246219	8	35627
IX	246219	246557	1	338
IX	246557	300616	8	54090
IX	300616	301452	1	836
IX	301452	317437	8	16021
IX	317437	317775	8	338
IX	317775	325129	8	7417
IX	325129	391174	8	66244
IX	391174	391189	5	15
IX	391189	391944	1	755
IX	391944	392137	8	222
IX	392137	392369	5	257
IX	392369	392625	8	370
IX	392625	392638	8	90
IX	392638	392696	7	58
IX	392696	432591	8	40172
IX	432591	433687	8	1101
IX	433687	433963	4	276
IX	433963	434054	7	91
IX	434054	434080	7	26
IX	434080	434222	6	142
IX	434222	434281	6	59
IX	434281	438308	8	4094
IX	438308	438559	6	544
IX	438559	438753	2	194
IX	438753	438866	5	113
IX	438866	439151	7	285
IX	439151	439188	4	50
IX	439188	439257	6	69
IX	439257	439311	7	54
IX	439311	439382	8	72
IX	439382	439451	8	70
IX	439451	439510	8	61
IX	439510	439834	7	350
IX	439834	439885	7	52
IX	439885	439888	6	3
Mito	0	140	7	140
Mito	140	256	8	131
Mito	256	259	7	107
Mito	259	329	8	94
Mito	329	400	8	76
Mito	400	458	8	66
Mito	458	684	8	269
Mito	684	738	8	380
Mito	738	832	8	116
Mito	832	910	8	91
Mito	910	957	8	67
Mito	957	991	8	59
Mito	991	1181	8	221
Mito	1181	1186	8	159
Mito	1186	1297	8	154
Mito	1297	1447	8	160
Mito	1447	1498	8	68
Mito	1498	1549	8	77
Mito	1549	1580	8	37
Mito	1580	1639	8	72
Mito	1639	1682	8	50
Mito	1682	1767	8	86
Mito	1767	1906	8	251
Mito	1906	1933	7	63
Mito	1933	2052	8	174
Mito	2052	2117	8	97
Mito	2117	2196	8	85
Mito	2196	2281	8	94
Mito	2281	2303	8	25
Mito	2303	2384	8	84
Mito	2384	2462	8	82
Mito	2462	2499	8	41
Mito	2499	2734	8	242
Mito	2734	2928	8	211
Mito	2928	2958	8	35
Mito	2958	3060	8	150
Mito	3060	3149	8	89
Mito	3149	3190	8	74
Mito	3190	3223	8	34
Mito	3223	3257	8	47
Mito	3257	3286	8	37
Mito	3286	3306	8	21
Mito	3306	3334	8	37
Mito	3334	3363	8	33
Mito	3363	3480	8	168
Mito	3480	3525	8	65
Mito	3525	3603	8	89
Mito	3603	3659	8	85
Mito	3659	3726	8	72
Mito	3726	3768	8	105
Mito	3768	3898	8	136
Mito	3898	3918	7	55
Mito	3918	3953	7	55
Mito	3953	4026	2	73
Mito	4026	4292	7	266
Mito	4292	4332	7	40
Mito	4332	4405	8	201
Mito	4405	4494	8	89
Mito	4494	4537	8	55
Mito	4537	4735	8	198
Mito	4735	4816	8	82
Mito	4816	4880	8	171
Mito	4880	5000	8	120
Mito	5000	5064	8	145
Mito	5064	5130	8	66
Mito	5130	5208	8	79
Mito	5208	5277	8	69
Mito	5277	5300	8	23
Mito	5300	5336	8	36
Mito	5336	5428	8	92
Mito	5428	5526	8	117
Mito	5526	8196	7	2974
Mito	8196	8330	8	134
Mito	8330	10346	7	2953
Mito	10346	10409	8	64
Mito	10409	12453	7	2470
Mito	12453	12760	8	308
Mito	12760	13803	7	1377
Mito	13803	13986	7	190
Mito	13986	16426	1	2440
Mito	16426	16566	7	141
Mito	16566	18031	7	1551
Mito	18031	18095	7	64
Mito	18095	18159	7	64
Mito	18159	18215	7	56
Mito	18215	18253	2	38
Mito	18253	18317	6	64
Mito	18317	18404	6	87
Mito	18404	18988	5	584
Mito	18988	19227	3	239
Mito	19227	19837	2	610
Mito	19837	19968	1	131
Mito	19968	20169	2	201
Mito	20169	20504	1	335
Mito	20504	21361	5	943
Mito	21361	21399	1	38
Mito	21399	21802	6	403
Mito	21802	23890	7	2436
Mito	23890	23926	6	91
Mito	23926	24132	7	206
Mito	24132	24187	6	113
Mito	24187	24572	7	385
Mito	24572	25952	7	1961
Mito	25952	26123	6	227
Mito	26123	26152	7	29
Mito	26152	26581	7	429
Mito	26581	26664	8	83
Mito	26664	26739	6	82
Mito	26739	26783	5	45
Mito	26783	28699	1	1916
Mito	28699	28762	5	63
Mito	28762	29596	1	834
Mito	29596	31817	7	2697
Mito	31817	31874	8	137
Mito	31874	34368	7	2855
Mito	34368	34404	8	43
Mito	34404	34609	7	403
Mito	34609	34632	8	59
Mito	34632	34795	7	316
Mito	34795	34873	8	149
Mito	34873	35053	7	185
Mito	35053	35099	8	46
Mito	35099	35133	7	34
Mito	35133	35273	8	141
Mito	35273	37199	7	2444
Mito	37199	37319	8	158
Mito	37319	37361	7	43
Mito	37361	37798	5	807
Mito	37798	37828	6	46
Mito	37828	38183	5	513
Mito	38183	38328	6	146
Mito	38328	38393	4	65
Mito	38393	38432	4	39
Mito	38432	38452	5	21
Mito	38452	38498	5	48
Mito	38498	38556	5	71
Mito	38556	38599	4	43
Mito	38599	38788	5	318
Mito	38788	39087	6	375
Mito	39087	39090	3	48
Mito	39090	39162	6	99
Mito	39162	39348	8	186
Mito	39348	39461	8	176
Mito	39461	39695	8	234
Mito	39695	39859	7	213
Mito	39859	39933	8	74
Mito	39933	40628	7	768
Mito	40628	40691	7	63
Mito	40691	40807	6	176
Mito	40807	40983	7	176
Mito	40983	41046	6	63
Mito	41046	41159	7	113
Mito	41159	41284	7	128
Mito	41284	41369	7	85
Mito	41369	41424	7	55
Mito	41424	41470	7	53
Mito	41470	41534	7	72
Mito	41534	41701	7	167
Mito	41701	41771	6	71
Mito	41771	41812	7	41
Mito	41812	42618	7	864
Mito	42618	42845	7	276
Mito	42845	42846	5	50
Mito	42846	44802	7	2128
Mito	44802	44881	6	79
Mito	44881	44887	7	54
Mito	44887	44918	5	316
Mito	44918	44997	7	79
Mito	44997	46301	6	1691
Mito	46301	46383	7	82
Mito	46383	48191	6	2071
Mito	48191	49293	7	1491
Mito	49293	49379	8	96
Mito	49379	51098	7	2864
Mito	51098	51164	7	66
Mito	51164	51227	7	63
Mito	51227	51766	6	550
Mito	51766	51861	7	110
Mito	51861	52156	6	427
Mito	52156	52250	8	94
Mito	52250	52300	8	63
Mito	52300	52401	7	221
Mito	52401	52806	6	418
Mito	52806	52847	7	63
Mito	52847	52908	7	183
Mito	52908	53084	6	176
Mito	53084	53214	7	140
Mito	53214	53935	6	749
Mito	53935	56453	7	3056
Mito	56453	56484	8	33
Mito	56484	57270	7	980
Mito	57270	57362	8	92
Mito	57362	60725	7	3772
Mito	60725	61866	1	1141
Mito	61866	63284	7	1536
Mito	63284	63518	5	305
Mito	63518	63667	6	357
Mito	63667	66806	7	3422
Mito	66806	66869	8	64
Mito	66869	66978	7	109
Mito	66978	67216	7	238
Mito	67216	67467	6	257
Mito	67467	73440	7	7445
Mito	73440	73473	8	186
Mito	73473	73584	7	151
Mito	73584	73661	7	82
Mito	73661	73749	7	105
Mito	73749	73886	6	225
Mito	73886	77091	7	3685
Mito	77091	77113	8	48
Mito	77113	77159	8	67
Mito	77159	77198	8	46
Mito	77198	81704	7	5655
Mito	81704	81750	8	46
Mito	81750	82212	7	680
Mito	82212	82291	8	195
Mito	82291	82692	7	663
Mito	82692	82733	5	49
Mito	82733	83297	7	905
Mito	83297	83415	8	123
Mito	83415	85151	7	2171
Mito	85151	85779	1	628
