"GeneSet","Population","Mean.Alpha","SD.alpha","Mean.Omega.A","SD.Omega.A","Mean.Omega.NA","SD.Omega.NA","Mean.Omega","SD.Omega","Mean.PiN","SD.PiN","Mean.PiS","SD.PiS","Mean.PiNPiS","SD.PiNPiS","Mean.DN","SD.DN","Mean.DS","SD.DS","LowerCI.Omega.A","UpperCI.Omega.A","LowerCI.Omega.NA","UpperCI.Omega.NA","LowerCI.Omega","UpperCI.Omega","LowerCI.PiNPiS","UpperCI.PiNPiS","LowerCI.PiS","UpperCI.PiS","LowerCI.PiN","UpperCI.PiN","LowerCI.DS","UpperCI.DS","LowerCI.DN","UpperCI.DN"
"Domestic Carbon","African Beer",0,0,0,0,0.128352604757366,0.00857572347293752,0.128352604757366,0.00857572347293752,0.00277703118525025,0.000197978286080579,0.0108702379551663,0.000671884958387995,0.256103760108746,0.0204452961617664,0.0335706741419614,0.00248892043074165,0.261458072734195,0.0046657145800962,0,0,0.111544186750408,0.145161022764323,0.111544186750408,0.145161022764323,0.216030979631684,0.296176540585808,0.00955334343672586,0.0121871324736068,0.00238899374453231,0.00316506862596818,0.252313272157206,0.270602873311183,0.0286923900977077,0.038448958186215
"Domestic Carbon","African Cocoa",0.0344413333333333,0.0481449547652839,0.00462866666666667,0.00657095844261597,0.124835889465283,0.00802774890725933,0.129464556131949,0.00825528912716555,0.00143642242119595,0.000146449667318177,0.0111150491100952,0.00067226379852373,0.129726129285061,0.0155415538473626,0.0339381987410008,0.00234916555314371,0.262074365712414,0.0040758616374891,-0.00825041188086064,0.017507745214194,0.109101501607054,0.140570277323511,0.113284189442705,0.145644922821194,0.0992646837442303,0.160187574825892,0.00979741206498866,0.0124326861552017,0.00114938107325233,0.00172346376913958,0.254085676902936,0.270063054521893,0.0293338342568391,0.0385425632251624
"Domestic Carbon","African Palm Wine",0.05632,0.0936124360751255,0.00750133333333333,0.0126816200914227,0.12188416157111,0.0136860565326469,0.129385494904443,0.00975499946085736,0.00339604755483913,0.000253336400609095,0.0163391348274466,0.000841238956983457,0.208249354860911,0.0172783654624492,0.0338057825156778,0.00270465678398686,0.261211167963607,0.00373067120984557,-0.0173546420458552,0.0323573087125219,0.0950594907671222,0.148708832375098,0.110265695961163,0.148505293847724,0.17438375855451,0.242114951167311,0.014690306471759,0.0179879631831341,0.00289950820964531,0.00389258690003296,0.25389905239231,0.268523283534904,0.0285046552190635,0.039106909812292
"Domestic Carbon","Ale Beer",0.193058,0.150123846980467,0.0250413333333333,0.0197068215854875,0.103696694583494,0.0193481226011453,0.128738027916827,0.00781228680485441,0.00245205521098733,0.0001467654593831,0.0113301072134959,0.000716128588776086,0.217215377028511,0.0181662412609151,0.0335259872775138,0.00221780017290729,0.260361666679981,0.00404116145880811,-0.0135840369742222,0.0636667036408889,0.0657743742852487,0.141619014881738,0.113425945779312,0.144050110054342,0.181609544157117,0.252821209899904,0.00992649517949478,0.012733719247497,0.00216439491059645,0.0027397155113782,0.252440990220717,0.268282343139245,0.0291790989386155,0.0378728756164121
"Domestic Carbon","Alpechin",0.179396666666667,0.222625787508954,0.0233966666666667,0.0291826656663078,0.105920256024932,0.0293576769583336,0.129316922691598,0.00938509266060569,0.0010295786924021,0.000337373578331672,0.00705691641930662,0.00314637782180041,0.169142939566532,0.0856929773919956,0.0323872650943744,0.00272930067046813,0.250311382031098,0.00694292210980193,-0.0338013580392966,0.0805946913726299,0.0483792091865979,0.163461302863266,0.110922141076811,0.147711704306386,0.0011847038782202,0.337101175254843,0.000890015888577812,0.0132238169500354,0.000368326478872028,0.00169083090593218,0.236703254695886,0.26391950936631,0.0270378357802569,0.0377366944084919
"Domestic Carbon","Asian Rice Fermentation",0.000721333333333333,0.00466370516449073,8.73333333333333e-05,0.000552273721973174,0.128545439291525,0.00903609824943232,0.128632772624858,0.00895641846638063,0.0011356072697704,0.000114304049291038,0.00458948979012258,0.000389205815831573,0.248789765931874,0.0293469553346317,0.0337086939997698,0.00262218735378188,0.261924126644257,0.00399823139404096,-0.000995123161734088,0.00116978982840075,0.110834686722638,0.146256191860412,0.111078192430752,0.146187352818964,0.191269733475996,0.306309798387752,0.0038266463910927,0.00535233318915246,0.000911571333159964,0.00135964320638083,0.254087593111936,0.269760660176577,0.0285692067863573,0.0388481812131823
"Domestic Carbon","Bioethanol",0.0125393333333333,0.0367045155619826,0.00162066666666667,0.0048062640428109,0.125491694419714,0.00934368385195733,0.127112361086381,0.00854082268543103,0.00324377208192869,0.000742570819067129,0.0176468099463263,0.00185577373425934,0.182082424180062,0.0246389357682273,0.0333084806226237,0.00237862045493737,0.261988385692172,0.00395738558123635,-0.0077996108572427,0.011040944190576,0.107178074069878,0.14380531476955,0.110372348622936,0.143852373549826,0.133790110074336,0.230374738285787,0.014009493427178,0.0212841264654746,0.00178833327655711,0.00469921088730026,0.254231909952949,0.269744861431395,0.0286463845309465,0.037970576714301
"Domestic Carbon","Dairy",0,0,0,0,0.13107122458629,0.00861919618423169,0.13107122458629,0.00861919618423169,0.00326536826535776,0.000228507079687985,0.0100162842306944,0.000630465156388368,0.326911364445442,0.0265854962167032,0.0347081375581317,0.00259056226339443,0.264703276758139,0.0058281251433776,0,0,0.114177600065196,0.147964849107384,0.114177600065196,0.147964849107384,0.274803791860703,0.37901893703018,0.00878057252417325,0.0112519959372157,0.00281749438916931,0.00371324214154621,0.253280151477119,0.276126402039159,0.0296306355218786,0.0397856395943848
"Domestic Carbon","Ecuadorian",0.343215555555556,0.416649611348452,0.0444407407407407,0.0542883735887335,0.0825783669507316,0.0524814860177367,0.127019107691472,0.00814557828655467,9.01260851432756e-06,7.34719300950133e-06,2.21744561160186e-05,1.83621344207649e-05,Inf,NA,0.0332736372082965,0.00235177034545126,0.261871424520904,0.00412544994616628,-0.0619644714931769,0.150845952974658,-0.0202853456440322,0.185442079545495,0.111053774249825,0.14298444113312,NA,NA,-1.38153273486807e-05,5.81642395807179e-05,-5.38788978429504e-06,2.34131068129502e-05,0.253785542626418,0.26995730641539,0.028664167331212,0.0378831070853809
"Domestic Carbon","Far East Asian",0.607393333333333,0.108180861279635,0.0764713333333333,0.0147192762108068,0.0494514339011184,0.0143890008281099,0.125922767234452,0.00863770711403187,0.00137771616529802,0.000127839574591007,0.0159525209492974,0.000964202648654863,0.0864882773889689,0.00763740610819371,0.0327402096394843,0.00243626581978939,0.259927049712179,0.00428090528229805,0.047621551960152,0.105321114706515,0.0212489922780229,0.0776538755242138,0.108992861290949,0.142852673177954,0.0715189614169092,0.101457593361029,0.0140626837579339,0.0178423581406609,0.00112715059909965,0.0016282817314964,0.251536475358875,0.268317624065483,0.0279651286326971,0.0375152906462715
"Domestic Carbon","Human French Guiana",0,0,0,0,0.130836963983637,0.0091144991697721,0.130836963983637,0.0091144991697721,0.00166450676933644,0.000156141038248775,0.00433606974524993,0.000461957265140745,0.386492304328156,0.0408365544719325,0.034399151848995,0.00258351662271406,0.262844830640536,0.00399594791047951,0,0,0.112972545610883,0.14870138235639,0.112972545610883,0.14870138235639,0.306452657563168,0.466531951093143,0.00343063350557407,0.00524150598492579,0.00135847033436885,0.00197054320430404,0.255012772735996,0.270676888545076,0.0293354592684755,0.0394628444295146
"Domestic Carbon","Italian Wine",0,0,0,0,0.129122937451339,0.00904678562870252,0.129122937451339,0.00904678562870252,0.00348130894860072,0.000214923567601404,0.00827894945596332,0.000547889808836055,0.421794048030002,0.0316500956328876,0.0338041453841861,0.00268049701026267,0.261665057873056,0.00475961163820792,0,0,0.111391237619082,0.146854637283596,0.111391237619082,0.146854637283596,0.359759860589542,0.483828235470461,0.00720508543064465,0.00935281348128198,0.00306005875610197,0.00390255914109947,0.252336219062169,0.270993896683944,0.0285503712440713,0.0390579195243009
"Domestic Carbon","Malaysian",0.1996375,0.313474183337131,0.0258416666666667,0.0406761136759183,0.1021526824893,0.0402338770033974,0.127994349155967,0.00793842913333153,1.66404229526985e-05,1.09028866417897e-05,4.69335972986166e-05,3.36583535042477e-05,Inf,NA,0.0335417864588739,0.00232674599235463,0.261970910548227,0.00435695749223247,-0.0538835161381331,0.105566849471466,0.0232942835626413,0.181011081415959,0.112435028054637,0.143553670257297,NA,NA,-1.90367755697089e-05,0.000112903970166942,-4.72923486520934e-06,3.80100807706063e-05,0.253431273863451,0.270510547233002,0.0289813643138589,0.038102208603889
"Domestic Carbon","Mediterranean Oak",0.12847,0.124409144633569,0.0168073333333333,0.0165823594174012,0.11132454517128,0.0155098771443168,0.128131878504613,0.00851139918462861,0.000639618141402308,8.42527466772431e-05,0.00384347436560182,0.000443088078373602,0.168471797383377,0.0293117037070732,0.0334460660388091,0.00244865480303839,0.260942213008701,0.00439557560630361,-0.015694091124773,0.0493087577914397,0.0809251859684186,0.14172390437414,0.111449536102741,0.144814220906485,0.111020858117514,0.22592273664924,0.00297502173198956,0.00471192699921407,0.000474482757914912,0.000804753524889704,0.252326884820346,0.269557541197056,0.0286467026248538,0.0382454294527644
"Domestic Carbon","Mezcal",0.041762,0.111629478600491,0.00545133333333333,0.0147485398511342,0.123821472058738,0.0165954428176916,0.129272805392071,0.00875293056021284,0.00264135524367662,0.000986071055048907,0.0160213551959966,0.00470210416659942,0.16502777105346,0.0359383185758503,0.0337239436956509,0.00255568221365531,0.260769855182232,0.0050055849189622,-0.0234558047748896,0.0343584714415563,0.0912944041360625,0.156348539981414,0.112117061494054,0.146428549290089,0.0945886666447939,0.235466875462127,0.00680523102946176,0.0252374793625315,0.00070865597578076,0.00457405451157248,0.250958908741066,0.270580801623397,0.0287148065568865,0.0387330808344153
"Domestic Carbon","North American Oak",0.0467510416666667,0.0648091773793474,0.00624895833333333,0.00884177875402273,0.123056765503774,0.0100100777485597,0.129305723837108,0.00904031559490722,1.30123349010876e-05,6.99370107669223e-06,0,0,Inf,NA,0.0338382283295919,0.00250645315271258,0.2616420927751,0.00400142233805551,-0.0110809280245512,0.0235788446912179,0.103437013116597,0.142676517890951,0.11158670527109,0.147024742403126,NA,NA,0,0,-6.95319209229166e-07,2.67199890114044e-05,0.253799304992511,0.269484880557688,0.0289255801502752,0.0387508765089085
"Domestic Carbon","Sake",0.00335333333333333,0.021902268175475,0.000466,0.0031168696652358,0.129679908750803,0.00814386966918163,0.130145908750803,0.00809006933875083,0.00125868666427167,0.000125821189160897,0.00429549758941208,0.000450056888576235,0.295612774214536,0.0383543324193042,0.0341507283270963,0.00230878260649083,0.262339298063666,0.00408645788001846,-0.00564306454386216,0.00657506454386216,0.113717924199207,0.145641893302399,0.114289372846851,0.146002444654754,0.2204382826727,0.370787265756372,0.00341338608780266,0.0051776090910215,0.00101207713351632,0.00150529619502703,0.25432984061883,0.270348755508502,0.0296255144183743,0.0386759422358184
"Heat Stress","African Beer",0.000148666666666667,0.00130937439166159,2.46666666666667e-05,0.000222232922934011,0.169962028202776,0.0138950484443864,0.169986694869443,0.013894196642348,0.00316226279644298,0.000368934691879173,0.0102118181817753,0.000958529557212086,0.311478721502605,0.0402541840688884,0.0451064140098326,0.00407144981914038,0.265224194611212,0.00623621895099871,-0.000410909862283995,0.000460243195617329,0.142727733251779,0.197196323153774,0.142754069450441,0.197219320288445,0.232580520727584,0.390376922277626,0.00833310024963963,0.012090536113911,0.0024391508003598,0.00388537479252616,0.253001205467255,0.27744718375517,0.0371263723643175,0.0530864556553478
"Heat Stress","African Cocoa",0.249940666666667,0.195741753611577,0.0437966666666667,0.0349555334342558,0.128124108385014,0.032200466703696,0.171920775051681,0.0148640505596723,0.00143997389789291,0.000236945851004967,0.0112674208453732,0.00112186420497571,0.128571293962718,0.0224522229951808,0.0458658572023707,0.00432361523070397,0.266649156087885,0.00597242835277605,-0.0247161788644748,0.112309512197808,0.0650111936457702,0.191237023124259,0.142787235954723,0.201054314148639,0.0845649368921634,0.172577651033272,0.00906856700362078,0.0134662746871256,0.000975560029923176,0.00190438776586265,0.254943196516444,0.278355115659326,0.0373915713501909,0.0543401430545504
"Heat Stress","African Palm Wine",0.357209333333333,0.163575217329474,0.0613753333333333,0.0287949681861461,0.109153783995527,0.0272223307035978,0.170529117328861,0.0141691957729432,0.0046507550001795,0.000455484267613341,0.0168195512770241,0.00144702364112532,0.277869139844517,0.0302111585104848,0.0453749907202035,0.00416742151568018,0.265947227901085,0.00656993592485063,0.00493719568848706,0.11781347097818,0.0557980158164754,0.162509552174579,0.142757493613892,0.198300741043829,0.218655269163967,0.337083010525067,0.0139833849404185,0.0196557176136297,0.00375800583565735,0.00554350416470164,0.253070153488378,0.278824302313792,0.0372068445494703,0.0535431368909366
"Heat Stress","Ale Beer",0.115266666666667,0.140121117631369,0.0200106666666667,0.0240082624107223,0.150886312612509,0.0251894548646317,0.170896979279176,0.0146492559585894,0.00289162469900547,0.000299190626326579,0.0120730148208177,0.00110181670314629,0.240689884550461,0.0268640213637646,0.0451682799646878,0.00424485481437986,0.264181358584029,0.0063663768597998,-0.0270455276583491,0.0670668609916824,0.101514981077831,0.200257644147187,0.14218443760034,0.199609520958011,0.188036402677482,0.293343366423439,0.00991345408265101,0.0142325755589845,0.00230521107140537,0.00347803832660556,0.251703259938821,0.276659457229236,0.0368483645285033,0.0534881954008724
"Heat Stress","Alpechin",0.180019333333333,0.214983422084971,0.0309706666666667,0.0375101481511027,0.137744292204136,0.0366143239131424,0.168714958870803,0.013623003484878,0.000514071152425761,0.000118445107089478,0.00301784895200002,0.00143112802005298,0.218844837481123,0.132362786226629,0.04403734691597,0.00397832954963937,0.260926788037307,0.00789902971888748,-0.0425492237094946,0.104490557042828,0.0659802173343768,0.209508367073895,0.142013872040442,0.195416045701163,-0.0405862235230708,0.478275898485316,0.00021283803269619,0.00582285987130386,0.000281918742530385,0.000746223562321137,0.245444689788288,0.276408886286327,0.0362398209986768,0.0518348728332632
"Heat Stress","Asian Rice Fermentation",0.00878866666666667,0.0389643901042589,0.00160466666666667,0.00715844023979153,0.168846219785627,0.0159243206296133,0.170450886452294,0.0156179047454832,0.00167435278007619,0.000236899285344096,0.00488100081102754,0.000781102550109515,0.348042526088535,0.0524200916670026,0.0455162476486042,0.00439026172716013,0.266961670576685,0.00529901067045672,-0.0124258762033247,0.0156352095366581,0.137634551351585,0.200057888219669,0.139839793151147,0.201061979753441,0.24529914642121,0.45078590575586,0.0033500398128129,0.00641196180924219,0.00121003018080177,0.00213867537935062,0.25657560966259,0.27734773149078,0.0369113346633704,0.0541211606338381
"Heat Stress","Bioethanol",0.137082666666667,0.130477491564337,0.0236453333333333,0.0229438725327896,0.146217144024403,0.0234386379725411,0.169862477357737,0.0136432750311146,0.00367417949714279,0.00047135907453085,0.0170961180070799,0.00142102463458267,0.216191457514315,0.0317098570843666,0.0450069644889018,0.00377231790833339,0.264955142023074,0.00580457729286659,-0.0213246568309342,0.0686153234976009,0.100277413598223,0.192156874450584,0.143121658296752,0.196603296418721,0.154040137628957,0.278342777399674,0.0143109097232979,0.0198813262908619,0.00275031571106233,0.00459804328322326,0.253578170529056,0.276332113517093,0.0376132213885684,0.0524007075892352
"Heat Stress","Dairy",0,0,0,0,0.173128206847057,0.0145968003588575,0.173128206847057,0.0145968003588575,0.00400648513679791,0.000435532113032648,0.00915165232740505,0.000934245174887848,0.43999669003847,0.0465944206930747,0.0459613142255273,0.00438707584477168,0.265281672525689,0.00652056847582086,0,0,0.144518478143697,0.201737935550418,0.144518478143697,0.201737935550418,0.348671625480044,0.531321754596897,0.00732053178462487,0.0109827728701852,0.00315284219525392,0.0048601280783419,0.25250135831308,0.278061986738298,0.0373626455697748,0.0545599828812798
"Heat Stress","Ecuadorian",0.215214563106796,0.21028835077605,0.0363009708737864,0.0358756662714536,0.129753295353812,0.0346944431792122,0.166054266227599,0.0128036369192422,3.74470692824044e-05,1.90539428441142e-05,5.35381560098935e-05,5.32762746753751e-05,Inf,NA,0.0441035146219899,0.00368239213559827,0.265554786799751,0.00687948681460427,-0.0340153350182626,0.106617276765835,0.0617521867225563,0.197754403985068,0.140959137865884,0.191149394589313,NA,NA,-5.08833423538417e-05,0.000157959654373629,1.01341307940492e-07,7.47927972568682e-05,0.252070992643126,0.279038580956375,0.0368860260362173,0.0513210032077625
"Heat Stress","Far East Asian",0.431796,0.198133735894039,0.0729553333333333,0.0354766404602313,0.0943478006179213,0.0324520962567646,0.167303133951255,0.0152513647900825,0.00251274095728792,0.000360685617618369,0.0139114740680017,0.00169867094298058,0.183085549561918,0.0329718776173894,0.0442390945952701,0.00432841783694357,0.264330156671719,0.00619431358716546,0.00342111803128002,0.142489548635387,0.0307416919546626,0.15795390928118,0.137410458962693,0.197195808939816,0.118460669431834,0.247710429692001,0.0105820790197598,0.0172408691162436,0.00180579714675592,0.00321968476781993,0.252189302040875,0.276471011302564,0.0357553956348607,0.0527227935556795
"Heat Stress","Human French Guiana",0,0,0,0,0.174380616864534,0.0142609128272762,0.174380616864534,0.0142609128272762,0.00205408970816897,0.000328907630902073,0.00403269321335967,0.000695671121041143,0.518285862532257,0.0927710245102103,0.0463320251242764,0.00419684991631484,0.26556266864373,0.00599672708604579,0,0,0.146429227723073,0.202332006005995,0.146429227723073,0.202332006005995,0.336454654492245,0.700117070572269,0.00266917781611903,0.00539620861060031,0.00140943075160091,0.00269874866473703,0.25380908355508,0.27731625373238,0.0381061992882993,0.0545578509602535
"Heat Stress","Italian Wine",0,0,0,0,0.170177580297645,0.0148260919853864,0.170177580297645,0.0148260919853864,0.00472181484777785,0.000511767194625395,0.00955390939019442,0.00104320064219587,0.499021675986829,0.070660424591205,0.045172260812486,0.00408767403380128,0.265422704913968,0.00552224211752384,0,0,0.141118440006288,0.199236720589003,0.141118440006288,0.199236720589003,0.360527243788067,0.63751610818559,0.00750923613149052,0.0115985826488983,0.00371875114631207,0.00572487854924362,0.254599110363621,0.276246299464315,0.0371604197062355,0.0531841019187365
"Heat Stress","Mediterranean Oak",0.223842666666667,0.171062537073892,0.0385206666666667,0.0296387654206439,0.133506280707231,0.0314692336740786,0.172026947373898,0.0137701674857093,0.000893073979623466,0.000177706100100225,0.004258472091019,0.000775285585180714,0.21498385638551,0.0512447422520281,0.0454619512828866,0.00399907335969909,0.264175129013887,0.00649621521417847,-0.0195713135577953,0.0966126468911287,0.0718265827060369,0.195185978708425,0.145037419101907,0.199016475645888,0.114544161571534,0.315423551199485,0.0027389123440648,0.0057780318379732,0.000544770023427024,0.00124137793581991,0.251442547194098,0.276907710833677,0.0376237674978764,0.0533001350678968
"Heat Stress","Mezcal",0.104497333333333,0.117647671560952,0.0186226666666667,0.0215025428390658,0.155240179922697,0.0206870854298101,0.173862846589363,0.012421861504036,0.00123006706165465,0.000237516072555137,0.0068803610380229,0.00169492775829437,0.187264793248216,0.0500399185924193,0.0460773334175543,0.00355558141356222,0.264965559775846,0.00550184081311114,-0.0235223172979024,0.0607676506312357,0.114693492480269,0.195786867365125,0.149515998041453,0.198209695137274,0.0891865528070746,0.285343033689358,0.00355830263176593,0.0102024194442799,0.000764535559446583,0.00169559856386272,0.254181951782149,0.275749167769544,0.0391083938469724,0.0530462729881363
"Heat Stress","North American Oak",0.0728114583333333,0.0569480943164205,0.0123645833333333,0.0102342251311512,0.154456051321502,0.0123472996124253,0.166820634654836,0.0120161967054002,3.47247004649982e-05,1.68369562563127e-05,0,0,Inf,NA,0.0442582643025575,0.00350353309316909,0.265235269443093,0.00603686880839671,-0.00769449792372311,0.0324236645903898,0.130255344081149,0.178656758561856,0.143268889112251,0.19037238019742,NA,NA,0,0,1.72426620262535e-06,6.77251347273711e-05,0.253403006578635,0.27706753230755,0.0373913394399461,0.0511251891651689
"Heat Stress","Sake",0.0251795918367347,0.0729679887955901,0.00455102040816327,0.0131520786801619,0.1702911223331,0.0163915909612993,0.174842142741263,0.0122945070799825,0.00180706111892772,0.000280900629558275,0.00496118485564045,0.000808218578822704,0.37267319185356,0.0780570829004815,0.0466682475659779,0.00361966778884913,0.26682437075777,0.00537369335819697,-0.0212270538049541,0.0303290946212806,0.138163604048953,0.202418640617246,0.150744908864497,0.198939376618029,0.219681309368616,0.525665074338504,0.00337707644114795,0.00654529327013295,0.0012564958849935,0.00235762635286194,0.256291931775704,0.277356809739836,0.0395736986998336,0.0537627964321222
"Meiosis","African Beer",0,0,0,0,0.168152283212053,0.00883790274303296,0.168152283212053,0.00883790274303296,0.00331691587203498,0.00016299554132191,0.00997318385241133,0.000536335156097351,0.333310216402375,0.0207879151465999,0.045518334384737,0.0024038489045278,0.270700587098135,0.00197376638861637,0,0,0.150829993835709,0.185474572588398,0.150829993835709,0.185474572588398,0.292565902715039,0.374054530089711,0.00892196694646053,0.0110244007583621,0.00299744461104404,0.00363638713302593,0.266832004976447,0.274569169219823,0.0408067905318625,0.0502298782376114
"Meiosis","African Cocoa",0.212978,0.138395154932262,0.03666,0.0245811107704963,0.132317344597972,0.020419784830917,0.168977344597972,0.0084651763722465,0.00165515959174049,0.000109251780691524,0.0118808333515333,0.000658954981990917,0.139553500724387,0.00968183735730739,0.0457754834353847,0.00233601623596282,0.270891193516851,0.00208149304018316,-0.0115189771101728,0.0848389771101728,0.0922945663293744,0.172340122866569,0.152385598908369,0.185569090287575,0.120577099504064,0.158529901944709,0.0105892815868311,0.0131723851162355,0.00144102610158511,0.00186929308189588,0.266811467158092,0.27497091987561,0.0411968916128976,0.0503540752578719
"Meiosis","African Palm Wine",0.0990566666666667,0.0791541189867761,0.016818,0.0136080911087544,0.15171231616824,0.0144455423862583,0.16853031616824,0.00890487214950206,0.00408888053682572,0.000208571467270293,0.0167752680534779,0.000702431050936465,0.244092520900227,0.0149253447457244,0.0457458525468944,0.00241693676541801,0.271444146231826,0.00185993914774141,-0.00985385857315866,0.0434898585731587,0.123399053091174,0.180025579245307,0.151076766755216,0.185983865581264,0.214838845198607,0.273346196601847,0.0153985031936425,0.0181520329133134,0.00368008046097594,0.00449768061267549,0.267798665502253,0.2750896269614,0.0410086564866751,0.0504830486071137
"Meiosis","Ale Beer",0.00856866666666667,0.0263836540219995,0.00146466666666667,0.00453545520482661,0.165532751768996,0.00819176638788571,0.166997418435663,0.00764277641422418,0.00285056392868243,0.000178762780021207,0.0109850701907267,0.000656614516788787,0.260085330868957,0.0181977522197394,0.0451316843097558,0.00213475414231193,0.270241519055864,0.00199499781311539,-0.0074248255347935,0.0103541588681268,0.14947688964874,0.181588613889252,0.152017576663784,0.181977260207542,0.224417736518268,0.295752925219646,0.00969810573782068,0.0122720346436327,0.00250018887984086,0.00320093897752399,0.266331323342158,0.27415171476957,0.0409475661908244,0.0493158024286872
"Meiosis","Alpechin",0.147806666666667,0.119576947603668,0.0253,0.02051612232289,0.144760341304642,0.0204917940613236,0.170060341304642,0.00891031070135953,0.00203045825798098,0.000693075494426285,0.0127399529031423,0.0042626371231269,0.160828699377303,0.0248406275404508,0.0443805731171111,0.00248009439379846,0.260954714771468,0.00424802739513272,-0.0149115997528644,0.0655115997528644,0.104596424944447,0.184924257664836,0.152596132329977,0.187524550279306,0.112141069398019,0.209516329356586,0.00438518414181361,0.021094721664471,0.00067203028890546,0.0033888862270565,0.252628581077008,0.269280848465928,0.0395195881052661,0.0492415581289561
"Meiosis","Asian Rice Fermentation",0.0874706666666667,0.117933992769512,0.0147593333333333,0.0200785541093736,0.151867346083678,0.0203149571360244,0.166626679417011,0.00932858640045878,0.00104593051212525,0.000101348987595518,0.00452235664148933,0.000364172603243589,0.232403874936477,0.0264387080999071,0.0451466971082076,0.00255099720322102,0.270945907838422,0.00205909776830207,-0.0245946327210389,0.0541132993877055,0.11205003009707,0.191684662070286,0.148342650072112,0.18491070876191,0.180584007060659,0.284223742812295,0.0038085783391319,0.00523613494384677,0.000847286496438033,0.00124457452781246,0.26691007621255,0.274981739464294,0.0401467425898944,0.0501466516265208
"Meiosis","Bioethanol",0.165882666666667,0.10463823954009,0.0282546666666667,0.0181036967809468,0.140092540794239,0.0164980060999871,0.168347207460906,0.0089734868598004,0.00293845094324171,0.000168380868628103,0.0157183287182624,0.000810278398184095,0.187399703813732,0.0139960459017505,0.0454948881133616,0.00243425169015388,0.270248931783886,0.00211060002158942,-0.00722857902398915,0.0637379123573225,0.107756448838265,0.172428632750214,0.150759173215697,0.185935241706115,0.159967453846301,0.214831953781163,0.0141301830578216,0.0173064743787033,0.00260842444073062,0.00326847744575279,0.266112155741571,0.274385707826201,0.04072375480066,0.0502660214260632
"Meiosis","Dairy",0,0,0,0,0.170509346436847,0.00837350534708619,0.170509346436847,0.00837350534708619,0.00356453543357719,0.000316266991644049,0.0121237724695852,0.00191158752969948,0.297844040676371,0.0297535582625318,0.0461214715732422,0.00230105176715819,0.270490108910341,0.00211143602743012,0,0,0.154097275956558,0.186921416917136,0.154097275956558,0.186921416917136,0.239527066481808,0.356161014870933,0.00837706091137421,0.0158704840277962,0.00294465212995485,0.00418441873719952,0.266351694296578,0.274628523524104,0.0416114101096122,0.0506315330368723
"Meiosis","Far East Asian",0.435234,0.106536916644202,0.072866,0.0185344693574544,0.0941483914420973,0.0171562188632202,0.167014391442097,0.00914708863841311,0.00194975273303471,0.000135305165129375,0.0147451301297922,0.000658262279493635,0.132445954319076,0.0103270730083931,0.0450346743492736,0.00252508255872876,0.269634868817657,0.00213052867686148,0.0365384400593894,0.109193559940611,0.0605222024701856,0.127774580414009,0.149086097710808,0.184942685173387,0.112204891222626,0.152687017415526,0.0134549360619847,0.0160353241975998,0.00168455460938114,0.00221495085668828,0.265459032611008,0.273810705024305,0.0400855125341652,0.049983836164382
"Meiosis","Human French Guiana",0,0,0,0,0.17183821531016,0.00853594631727665,0.17183821531016,0.00853594631727665,0.00162748549029925,0.000146053834241455,0.00397653333787532,0.000359993073557455,0.410818446303924,0.0356524716280217,0.0466498659011169,0.00232047347327131,0.271481799621344,0.00200139160716079,0,0,0.155107760528298,0.188568670092022,0.155107760528298,0.188568670092022,0.340939601913001,0.480697290694846,0.00327094691370271,0.00468211976204793,0.001341219975186,0.0019137510054125,0.267559072071309,0.275404527171379,0.0421017378935051,0.0511979939087287
"Meiosis","Italian Wine",0.000548,0.00661369049876261,8.6e-05,0.00103696964288665,0.168091894363548,0.00861181441861347,0.168177894363548,0.00843358200193237,0.00319902957304358,0.000165671477794586,0.00953004614165419,0.00147382676807201,0.343208414287291,0.053057863138497,0.0454395694155174,0.00228931307591835,0.27019040313947,0.00194032588708399,-0.00194646050005782,0.00211846050005782,0.151212738103065,0.18497105062403,0.15164807363976,0.184707715087335,0.239215002535837,0.447201826038745,0.00664134567623305,0.0124187466070753,0.00287431347656619,0.00352374566952097,0.266387364400785,0.273993441878154,0.0409525157867174,0.0499266230443173
"Meiosis","Mediterranean Oak",0.15872,0.114749772118912,0.0272026666666667,0.0202016576722539,0.141950433398826,0.0184816135510981,0.169153100065493,0.00907400051624867,0.00100639197733625,0.000220035105753522,0.00500159758045184,0.00152129349588006,0.20762188555916,0.0291747167825738,0.0453905793118839,0.00245902718205785,0.268341542670639,0.0022390965743359,-0.012392582370951,0.0667979157042843,0.105726470838674,0.178174395958979,0.151368059053646,0.18693814107734,0.150439440665315,0.264804330453004,0.00201986232852692,0.00798333283237675,0.000575123170059349,0.00143766078461315,0.26395291338494,0.272730171956337,0.0405708860350505,0.0502102725887173
"Meiosis","Mezcal",0.072802,0.0880161253300826,0.0126146666666667,0.0153434654200476,0.157245040407227,0.0143390137594055,0.169859707073893,0.00800249118366752,0.00184982113376119,0.000360244296055776,0.00977150313123891,0.00290616882360141,0.196195062322554,0.0288622240684703,0.0461032502940752,0.00216494350536177,0.271430043676754,0.00210470005274193,-0.0174585255566267,0.04268785888996,0.129140573438792,0.185349507375662,0.154174824353905,0.185544589793882,0.139625103148352,0.252765021496756,0.00407541223698014,0.0154675940254977,0.00114374231349187,0.00255589995403051,0.267304831573379,0.275555255780128,0.0418599610235661,0.0503465395645842
"Meiosis","North American Oak",0.172452777777778,0.24027327272636,0.0291090277777778,0.040672261493458,0.138469020996037,0.0402884747829016,0.167578048773815,0.00791407747365206,1.60480384687375e-05,9.47643136843426e-06,1.33068076880425e-05,1.28773859651107e-05,Inf,NA,0.0453292687875789,0.00215100068132555,0.270502274569261,0.00199661607915231,-0.0506086047494,0.108826660304956,0.0595036104215502,0.217434431570525,0.152066456925457,0.183089640622173,NA,NA,-1.19328688035744e-05,3.85464841796594e-05,-2.52576701339363e-06,3.46218439508687e-05,0.266588907054123,0.2744156420844,0.0411133074521808,0.049545230122977
"Meiosis","Sake",0.000848993288590604,0.0053706235161904,0.000153691275167785,0.000983823449466753,0.167708361657839,0.00756238144039475,0.167862052933006,0.0077674784675874,0.00127308779641203,9.62991123071778e-05,0.00407923712025358,0.000354318310815713,0.31453861698,0.0370190638294482,0.0454943510856392,0.00211327952262371,0.271029236139951,0.00224419591697187,-0.00177460268578705,0.00208198523612262,0.152886094034665,0.182530629281012,0.152637795136535,0.183086310729478,0.241981251874282,0.387095982085719,0.00338477323105478,0.00477370100945238,0.00108434153628996,0.0014618340565341,0.266630612142686,0.275427860137216,0.0413523232212967,0.0496363789499817
"Metal Stress","African Beer",0,0,0,0,0.133287630697425,0.0100203318931552,0.133287630697425,0.0100203318931552,0.00283113274927023,0.000196312380316677,0.0101474515756846,0.00061252616725241,0.279836136252616,0.0238101444328629,0.0356002059942676,0.00286692510462499,0.267002440357102,0.00314351166331974,0,0,0.113647780186841,0.152927481208009,0.113647780186841,0.152927481208009,0.233168253164205,0.326504019341027,0.0089469002878699,0.0113480028634993,0.00244636048384954,0.00321590501469092,0.260841157496995,0.273163723217208,0.0299810327892026,0.0412193791993326
"Metal Stress","African Cocoa",0.106880666666667,0.134187397110074,0.015146,0.0190346685827122,0.124426140933284,0.0193688643796769,0.139572140933284,0.00956137290852238,0.00136405576829916,0.000139865208466414,0.0109608344507475,0.000664278678950361,0.124618061923706,0.0122013397289022,0.0374328743305017,0.00269470459692874,0.268149432689369,0.00300994501905191,-0.0221619504221159,0.0524539504221159,0.0864631667491177,0.162389115117451,0.120831850032581,0.158312431833988,0.100703436055058,0.148532687792354,0.00965884824000474,0.0122628206614902,0.00108991995970499,0.00163819157689333,0.262249940452027,0.27404892492671,0.0321512533205213,0.042714495340482
"Metal Stress","African Palm Wine",0.2508,0.117654644200785,0.0348,0.0172167352641075,0.102429114275507,0.0159790825820131,0.137229114275507,0.011331137642238,0.00332134174939519,0.000251306487194222,0.0168181809992688,0.000900603202709775,0.197663094185058,0.0135931351248008,0.0367653160657061,0.00319759582365921,0.267837289898743,0.00327772728515962,0.00105519888234932,0.0685448011176507,0.0711101124147612,0.133748116136252,0.11502008449672,0.159438144054293,0.171020549340448,0.224305639029667,0.0150529987219576,0.0185833632765799,0.00282878103449452,0.00381390246429587,0.26141294441983,0.274261635377656,0.030498028251334,0.0430326038800781
"Metal Stress","Ale Beer",0.024138,0.0667823115571238,0.00349533333333333,0.0098859899285812,0.133114606403335,0.0128561020758007,0.136609939736668,0.0113927857184055,0.00264521512656261,0.000169432439346552,0.0105642540785697,0.000586540741349325,0.250928139895146,0.0183941024156078,0.0366452894896083,0.00329497560167392,0.268123266234915,0.00331552609901392,-0.0158812069266858,0.0228718735933525,0.107916646334766,0.158312566471904,0.114280079728594,0.158939799744743,0.214875699160555,0.286980580629737,0.009414634225525,0.0117138739316144,0.00231312754544337,0.00297730270768185,0.261624835080848,0.274621697388982,0.0301871373103274,0.0431034416688891
"Metal Stress","Alpechin",0.394032666666667,0.309675138398023,0.05575,0.0445321567698801,0.0843389367546064,0.04320323765048,0.140088936754606,0.0110801558175187,0.000744723157812381,0.000204116688202246,0.00636696486644263,0.00264771496116749,0.13330297494403,0.0560439408828395,0.036795551535064,0.00310781094322183,0.262579047799033,0.0042654904162792,-0.0315330272689651,0.143033027268965,-0.000339409040334415,0.169017282549547,0.11837183135227,0.161806042156943,0.0234568508136647,0.243149099074396,0.00117744354255435,0.0115564861903309,0.000344654448935979,0.00114479186668878,0.254218686583125,0.27093940901494,0.0307042420863493,0.0428868609837788
"Metal Stress","Asian Rice Fermentation",0.0119913333333333,0.0366882219395104,0.001708,0.00540129887436359,0.136114863246338,0.0119969453407013,0.137822863246338,0.0116338604383603,0.00116938323420609,0.000104170364457754,0.00477035918555453,0.000448411230088694,0.246752980345659,0.0276740132538621,0.0369722500070747,0.00332610468239724,0.268150494971616,0.0031142133464862,-0.00887854579375263,0.0122945457937526,0.112600850378564,0.159628876114113,0.115020496787152,0.160625229705525,0.192511914368089,0.300994046323229,0.00389147317458069,0.00564924519652837,0.000965209319868889,0.00137355714854329,0.262046636812503,0.274254353130729,0.0304530848295761,0.0434914151845733
"Metal Stress","Bioethanol",0.0140706666666667,0.0425574598491771,0.002042,0.00626949865801236,0.135136739579628,0.0109836810506985,0.137178739579628,0.0108299257360884,0.00249113693240326,0.000170113467268729,0.0152349252459886,0.000744465675173475,0.163808771094721,0.0125848217852668,0.0366900093831076,0.00301768363640847,0.267408447993604,0.00273471598593877,-0.0102462173697042,0.0143302173697042,0.113608724720259,0.156664754438997,0.115952085136895,0.158405394022362,0.139142520395598,0.188475021793844,0.0137757725226485,0.0166940779693286,0.00215771453655655,0.00282455932824997,0.262048404661164,0.272768491326044,0.030775349455747,0.0426046693104682
"Metal Stress","Dairy",0,0,0,0,0.138582083172778,0.0113759349836036,0.138582083172778,0.0113759349836036,0.00328119223007564,0.000217916308788918,0.0105297311426246,0.000546512526453335,0.31219853148574,0.0232399149004277,0.0371537885131008,0.00330722386240392,0.267968463413239,0.00364478246012684,0,0,0.116285250604915,0.160878915740641,0.116285250604915,0.160878915740641,0.266648298280902,0.357748764690578,0.00945856659077609,0.0116008956944732,0.00285407626484936,0.00370830819530192,0.26082468979139,0.275112237035087,0.0306716297427891,0.0436359472834125
"Metal Stress","Far East Asian",0.484812666666667,0.170478852748521,0.0676153333333333,0.0258133484449777,0.0704571831687277,0.0218518561714815,0.138072516502061,0.0106323223357649,0.0014555264575322,0.000150239535387361,0.0156521958848089,0.000655517024376671,0.09309809832135,0.0099712764244054,0.0368269849560339,0.0030298955314121,0.266630236511066,0.0033040591723545,0.017021170381177,0.11820949628549,0.027627545072624,0.113286821264831,0.117233164723962,0.15891186828016,0.0735543965295154,0.112641800113185,0.0143673825170306,0.0169370092525871,0.00116105696817297,0.00174999594689142,0.260154280533251,0.273106192488881,0.0308883897144662,0.0427655801976016
"Metal Stress","Human French Guiana",0,0,0,0,0.139450169808705,0.0103186883547259,0.139450169808705,0.0103186883547259,0.00159585720834019,0.000158738289014899,0.00400418367491007,0.000432643455178756,0.402106877082693,0.0504858412809947,0.0374882300022656,0.00293907482416221,0.268762587217749,0.00343280823852064,0,0,0.119225540633442,0.159674798983967,0.119225540633442,0.159674798983967,0.303154628171943,0.501059125993442,0.0031562025027597,0.00485216484706043,0.00128473016187099,0.00190698425480939,0.262034283070248,0.275490891365249,0.0317276433469077,0.0432488166576235
"Metal Stress","Italian Wine",2e-06,2.44948974278318e-05,6.66666666666667e-07,8.16496580927726e-06,0.137406316368779,0.0116713718313086,0.137406983035446,0.011672631380583,0.00313940404093134,0.000190596244314254,0.00942191537363965,0.000898125185770577,0.336236713585611,0.0381062124590633,0.0366808756292536,0.00328480572249454,0.26686888350802,0.00359549936257129,-1.53366663195168e-05,1.66699996528501e-05,0.114530427579414,0.160282205158144,0.114528625529503,0.160285340541389,0.261548537165847,0.410924890005375,0.00766159000952932,0.01118224073775,0.00276583540207541,0.00351297267978728,0.259821704757381,0.27391606225866,0.0302426564131643,0.0431190948453429
"Metal Stress","Malaysian",0.188809375,0.18061366800184,0.0271479166666667,0.026903636925601,0.112923174027635,0.0248847740089348,0.140071090694301,0.0125845882789706,9.61587621569671e-06,5.56567677869928e-06,1.8717922035955e-05,1.74671801778273e-05,Inf,NA,0.0374745915338048,0.00357994352551756,0.26742312725897,0.00327814098877134,-0.0255832117075113,0.0798790450408446,0.0641490169701225,0.161697331085147,0.115405297667519,0.164736883721084,NA,NA,-1.55177511125866e-05,5.29535951844966e-05,-1.29285027055387e-06,2.05246027019473e-05,0.260997970920978,0.273848283596962,0.0304579022237904,0.0444912808438192
"Metal Stress","Mediterranean Oak",0.074726,0.0899443298592274,0.010282,0.012472294504274,0.125478404553958,0.0139375534578095,0.135760404553958,0.0093015531864189,0.000600608518050817,6.34915429544046e-05,0.00308299154287354,0.000279875105672734,0.196129229017924,0.0249768597808633,0.0361968125604675,0.00256427470473857,0.266596150834397,0.00309896333849434,-0.014163697228377,0.034727697228377,0.0981607997766508,0.152796009331264,0.117529360308577,0.153991448799339,0.147174583847432,0.245083874188416,0.00253443633575499,0.0036315467499921,0.000476165093860184,0.00072505194224145,0.260522182690948,0.272670118977846,0.0311708341391799,0.0412227909817551
"Metal Stress","Mezcal",0.0406446666666667,0.0725615735167756,0.00591066666666667,0.0106847137039381,0.134059867225583,0.0122210105146255,0.13997053389225,0.0103018425721444,0.00249132433798592,0.000578886911515482,0.0157197139215018,0.00440666051564082,0.161793095823498,0.0202645590226807,0.0372903292065693,0.0029081033180564,0.266345944590953,0.00336313569059392,-0.015031372193052,0.0268527055263854,0.110106686616918,0.158013047834249,0.119778922450847,0.160162145333653,0.122074560139044,0.201511631507953,0.00708265931084579,0.0243567685321578,0.00135670599141557,0.00362594268455626,0.259754198637389,0.272937690544517,0.0315904467031788,0.0429902117099599
"Metal Stress","North American Oak",0.990767777777778,0.00219907170291394,0.134755555555556,0.0110424727640176,0.00127249477817384,0.000343575105879231,0.136028050333729,0.0112343185351281,0,0,4.03609473603064e-05,2.02091677603542e-05,0,0,0.0364512654811712,0.00309725580580687,0.267932160340849,0.00295421686611476,0.113112308938081,0.15639880217303,0.000599087570650544,0.00194590198569713,0.114008786004878,0.15804731466258,0,0,7.50978550012096e-07,7.99709161706007e-05,0,0,0.262141895283264,0.273722425398434,0.0303806441017898,0.0425218868605527
"Metal Stress","Sake",0.00497466666666667,0.0206784983379428,0.000766,0.00318675594026571,0.137545509025181,0.011398819894608,0.138311509025181,0.0120821906212912,0.00121477132215673,0.000112727597468243,0.00475171100334188,0.000487511712398469,0.257532694667891,0.0289237609772041,0.0370634057149617,0.00341033655067556,0.267887719745713,0.00318244646498207,-0.00548004164292079,0.00701204164292079,0.115203822031749,0.159887196018613,0.11463041540745,0.161992602642912,0.200842123152571,0.314223266183211,0.00379618804704088,0.00570723395964288,0.000993825231118973,0.00143571741319448,0.261650124674349,0.274125314817078,0.0303791460756376,0.0437476653542858
"Multiple Sets","African Beer",0,0,0,0,0.115131912583966,0.0106329759739662,0.115131912583966,0.0106329759739662,0.00268576627951277,0.000212217100120687,0.0117230935643649,0.000817169811121624,0.230013523478062,0.0223887837067681,0.0309815720091858,0.00289275159805758,0.269105902407343,0.00441741172823237,0,0,0.094291279674992,0.13597254549294,0.094291279674992,0.13597254549294,0.186131507412797,0.273895539543328,0.0101214407345666,0.0133247463941633,0.00226982076327622,0.00310171179574932,0.260447775420007,0.277764029394678,0.025311778876993,0.0366513651413787
"Multiple Sets","African Cocoa",0.0250533333333333,0.0837289544160577,0.00309066666666667,0.01041112174208,0.113655727261707,0.0125828097962832,0.116746393928373,0.00979981827201509,0.00133797252021849,0.000135423565168188,0.012135279048625,0.000954126345831975,0.11083274333733,0.013468919297614,0.0316709001801789,0.00265470862048583,0.271316267377511,0.00456264862444825,-0.0173151319478102,0.0234964652811435,0.0889934200609916,0.138318034462422,0.0975387501152237,0.135954037741523,0.0844336615140063,0.137231825160653,0.0102651914107943,0.0140053666864556,0.00107254233248884,0.00160340270794813,0.262373476073592,0.280259058681429,0.0264676712840267,0.0368741290763312
"Multiple Sets","African Palm Wine",0.265718666666667,0.166182001943719,0.0313553333333333,0.020615770781654,0.0837945283357053,0.0172959694775224,0.115149861669039,0.0105169696207526,0.00311139206051216,0.000348159337443952,0.0176001802625082,0.00112525619127503,0.177059614155687,0.0187724569279607,0.0311633198006239,0.00289685023971013,0.270620493757384,0.00437493581545842,-0.00905157739870858,0.0717622440653752,0.0498944281597615,0.117694628511649,0.0945366012123635,0.135763122125714,0.140265598576884,0.21385362973449,0.0153946781276091,0.0198056823974073,0.00242899975912201,0.00379378436190231,0.262045619559086,0.279195367955683,0.0254854933307921,0.0368411462704558
"Multiple Sets","Ale Beer",0.009942,0.0439085096245553,0.00123133333333333,0.00561407790233733,0.113400242243828,0.010225306290954,0.114631575577161,0.00986183977129086,0.00290132625566529,0.000283541707993939,0.0114672326142105,0.0007481451245598,0.253662709093139,0.0261334084967353,0.0309442247580166,0.0027885976466918,0.269886073672091,0.00482020760602184,-0.00977225935524783,0.0122349260219145,0.0933586419135581,0.133441842574098,0.0953023696254311,0.133960781528891,0.202441228439538,0.304884189746741,0.0100008681700733,0.0129335970583477,0.00234558450799717,0.00345706800333341,0.260438466764289,0.279333680579894,0.0254785733705007,0.0364098761455326
"Multiple Sets","Alpechin",0.548242,0.373541451168327,0.063382,0.0440867099699349,0.0531648868708863,0.0452801181005778,0.116546886870886,0.0113829995910585,0.000373562055358034,7.12654392504654e-05,0.00626623681401895,0.0035177005452669,0.104832534006245,0.120082836268466,0.0311255980223431,0.0031959297530356,0.266989822259305,0.00621960971139186,-0.0230279515410723,0.149791951541072,-0.0355841446062462,0.141913918348019,0.0942362076724117,0.138857566069361,-0.130529825079948,0.340194893092439,-0.000628456254704183,0.0131609298827421,0.000233881794427121,0.000513242316288946,0.254799387224977,0.279180257293633,0.0248615757063933,0.0373896203382929
"Multiple Sets","Asian Rice Fermentation",0.087944,0.132896014999264,0.0101226666666667,0.0151589172226994,0.104968059482849,0.0182288988069859,0.115090726149516,0.0110315088644059,0.00102638130275049,0.000143488758331353,0.0052782885472823,0.000727294379454298,0.196930745933491,0.0319478743564252,0.0311427132627388,0.00309605821996184,0.270527782900739,0.00442907340516391,-0.0195888110898242,0.0398341444231575,0.0692394178211568,0.140696701144542,0.0934689687752803,0.136712483523751,0.134312912194897,0.259548579672084,0.00385279156355187,0.00670378553101272,0.000745143336421037,0.00130761926907994,0.261846799026618,0.27920876677486,0.0250744391516136,0.037210987373864
"Multiple Sets","Bioethanol",0.0184993333333333,0.0626040240324528,0.00216866666666667,0.00748891921187355,0.11158465193744,0.0123684723972671,0.113753318604107,0.0108356588623646,0.00229710879810817,0.000204764582730171,0.0171865092498781,0.00108542659717719,0.134302029350039,0.0156331548166061,0.0307331218106539,0.00300957720350412,0.270132812575203,0.00444919922454684,-0.0125096149886055,0.0168469483219388,0.0873424460387968,0.135826857836084,0.0925154272338724,0.134991209974341,0.103661045909491,0.164943012790587,0.0150590731194108,0.0193139453803454,0.00189577021595703,0.0026984473802593,0.261412382095092,0.278853243055315,0.0248343504917858,0.036631893129522
"Multiple Sets","Dairy",0,0,0,0,0.117439094210538,0.0121240355016112,0.117439094210538,0.0121240355016112,0.00351174381625958,0.000270636808809914,0.0109979450622439,0.00103468385352626,0.321167783868927,0.0302832599210893,0.0317838938101267,0.0033631858093699,0.270602693963036,0.00449199897581501,0,0,0.0936759846273802,0.141202203793696,0.0936759846273802,0.141202203793696,0.261812594423592,0.380522973314262,0.00896996470933244,0.0130259254151554,0.00298129567099215,0.00404219196152701,0.261798375970438,0.279407011955633,0.0251920496237617,0.0383757379964917
"Multiple Sets","Far East Asian",0.537308,0.178053656613834,0.0615366666666667,0.020737743745643,0.0534129753473551,0.0216724176583382,0.114949642014022,0.00990199082659997,0.0014172979638084,0.000185077899653313,0.0162693439892554,0.00130041607462151,0.0874119845837491,0.0115454021567265,0.0309138005549341,0.00271540916942056,0.268939504786584,0.00487577117857964,0.0208906889252064,0.102182644408127,0.0109350367370121,0.0958909139576981,0.0955417399938858,0.134357544034158,0.064782996356565,0.110040972810933,0.0137205284829972,0.0188181594955136,0.0010545452804879,0.00178005064712889,0.259382993276567,0.2784960162966,0.0255915985828698,0.0362360025269984
"Multiple Sets","Human French Guiana",4.42953020134228e-05,0.000540693067542567,5.36912751677852e-06,6.55385536415232e-05,0.117031809388876,0.0109709036456308,0.117037178516393,0.0109757659049386,0.00135609763205317,0.000202462147914898,0.00440619525934249,0.000637466938859319,0.311244449785412,0.0485261303506161,0.0318467021185879,0.00302321088851704,0.272109231222636,0.00440572355858731,-0.000123086437620607,0.000133824692654164,0.0955288382434401,0.138534780534313,0.0955246773427135,0.138549679690073,0.216133234298204,0.406355665272619,0.00315676005917822,0.00565563045950675,0.000959271822139972,0.00175292344196637,0.263474013047805,0.280744449397467,0.0259212087770945,0.0377721954600813
"Multiple Sets","Italian Wine",0,0,0,0,0.114869241929649,0.0106614446360103,0.114869241929649,0.0106614446360103,0.00325906494664398,0.000289657915673633,0.0112266050477856,0.0023123052498634,0.301589745425973,0.0629980867980239,0.0311163010314717,0.00298786376563357,0.270838817831756,0.00405823300560784,0,0,0.0939728104430691,0.135765673416229,0.0939728104430691,0.135765673416229,0.178113495301846,0.4250659955501,0.00669448675805333,0.0157587233375179,0.00269133543192366,0.0038267944613643,0.262884681140765,0.278792954522748,0.0252600880508299,0.0369725140121135
"Multiple Sets","Malaysian",0.0187431578947368,0.0401798924323978,0.00227157894736842,0.00479746526952703,0.116392830738847,0.00914160458514841,0.118664409686215,0.00871921287479346,2.74644952116995e-05,1.36104946641488e-05,0,0,Inf,NA,0.0322701016055809,0.00252013160955289,0.271889457811355,0.00476174593932035,-0.00713145298090455,0.0116746108756414,0.0984752857519561,0.134310375725738,0.10157475245162,0.135754066920811,NA,NA,0,0,7.87925669967819e-07,5.41410647534312e-05,0.262556435770287,0.281222479852423,0.0273306436508572,0.0372095595603045
"Multiple Sets","Mediterranean Oak",0.015246,0.0399439550827282,0.001798,0.00472591697717679,0.112136235036459,0.0111523643871355,0.113934235036459,0.0109294465470539,0.00080889953585484,0.000116445024995131,0.0037817481834523,0.00066122342785547,0.218739383477888,0.0426857622670917,0.0307124820426018,0.00306491208119301,0.269481525717611,0.00426556037689338,-0.0074647972752665,0.0110607972752665,0.0902776008376738,0.133994869235245,0.0925125198042338,0.135355950268685,0.135075289434389,0.302403477521388,0.00248575026485558,0.00507774610204902,0.000580667286864383,0.0010371317848453,0.2611210273789,0.277842024056322,0.0247052543634636,0.0367197097217401
"Multiple Sets","Mezcal",0.000884666666666667,0.00458709506804807,0.000112666666666667,0.000579666262078016,0.118385147107185,0.0112786260484814,0.118497813773852,0.011362402509959,0.00189359165281348,0.000628805245504276,0.0102758654890369,0.00340506950932123,0.185216637750094,0.0205348270274896,0.0320817926955893,0.00314550016715464,0.270723301654165,0.00478907920306909,-0.00102347920700624,0.00124881254033958,0.0962790400521616,0.140491254162209,0.0962275048543322,0.140768122693371,0.144968376776215,0.225464898723974,0.0036019292507673,0.0169498017273065,0.000661133371625102,0.00312604993400186,0.26133670641615,0.28010989689218,0.0259166123679662,0.0382469730232124
"Multiple Sets","North American Oak",0.991463157894737,0.00412674341317804,0.112169473684211,0.00980010935332183,0.00102113299921324,0.000510470976939368,0.113190606683424,0.0101353302855833,0,0,7.31309735462658e-05,3.74486050090622e-05,0,0,0.0307273094282815,0.00292005617043295,0.271360450069096,0.0046901025190427,0.0929612593516997,0.131377688016721,2.060988441208e-05,0.0020216561140144,0.0933253593236805,0.133055854043167,0,0,-2.6829227149614e-07,0.000146530239364028,0,0,0.262167849131772,0.28055305100642,0.0250039993342329,0.0364506195223301
"Multiple Sets","Sake",0.00525637583892617,0.0311498477766175,0.000594630872483221,0.0035006135607938,0.116522315749334,0.0101723831588242,0.117116946621818,0.00933442390246019,0.00138223544352451,0.000155946967163136,0.0062751503891634,0.000761512595001364,0.222964468242538,0.0333388924819591,0.0316708432699451,0.00256199143760072,0.270436564112767,0.00512317196091464,-0.00626657170667262,0.00745583345163906,0.0965844447580389,0.13646018674063,0.0988214757729955,0.13541241747064,0.157620238977898,0.288308697507178,0.00478258570296073,0.00776771507536607,0.00107657938788476,0.00168789149916425,0.260395147069374,0.28047798115616,0.0266493400522477,0.0366923464876425
"Osmotic Stress","African Beer",0.001438,0.0176118312506111,0.000230666666666667,0.00282507817000993,0.148402304052346,0.0174486258785257,0.148632970719013,0.0173765909745627,0.00307378138035055,0.000427998124478925,0.00931222204555539,0.000897806013281256,0.331298802966953,0.0440777131536888,0.0386774597702157,0.00477215670912862,0.260076647025967,0.00631014812401042,-0.0053064865465528,0.00576781987988613,0.114202997330436,0.182601610774256,0.11457485240887,0.182691089029156,0.244906485185723,0.417691120748183,0.00755252225952412,0.0110719218315866,0.00223490505637185,0.00391265770432924,0.247708756702907,0.272444537349027,0.0293240326203236,0.0480308869201078
"Osmotic Stress","African Cocoa",0.160583333333333,0.177522831282059,0.0247026666666667,0.0277676213999379,0.123951979433757,0.0264097626142552,0.148654646100424,0.0161866957159571,0.0010358563852503,0.000176085152065997,0.00856072410231949,0.00131627023757658,0.123612666610257,0.027838112810051,0.0383149224789358,0.00451044119142888,0.257565300907781,0.00667453057317366,-0.0297218712772117,0.079127204610545,0.0721888447098173,0.175715114157698,0.116928722497148,0.1803805697037,0.0690499655025567,0.178175367717957,0.00598083443666939,0.0111406137679696,0.000690729487200942,0.00138098328329965,0.244483220984361,0.270647380831201,0.0294744577437352,0.0471553872141364
"Osmotic Stress","African Palm Wine",0.280515333333333,0.198220776424329,0.04335,0.0322711451931991,0.107740733639704,0.0298208133491279,0.151090733639704,0.0183687646151965,0.00356841894101995,0.000502094377107171,0.0154093925361601,0.00155637754055397,0.233918457094765,0.0401673177468737,0.0391195594189609,0.00518598768037478,0.25864793230658,0.00675768790743935,-0.0199014445786702,0.10660144457867,0.0492919394754129,0.166189527803994,0.115087954993919,0.187093512285489,0.155190514310892,0.312646399878637,0.0123588925566743,0.0184598925156459,0.00258431396188989,0.00455252392015001,0.245402864007999,0.271893000605161,0.0289550235654263,0.0492840952724954
"Osmotic Stress","Ale Beer",0.137115333333333,0.192571080134714,0.0207846666666667,0.0299045253397238,0.127159992786429,0.0321671801388032,0.147944659453095,0.0189439535015997,0.00303754294644734,0.000534485939167339,0.0120124237398185,0.0016560907866428,0.255078532559131,0.0443029564581148,0.0383579430617491,0.00531418806233428,0.258982245246711,0.00713638271108805,-0.037828202999192,0.0793975363325253,0.0641123197143742,0.190207665858483,0.11081451058996,0.185074808316231,0.168244737901226,0.341912327217036,0.00876648579799859,0.0152583616816384,0.00198995050567936,0.00408513538721533,0.244994935132979,0.272969555360444,0.0279421344595739,0.0487737516639243
"Osmotic Stress","Alpechin",0.549154,0.389808468995571,0.0814393333333333,0.0582036437622558,0.06728006152593,0.058401371957688,0.148719394859263,0.0176344944946133,0.000250642572892874,7.38467110498362e-05,0.00527561033903783,0.00422133497361525,0.114856299880973,0.112121709509118,0.0375769316411287,0.00502378421183448,0.252353589804537,0.00927713423864676,-0.032639808440688,0.195518475107355,-0.0471866275111384,0.181746750562998,0.114155785649821,0.183283004068705,-0.104902250756899,0.334614850518845,-0.00299820620924807,0.0135494268873237,0.000105903019235195,0.000395382126550553,0.234170406696789,0.270536772912285,0.0277303145859331,0.0474235486963242
"Osmotic Stress","Asian Rice Fermentation",0.276522666666667,0.224401581287023,0.0412606666666667,0.0328228331408411,0.109205101669329,0.0369246375232339,0.150465768335996,0.0191347326552829,0.00120891764132306,0.000328970490820878,0.00723183226224855,0.00169603526018108,0.170173447392333,0.040540427908745,0.039197073287031,0.00536221602802156,0.260238648193838,0.00707562260868634,-0.023072086289382,0.105593419622715,0.0368328121237908,0.181577391214868,0.112961692331641,0.18796984434035,0.0907142086911923,0.249632686093473,0.00390760315229363,0.0105560613722035,0.000564135479314141,0.00185369980333198,0.246370427880813,0.274106868506863,0.0286871298721088,0.0497070167019533
"Osmotic Stress","Bioethanol",0.0668766666666667,0.116847024651988,0.010648,0.018751976074841,0.13855707131411,0.020961774639745,0.14920507131411,0.0185554465299145,0.00239392166942467,0.000379902670795865,0.0160542436352519,0.00160749458013307,0.149535305407744,0.0212441017616734,0.0384003237644483,0.00513658072008137,0.257134985173982,0.00627650755654401,-0.0261058731066884,0.0474018731066884,0.0974719930202099,0.17964214960801,0.112836396115478,0.185573746512743,0.107896865954864,0.191173744860624,0.0129035542581911,0.0192049330123127,0.00164931243466477,0.00313853090418457,0.244833030363156,0.269436939984808,0.0283326255530888,0.0484680219758078
"Osmotic Stress","Dairy",0.006912,0.0340699358111297,0.001142,0.00564450519763907,0.150965879055846,0.019381508657121,0.152107879055846,0.0194628573353984,0.00290293210061718,0.000396079848147435,0.0114404471386824,0.00143237017099376,0.255269709684937,0.0313227232485129,0.0395592770186601,0.00531909683735986,0.25990326211066,0.00635504830279226,-0.00992123018737258,0.0122052301873726,0.112978122087889,0.188953636023803,0.113960678678465,0.190255079433227,0.193877172117852,0.316662247252023,0.00863300160353458,0.0142478926738301,0.00212661559824821,0.00367924860298615,0.247447367437187,0.272359156784133,0.0291338472174348,0.0499847068198855
"Osmotic Stress","Far East Asian",0.497546,0.209476353082326,0.0740253333333333,0.0315484695523602,0.0754528003903892,0.0331005336648839,0.149478133723723,0.0209439478482954,0.00191940793623719,0.000401685327074869,0.0154969730609641,0.00203577087944041,0.124201981607833,0.021737436817198,0.0384599224474463,0.00566532141181179,0.257091913915264,0.00653026809025549,0.0121903330107074,0.135860333655959,0.0105757544072167,0.140329846373562,0.108427995941064,0.190528271506382,0.0815966054461253,0.166807357769542,0.0115068621372609,0.0194870839846673,0.00113210469517045,0.00270671117730394,0.244292588458363,0.269891239372165,0.0273558924802952,0.0495639524145974
"Osmotic Stress","Human French Guiana",0.00473933333333333,0.0328871058485875,0.000744666666666667,0.00511042541034701,0.152269361317219,0.0207643107613893,0.153014027983885,0.0203387729925358,0.00163118234122562,0.00049185073240622,0.00464091543641636,0.00126633348387781,0.355425269417155,0.0693645397843863,0.0397914326752208,0.00576044166594522,0.2596826001216,0.00677970687496553,-0.00927176713761346,0.0107611004709468,0.111571312224896,0.192967410409542,0.113150032918515,0.192878023049256,0.219470771439757,0.491379767394552,0.00215890180801585,0.00712292906481688,0.000667154905709428,0.00259520977674181,0.246394374646668,0.272970825596533,0.0285009670099681,0.0510818983404734
"Osmotic Stress","Italian Wine",0.046592,0.126105729327131,0.007342,0.020169853476457,0.14285457997827,0.025758072890428,0.15019657997827,0.0197297518672998,0.00362414261429853,0.000431553051649826,0.0126192142517432,0.00440431503865048,0.320505540115661,0.11001900916174,0.039061436955151,0.00547809586464266,0.259823226112335,0.00684741544959676,-0.0321909128138557,0.0468749128138557,0.0923687571130314,0.193340402843509,0.111526266318363,0.188866893638178,0.104868282158649,0.536142798072672,0.00398675677598826,0.0212516717274981,0.00277829863306487,0.00446998659553219,0.246402291831126,0.273244160393545,0.0283243690604514,0.0497985048498506
"Osmotic Stress","Mediterranean Oak",0.0357586666666667,0.0695557911230057,0.006082,0.0125658110248169,0.144099954254738,0.0159327351618064,0.150181954254738,0.0190962879684243,0.000697912104743365,0.000251203003648093,0.00434927320220305,0.00151551539462967,0.162979770146845,0.0351647037091374,0.0388241671430474,0.0052150761051204,0.258334764689476,0.00675677743703261,-0.0185469896086411,0.0307109896086411,0.112871793337597,0.175328115171878,0.112753229836626,0.187610678672849,0.0940569508769355,0.231902589416754,0.0013788630287289,0.00731968337567721,0.000205554217593103,0.00119026999189363,0.245091480912892,0.27157804846606,0.0286026179770114,0.0490457163090834
"Osmotic Stress","Mezcal",0.05507,0.103997536593179,0.00894666666666667,0.0168504263450201,0.142116303761344,0.0207941769944308,0.151062970428011,0.0193508373378654,0.000696558151361841,0.000214291219574884,0.00463101189469206,0.00124357739447166,0.154654541722229,0.0446994080207259,0.039253715791524,0.00525948184186439,0.259698945652944,0.00627208944168641,-0.0240801689695728,0.0419735023029061,0.10135971685226,0.182872890670428,0.113135329245795,0.188990611610227,0.0670437020016065,0.242265381442852,0.0021936002015276,0.00706842358785652,0.000276547360995068,0.00111656894172861,0.247405650347238,0.271992240958649,0.0289451313814698,0.0495623002015781
"Osmotic Stress","Sake",0.0154213333333333,0.0335986189127048,0.002342,0.00521246917490443,0.149832784574312,0.0188129879994698,0.152174784574312,0.018316051961005,0.00132371205928578,0.000215587514333381,0.00523106890336676,0.000827304294777773,0.258304460618052,0.0528258668628818,0.0394618581780823,0.00513693937981309,0.259073056705218,0.00678670457425337,-0.00787443958281268,0.0125584395828127,0.112959328095351,0.186706241053272,0.116275322730742,0.188074246417881,0.154765761566804,0.361843159669301,0.00360955248560232,0.00685258532113119,0.000901160531192351,0.00174626358737921,0.245771115739681,0.272374997670755,0.0293934569936487,0.049530259362516
"Other Genes","African Beer",0,0,0,0,0.175165638913903,0.00279102635394223,0.175165638913903,0.00279102635394223,0.00285451584955553,4.79490255570406e-05,0.00966019841764248,0.000164093377035142,0.295546682681977,0.00562886494550756,0.0471045147017218,0.0008454111093047,0.26890679967142,0.000978069194334112,0,0,0.169695227260176,0.18063605056763,0.169695227260176,0.18063605056763,0.284514107388782,0.306579257975172,0.0093385753986536,0.00998182143663136,0.00276053575946373,0.00294849593964733,0.266989784050525,0.270823815292315,0.0454475089274846,0.048761520475959
"Other Genes","African Cocoa",0.359906666666667,0.0703749809366543,0.0634386666666667,0.0123952404086194,0.112851503221756,0.0127063097490549,0.176290169888422,0.00299850297156101,0.00151742850173552,5.2524736573813e-05,0.0112723703577254,0.000288757726824576,0.13461627204084,0.00315651243026394,0.0474748810971838,0.000902021111138266,0.269291642238539,0.00091581187222424,0.0391439954657726,0.0877333378675608,0.0879471361136082,0.137755870329903,0.170413104064163,0.182167235712682,0.128429507677523,0.140803036404157,0.0107064052131492,0.0118383355023016,0.00141448001805085,0.0016203769854202,0.26749665096898,0.271086633508099,0.0457069197193528,0.0492428424750148
"Other Genes","African Palm Wine",0.266646,0.032255158538581,0.04692,0.00598943140795552,0.128940002921081,0.00551288041741004,0.175860002921081,0.00318025990852839,0.00362921407654904,5.06798706490127e-05,0.0161396902998603,0.000209354987828554,0.224888385424181,0.00360720054974247,0.0473768084355834,0.000952318012325912,0.269392164317075,0.000977733769647229,0.0351807144404072,0.0586592855595928,0.118134757302957,0.139745248539204,0.169626693500365,0.182093312341796,0.217818272346686,0.231958498501677,0.0157293545237164,0.0165500260760043,0.00352988153007697,0.0037285466230211,0.267475806128566,0.271308522505584,0.0455102651314246,0.0492433517397422
"Other Genes","Ale Beer",0.195853333333333,0.0662881483598342,0.034238,0.0115382042383978,0.140526510366659,0.011590819933416,0.174764510366659,0.00286483073335323,0.00267406802026303,3.84704854343403e-05,0.0113619173074785,0.000177582051765127,0.235398524195342,0.00438226182756169,0.0469762699262045,0.000855649905721932,0.268790844325629,0.000966533111454291,0.0116231196927404,0.0568528803072596,0.117808503297163,0.163244517436154,0.169149442129286,0.180379578604031,0.226809291013321,0.243987757377363,0.0110138564860188,0.0117099781289381,0.00259866586881172,0.00274947017171434,0.266896439427179,0.27068524922408,0.0452991961109895,0.0486533437414195
"Other Genes","Alpechin",0.236598666666667,0.0685012692643555,0.042318,0.012341434929026,0.136467099574913,0.0123252122373938,0.178785099574913,0.0030537452033636,0.00123218815284397,0.00010408113894177,0.00739677900746995,0.000827076023023448,0.167418963672991,0.0114066368467374,0.0467498910524311,0.000909460262138689,0.261479068000375,0.00142061917149026,0.0181287875391091,0.0665072124608909,0.112309683589621,0.160624515560205,0.172799758976321,0.184770440173506,0.145061955453386,0.189775971892597,0.00577571000234399,0.00901784801259591,0.0010281891205181,0.00143618718516984,0.258694654424254,0.264263481576496,0.0449673489386393,0.048532433166223
"Other Genes","Asian Rice Fermentation",0.0666046666666667,0.0539026456955073,0.0117186666666667,0.00949583721347346,0.163704383766135,0.00920540500205141,0.175423050432802,0.00291956018000635,0.0011066831814462,2.55230027865397e-05,0.00463131824743162,0.000101527820278119,0.23903987724272,0.00657830636205545,0.047358543633169,0.000863942237235073,0.269961356964968,0.000830807414935228,-0.00689317427174132,0.0303305076050747,0.145661789962115,0.181746977570156,0.16970071247999,0.181145388385614,0.226146396773091,0.251933357712348,0.00443232371968651,0.00483031277517674,0.00105665809598458,0.00115670826690782,0.268332974431695,0.271589739498241,0.0456652168481883,0.0490518704181497
"Other Genes","Bioethanol",0.176823489932886,0.074540195386641,0.0313221476510067,0.0133324783570128,0.145276502294699,0.0122879891902046,0.176598649945706,0.0032322601464375,0.00278173379246505,0.00011497735264163,0.0155625994737798,0.000537608901130272,0.178744056729286,0.00399747065387979,0.0474921250601808,0.000953414828654125,0.268919600114012,0.000965082840002796,0.00519049007126167,0.0574538052307517,0.121192043481898,0.1693609611075,0.170263420058689,0.182933879832724,0.170909014247682,0.18657909921089,0.0145088860275644,0.0166163129199951,0.00255637818128746,0.00300708940364265,0.267028037747607,0.270811162480417,0.0456234319960187,0.0493608181243429
"Other Genes","Dairy",0.000370666666666667,0.00453972098995816,6.73333333333333e-05,0.000824661546737003,0.17870595517041,0.00308659269044377,0.178773288503744,0.00300909912366595,0.0031131705172971,4.37344561392535e-05,0.0104433151646498,0.00020848436399108,0.298203770430911,0.0065982645130805,0.0482194764682104,0.000904776586828202,0.269716557209111,0.000947857074566292,-0.00154900329827119,0.00168366996493786,0.17265623349714,0.18475567684368,0.172875454221358,0.184671122786129,0.285271171985273,0.311136368876549,0.0100346858112273,0.0108519445180723,0.00302745098326416,0.00319889005133004,0.267858757342961,0.271574357075261,0.0464461143580271,0.0499928385783937
"Other Genes","Ecuadorian",0.067851677852349,0.0373549077857154,0.0119194630872483,0.00661732653876078,0.163668955025077,0.00702109629798182,0.175588418112326,0.00283324651520508,1.67119169276371e-05,2.44177975320689e-06,2.35043979896053e-05,4.47907022731805e-06,0.738857724631128,0.196860676071308,0.0473597276111532,0.000841981125293392,0.26971397025169,0.000868224710561993,-0.0010504969287228,0.0248894231032194,0.149907606281033,0.177430303769122,0.170035254942524,0.181141581282127,0.353010799531364,1.12470464973089,1.47254203440619e-05,3.22833756351487e-05,1.19260286113516e-05,2.14978052439226e-05,0.268012249818988,0.271415690684391,0.0457094446055782,0.0490100106167283
"Other Genes","Far East Asian",0.557136666666667,0.0529642242387916,0.0976093333333333,0.00962062484308398,0.0775451486219172,0.00908276801363516,0.17515448195525,0.00329269249941144,0.00188039223374973,5.01038517808722e-05,0.0161803937794356,0.000334874038520189,0.116223289958115,0.00242611958009588,0.0469897692996715,0.000973593663200684,0.26826787215312,0.000997981612408813,0.0787529086408887,0.116465758025778,0.0597429233151922,0.0953473739286421,0.168700804656404,0.181608159254097,0.111468095581127,0.120978484335103,0.0155240406639361,0.0168367468949352,0.00178218868425922,0.00197859578324024,0.266311828192798,0.270223916113441,0.0450815257197982,0.0488980128795449
"Other Genes","Human French Guiana",0,0,0,0,0.177989193371739,0.00301687051759695,0.177989193371739,0.00301687051759695,0.00153883450284195,4.70957485174516e-05,0.00441294536401934,0.00017588778598263,0.348945848263718,0.0093177550065786,0.0480917358144702,0.00088087352935369,0.270189581289374,0.000869067854365048,0,0,0.172076127157249,0.183902259586229,0.172076127157249,0.183902259586229,0.330683048450824,0.367208648076612,0.00406820530349339,0.0047576854245453,0.00144652683574774,0.00163114216993615,0.268486208294818,0.271892954283929,0.046365223696937,0.0498182479320034
"Other Genes","Italian Wine",0,0,0,0,0.176344012200407,0.00272771760843925,0.176344012200407,0.00272771760843925,0.00321459021144922,5.45622886981535e-05,0.00911169373639157,0.000353787825865975,0.353190476430387,0.011298386594551,0.0474355399693285,0.000815430253015403,0.268988512249894,0.000953383143042721,0,0,0.170997685687866,0.181690338712948,0.170997685687866,0.181690338712948,0.331045638705067,0.375335314155707,0.00841826959769426,0.00980511787508888,0.00310764812560084,0.0033215322972976,0.267119881289531,0.270857143210258,0.0458372966734183,0.0490337832652386
"Other Genes","Malaysian",0.828091891891892,0.053488462121002,0.146762162162162,0.0101596065956122,0.0304402201497391,0.00941266443332004,0.177202382311901,0.00308443618475698,9.15767639108853e-06,2.74167727629811e-06,0.000196750254186674,4.57444462736131e-05,0.0478406730947156,0.0140767819552415,0.0477782108995846,0.000950902793348566,0.269614952377146,0.0011404104499601,0.126849333234762,0.166674991089562,0.0119913978604318,0.0488890424390463,0.171156887389778,0.183247877234025,0.0202501804624423,0.075431165726989,0.000107091139490393,0.000286409368882956,3.78398892954424e-06,1.45313638526328e-05,0.267379747895224,0.271850156859068,0.0459144414246214,0.0496419803745478
"Other Genes","Mediterranean Oak",0.100132,0.0505530651093117,0.017616,0.0089754256596449,0.157959772438993,0.00863629665480969,0.175575772438993,0.00297097454101742,0.00082776832873518,4.55445491394993e-05,0.00377258051634383,0.000275012979848015,0.219827613964113,0.00877030963279429,0.0471978782092015,0.000910419205649567,0.268808194980953,0.00103076023554858,2.41657070959959e-05,0.035207834292904,0.141032630995566,0.17488691388242,0.169752662338599,0.181398882539387,0.202637807083836,0.23701742084439,0.00323355507584172,0.00431160595684594,0.000738501012421761,0.000917035645048599,0.266787904919278,0.270828485042629,0.0454134565661284,0.0489822998522747
"Other Genes","Mezcal",0.126297333333333,0.0841408095502256,0.0224493333333333,0.014976369514935,0.155147960493369,0.0149505390288547,0.177597293826702,0.00269591495695498,0.00230614572126017,0.000163607329593997,0.0134263670865242,0.00107391943882732,0.172031714763995,0.00731597964292331,0.0476945878500571,0.000816050627829514,0.268548110148257,0.000972288970607154,-0.00690435091593929,0.051803017582606,0.125844903996814,0.184451016989924,0.172313300511071,0.182881287142334,0.157692394663865,0.186371034864124,0.0113214849864226,0.0155312491866257,0.00198547535525593,0.0026268160872644,0.266642423765867,0.270453796530647,0.0460951286195113,0.0492940470806029
"Other Genes","North American Oak",0.109582857142857,0.0607526829118405,0.0192035714285714,0.0106708937191149,0.155939479140089,0.0106963498743388,0.17514305056866,0.0026288413103437,9.79016616618789e-06,1.71995462551007e-06,1.28481908615751e-05,3.67268464599937e-06,0.833865237876179,0.30231545854479,0.0472422680230274,0.000803004923773517,0.269728515541394,0.000961849071630661,-0.00171138026089374,0.0401185231180366,0.134974633386385,0.176904324893793,0.169990521600387,0.180295579536934,0.24132693912839,1.42640353662397,5.64972895541636e-06,2.00466527677339e-05,6.41905510018814e-06,1.31612772321876e-05,0.267843291360998,0.27161373972179,0.0456683783724313,0.0488161576736235
"Other Genes","Sake",0.00120272108843537,0.00617162026169403,0.000212925170068027,0.00109527453922747,0.17596908892583,0.0031794002432914,0.176182014095898,0.0030771354695838,0.0012023730658362,2.29707371797769e-05,0.00431222101113642,0.000104593440227338,0.278975006413535,0.00802455020903804,0.0475409715869791,0.000924380047245484,0.269832195978455,0.00100733023054603,-0.00193381292681781,0.00235966326695386,0.169737464448979,0.182200713402681,0.170150828575514,0.182213199616282,0.26324688800382,0.29470312482325,0.00410721786829084,0.00451722415398201,0.00115735042096383,0.00124739571070856,0.267857828726585,0.271806563230326,0.0457291866943779,0.0493527564795802
"Oxidative Stress","African Beer",0.000879333333333333,0.0074456175720408,0.000128666666666667,0.00109766907805663,0.135078833460076,0.0193059709601577,0.135207500126743,0.0193590649211871,0.00251375193694743,0.000263819840792216,0.0104791398327348,0.000897111129639823,0.241248352299702,0.0298349920538026,0.036288125988922,0.00532750757092802,0.268282325192675,0.00377684085864246,-0.00202276472632434,0.00228009805965767,0.097239130378167,0.172918536541985,0.097263732881216,0.17315126737227,0.182771767874249,0.299724936725155,0.00872080201864074,0.0122374776468288,0.00199666504899468,0.00303083882490017,0.260879717109735,0.275684933275614,0.0258462111499031,0.046730040827941
"Oxidative Stress","African Cocoa",0.0372626666666667,0.0659942996792647,0.00549,0.0100700616154817,0.125935424838832,0.0146468269342283,0.131425424838832,0.017415735768542,0.00161818281153723,0.000259939904050079,0.0130423963373192,0.00114703476807949,0.124872854662516,0.0217733327735126,0.035199461243155,0.00468518351388866,0.267844365263932,0.00379632050602542,-0.0142473207663441,0.0252273207663441,0.0972276440477445,0.154643205629919,0.0972905827324897,0.165560266945174,0.0821971224264316,0.167548586898601,0.0107942081918834,0.015290584482755,0.00110870059959907,0.00212766502347538,0.260403577072122,0.275285153455742,0.0260165015559332,0.0443824209303768
"Oxidative Stress","African Palm Wine",0.122454,0.129819397848388,0.0172066666666667,0.0184077444552126,0.118439521487969,0.0205294607761079,0.135646188154636,0.0177376801827515,0.00361924332796092,0.00026410183006397,0.0168321540404261,0.00111739146160776,0.216090216579867,0.0227812583751831,0.0363560512754764,0.00487085675316129,0.267935734761776,0.00369321400101034,-0.0188725124655501,0.0532858457988834,0.0782017783667976,0.15867726460914,0.100880334996443,0.170412041312829,0.171438950164508,0.260741482995226,0.0146420667756749,0.0190222413051773,0.00310160374103554,0.0041368829148863,0.260697035319796,0.275174434203757,0.0268091720392803,0.0459029305116725
"Oxidative Stress","Ale Beer",0.086616,0.103287548760047,0.0119633333333333,0.0146744603809488,0.121218183594978,0.0177747877026489,0.133181516928311,0.0165338190848411,0.00244910811609066,0.000196333146429975,0.0122553697675129,0.00101359523558322,0.200793583104432,0.0191546892255896,0.0356581412249326,0.00454274541116426,0.267658378839458,0.00432329201513481,-0.0167986090133263,0.040725275679993,0.086379599697786,0.15605676749217,0.100775231522022,0.1655878023346,0.163250392222276,0.238336773986587,0.0102687231057698,0.0142420164292561,0.00206429514908791,0.00283392108309341,0.259184726489794,0.276132031189122,0.0267543602190507,0.0445619222308146
"Oxidative Stress","Alpechin",0.382244,0.251976060298907,0.0548633333333333,0.0382841239926963,0.0835858617461945,0.0320106163560565,0.138449195079528,0.0189236039967416,0.00116768100610067,0.000411468075936231,0.0110386761104601,0.00476562593771055,0.116658164581857,0.0598974702835454,0.0360698904202145,0.00510796901931164,0.260407430078241,0.00583359845493098,-0.0201735496923514,0.129900216359018,0.0208450536883237,0.146326669804065,0.101358931245914,0.175539458913141,-0.000740877173891846,0.234057206337606,0.00169804927254739,0.0203793029483727,0.000361203577265652,0.00197415843493568,0.248973577106576,0.271841283049905,0.0260582711423636,0.0460815096980653
"Oxidative Stress","Asian Rice Fermentation",0.010204,0.0410387619683223,0.00144733333333333,0.00590674391806912,0.13303759259312,0.0180650247596163,0.134484925926454,0.0177917634839554,0.00119581829993757,0.000166402747850073,0.00432245762656439,0.000504524788074906,0.279746964757015,0.0469127559270697,0.0359880344596957,0.00483335159188769,0.267549881908158,0.00371485456232834,-0.0101298847460821,0.0130245514127488,0.0976301440642723,0.168445041121968,0.0996130694979011,0.169356782355006,0.187797963139959,0.371695966374072,0.00333358904193757,0.00531132621119121,0.000869668914151428,0.00152196768572371,0.260268766965994,0.274830996850321,0.0265146653395958,0.0454614035797956
"Oxidative Stress","Bioethanol",0.044462,0.0951985679422492,0.00586866666666667,0.0122535141469109,0.128182734264821,0.0220583198303339,0.134051400931488,0.0184375727744283,0.00319781141729912,0.000690531106769514,0.0188139427180672,0.00305009614117053,0.169676256542482,0.0219373090166191,0.0357748235090724,0.00503886871773887,0.266778566789032,0.00381772725660694,-0.0181482210612787,0.0298855543946121,0.0849484273973667,0.171417041132276,0.0979137582936084,0.170189043569367,0.126679130869908,0.212673382215055,0.012835754281373,0.0247921311547614,0.00184437044803087,0.00455125238656736,0.259295821366083,0.274261312211982,0.0258986408223042,0.0456510061958406
"Oxidative Stress","Dairy",0.000155333333333333,0.0019024370335616,2.66666666666667e-05,0.00032659863237109,0.134172639333479,0.0171109166755275,0.134199306000145,0.0171639391390871,0.00322937939805792,0.000285821967963334,0.0114982905229395,0.000819279942345133,0.281895901220633,0.0283403098905836,0.0359342263622086,0.00464525482526925,0.267760004883153,0.00377839235653562,-0.000613466652780671,0.000666799986114004,0.100635242649445,0.167710036017513,0.100557985287535,0.167840626712756,0.226348893835089,0.337442908606177,0.00989250183594303,0.0131040792099359,0.00266916834084978,0.00378959045526605,0.260354355864344,0.275165653901963,0.0268295269046808,0.0450389258197363
"Oxidative Stress","Ecuadorian",0.394839230769231,0.430721285175553,0.0541584615384615,0.0598550092903649,0.0792369230785845,0.0569296118949197,0.133395384617046,0.0184612744549973,1.7050588086155e-05,1.65357687520513e-05,4.66669463211829e-05,3.77922644700267e-05,Inf,NA,0.0358950006838924,0.00501214114534473,0.269080850741527,0.00432515684579782,-0.0631573566706537,0.171474279747577,-0.0323451162354582,0.190818962392627,0.0972112866852514,0.169579482548841,NA,NA,-2.74058920400694e-05,0.000120739784682435,-1.53595186678655e-05,4.94606948401755e-05,0.260603543323764,0.277558158159291,0.0260712040390167,0.045718797328768
"Oxidative Stress","Far East Asian",0.275740666666667,0.182258854968195,0.0377833333333333,0.0258254658583518,0.0973083699970215,0.0259795974998902,0.135091703330355,0.0177636563752918,0.00191137661051312,0.000296342091087335,0.0162367925680005,0.00118418841126552,0.118370231706501,0.0203554102926248,0.0359967069929648,0.00479448068917517,0.266425574068492,0.00357783769157002,-0.0128345797490362,0.0884012464157029,0.0463883588972367,0.148228381096806,0.100274936834783,0.169908469825927,0.0784736275329561,0.158266835880046,0.0139157832819201,0.0185578018540809,0.00133054611198195,0.0024922071090443,0.259413012193015,0.273438135943969,0.0265995248421814,0.0453938891437481
"Oxidative Stress","Human French Guiana",0.000433333333333333,0.00454526328660057,8.13333333333333e-05,0.000859482181133967,0.135686860609239,0.0161262357424474,0.135768193942572,0.0163596455950664,0.00179829060044144,0.000276845827632329,0.00532506817750447,0.000767712075431102,0.338958158828377,0.0339765491820612,0.0364923895934725,0.00450295950212831,0.268723073634569,0.00390337452552433,-0.00160325174168924,0.00176591840835591,0.104079438554042,0.167294282664436,0.103703288576242,0.167833099308902,0.272364122431537,0.405552195225217,0.00382035250965951,0.00682978384534942,0.00125567277828208,0.00234090842260081,0.261072459564541,0.276373687704597,0.027666588969301,0.045318190217644
"Oxidative Stress","Italian Wine",0.000552666666666667,0.00676875665589085,7.33333333333333e-05,0.000898146239020499,0.135370765355172,0.0187681381306222,0.135444098688505,0.0187357440249302,0.00345994946662245,0.000259075631052108,0.00873449045426679,0.000563069047299569,0.398164564606242,0.043175026460923,0.0362086342579938,0.00511367769602389,0.267249703438235,0.00378333051093266,-0.00168703329514684,0.00183369996181351,0.0985852146191522,0.172156316091191,0.0987220403996418,0.172166156977368,0.313541512742833,0.482787616469651,0.00763087512155963,0.00983810578697395,0.00295216122976032,0.00396773770348459,0.259834375636807,0.274665031239663,0.026185825973787,0.0462314425422006
"Oxidative Stress","Mediterranean Oak",0.0936573333333333,0.130969416659859,0.0128353333333333,0.0181268873552565,0.121644319103793,0.0231141659751357,0.134479652437127,0.0184077889432262,0.000687200726420308,0.000151997070129687,0.00299864843390202,0.000647237246504252,0.233297199269128,0.0469708198367789,0.0359671006336263,0.00497432940829647,0.267419672195623,0.00373413612928117,-0.0226933658829693,0.048364032549636,0.0763405537925275,0.166948084415059,0.0984003861084033,0.17055891876585,0.141234392389042,0.325360006149215,0.00173006343075368,0.00426723343705035,0.000389286468966121,0.000985114983874495,0.260100765382232,0.274738579009014,0.0262174149933652,0.0457167862738874
"Oxidative Stress","Mezcal",0.0678913333333333,0.105291288470322,0.00939933333333333,0.0148271811739789,0.127169684005311,0.0213613126421956,0.136569017338644,0.0178393563012687,0.00174184041295432,0.000334562289399094,0.0115081020669331,0.00223310606263123,0.153989560752812,0.0293289661244342,0.0363283895255098,0.00481712042469759,0.265960283927134,0.00395135583194487,-0.0196619417676654,0.0384606084343321,0.0853015112266075,0.169037856784014,0.101603878988157,0.171534155689131,0.0965047871489213,0.211474334356703,0.00713121418417587,0.0158849899496903,0.0010860983257321,0.00239758250017655,0.258215626496522,0.273704941357745,0.0268868334931025,0.0457699455579171
"Oxidative Stress","North American Oak",0.350901020408163,0.461058141221448,0.0468765306122449,0.06158644549129,0.0855406878695116,0.0615779623846979,0.132417218481756,0.0162965637896943,1.67428794270609e-05,1.56618596653319e-05,6.4725477714858e-05,3.76736316152404e-05,0.313649521714999,0.328272878405378,0.0354123426514039,0.00438774364933211,0.267423431466467,0.00361767803820403,-0.0738329025506834,0.167585963775173,-0.0351521184044964,0.20623349414352,0.100475953453956,0.164358483509557,-0.329765319959542,0.957064363389539,-9.11484025101313e-06,0.000138565795680729,-1.39543655169895e-05,4.74401243711113e-05,0.260332782511587,0.274514080421347,0.026812365098713,0.0440123202040948
"Oxidative Stress","Sake",0.000222666666666667,0.00271070823769142,3.26666666666667e-05,0.000400083324654586,0.133981545900166,0.0179242048734336,0.134014212566833,0.0179429367064492,0.0011416967716157,0.000151885474324889,0.0041440386131612,0.00060380871003367,0.280189686287229,0.0514574141831666,0.035760529132555,0.00483308738570754,0.266810907644767,0.0039163180834543,-0.000751496649656321,0.000816829982989655,0.0988501043482361,0.169112987452096,0.0988460566221921,0.169182368511473,0.179333154488222,0.381046218086235,0.00296057354149521,0.00532750368482719,0.000844001241938917,0.00143939230129248,0.259134924201196,0.274486891088337,0.0262876778565682,0.0452333804085418
