"Population","Method","LifeHistory"
"African Beer","Starter-based","Non-Asian & Domesticated"
"African Cocoa","Environmental","Wild"
"African Palm Wine","Environmental","Wild"
"Ale Beer","Repitching","Non-Asian & Domesticated"
"Alpechin","Environmental","Non-Asian & Domesticated"
"Asian Rice Fermentation","Starter-based","Asian & Domesticated"
"Bioethanol","Starter-based","Non-Asian & Domesticated"
"Dairy","Starter-based","Non-Asian & Domesticated"
"Ecuadorian","Environmental","Wild"
"Far East Asian","Environmental","Wild"
"Human French Guiana","Repitching","Non-Asian & Domesticated"
"Italian Wine","Starter-based","Non-Asian & Domesticated"
"Malaysian","Environmental","Wild"
"Mediterranean Oak","Environmental","Non-Asian & Domesticated"
"Mezcal","Repitching","Non-Asian & Domesticated"
"North American Oak","Environmental","Wild"
"Sake","Environmental","Asian & Domesticated"
