time_index	left_time_boundary	right_time_boundary	lambda
0	0	2.60729e-06	11944.5
1	2.60729e-06	5.89513e-06	11944.5
2	5.89513e-06	1.00411e-05	11944.5
3	1.00411e-05	1.52693e-05	11944.5
4	1.52693e-05	2.18621e-05	11944.5
5	2.18621e-05	3.01757e-05	4211.52
6	3.01757e-05	4.06593e-05	5418.29
7	4.06593e-05	5.38793e-05	5858.14
8	5.38793e-05	7.05499e-05	5401.13
9	7.05499e-05	9.15717e-05	4683.45
10	9.15717e-05	0.000118081	3947.18
11	0.000118081	0.000151509	3118.43
12	0.000151509	0.000193662	2308.69
13	0.000193662	0.000246818	1709.09
14	0.000246818	0.000313848	1309.53
15	0.000313848	0.000398374	1010.89
16	0.000398374	0.000504963	770.97
17	0.000504963	0.000639373	601.389
18	0.000639373	0.000808866	503.369
19	0.000808866	0.0010226	458.884
20	0.0010226	0.00129212	457.218
21	0.00129212	0.00163199	480.569
22	0.00163199	0.00206057	493.5
23	0.00206057	0.00260101	475.512
24	0.00260101	0.00328252	441.726
25	0.00328252	0.00414192	453.841
26	0.00414192	0.00522562	453.841
27	0.00522562	0.0065922	453.841
28	0.0065922	0.00831546	453.841
29	0.00831546	inf	453.841
