time_index	left_time_boundary	right_time_boundary	lambda
0	0	1.19084e-05	11506.2
1	1.19084e-05	2.59846e-05	11506.2
2	2.59846e-05	4.26232e-05	11506.2
3	4.26232e-05	6.22908e-05	11506.2
4	6.22908e-05	8.55386e-05	11506.2
5	8.55386e-05	0.000113019	324.101
6	0.000113019	0.000145501	520.573
7	0.000145501	0.000183896	489.122
8	0.000183896	0.000229282	350.467
9	0.000229282	0.000282929	227.291
10	0.000282929	0.000346342	153.76
11	0.000346342	0.000421298	115.053
12	0.000421298	0.0005099	96.8485
13	0.0005099	0.000614631	95.4769
14	0.000614631	0.000738428	113.005
15	0.000738428	0.000884761	152.724
16	0.000884761	0.00105773	215.76
17	0.00105773	0.00126219	301.932
18	0.00126219	0.00150387	414.479
19	0.00150387	0.00178954	554.086
20	0.00178954	0.00212722	697.501
21	0.00212722	0.00252637	793.179
22	0.00252637	0.00299819	800.158
23	0.00299819	0.00355589	738.913
24	0.00355589	0.00421511	686.931
25	0.00421511	0.00499434	148.739
26	0.00499434	0.00591543	148.739
27	0.00591543	0.00700419	148.739
28	0.00700419	0.00829115	148.739
29	0.00829115	inf	148.739
