time_index	left_time_boundary	right_time_boundary	lambda
0	0	1.50963e-06	31027.1
1	1.50963e-06	3.45296e-06	31027.1
2	3.45296e-06	5.95457e-06	31027.1
3	5.95457e-06	9.17487e-06	31027.1
4	9.17487e-06	1.33203e-05	31027.1
5	1.33203e-05	1.86567e-05	13753
6	1.86567e-05	2.55261e-05	13053
7	2.55261e-05	3.43691e-05	11311.4
8	3.43691e-05	4.57525e-05	8699.97
9	4.57525e-05	6.04062e-05	6751.39
10	6.04062e-05	7.92697e-05	5018.73
11	7.92697e-05	0.000103552	3290.31
12	0.000103552	0.000134811	1926.94
13	0.000134811	0.00017505	1021.25
14	0.00017505	0.00022685	504.163
15	0.00022685	0.00029353	261.976
16	0.00029353	0.000379367	165.441
17	0.000379367	0.000489864	134.524
18	0.000489864	0.000632105	140.796
19	0.000632105	0.00081521	177.654
20	0.00081521	0.00105092	242.993
21	0.00105092	0.00135434	342.846
22	0.00135434	0.00174494	489.96
23	0.00174494	0.00224774	664.083
24	0.00224774	0.002895	754.125
25	0.002895	0.0037282	410.449
26	0.0037282	0.00480078	410.449
27	0.00480078	0.00618148	410.449
28	0.00618148	0.00795885	410.449
29	0.00795885	inf	410.449
