time_index	left_time_boundary	right_time_boundary	lambda
0	0	9.75807e-06	14429.5
1	9.75807e-06	2.12925e-05	14429.5
2	2.12925e-05	3.49267e-05	14429.5
3	3.49267e-05	5.10428e-05	14429.5
4	5.10428e-05	7.00928e-05	14429.5
5	7.00928e-05	9.26106e-05	1656.18
6	9.26106e-05	0.000119228	1924.79
7	0.000119228	0.00015069	1332.29
8	0.00015069	0.00018788	800.063
9	0.00018788	0.00023184	496.42
10	0.00023184	0.000283802	336.938
11	0.000283802	0.000345224	240.744
12	0.000345224	0.000417827	174.611
13	0.000417827	0.000503647	136.072
14	0.000503647	0.000605089	127.541
15	0.000605089	0.000724998	148.774
16	0.000724998	0.000866736	198.772
17	0.000866736	0.00103428	270.75
18	0.00103428	0.00123231	351.522
19	0.00123231	0.0014664	437.563
20	0.0014664	0.00174311	541.479
21	0.00174311	0.00207018	667.706
22	0.00207018	0.0024568	777.869
23	0.0024568	0.0029138	773.139
24	0.0029138	0.00345398	645.503
25	0.00345398	0.00409251	489.563
26	0.00409251	0.00484727	489.563
27	0.00484727	0.00573943	489.563
28	0.00573943	0.006794	489.563
29	0.006794	inf	489.563
