time_index	left_time_boundary	right_time_boundary	lambda
0	0	7.76309e-06	206.88
1	7.76309e-06	1.69394e-05	206.88
2	1.69394e-05	2.77861e-05	206.88
3	2.77861e-05	4.06074e-05	206.88
4	4.06074e-05	5.57628e-05	206.88
5	5.57628e-05	7.3677e-05	1104.67
6	7.3677e-05	9.48523e-05	853.047
7	9.48523e-05	0.000119882	1032.4
8	0.000119882	0.000149469	1592.72
9	0.000149469	0.000184442	2518.08
10	0.000184442	0.000225781	3674.02
11	0.000225781	0.000274645	4716.62
12	0.000274645	0.000332405	5288.86
13	0.000332405	0.000400679	5296.28
14	0.000400679	0.000481382	4760.74
15	0.000481382	0.000576777	3848.16
16	0.000576777	0.000689537	2856.57
17	0.000689537	0.000822824	2018.55
18	0.000822824	0.000980375	1447.58
19	0.000980375	0.00116661	1116.82
20	0.00116661	0.00138674	936.676
21	0.00138674	0.00164695	823.669
22	0.00164695	0.00195452	765.187
23	0.00195452	0.00231809	954.698
24	0.00231809	0.00274784	8457.31
25	0.00274784	0.00325582	2.34496
26	0.00325582	0.00385628	2.34496
27	0.00385628	0.00456604	2.34496
28	0.00456604	0.00540501	2.34496
29	0.00540501	inf	2.34496
