time_index	left_time_boundary	right_time_boundary	lambda
0	0	8.85271e-06	240.751
1	8.85271e-06	1.9317e-05	240.751
2	1.9317e-05	3.16862e-05	240.751
3	3.16862e-05	4.6307e-05	240.751
4	4.6307e-05	6.35895e-05	240.751
5	6.35895e-05	8.40181e-05	292.014
6	8.40181e-05	0.000108166	483.336
7	0.000108166	0.000136709	878.093
8	0.000136709	0.000170448	1512.15
9	0.000170448	0.00021033	2485.37
10	0.00021033	0.000257471	3890.39
11	0.000257471	0.000313194	5250.06
12	0.000313194	0.000379061	5400.49
13	0.000379061	0.000456918	4457.89
14	0.000456918	0.000548948	3402.75
15	0.000548948	0.000657732	2605.69
16	0.000657732	0.000786319	2068.77
17	0.000786319	0.000938315	1733.72
18	0.000938315	0.00111798	1517.78
19	0.00111798	0.00133035	1375.84
20	0.00133035	0.00158138	1302.22
21	0.00158138	0.00187811	1271.79
22	0.00187811	0.00222886	1237.15
23	0.00222886	0.00264345	1181.15
24	0.00264345	0.00313352	1066.34
25	0.00313352	0.0037128	125.367
26	0.0037128	0.00439754	125.367
27	0.00439754	0.00520692	125.367
28	0.00520692	0.00616365	125.367
29	0.00616365	inf	125.367
