time_index	left_time_boundary	right_time_boundary	lambda
0	0	1.00293e-05	31.666
1	1.00293e-05	2.18843e-05	31.666
2	2.18843e-05	3.58973e-05	31.666
3	3.58973e-05	5.24614e-05	31.666
4	5.24614e-05	7.20408e-05	31.666
5	7.20408e-05	9.51844e-05	507.338
6	9.51844e-05	0.000122541	1116.11
7	0.000122541	0.000154878	2275.1
8	0.000154878	0.000193101	3714.23
9	0.000193101	0.000238283	4263.37
10	0.000238283	0.00029169	3874.27
11	0.00029169	0.000354818	3551.61
12	0.000354818	0.000429439	3475.45
13	0.000429439	0.000517644	3394.04
14	0.000517644	0.000621905	3145.58
15	0.000621905	0.000745147	2679.03
16	0.000745147	0.000890824	1997.97
17	0.000890824	0.00106302	1332.27
18	0.00106302	0.00126656	899.323
19	0.00126656	0.00150716	658.403
20	0.00150716	0.00179155	500.76
21	0.00179155	0.00212772	394.99
22	0.00212772	0.00252508	371.543
23	0.00252508	0.00299477	565.088
24	0.00299477	0.00354998	5498.27
25	0.00354998	0.00420625	12.2431
26	0.00420625	0.00498198	12.2431
27	0.00498198	0.00589894	12.2431
28	0.00589894	0.00698282	12.2431
29	0.00698282	inf	12.2431
