time_index	left_time_boundary	right_time_boundary	lambda
0	0	1.11007e-05	8.92005
1	1.11007e-05	2.42221e-05	8.92005
2	2.42221e-05	3.97322e-05	8.92005
3	3.97322e-05	5.80657e-05	8.92005
4	5.80657e-05	7.97367e-05	8.92005
5	7.97367e-05	0.000105353	109.148
6	0.000105353	0.000135632	532.36
7	0.000135632	0.000171423	1452.8
8	0.000171423	0.00021373	2660.98
9	0.00021373	0.000263738	3798.05
10	0.000263738	0.00032285	4253.12
11	0.00032285	0.000392723	3937.37
12	0.000392723	0.000475315	3321.73
13	0.000475315	0.000572942	2778.36
14	0.000572942	0.000688342	2465.55
15	0.000688342	0.000824749	2340.23
16	0.000824749	0.000985988	2193.98
17	0.000985988	0.00117658	1757.63
18	0.00117658	0.00140187	1133.73
19	0.00140187	0.00166816	648.289
20	0.00166816	0.00198294	363.004
21	0.00198294	0.00235501	221.103
22	0.00235501	0.00279482	169.207
23	0.00279482	0.0033147	194.89
24	0.0033147	0.00392921	3050.77
25	0.00392921	0.00465559	8.84683
26	0.00465559	0.0055142	8.84683
27	0.0055142	0.00652911	8.84683
28	0.00652911	0.00772877	8.84683
29	0.00772877	inf	8.84683
