time_index	left_time_boundary	right_time_boundary	lambda
0	0	8.95505e-08	97.1303
1	8.95505e-08	2.1643e-07	97.1303
2	2.1643e-07	3.962e-07	97.1303
3	3.962e-07	6.50906e-07	97.1303
4	6.50906e-07	1.01179e-06	97.1303
5	1.01179e-06	1.5231e-06	2515.22
6	1.5231e-06	2.24756e-06	4431.3
7	2.24756e-06	3.274e-06	4017.43
8	3.274e-06	4.72832e-06	2909.42
9	4.72832e-06	6.78886e-06	1209.09
10	6.78886e-06	9.70835e-06	284.394
11	9.70835e-06	1.38448e-05	90.5537
12	1.38448e-05	1.97056e-05	67.9671
13	1.97056e-05	2.80094e-05	88.4434
14	2.80094e-05	3.97747e-05	105.902
15	3.97747e-05	5.64443e-05	105.076
16	5.64443e-05	8.00627e-05	169.606
17	8.00627e-05	0.000113526	397.129
18	0.000113526	0.000160939	1120.7
19	0.000160939	0.000228117	2729.41
20	0.000228117	0.000323296	4935.12
21	0.000323296	0.000458152	4643.43
22	0.000458152	0.000649222	2230.3
23	0.000649222	0.00091994	953.559
24	0.00091994	0.00130351	5722.5
25	0.00130351	0.00184696	9.48484
26	0.00184696	0.00261696	9.48484
27	0.00261696	0.00370793	9.48484
28	0.00370793	0.00525367	9.48484
29	0.00525367	inf	9.48484
