time_index	left_time_boundary	right_time_boundary	lambda
0	0	1.15594e-05	28.1776
1	1.15594e-05	2.5223e-05	28.1776
2	2.5223e-05	4.1374e-05	28.1776
3	4.1374e-05	6.04651e-05	28.1776
4	6.04651e-05	8.30316e-05	28.1776
5	8.30316e-05	0.000109706	541.008
6	0.000109706	0.000141236	1058.94
7	0.000141236	0.000178507	1920.86
8	0.000178507	0.000222562	3182.34
9	0.000222562	0.000274636	4405.91
10	0.000274636	0.000336191	4673.44
11	0.000336191	0.00040895	3929.13
12	0.00040895	0.000494956	3200.74
13	0.000494956	0.000596617	2828.85
14	0.000596617	0.000716785	2600.18
15	0.000716785	0.000858829	2347.48
16	0.000858829	0.00102673	2029.36
17	0.00102673	0.0012252	1619.58
18	0.0012252	0.00145979	1167.7
19	0.00145979	0.00173709	791.993
20	0.00173709	0.00206488	550.592
21	0.00206488	0.00245233	428.838
22	0.00245233	0.00291031	408.114
23	0.00291031	0.00345167	559.932
24	0.00345167	0.00409157	2618.49
25	0.00409157	0.00484797	17.9381
26	0.00484797	0.00574205	17.9381
27	0.00574205	0.0067989	17.9381
28	0.0067989	0.00804814	17.9381
29	0.00804814	inf	17.9381
