LogLikelihood = -977975.54765862796921

y0 2.8876879488212772173
y0_prime 0
y1 0.63857690104935671549
y1_prime 0
y2 1.5469376823426830292
y2_prime 0
y3 0.015629359391875922991
y3_prime 0
rho 0.0011180494345772475345
rho.alpha 0.050085349678061004408
r_ii 0.99936041328138858209
theta 0.0022502356708590837316
