Chr	Start	Stop	BlockSize	BlockLength
I	2575	2637	8	63
I	2637	2686	8	52
I	2686	5063	8	2394
I	5076	6733	8	1657
I	6745	7672	8	928
I	7870	8243	8	373
I	8254	11892	8	3647
I	11931	12519	8	609
I	12672	12702	8	30
I	12752	13055	8	306
I	13058	13281	8	223
I	26943	26990	8	47
I	27081	28125	8	1049
I	28146	28544	8	404
I	28550	28765	8	221
I	28777	29207	8	432
I	29221	29255	8	34
I	29265	29424	8	169
I	29441	29549	8	109
I	29559	29594	8	35
I	29607	29698	8	92
I	29734	29739	8	5
I	29832	29845	8	13
I	29938	29946	8	8
I	29988	30105	8	120
I	30111	30280	8	172
I	30291	30439	8	156
I	30466	30582	8	119
I	30594	30659	8	69
I	30669	30719	8	50
I	30758	30788	8	31
I	30799	30816	8	17
I	30857	30947	8	90
I	30957	30985	8	28
I	31010	31067	8	58
I	31090	31112	8	22
I	31133	34734	8	3620
I	34750	35128	8	392
I	35148	69812	8	34680
I	69832	69997	8	169
I	70007	70363	8	365
I	70373	70465	8	95
I	70475	73572	8	3105
I	73578	74869	8	1299
I	74869	74995	8	126
I	75008	101284	8	26282
I	101298	101298	8	1
I	101298	139398	8	38114
I	139414	139767	8	353
I	140451	152100	8	11658
I	152116	160238	8	8128
I	166168	180129	8	13980
I	180145	181123	8	982
I	181263	182595	8	1332
I	182621	182622	8	1
I	182946	187560	8	4623
I	187596	189355	8	1770
I	189355	189364	8	48
I	189364	189601	8	267
I	189639	189739	8	102
I	189739	189765	8	26
I	189782	189985	8	253
I	190003	192285	8	2283
I	192303	199085	8	6811
I	199109	199498	8	438
I	199648	199698	8	51
I	199737	199844	8	139
I	199877	199887	8	10
I	199911	200200	8	315
I	200263	200276	8	13
I	200325	200868	8	559
I	200897	201019	8	309
I	201043	201163	8	125
I	201190	202534	8	1378
I	202550	202890	8	344
I	202906	203613	8	707
I	203833	204501	8	671
I	219095	220009	8	914
I	220021	223151	8	3133
I	229652	229728	8	76
I	229728	229758	8	30
I	229758	229762	8	4
I	229786	229799	8	13
XIII	5473	5564	8	95
XIII	8403	13985	8	5582
XIII	14013	26544	8	12542
XIII	26597	26720	8	124
XIII	26732	26810	8	80
XIII	26827	37744	8	10919
XIII	37754	40138	8	2384
XIII	40148	44380	8	4235
XIII	44401	45999	8	1598
XIII	46000	49831	8	3831
XIII	49841	65921	8	16088
XIII	65939	86955	8	21021
XIII	86956	86956	8	1
XIII	87001	91735	8	4735
XIII	91757	95730	8	3978
XIII	95735	97869	8	2144
XIII	97881	97922	8	43
XIII	97932	99265	8	1333
XIII	99277	99609	8	334
XIII	99632	120598	8	20986
XIII	120619	122953	8	2349
XIII	122980	129530	8	6552
XIII	129532	132690	8	3158
XIII	132722	146081	8	13363
XIII	146100	158395	8	12296
XIII	158404	159849	8	1445
XIII	159867	162849	8	2982
XIII	162913	165369	8	2457
XIII	165385	165423	8	38
XIII	165442	168348	8	2909
XIII	168686	169483	8	801
XIII	169504	179687	8	10186
XIII	179693	183907	8	4235
XIII	183978	184164	8	206
XIII	184437	184484	8	47
XIII	190083	191989	8	1906
XIII	192000	196028	8	4032
XIII	196040	196041	8	1
XIII	196041	196189	8	149
XIII	202195	226589	8	24397
XIII	226602	238313	8	11721
XIII	238331	238758	8	427
XIII	238776	239347	8	571
XIII	239375	255043	8	15682
XIII	255048	256049	8	1001
XIII	256063	259085	8	3022
XIII	259125	259148	8	23
XIII	259179	266827	8	7654
XIII	266863	280719	8	13880
XIII	280749	280764	8	15
XIII	280764	290852	8	10090
XIII	290865	321158	8	30303
XIII	321158	335097	8	13947
XIII	335097	335161	8	64
XIII	335161	335225	8	64
XIII	335225	337470	8	2246
XIII	337484	338638	8	1156
XIII	338638	343210	8	4580
XIII	343226	344108	8	896
XIII	344126	344306	8	183
XIII	344322	346043	8	1722
XIII	346043	346618	8	582
XIII	346628	348310	8	1682
XIII	348328	348504	8	186
XIII	348504	348568	8	66
XIII	348577	348740	8	163
XIII	348750	350869	8	2123
XIII	350883	351998	8	1115
XIII	352008	352215	8	214
XIII	352227	352720	8	498
XIII	352730	353226	8	496
XIII	353236	353626	8	390
XIII	353636	354555	8	922
XIII	354565	355291	8	730
XIII	355301	356016	8	716
XIII	356016	357005	8	998
XIII	362698	362924	8	237
XIII	362924	372562	8	9638
XIII	372588	372620	8	32
XIII	372637	372638	8	1
XIII	372638	372690	8	52
XIII	378621	379346	8	725
XIII	379358	387091	8	7733
XIII	387105	388678	8	1574
XIII	388703	409208	8	20508
XIII	409213	420931	8	11730
XIII	420943	480880	8	59951
XIII	480880	489735	8	8858
XIII	489759	503420	8	13663
XIII	503425	503758	8	340
XIII	504146	504883	8	737
XIII	504956	509626	8	4675
XIII	509643	509663	8	20
XIII	509681	509860	8	179
XIII	509860	510600	8	747
XIII	510618	510689	8	73
XIII	510724	511320	8	611
XIII	511338	511408	8	70
XIII	511426	512736	8	1441
XIII	512789	513412	8	799
XIII	513432	515571	8	2153
XIII	515601	538633	8	23040
XIII	538651	561876	8	23227
XIII	561887	561888	8	1
XIII	561987	586970	8	24986
XIII	586970	587632	8	662
XIII	587656	587698	8	42
XIII	587714	588588	8	874
XIII	588603	599553	8	10950
XIII	599553	600624	8	1071
XIII	600758	602650	8	1892
XIII	602650	602834	8	184
XIII	602968	609021	8	6053
XIII	609455	609515	8	63
XIII	609521	609564	8	43
XIII	609615	622571	8	13002
XIII	622581	625407	8	2827
XIII	625437	632663	8	7226
XIII	634207	646849	8	12643
XIII	646873	651825	8	4952
XIII	651837	654910	8	3077
XIII	654916	756954	8	102057
XIII	756990	758899	8	1909
XIII	758915	768037	8	9170
XIII	768043	768440	8	397
XIII	768451	768452	8	1
XIII	768452	768542	8	90
XIII	768774	768824	8	61
XIII	768879	808616	8	39751
XIII	808616	808661	8	46
XIII	808661	808742	8	81
XIII	808843	822593	8	13750
XIII	822624	827900	8	5276
XIII	827900	828032	8	132
XIII	828032	828149	8	117
XIII	828149	828318	8	169
XIII	828340	837639	8	9299
XIII	837645	851708	8	14065
XIII	851725	873840	8	22127
XIII	873888	874553	8	665
XIII	874569	878819	8	4250
XIII	878830	886514	8	7693
XIII	886524	886935	8	416
XIII	886951	888735	8	1785
XIII	888751	907460	8	18717
XIII	907470	908220	8	750
XIII	908343	908445	8	102
XIII	908489	908549	8	60
XIII	908627	910375	8	1748
XIII	910385	917282	8	6897
XIII	917301	917492	8	192
XIII	917492	917896	8	404
IV	19109	19486	8	385
IV	19492	19745	8	256
IV	19762	19841	8	81
IV	19847	19902	8	55
IV	19908	20191	8	284
IV	20214	20519	8	311
IV	20553	21242	8	698
IV	21248	21802	8	561
IV	21819	21863	8	44
IV	21863	21940	8	78
IV	21971	22286	8	316
IV	22292	22317	8	25
IV	22323	29100	8	6800
IV	29122	30677	8	1556
IV	31351	32131	8	780
IV	32146	33346	8	1206
IV	33363	43864	8	10502
IV	43877	44529	8	652
IV	44529	46353	8	1824
IV	47920	47942	8	23
IV	47942	73910	8	25980
IV	73929	92677	8	18753
IV	92697	118273	8	25591
IV	118449	124570	8	6122
IV	124722	126533	8	1811
IV	126553	133634	8	7083
IV	133634	137785	8	4151
IV	137866	149111	8	11250
IV	149139	160872	8	11742
IV	160891	161457	8	566
IV	161494	161557	8	63
IV	161579	168572	8	7014
IV	168574	169077	8	503
IV	169100	169892	8	807
IV	169908	172006	8	2115
IV	172028	181915	8	9895
IV	181933	212222	8	30303
IV	212239	212434	8	195
IV	212445	216018	8	3580
IV	216045	218127	8	2083
IV	218295	220367	8	2072
IV	220519	221723	8	1204
IV	221735	226810	8	5075
IV	226848	227632	8	784
IV	227632	232536	8	4920
IV	232576	273623	8	41058
IV	273641	309610	8	35986
IV	309626	323694	8	14072
IV	323700	329637	8	5955
IV	329681	329730	8	49
IV	329747	369257	8	39543
IV	369279	370991	8	1712
IV	370991	383583	8	12592
IV	384000	384097	8	97
IV	384110	384419	8	309
IV	384449	384461	8	12
IV	384493	384849	8	356
IV	384866	384910	8	44
IV	385045	429500	8	44468
IV	429524	431773	8	2256
IV	431792	432140	8	363
IV	432156	433058	8	902
IV	433096	433323	8	232
IV	433364	434272	8	936
IV	434284	434348	8	64
IV	435273	435912	8	696
IV	435938	436141	8	510
IV	436168	436198	8	30
IV	436228	436242	8	14
IV	436269	436302	8	33
IV	436339	437150	8	861
IV	437178	437239	8	61
IV	437276	437294	8	23
IV	437310	437366	8	56
IV	437473	437508	8	37
IV	437559	437640	8	83
IV	437667	437847	8	254
IV	437863	441305	8	3445
IV	441323	444476	8	3155
IV	444508	445179	8	671
IV	445179	446596	8	1421
IV	446608	449400	8	2798
IV	449412	449453	8	43
IV	449465	449612	8	147
IV	449624	449682	8	58
IV	449694	449771	8	85
IV	449783	452313	8	2539
IV	452313	462536	8	10235
IV	462557	462633	8	77
IV	462781	462853	8	72
IV	462881	465137	8	2310
IV	465155	465189	8	35
IV	465191	465254	8	68
IV	465275	465496	8	223
IV	465515	465790	8	277
IV	465792	470126	8	4336
IV	470126	470483	8	358
IV	470493	471420	8	935
IV	471430	471517	8	87
IV	471527	471635	8	109
IV	471645	471851	8	209
IV	472918	511738	8	38833
IV	511784	512459	8	677
IV	513257	513320	8	63
IV	519393	519432	8	39
IV	519432	519471	8	39
IV	519648	519863	8	284
IV	519880	519893	8	13
IV	519920	519992	8	98
IV	520014	520022	8	8
IV	520039	520171	8	175
IV	520497	520828	8	541
IV	520890	530800	8	9996
IV	538577	538727	8	150
IV	538749	544674	8	5927
IV	544807	548542	8	3743
IV	548554	558174	8	9638
IV	558194	558307	8	116
IV	558323	558675	8	359
IV	558696	561006	8	2315
IV	561015	561043	8	28
IV	561058	562889	8	1863
IV	562906	567381	8	4500
IV	567391	567441	8	50
IV	567451	568703	8	1257
IV	568713	568807	8	95
IV	568817	569176	8	359
IV	569186	569765	8	580
IV	569775	569963	8	190
IV	569973	570225	8	260
IV	570235	584609	8	14389
IV	584615	587834	8	3222
IV	587850	592522	8	4674
IV	592568	600993	8	8427
IV	601047	601312	8	265
IV	601475	607036	8	5561
IV	607052	617270	8	10218
IV	617287	628730	8	11447
IV	628880	645209	8	16335
IV	651419	654345	8	2926
IV	654355	668000	8	13647
IV	668017	668018	8	1
IV	668375	668436	8	61
IV	668436	678017	8	9585
IV	678045	734076	8	56094
IV	734094	747505	8	13429
IV	747535	748518	8	983
IV	748534	757466	8	8935
IV	757466	757536	8	70
IV	757546	757547	8	1
IV	757556	757564	8	8
IV	757576	757660	8	84
IV	757660	757687	8	27
IV	757687	757773	8	86
IV	757807	757814	8	7
IV	757814	757840	8	26
IV	759787	778728	8	18941
IV	778826	801677	8	22852
IV	801683	802963	8	1280
IV	803172	803197	8	25
IV	803400	804535	8	1135
IV	805649	810734	8	5091
IV	810739	838061	8	27343
IV	838066	840418	8	2353
IV	840427	864865	8	24438
IV	864871	871820	8	7002
IV	871820	871871	8	51
IV	871882	871883	8	1
IV	877932	878302	8	370
IV	884225	884396	8	172
IV	884409	884566	8	158
IV	884583	892701	8	8118
IV	892728	930959	8	38235
IV	930976	945996	8	15020
IV	946222	946297	8	75
IV	946308	946310	8	2
IV	946344	960058	8	13720
IV	960073	962237	8	2182
IV	962239	974332	8	12105
IV	974360	975170	8	830
IV	975191	977317	8	2133
IV	977333	977456	8	132
IV	977472	979759	8	2305
IV	979779	980334	8	571
IV	980353	980871	8	611
IV	980921	981060	8	147
IV	981077	981186	8	123
IV	981412	981412	8	1
IV	981440	981494	8	55
IV	992909	995681	8	2805
IV	995693	995786	8	93
IV	995814	1015983	8	20172
IV	1015994	1016711	8	717
IV	1016724	1017456	8	757
IV	1017456	1017490	8	41
IV	1017490	1023198	8	5708
IV	1023362	1023416	8	54
IV	1023416	1038663	8	15248
IV	1038676	1054740	8	16064
IV	1054787	1080938	8	26183
IV	1080975	1095766	8	14793
IV	1101697	1141105	8	39424
IV	1141117	1144940	8	3825
IV	1144952	1145396	8	447
IV	1145408	1146281	8	874
IV	1146293	1147245	8	953
IV	1147257	1150800	8	3571
IV	1150836	1150983	8	151
IV	1151005	1151046	8	42
IV	1151046	1151049	8	3
IV	1151067	1151068	8	1
IV	1151464	1154028	8	2699
IV	1154046	1154164	8	127
IV	1155832	1156833	8	1023
IV	1156877	1157038	8	173
IV	1157066	1157970	8	933
IV	1157986	1158032	8	48
IV	1158048	1158280	8	239
IV	1158314	1159155	8	873
IV	1159182	1159537	8	395
IV	1161041	1161161	8	120
IV	1164453	1165866	8	1425
IV	1165882	1166964	8	1146
IV	1166964	1167501	8	538
IV	1167525	1175214	8	7791
IV	1175276	1175301	8	25
IV	1175315	1175316	8	1
IV	1175449	1206692	8	31247
IV	1212615	1239025	8	26414
IV	1239041	1243229	8	4189
IV	1243229	1305367	8	62163
IV	1305367	1307544	8	2178
IV	1307949	1307962	8	13
IV	1307989	1308081	8	92
IV	1308081	1308114	8	33
IV	1308508	1308530	8	22
IV	1308530	1308557	8	27
IV	1308557	1341635	8	33080
IV	1341651	1346531	8	4881
IV	1346549	1352629	8	6086
IV	1352966	1353222	8	256
IV	1353227	1353227	8	1
IV	1353227	1357480	8	4253
IV	1357505	1385465	8	27961
IV	1385477	1418463	8	32994
IV	1418479	1458154	8	39693
IV	1458160	1461800	8	3681
IV	1461800	1461870	8	118
IV	1461993	1462115	8	154
IV	1462133	1478123	8	16007
IV	1478141	1480945	8	2845
IV	1480971	1483400	8	2430
IV	1483416	1483624	8	210
IV	1483645	1485389	8	1750
IV	1485409	1485550	8	141
IV	1485567	1487458	8	1898
IV	1487468	1487476	8	8
IV	1487486	1490223	8	2783
IV	1490224	1490915	8	696
IV	1490947	1491636	8	693
IV	1491669	1491789	8	120
IV	1491789	1492667	8	907
IV	1492683	1493194	8	535
IV	1493212	1493258	8	46
IV	1493285	1493781	8	534
IV	1493801	1494193	8	412
IV	1494209	1494418	8	209
IV	1494435	1496147	8	1713
IV	1496164	1497828	8	1667
IV	1497851	1498009	8	160
IV	1498026	1500929	8	2915
IV	1500951	1501040	8	90
IV	1501160	1501292	8	134
IV	1501315	1502638	8	1338
IV	1502773	1502964	8	209
IV	1502991	1503663	8	687
IV	1503696	1503751	8	58
IV	1503841	1503876	8	35
IV	1503909	1503948	8	39
IV	1503999	1504016	8	17
IV	1504058	1504216	8	158
IV	1504423	1504469	8	46
IV	1504490	1504618	8	128
IV	1504657	1504670	8	13
IV	1504697	1504701	8	4
IV	1504734	1504744	8	10
IV	1504754	1504811	8	57
IV	1504830	1505524	8	703
IV	1505672	1505681	8	9
IV	1505697	1505700	8	3
IV	1505788	1505882	8	94
IV	1505898	1505912	8	14
IV	1505929	1506494	8	636
IV	1506618	1506732	8	115
IV	1506771	1506921	8	193
IV	1506943	1507963	8	1070
IV	1507980	1510186	8	2238
IV	1510221	1511353	8	1143
IV	1511353	1511410	8	57
IV	1511410	1511708	8	298
IV	1511726	1511961	8	238
IV	1511984	1513602	8	1621
IV	1513654	1513764	8	118
IV	1519279	1519356	8	85
IV	1519388	1520896	8	1524
IV	1520913	1521250	8	353
IV	1523482	1523628	8	146
IV	1523658	1523669	8	11
IV	1523690	1523692	8	2
IV	1523724	1523743	8	19
VIII	5555	5571	8	16
VIII	5634	5769	8	137
VIII	12241	12280	8	39
VIII	12280	12283	8	3
VIII	12304	12670	8	375
VIII	12932	13537	8	606
VIII	13537	14820	8	1283
VIII	14826	35294	8	20470
VIII	35294	38642	8	3348
VIII	38653	39522	8	869
VIII	39538	45845	8	6313
VIII	45855	48232	8	2381
VIII	48252	58901	8	10708
VIII	58910	62760	8	3850
VIII	62772	66122	8	3353
VIII	66146	66558	8	412
VIII	66580	72015	8	5439
VIII	72038	75987	8	3949
VIII	75993	81852	8	5862
VIII	81873	85433	8	3560
VIII	85452	85524	8	72
VIII	92127	93339	8	1215
VIII	93363	94510	8	1174
VIII	94530	111552	8	17245
VIII	111552	116131	8	4591
VIII	116144	116338	8	194
VIII	116338	116526	8	188
VIII	116693	116752	8	59
VIII	116752	125827	8	9081
VIII	125843	131643	8	5805
VIII	131659	133048	8	1389
VIII	134224	146325	8	12104
VIII	146671	167631	8	20965
VIII	167653	169167	8	1516
VIII	169180	173127	8	3951
VIII	173143	175438	8	2296
VIII	175447	176839	8	1392
VIII	176856	187024	8	10175
VIII	187040	193262	8	6232
VIII	193262	194525	8	1263
VIII	194525	197256	8	2731
VIII	197283	212265	8	14984
VIII	214262	214721	8	460
VIII	214737	215211	8	474
VIII	215211	229199	8	13991
VIII	229205	236955	8	7751
VIII	236982	238073	8	1091
VIII	238078	238078	8	34
VIII	238135	238136	8	1
VIII	238136	252923	8	14787
VIII	252941	288096	8	35171
VIII	288443	289844	8	1408
VIII	289856	290287	8	434
VIII	290303	290454	8	151
VIII	290473	290550	8	77
VIII	290566	290797	8	239
VIII	290814	291921	8	1107
VIII	291937	293263	8	1332
VIII	293288	293555	8	268
VIII	293568	293623	8	55
VIII	293650	293704	8	55
VIII	293719	294192	8	476
VIII	294213	294276	8	64
VIII	294289	294555	8	272
VIII	294569	296993	8	2433
VIII	297011	298433	8	1468
VIII	298449	298808	8	361
VIII	298824	336190	8	37394
VIII	336206	340039	8	3833
VIII	340147	364495	8	24352
VIII	364497	365382	8	896
VIII	365418	366270	8	852
VIII	366272	370537	8	4265
VIII	370553	372875	8	2322
VIII	372893	378114	8	5227
VIII	378132	382130	8	4000
VIII	382142	386060	8	3925
VIII	386070	386089	8	19
VIII	386110	388955	8	2849
VIII	388955	389000	8	45
VIII	389011	389012	8	1
VIII	389025	389080	8	71
VIII	389098	389119	8	21
VIII	389140	389146	8	6
VIII	389162	389166	8	4
VIII	389182	389251	8	70
VIII	389509	391873	8	2401
VIII	391885	391929	8	53
VIII	391930	420551	8	28660
VIII	420578	451325	8	30753
VIII	451325	452762	8	1437
VIII	452774	452851	8	77
VIII	452863	453493	8	633
VIII	453505	453821	8	316
VIII	453833	453880	8	47
VIII	453892	453977	8	86
VIII	453989	454185	8	198
VIII	454197	465797	8	11602
VIII	465816	472607	8	6797
VIII	472619	475710	8	3092
VIII	475722	504479	8	28759
VIII	504479	508795	8	4316
VIII	508818	514824	8	6006
VIII	514841	516613	8	1772
VIII	516623	526343	8	9729
VIII	526886	526953	8	67
VIII	549793	553911	8	4119
VIII	553917	554049	8	132
VIII	554071	554758	8	689
VIII	556478	556534	8	87
VIII	562534	562550	8	16
VIII	562561	562570	8	9
VIII	562576	562576	8	1
XIV	6834	6939	8	105
XIV	9464	9488	8	24
XIV	9529	9544	8	15
XIV	9672	9739	8	67
XIV	9787	10225	8	438
XIV	10240	12970	8	2731
XIV	12981	13140	8	159
XIV	13151	14529	8	1381
XIV	14529	14587	8	58
XIV	15899	31540	8	15664
XIV	31561	51862	8	20304
XIV	51878	63614	8	11746
XIV	63626	78725	8	15106
XIV	78764	96546	8	17789
XIV	102634	154917	8	52285
XIV	154938	231047	8	76111
XIV	231064	235955	8	4895
XIV	235976	252523	8	16547
XIV	252523	290016	8	37502
XIV	290040	357015	8	67014
XIV	357041	359350	8	2309
XIV	359385	398553	8	39187
XIV	398553	413442	8	14894
XIV	413459	413460	8	1
XIV	413473	415052	8	1579
XIV	415089	440994	8	25909
XIV	441005	442487	8	1483
XIV	442503	479458	8	36956
XIV	479472	486548	8	7077
XIV	486561	499861	8	13302
XIV	499944	503007	8	3067
XIV	503023	503903	8	880
XIV	503960	515979	8	12023
XIV	515997	519180	8	3184
XIV	525086	525539	8	454
XIV	525555	546647	8	21092
XIV	546657	546669	8	12
XIV	546687	546693	8	6
XIV	546718	546724	8	6
XIV	546734	546737	8	3
XIV	546995	547070	8	75
XIV	547081	547082	8	1
XIV	547087	553102	8	6033
XIV	553135	561603	8	8500
XIV	561619	561662	8	47
XIV	568003	571777	8	3807
XIV	573949	577021	8	3074
XIV	577048	579947	8	2899
XIV	579960	590541	8	10601
XIV	590541	598281	8	7742
XIV	600311	600410	8	99
XIV	602371	605714	8	3347
XIV	605731	618383	8	12652
XIV	618393	632107	8	13735
XIV	632429	652546	8	20123
XIV	652556	662244	8	9689
XIV	662254	667328	8	5075
XIV	667351	694236	8	26885
XIV	694239	704289	8	10051
XIV	704364	704466	8	102
XIV	704478	720286	8	15816
XIV	720297	726155	8	5862
XIV	726286	726346	8	60
XIV	726346	726422	8	76
XIV	726439	726440	8	1
XIV	726932	730894	8	3964
XIV	730911	752612	8	21701
XIV	752612	753946	8	1334
XIV	753946	755769	8	1844
XIV	755769	756907	8	1138
XIV	756907	764758	8	7851
XIV	764779	768020	8	3243
XIV	768020	772631	8	4614
XIV	772631	772716	8	85
XIV	772716	773214	8	498
XIV	776017	776293	8	276
XIV	776313	776852	8	547
XIV	776875	777305	8	460
XIV	777456	777558	8	104
XIV	777588	779039	8	1464
XIV	779066	779278	8	214
XIV	779342	779591	8	253
XIV	779610	779641	8	40
XIV	779659	780862	8	1226
XIV	781736	781764	8	28
XIV	782701	782742	8	42
XIV	782742	782765	8	23
XIV	782962	782980	8	18
XIV	783081	783194	8	114
XIV	783617	783708	8	96
XVI	515	571	8	56
XVI	656	661	8	5
XVI	683	756	8	73
XVI	796	820	8	24
XVI	820	906	8	86
XVI	906	947	8	41
XVI	1251	1440	8	189
XVI	1440	1461	8	21
XVI	1461	1491	8	30
XVI	1502	1503	8	1
XVI	1822	1887	8	65
XVI	1887	1943	8	56
XVI	1943	2032	8	89
XVI	2032	2105	8	73
XVI	2253	2501	8	248
XVI	2575	2616	8	41
XVI	2640	2690	8	50
XVI	2700	2700	8	1
XVI	2837	3049	8	212
XVI	3125	3522	8	397
XVI	3534	3535	8	1
XVI	3547	3565	8	18
XVI	3578	3999	8	421
XVI	4222	4258	8	36
XVI	4362	4381	8	19
XVI	4398	4417	8	19
XVI	4431	4451	8	20
XVI	4498	4498	8	1
XVI	5158	5218	8	60
XVI	5218	5365	8	147
XVI	5372	5372	8	1
XVI	5509	5794	8	285
XVI	5808	5819	8	11
XVI	5996	6106	8	111
XVI	6106	6170	8	64
XVI	6170	6211	8	41
XVI	6234	6337	8	103
XVI	6337	6460	8	123
XVI	6460	6520	8	60
XVI	6526	6526	8	1
XVI	8346	9514	8	1168
XVI	9527	10982	8	1455
XVI	11006	12822	8	1818
XVI	12833	13174	8	341
XVI	17404	17459	8	55
XVI	17479	17510	8	31
XVI	17510	56356	8	38848
XVI	56408	56446	8	38
XVI	62712	62758	8	46
XVI	62837	62983	8	146
XVI	62983	64355	8	1375
XVI	64371	96760	8	32392
XVI	96760	126524	8	29791
XVI	126535	135804	8	9269
XVI	135804	144683	8	8882
XVI	144704	174093	8	29396
XVI	174093	185390	8	11298
XVI	185403	192963	8	7560
XVI	192976	197741	8	4766
XVI	197746	210355	8	12612
XVI	210355	210394	8	39
XVI	210404	210405	8	1
XVI	210405	210436	8	31
XVI	210443	211563	8	1120
XVI	211912	212829	8	917
XVI	212835	212835	8	1
XVI	212921	260938	8	48022
XVI	260948	377290	8	116367
XVI	377290	379407	8	2128
XVI	379412	381842	8	2435
XVI	381868	404764	8	22897
XVI	404777	420938	8	16161
XVI	420948	436282	8	15337
XVI	436294	436302	8	8
XVI	436364	436488	8	125
XVI	443138	444148	8	1010
XVI	444167	453571	8	9407
XVI	453588	455688	8	2100
XVI	455706	462238	8	6534
XVI	462254	485923	8	23676
XVI	485934	488382	8	2449
XVI	488398	490094	8	1697
XVI	490096	491445	8	1349
XVI	491452	491952	8	509
XVI	491962	501013	8	9072
XVI	501040	502673	8	1633
XVI	502698	503379	8	681
XVI	503396	520946	8	17551
XVI	520970	521030	8	60
XVI	521051	521079	8	28
XVI	521106	522069	8	963
XVI	522072	536702	8	14672
XVI	536736	560227	8	23492
XVI	560227	560298	8	71
XVI	560750	572106	8	11356
XVI	572116	581332	8	9220
XVI	581355	581924	8	569
XVI	581930	591715	8	9789
XVI	591731	603577	8	11846
XVI	603609	606359	8	2750
XVI	606366	607471	8	1105
XVI	607488	620249	8	12766
XVI	620264	650537	8	30303
XVI	650547	689621	8	39083
XVI	689634	689642	8	8
XVI	689650	700593	8	10946
XVI	700593	731368	8	30780
XVI	731574	752189	8	20615
XVI	752191	754372	8	2181
XVI	754388	769256	8	14868
XVI	769722	770081	8	359
XVI	770091	795555	8	25497
XVI	795681	804645	8	8966
XVI	810228	810286	8	58
XVI	810294	810294	8	1
XVI	810454	810542	8	88
XVI	810568	810681	8	113
XVI	810693	819369	8	8677
XVI	819379	819542	8	163
XVI	819554	832885	8	13340
XVI	832909	837807	8	4901
XVI	837827	837966	8	139
XVI	837966	840623	8	2658
XVI	840645	844405	8	3760
XVI	850339	850637	8	298
XVI	856978	913746	8	56783
XVI	913756	925892	8	12155
XVI	925902	932632	8	6732
XVI	932644	942431	8	9787
XVI	942451	942452	8	1
XVI	942646	942708	8	62
XVI	947843	947879	8	36
XVI	947942	947970	8	28
II	7211	7280	8	69
II	8318	8340	8	24
II	8340	8412	8	76
II	8424	8540	8	120
II	8540	8681	8	141
II	8691	8786	8	95
II	8796	8803	8	7
II	8808	8808	8	1
II	9135	9192	8	57
II	9192	9313	8	121
II	9402	29638	8	20236
II	35602	35763	8	161
II	35786	35845	8	59
II	36221	43110	8	6895
II	43129	59977	8	16849
II	59989	68277	8	8289
II	68302	72360	8	4077
II	72384	88478	8	16099
II	88495	88521	8	26
II	89168	133865	8	44733
II	133885	136461	8	2578
II	136477	137649	8	1173
II	137675	145893	8	8222
II	145920	165897	8	19989
II	165916	169954	8	4053
II	169985	174493	8	4509
II	174511	174709	8	198
II	174720	188866	8	14150
II	189027	191119	8	2092
II	191137	197145	8	6013
II	197826	197924	8	98
II	197924	205748	8	7824
II	205775	205960	8	185
II	205970	220811	8	14858
II	220829	221036	8	207
II	226918	226920	8	2
II	226971	248662	8	21699
II	248678	248711	8	34
II	248729	251579	8	2859
II	251599	252239	8	665
II	252276	253993	8	1798
II	254090	255213	8	1216
II	255230	255680	8	451
II	255697	258987	8	3300
II	259005	259578	8	573
II	265500	272531	8	7032
II	272549	279286	8	6739
II	279286	296133	8	16849
II	296148	300027	8	3891
II	300046	300098	8	52
II	300108	300164	8	57
II	300164	316941	8	16784
II	316954	332701	8	15769
II	332707	333535	8	838
II	333547	334078	8	533
II	334088	334321	8	239
II	334331	353595	8	19280
II	353636	362679	8	9048
II	362711	362769	8	59
II	362786	362982	8	199
II	364552	364607	8	58
II	364624	366647	8	2038
II	366667	369778	8	3163
II	369797	371627	8	1852
II	371643	371736	8	101
II	371752	371892	8	140
II	371908	372046	8	138
II	372062	372228	8	166
II	372255	372316	8	61
II	372361	372783	8	426
II	372799	372948	8	149
II	372964	373293	8	335
II	373339	373446	8	107
II	373464	381531	8	8073
II	381561	383053	8	1503
II	383075	386091	8	3024
II	386093	386180	8	89
II	386195	386200	8	5
II	386216	389279	8	3067
II	389281	389336	8	56
II	389355	389502	8	152
II	389580	389655	8	75
II	389657	389742	8	85
II	389744	389878	8	135
II	389911	391531	8	1623
II	391591	391745	8	154
II	391747	393253	8	1533
II	393277	393334	8	57
II	393351	393493	8	145
II	393513	394646	8	1133
II	394667	395458	8	812
II	395497	427655	8	32186
II	429503	429656	8	153
II	429669	452569	8	22908
II	452585	455241	8	2660
II	455286	464014	8	8770
II	464045	477083	8	13052
II	477105	477670	8	567
II	477670	486944	8	9274
II	486949	499531	8	12617
II	499548	528723	8	29187
II	528747	541452	8	12755
II	541500	541545	8	45
II	541575	559757	8	18186
II	559773	561217	8	1445
II	561238	563034	8	1796
II	563048	576024	8	12979
II	576040	583521	8	7482
II	583554	591551	8	8001
II	591570	591711	8	141
II	591711	643481	8	51790
II	643855	643971	8	116
II	644002	644100	8	98
II	644131	646085	8	1954
II	646125	649331	8	3207
II	649349	650251	8	902
II	650269	660519	8	10255
II	660689	660752	8	63
II	660752	702025	8	41285
II	702025	712777	8	10753
II	712801	746356	8	33557
II	746375	780407	8	34039
II	780437	801762	8	21327
II	805761	808960	8	3200
II	809484	809965	8	481
II	810031	811150	8	1148
VII	892	896	8	4
VII	912	1092	8	180
VII	7367	21511	8	14186
VII	21529	52600	8	31079
VII	52617	67139	8	14530
VII	67149	69347	8	2198
VII	69356	73847	8	4493
VII	74165	75468	8	1303
VII	75488	78982	8	3497
VII	79010	80601	8	1591
VII	80628	110833	8	30238
VII	111698	115015	8	3343
VII	115025	118298	8	3276
VII	118319	140310	8	21995
VII	140328	156100	8	15773
VII	156126	158904	8	2778
VII	158922	187366	8	28456
VII	187411	196985	8	9574
VII	197017	197222	8	205
VII	197239	245635	8	48433
VII	245659	254655	8	8996
VII	254655	272308	8	17653
VII	272326	278774	8	6455
VII	278793	280045	8	1252
VII	280141	287881	8	7740
VII	287881	307197	8	19318
VII	307206	307206	8	1
VII	307255	319410	8	12157
VII	319421	319422	8	1
VII	319760	323358	8	3599
VII	323380	324542	8	1162
VII	324552	328211	8	3660
VII	328223	364404	8	36222
VII	364943	365589	8	646
VII	365601	366193	8	592
VII	366212	378020	8	11823
VII	378038	379156	8	1118
VII	379174	385762	8	6588
VII	386689	386752	8	63
VII	386923	386985	8	62
VII	386985	397829	8	10846
VII	397841	399991	8	2150
VII	399991	400414	8	431
VII	400433	400471	8	42
VII	400488	400524	8	38
VII	400551	400632	8	81
VII	400655	401350	8	702
VII	401366	401473	8	107
VII	405554	405611	8	69
VII	405628	408279	8	2655
VII	408279	412306	8	4027
VII	412306	417048	8	4743
VII	417071	417338	8	271
VII	417338	419390	8	2066
VII	419412	420852	8	1445
VII	420869	421354	8	535
VII	421374	421387	8	13
VII	421404	421623	8	237
VII	423233	423876	8	681
VII	423894	425150	8	1259
VII	425199	425238	8	39
VII	425254	426967	8	1719
VII	427002	428081	8	1099
VII	428097	428259	8	162
VII	428270	429758	8	1506
VII	429792	429824	8	32
VII	429855	431417	8	1574
VII	431421	440776	8	9361
VII	440776	442177	8	1401
VII	442197	448878	8	6681
VII	448911	467744	8	18870
VII	467744	467744	8	1
VII	467744	469242	8	1500
VII	469248	479563	8	10336
VII	479579	498002	8	18443
VII	498020	508594	8	10575
VII	508610	519120	8	10519
VII	519226	519345	8	119
VII	519345	519441	8	96
VII	519441	530018	8	10594
VII	530018	530018	8	17
VII	530023	530657	8	634
VII	530662	531595	8	937
VII	531608	531841	8	233
VII	531857	535219	8	3366
VII	541681	541843	8	162
VII	541856	555975	8	14139
VII	556003	561711	8	5711
VII	561723	561724	8	1
VII	561750	561837	8	87
VII	567760	568741	8	983
VII	574706	583480	8	8775
VII	583490	611517	8	28033
VII	611529	627182	8	15659
VII	627208	639671	8	12464
VII	639690	640611	8	921
VII	640634	641133	8	499
VII	641135	644775	8	3640
VII	644793	644796	8	3
VII	644803	648524	8	3721
VII	648736	699996	8	51266
VII	700011	700731	8	720
VII	700744	701155	8	411
VII	701155	701163	8	41
VII	701186	707070	8	5885
VII	707083	707189	8	106
VII	712545	712905	8	360
VII	712905	713068	8	163
VII	713289	726580	8	13292
VII	726590	733108	8	6518
VII	733118	735980	8	2862
VII	735980	736029	8	49
VII	736350	736400	8	50
VII	736400	739239	8	2841
VII	739255	742154	8	2899
VII	742166	746569	8	4403
VII	746593	763822	8	17230
VII	763822	779307	8	15502
VII	779317	811446	8	32300
VII	823279	823314	8	35
VII	823329	823329	8	1
VII	823329	828796	8	5467
VII	828796	828948	8	152
VII	828948	845348	8	16402
VII	845348	845451	8	103
VII	845463	848532	8	3069
VII	848545	876405	8	27867
VII	876417	877179	8	762
VII	877239	883175	8	5946
VII	883502	910106	8	26616
VII	910127	931170	8	21048
VII	931545	931749	8	204
VII	931938	959773	8	28120
VII	959793	977898	8	18112
VII	977911	985719	8	7810
VII	985737	1000925	8	15217
VII	1000925	1043762	8	42850
VII	1043776	1051830	8	8098
VII	1051842	1068847	8	17013
VII	1079748	1079786	8	38
VII	1081142	1081226	8	86
VII	1081244	1081530	8	298
XI	2178	2395	8	219
XI	2413	2452	8	39
XI	6860	9046	8	2186
XI	9046	11682	8	2649
XI	11712	11753	8	41
XI	11780	11863	8	83
XI	11880	12247	8	413
XI	12269	13468	8	1264
XI	13486	13710	8	235
XI	13935	13976	8	41
XI	14009	14266	8	259
XI	14467	14488	8	21
XI	14562	14566	8	4
XI	14589	15057	8	471
XI	15073	19275	8	4202
XI	19293	22034	8	2756
XI	22061	25089	8	3028
XI	25113	26586	8	1473
XI	26602	36600	8	10004
XI	36600	38627	8	2028
XI	38643	43184	8	4542
XI	43184	63828	8	20675
XI	63844	63933	8	89
XI	64287	67768	8	3481
XI	67790	68364	8	575
XI	68379	74503	8	6129
XI	74513	74549	8	37
XI	74559	95151	8	20613
XI	95151	114753	8	19603
XI	114792	136097	8	21306
XI	136115	141075	8	4962
XI	141075	142347	8	1272
XI	142357	142751	8	394
XI	142843	162502	8	19774
XI	162515	164839	8	2324
XI	164854	168990	8	4136
XI	169001	179272	8	10277
XI	179272	179272	8	1
XI	179272	196205	8	16966
XI	196222	196842	8	620
XI	196860	202643	8	5790
XI	202988	208018	8	5035
XI	208030	220767	8	12747
XI	220788	226071	8	5285
XI	226092	240682	8	14606
XI	240706	242783	8	2077
XI	242795	258041	8	15260
XI	258057	258161	8	127
XI	258195	258296	8	102
XI	258314	258462	8	150
XI	258480	259830	8	1391
XI	259858	260137	8	304
XI	260153	260675	8	542
XI	260693	260985	8	297
XI	261006	261594	8	589
XI	261615	261631	8	16
XI	261661	262048	8	390
XI	262064	263161	8	1101
XI	263182	264461	8	1296
XI	264477	283897	8	19433
XI	283917	302483	8	18585
XI	302585	308136	8	5551
XI	308149	308719	8	570
XI	308719	308780	8	61
XI	308797	313596	8	4919
XI	313918	314009	8	91
XI	314009	314181	8	172
XI	314530	374332	8	59811
XI	374348	379670	8	5326
XI	379735	380128	8	393
XI	380146	380950	8	804
XI	380956	381174	8	218
XI	381189	381502	8	313
XI	381529	382562	8	1038
XI	382572	384839	8	2267
XI	384846	385097	8	251
XI	385115	386882	8	1767
XI	386915	387140	8	225
XI	387145	421251	8	34317
XI	421263	431302	8	10042
XI	431329	451562	8	20239
XI	451580	458134	8	6554
XI	458139	458189	8	50
XI	458471	463258	8	4787
XI	463271	465165	8	1894
XI	465186	468915	8	3733
XI	468927	490143	8	21221
XI	490155	490156	8	1
XI	490234	490270	8	39
XI	490270	490355	8	86
XI	490355	490396	8	41
XI	490434	490483	8	51
XI	490483	490614	8	132
XI	490614	490842	8	228
XI	490842	490972	8	130
XI	490984	513272	8	22306
XI	513288	513330	8	42
XI	513330	513398	8	68
XI	513403	513403	8	1
XI	513490	513570	8	107
XI	513609	513646	8	37
XI	513671	513790	8	126
XI	513910	514070	8	163
XI	514105	514538	8	458
XI	514588	514636	8	48
XI	514661	515028	8	370
XI	515045	516975	8	1935
XI	516993	517045	8	52
XI	517065	517447	8	396
XI	517784	518055	8	319
XI	518071	518097	8	30
XI	518133	519754	8	1637
XI	519772	519782	8	10
XI	519803	523637	8	3854
XI	523661	524048	8	390
XI	524075	525209	8	1135
XI	525230	525286	8	56
XI	525356	555046	8	29694
XI	555498	555561	8	63
XI	555703	576486	8	20794
XI	576507	578892	8	2385
XI	578892	579013	8	121
XI	579013	613123	8	34118
XI	613174	613676	8	511
XI	613712	613787	8	75
XI	613805	617557	8	3761
XI	617573	632826	8	15260
XI	632836	635470	8	2635
XI	635481	644722	8	9243
XI	644734	647354	8	2623
XI	647448	647484	8	36
XI	647594	647648	8	54
XI	647957	658408	8	10457
XI	658423	658440	8	17
XI	658580	664298	8	5784
XI	664315	664325	8	10
XI	664354	665244	8	895
XI	665428	665571	8	154
XI	665587	665728	8	147
XI	665754	665761	8	7
XI	665777	665815	8	38
XI	665850	665924	8	100
XI	665924	666029	8	105
XI	666422	666454	8	32
XII	28	42	8	15
XII	59	61	8	2
XII	65	73	8	8
XII	12906	13143	8	238
XII	13279	13280	8	1
XII	13325	13796	8	475
XII	13812	13813	8	1
XII	13825	20559	8	6736
XII	20576	22805	8	2229
XII	22825	30829	8	8014
XII	30839	41223	8	10386
XII	41303	47898	8	6595
XII	47898	48849	8	952
XII	48870	84322	8	35472
XII	84334	92076	8	7747
XII	92076	92124	8	48
XII	92385	95821	8	3443
XII	96568	103739	8	7326
XII	103745	112170	8	8427
XII	112186	122004	8	9818
XII	122026	123494	8	1491
XII	123494	129213	8	5738
XII	129228	130077	8	849
XII	130101	172012	8	42174
XII	172039	181753	8	9719
XII	181769	202102	8	20335
XII	202548	215073	8	12529
XII	221004	243821	8	22819
XII	243837	248512	8	4676
XII	248523	252845	8	4333
XII	252872	264072	8	11207
XII	264094	274053	8	9959
XII	274069	280990	8	6922
XII	281005	287192	8	6194
XII	287217	287672	8	455
XII	287687	291888	8	4247
XII	291888	292142	8	256
XII	292152	292278	8	130
XII	292288	293897	8	1612
XII	293913	296445	8	2534
XII	296464	327713	8	31263
XII	327722	329726	8	2004
XII	329729	339670	8	9943
XII	339692	348936	8	9247
XII	348936	365945	8	17009
XII	365955	373998	8	8053
XII	374343	374365	8	22
XII	374377	386272	8	11903
XII	386296	386327	8	31
XII	386343	387842	8	1503
XII	387842	388218	8	376
XII	388234	388584	8	359
XII	388609	388921	8	312
XII	388957	390311	8	1354
XII	390323	390928	8	617
XII	390940	391278	8	342
XII	391290	392158	8	874
XII	392170	392455	8	290
XII	392467	392975	8	513
XII	392987	394052	8	1076
XII	394064	394363	8	303
XII	394375	396496	8	2135
XII	396496	417520	8	21024
XII	417520	421488	8	3968
XII	421504	426953	8	5453
XII	426953	427135	8	182
XII	427148	448887	8	21743
XII	448899	451424	8	2525
XII	451424	451453	8	29
XII	451453	451489	8	36
XII	451498	451498	8	1
XII	451498	451511	8	13
XII	451546	451586	8	40
XII	451586	451689	8	103
XII	451689	451727	8	38
XII	451789	451815	8	28
XII	451853	451878	8	26
XII	451878	451913	8	36
XII	451913	451977	8	65
XII	451977	452009	8	33
XII	452009	452035	8	26
XII	452050	452050	8	1
XII	452050	452109	8	59
XII	452122	452122	8	1
XII	452240	452286	8	47
XII	452286	452288	8	2
XII	452303	452351	8	48
XII	452360	452387	8	27
XII	452387	452487	8	100
XII	452517	452577	8	60
XII	460021	460148	8	127
XII	460160	460171	8	11
XII	460188	460190	8	2
XII	460221	460226	8	5
XII	460226	460262	8	36
XII	460277	460278	8	1
XII	460316	460331	8	15
XII	464222	464288	8	66
XII	464288	464317	8	29
XII	464332	464333	8	1
XII	464371	464382	8	11
XII	464573	464696	8	123
XII	464746	464791	8	45
XII	464859	464909	8	50
XII	464909	464973	8	64
XII	464973	465044	8	71
XII	465097	465154	8	57
XII	465154	465191	8	37
XII	465191	465255	8	64
XII	465255	465298	8	43
XII	465298	465333	8	35
XII	465731	465853	8	122
XII	465887	465888	8	1
XII	465903	465913	8	10
XII	465966	465998	8	32
XII	465998	466030	8	32
XII	466030	466060	8	30
XII	466060	466081	8	21
XII	466169	466214	8	45
XII	466214	466265	8	51
XII	466290	466291	8	1
XII	466505	466538	8	33
XII	466538	466559	8	21
XII	466579	466606	8	27
XII	466617	466664	8	47
XII	466664	466714	8	50
XII	466714	466789	8	75
XII	466789	466815	8	26
XII	466815	466865	8	50
XII	466948	466968	8	20
XII	466968	466992	8	24
XII	466992	467028	8	36
XII	467028	467068	8	40
XII	467068	467132	8	64
XII	467232	467283	8	51
XII	467283	467334	8	51
XII	467453	467480	8	27
XII	467677	467692	8	15
XII	467756	467828	8	72
XII	467828	467865	8	37
XII	467865	467902	8	37
XII	467902	467941	8	39
XII	467947	467980	8	33
XII	467980	468027	8	47
XII	468048	468105	8	57
XII	468112	468112	8	1
XII	468112	468123	8	11
XII	468123	468182	8	59
XII	468248	468279	8	31
XII	468328	468361	8	33
XII	468412	468476	8	64
XII	468476	468487	8	11
XII	468551	468621	8	70
XII	468638	468662	8	24
XII	468690	468691	8	1
XII	468726	468775	8	49
XII	489375	489412	8	37
XII	490545	498708	8	8165
XII	498725	499038	8	313
XII	499038	507441	8	8406
XII	507447	511539	8	4096
XII	511557	540920	8	29384
XII	540920	541017	8	97
XII	541027	559216	8	18212
XII	559225	585918	8	26697
XII	585930	592717	8	6787
XII	592717	593132	8	415
XII	599055	605179	8	6132
XII	605179	605229	8	50
XII	605229	605345	8	116
XII	605472	605578	8	106
XII	605578	650818	8	45268
XII	656743	656941	8	198
XII	656953	663301	8	6353
XII	663303	666007	8	2704
XII	666046	687566	8	21535
XII	687587	687874	8	295
XII	687933	687940	8	36
XII	687940	688173	8	233
XII	688185	699938	8	11754
XII	699954	701211	8	1257
XII	701235	701367	8	132
XII	701397	704132	8	2735
XII	704149	708686	8	4538
XII	708713	709111	8	398
XII	709138	712990	8	3857
XII	713028	718112	8	5084
XII	718121	718149	8	28
XII	718162	723162	8	5004
XII	723178	731662	8	8489
XII	732000	734499	8	2500
XII	734499	757379	8	22884
XII	757395	757459	8	64
XII	757477	766498	8	9024
XII	766515	784258	8	17747
XII	784264	789104	8	4842
XII	789200	793650	8	4454
XII	793650	796946	8	3300
XII	796952	796952	8	1
XII	796952	818420	8	21583
XII	818420	818430	8	25
XII	818472	818491	8	54
XII	818491	823434	8	4947
XII	823501	830623	8	7138
XII	830639	837528	8	6889
XII	837530	837530	8	1
XII	837530	915069	8	77559
XII	915085	922159	8	7074
XII	922169	932247	8	10080
XII	932264	941191	8	8927
XII	947155	976257	8	29105
XII	981697	1000198	8	18501
XII	1000218	1003408	8	3190
XII	1003472	1003682	8	210
XII	1003705	1003706	8	1
XII	1003706	1011574	8	7872
XII	1011596	1014193	8	2611
XII	1014199	1024987	8	10795
XII	1025003	1038773	8	13782
XII	1038789	1038802	8	13
XII	1038818	1043208	8	4414
XII	1043225	1052160	8	9001
XII	1052355	1052420	8	66
XII	1052443	1052567	8	130
XII	1052590	1052683	8	178
XII	1052707	1052708	8	1
XII	1052739	1052749	8	10
XII	1052770	1052867	8	97
XII	1052893	1053194	8	402
XII	1053210	1053256	8	49
XII	1053307	1053317	8	10
XII	1053333	1053566	8	233
XII	1053583	1059020	8	5461
XII	1059040	1059294	8	254
XII	1063456	1063501	8	51
XII	1063529	1063594	8	76
XII	1063621	1063642	8	25
XII	1063982	1064005	8	23
XII	1064021	1064022	8	1
III	885	967	8	82
III	1005	1029	8	24
III	1041	1197	8	157
III	1197	4140	8	2943
III	4448	12301	8	7856
III	12375	13690	8	1315
III	13690	13753	8	63
III	13949	27652	8	13705
III	27668	29295	8	1627
III	29305	42006	8	12701
III	42023	50314	8	8292
III	50332	55689	8	5366
III	55707	57058	8	1351
III	57071	62743	8	5672
III	62750	82423	8	19682
III	82489	82688	8	199
III	83042	83342	8	300
III	83342	84067	8	725
III	84088	84313	8	340
III	90779	90842	8	63
III	90842	90920	8	78
III	90920	110762	8	19862
III	110774	112764	8	1993
III	112770	112884	8	119
III	112896	113250	8	354
III	113271	113442	8	172
III	113454	113488	8	34
III	113500	114671	8	1181
III	114796	114830	8	34
III	114842	114855	8	13
III	114867	115074	8	210
III	115086	115150	8	64
III	115162	115236	8	81
III	115248	115476	8	230
III	115488	115573	8	85
III	115585	115661	8	79
III	115673	115914	8	245
III	115926	116043	8	117
III	116055	116212	8	161
III	116224	116489	8	267
III	116501	116567	8	66
III	116579	116604	8	25
III	116616	116927	8	317
III	116939	116983	8	44
III	116995	117111	8	119
III	117123	117332	8	214
III	117344	118375	8	1032
III	118387	119634	8	1257
III	119646	120803	8	1163
III	120815	120894	8	79
III	120906	122812	8	1910
III	122824	122833	8	9
III	122845	122952	8	109
III	122964	123498	8	536
III	123510	123515	8	5
III	123527	124123	8	604
III	124129	124129	8	1
III	124471	124797	8	335
III	124809	125029	8	221
III	125041	125072	8	31
III	125084	125104	8	20
III	125116	125229	8	114
III	125241	125511	8	275
III	125523	125564	8	41
III	125576	125602	8	28
III	125626	125640	8	14
III	125652	125766	8	119
III	125778	125849	8	71
III	125869	125885	8	16
III	125897	125965	8	68
III	125977	126007	8	30
III	126007	126942	8	937
III	126954	127129	8	180
III	127141	127161	8	20
III	127173	127238	8	65
III	127238	127270	8	32
III	127270	127328	8	58
III	127328	127352	8	25
III	127364	127380	8	16
III	127386	127394	8	9
III	127407	127414	8	7
III	127424	127442	8	18
III	127452	127518	8	66
III	127528	127539	8	11
III	127549	127551	8	2
III	127561	127612	8	51
III	127612	127701	8	89
III	127713	127784	8	71
III	127796	128356	8	565
III	128368	131996	8	3647
III	132008	142672	8	10675
III	142685	142976	8	291
III	143006	149744	8	6740
III	149750	149750	8	1
III	149750	151529	8	1780
III	151529	151555	8	26
III	151566	151624	8	58
III	151723	168358	8	16640
III	168917	168921	8	4
III	168940	168941	8	1
III	169007	169186	8	179
III	169402	169403	8	1
III	169550	198670	8	29141
III	201172	211764	8	10599
III	211764	212090	8	326
III	212118	231003	8	18890
III	231013	247959	8	16957
III	247984	249308	8	1327
III	249344	264209	8	14867
III	264236	268639	8	4403
III	268639	268697	8	58
III	268785	268786	8	1
III	268786	269029	8	243
III	269113	293094	8	23992
III	293128	294441	8	1313
III	294441	294529	8	88
III	294529	294592	8	63
III	294592	299351	8	4872
III	299353	299654	8	301
III	299788	299908	8	121
III	299927	299944	8	17
III	299946	299955	8	9
III	299957	300099	8	151
III	300120	300286	8	167
III	300286	300462	8	181
III	300464	300508	8	44
III	300508	300611	8	103
III	300711	301326	8	615
III	301345	303052	8	1711
III	303062	303160	8	103
III	303170	303207	8	37
III	303217	303761	8	563
III	307212	307380	8	178
III	307400	307463	8	63
III	307761	307784	8	23
III	307784	307843	8	59
III	307856	307901	8	45
III	308133	308217	8	86
III	308234	308402	8	184
III	308423	308489	8	66
III	308507	308564	8	57
III	308564	308579	8	15
III	309066	310156	8	1093
III	310166	310168	8	2
III	310266	310297	8	31
III	310323	310393	8	71
III	310446	310544	8	116
III	310621	310647	8	26
III	310672	310797	8	128
III	310848	310855	8	7
III	310889	310894	8	5
III	310913	310929	8	16
III	310973	312890	8	1923
III	312914	313459	8	545
III	315782	316015	8	240
III	316034	316055	8	21
III	316055	316106	8	52
III	316122	316123	8	1
V	13341	13392	8	51
V	13411	14497	8	1130
V	14574	14718	8	146
V	14736	14944	8	209
V	14962	15077	8	115
V	15103	15106	8	3
V	15155	15319	8	176
V	15619	16048	8	484
V	16076	16322	8	260
V	16341	18013	8	1678
V	18047	18360	8	346
V	18378	18482	8	263
V	18515	18585	8	70
V	18614	18637	8	36
V	22673	24024	8	1376
V	24039	24495	8	485
V	24515	24585	8	70
V	24609	24618	8	9
V	24633	25401	8	971
V	25421	25537	8	116
V	25576	26007	8	431
V	26040	26624	8	603
V	26641	29612	8	2995
V	29634	31442	8	1851
V	31462	33220	8	1763
V	33220	34023	8	809
V	34034	36247	8	2216
V	36265	36417	8	152
V	36435	52886	8	16455
V	52886	62129	8	9244
V	62481	81188	8	18714
V	81224	86490	8	5266
V	86632	100142	8	13512
V	100153	100571	8	418
V	100587	132562	8	31982
V	132569	135596	8	3028
V	135945	138332	8	2387
V	138363	140310	8	1947
V	140320	142935	8	2615
V	142946	167591	8	24650
V	167591	170615	8	3035
V	170651	172605	8	1963
V	172627	172834	8	208
V	172834	173698	8	895
V	173722	174511	8	814
V	174511	175575	8	1082
V	175593	175660	8	67
V	175660	175681	8	21
V	175742	175748	8	6
V	175772	175780	8	8
V	175808	175835	8	27
V	175919	176217	8	304
V	176239	176382	8	146
V	176587	176690	8	380
V	176690	176692	8	26
V	176713	176724	8	11
V	176808	176850	8	42
V	176900	176929	8	29
V	176995	177070	8	75
V	177099	177312	8	213
V	177333	177401	8	91
V	177419	192703	8	15306
V	192713	207340	8	14634
V	207417	213850	8	6437
V	213871	225792	8	11927
V	225806	241870	8	16068
V	241888	243653	8	1765
V	243677	243796	8	124
V	243814	249923	8	6133
V	249929	249990	8	61
V	250269	256297	8	6028
V	256317	261459	8	5155
V	261477	274150	8	12685
V	274169	274248	8	79
V	274260	275886	8	1630
V	275901	277903	8	2044
V	278034	282040	8	4065
V	282058	284397	8	2347
V	284453	284882	8	438
V	284899	285100	8	221
V	285120	287429	8	2320
V	287445	287627	8	205
V	287653	287655	8	2
V	287681	287707	8	31
V	287772	287905	8	136
V	287929	287970	8	50
V	287989	288248	8	368
V	288269	288364	8	100
V	288386	288457	8	93
V	288469	288589	8	121
V	289534	289700	8	166
V	289700	290124	8	424
V	290188	291002	8	817
V	291025	291077	8	52
V	291105	291221	8	125
V	291245	291571	8	345
V	291601	292588	8	994
V	292604	292901	8	308
V	292917	303398	8	10493
V	303414	303437	8	28
V	303453	303460	8	7
V	303476	303487	8	11
V	303503	303676	8	183
V	303692	305815	8	2125
V	305815	306971	8	1156
V	307081	311546	8	4469
V	311921	312196	8	276
V	312196	312259	8	63
V	312259	313613	8	1354
V	313616	335287	8	21685
V	335337	354440	8	19108
V	354714	363237	8	8528
V	363237	382306	8	19073
V	382322	397457	8	15137
V	397469	409410	8	11945
V	409422	431496	8	22077
V	431516	431519	8	3
V	431519	431531	8	12
V	431861	434529	8	2669
V	434865	435974	8	1110
V	435974	438133	8	2159
V	438145	443368	8	5263
V	443401	443408	8	7
V	443424	443425	8	1
V	449770	468347	8	18606
V	468347	487894	8	19548
V	488165	490208	8	2044
V	490218	492361	8	2143
V	492414	492435	8	21
V	498453	517527	8	19093
V	517548	519698	8	2150
V	519698	520769	8	1071
V	520786	520838	8	52
V	520872	529480	8	8670
V	529490	545196	8	15710
V	545207	548820	8	3613
V	548832	566880	8	18075
V	566914	566950	8	36
V	569518	569520	8	2
V	569572	569580	8	8
V	569609	569618	8	9
V	569637	569673	8	51
V	569689	569697	8	8
V	569721	569775	8	54
V	569792	569794	8	2
V	569826	569845	8	19
V	569896	569919	8	23
X	24212	24261	8	61
X	24278	24284	8	6
X	24304	28297	8	3993
X	28313	29440	8	1127
X	29459	30868	8	1412
X	30885	59072	8	28197
X	59115	74385	8	15286
X	74397	99499	8	25132
X	99528	99542	8	14
X	99704	104691	8	4995
X	104701	106196	8	1501
X	106211	114865	8	8666
X	114895	116291	8	1397
X	116291	120733	8	4450
X	120745	120934	8	189
X	121017	121129	8	112
X	121198	121990	8	794
X	122002	122213	8	217
X	122225	122688	8	469
X	122707	122708	8	1
X	122720	122982	8	262
X	122994	128206	8	5226
X	128206	136905	8	8699
X	136922	153522	8	16602
X	153974	154037	8	63
X	154179	189022	8	34861
X	189027	197507	8	8485
X	203788	203843	8	55
X	203843	203967	8	126
X	204038	204065	8	27
X	204065	204112	8	47
X	204112	204150	8	39
X	204392	204437	8	45
X	204553	207446	8	2894
X	207463	292408	8	84954
X	292419	294478	8	2107
X	294484	317074	8	22590
X	317092	338613	8	21522
X	338960	342342	8	3383
X	342359	354149	8	11791
X	354149	354264	8	115
X	354276	354563	8	288
X	354563	354607	8	44
X	354623	354624	8	1
X	355042	355051	8	9
X	355061	355081	8	20
X	355219	358206	8	2992
X	358223	366916	8	8694
X	366979	374853	8	7878
X	374853	377932	8	3174
X	377932	377932	8	1
X	378142	378188	8	46
X	378268	391000	8	12740
X	391013	393819	8	2806
X	393832	396885	8	3054
X	396885	400154	8	3296
X	400161	400220	8	59
X	400226	401999	8	1776
X	402012	404060	8	2048
X	404081	415367	8	11295
X	415387	416187	8	800
X	416428	416473	8	47
X	416473	422845	8	6374
X	422863	423007	8	144
X	423020	424900	8	1880
X	424919	448849	8	23956
X	448852	454022	8	5170
X	454366	456063	8	1697
X	456091	457897	8	1806
X	457918	464349	8	6436
X	464365	470125	8	5760
X	470135	472462	8	2327
X	483977	519250	8	35280
X	519255	519668	8	416
X	519675	538097	8	18431
X	538434	539484	8	1051
X	539519	540869	8	1351
X	541427	543596	8	2264
X	543705	543840	8	135
X	543850	543938	8	89
X	543957	580349	8	36406
X	580372	594181	8	13816
X	594205	606125	8	11920
X	606140	620109	8	13978
X	620135	639193	8	19345
X	639208	639707	8	499
X	639734	639985	8	251
X	640004	662853	8	22853
X	662870	663547	8	688
X	663563	663625	8	63
X	663641	663942	8	302
X	663960	665034	8	1074
X	665051	667193	8	2146
X	667203	667216	8	13
X	667231	669326	8	2098
X	669336	701747	8	32416
X	701787	702030	8	246
X	702030	703401	8	1389
X	703417	704506	8	1109
X	704533	705694	8	1165
X	705731	707067	8	1348
X	707084	707900	8	817
X	707935	708273	8	338
X	708289	708466	8	245
X	708518	709158	8	668
X	709194	709757	8	573
X	709777	710142	8	368
X	710142	710465	8	323
X	710478	710532	8	57
X	710542	710811	8	272
X	710821	711111	8	290
X	711121	711186	8	66
X	711196	711242	8	46
X	711252	711459	8	214
X	711469	712016	8	551
X	712033	712538	8	514
X	712548	712684	8	136
X	712954	713020	8	66
X	713030	713267	8	237
X	713277	713420	8	143
X	713430	714169	8	744
X	714253	714340	8	87
X	714499	714873	8	374
X	714906	715086	8	180
X	715088	715180	8	92
X	715240	717197	8	1979
X	717207	717508	8	311
X	717518	717974	8	467
X	717984	718015	8	31
X	718025	718188	8	163
X	718198	718211	8	13
X	718221	718397	8	178
X	718407	718449	8	44
X	718459	721546	8	3130
X	721562	721787	8	250
X	721810	722148	8	361
X	722166	722349	8	193
X	722370	723654	8	1290
X	723654	723926	8	272
X	723945	723984	8	39
X	723999	724983	8	1072
X	725088	725298	8	212
X	725427	727072	8	1665
X	727086	727095	8	9
X	727101	727773	8	672
X	729730	729841	8	112
X	729841	729868	8	27
X	729868	729899	8	31
X	730036	730100	8	67
X	730100	730189	8	95
X	730208	730232	8	24
X	730248	730503	8	266
IX	17914	22006	8	4118
IX	22029	22038	8	9
IX	22104	22416	8	390
IX	22435	22516	8	99
IX	22574	22591	8	17
IX	22610	22626	8	16
IX	22644	22879	8	316
IX	22900	22922	8	22
IX	22952	23081	8	129
IX	23097	23180	8	83
IX	23200	23212	8	12
IX	23271	23306	8	35
IX	23432	23606	8	174
IX	23721	24166	8	445
IX	24217	25370	8	1153
IX	25424	25475	8	51
IX	25629	25639	8	10
IX	25735	27200	8	1467
IX	27211	32807	8	5612
IX	32817	44278	8	11477
IX	44299	69458	8	25175
IX	69458	77966	8	8518
IX	77978	102530	8	24557
IX	102548	105351	8	2804
IX	105351	105351	8	1
IX	105351	105358	8	57
IX	105369	105762	8	396
IX	105783	137683	8	31924
IX	137713	138423	8	711
IX	138442	144111	8	5683
IX	144133	146923	8	2790
IX	146933	160838	8	13907
IX	160850	163250	8	2402
IX	163263	177458	8	14236
IX	177476	187824	8	10353
IX	187849	196647	8	8802
IX	197023	197646	8	623
IX	197659	204949	8	7291
IX	204960	204978	8	18
IX	204978	205214	8	236
IX	210306	210427	8	133
IX	210438	210439	8	1
IX	210505	210583	8	80
IX	210600	210647	8	47
IX	210647	232076	8	21430
IX	232089	240782	8	8693
IX	240792	241194	8	402
IX	241210	246219	8	5014
IX	246557	257574	8	11041
IX	257584	258275	8	693
IX	258285	268131	8	9875
IX	268141	268251	8	111
IX	268261	268703	8	451
IX	268722	274028	8	5308
IX	274032	300282	8	26259
IX	300406	310492	8	10086
IX	310506	317443	8	6939
IX	318065	324421	8	6357
IX	324466	324478	8	12
IX	324516	324572	8	56
IX	324836	324853	8	17
IX	324880	325468	8	733
IX	325491	325492	8	1
IX	325492	325822	8	374
IX	325856	332794	8	6976
IX	332819	332981	8	162
IX	332999	333013	8	14
IX	333023	333087	8	66
IX	333097	333382	8	285
IX	333382	334207	8	830
IX	334215	334286	8	71
IX	334377	334797	8	424
IX	334814	336983	8	2177
IX	336983	337102	8	119
IX	337102	339219	8	2120
IX	339241	350040	8	10805
IX	350043	366543	8	16500
IX	366573	373024	8	6453
IX	373031	377856	8	4828
IX	377856	382835	8	4998
IX	382947	383429	8	482
IX	383436	385427	8	2004
IX	385437	385571	8	137
IX	385581	385595	8	14
IX	385605	385641	8	36
IX	385651	385659	8	8
IX	385659	385684	8	25
IX	385694	386027	8	335
IX	386037	386146	8	109
IX	386156	386191	8	36
IX	386201	386223	8	22
IX	386233	386239	8	6
IX	386249	386375	8	128
IX	386385	386548	8	164
IX	386558	386627	8	70
IX	386637	386782	8	147
IX	386792	387143	8	360
IX	387162	387163	8	1
IX	387163	387210	8	48
IX	387220	387782	8	567
IX	387801	387977	8	177
IX	388006	388195	8	192
IX	388205	388911	8	719
IX	388922	389076	8	159
IX	389086	389977	8	897
IX	390004	390702	8	698
IX	391155	391216	8	61
IX	391513	391586	8	73
IX	391594	391597	8	5
IX	393030	393041	8	11
IX	393060	394349	8	1291
IX	394349	399998	8	5657
IX	400025	423646	8	23634
IX	423666	427302	8	3674
IX	427314	428564	8	1275
IX	428597	431761	8	3199
IX	433787	433933	8	146
IX	434146	436073	8	1955
IX	436096	436122	8	26
IX	436134	437242	8	1111
IX	437607	437656	8	56
Mito	1846	1847	8	4
Mito	1862	1870	8	10
Mito	1988	2024	8	36
Mito	4254	4281	8	27
Mito	4293	4315	8	22
Mito	4339	4354	8	15
Mito	4365	4366	8	1
Mito	9605	9606	8	1
Mito	10182	10184	8	2
Mito	11086	11089	8	5
Mito	11109	11114	8	5
Mito	11135	11161	8	26
Mito	11195	11201	8	6
Mito	11457	11484	8	27
Mito	32374	32403	8	29
Mito	32418	32549	8	235
Mito	32728	32780	8	52
Mito	32800	32801	8	1
Mito	32944	32981	8	37
Mito	33140	33194	8	54
Mito	33285	33328	8	43
Mito	33480	33503	8	26
Mito	33510	33510	8	1
Mito	34098	34165	8	86
Mito	34353	34360	8	7
Mito	34364	34364	8	1
Mito	34634	34635	8	1
Mito	34679	34703	8	24
Mito	34703	34707	8	25
Mito	34950	34974	8	24
Mito	35002	35003	8	1
Mito	35464	35485	8	21
Mito	35498	35549	8	52
Mito	35549	35568	8	23
Mito	35645	35691	8	46
Mito	35702	35703	8	1
Mito	35712	35713	8	1
Mito	35713	35732	8	19
Mito	35759	35760	8	1
Mito	35768	35769	8	1
Mito	35769	35786	8	21
Mito	35867	35888	8	21
Mito	35905	35906	8	1
Mito	36138	36138	8	3
Mito	36143	36183	8	40
Mito	36193	36196	8	3
Mito	36196	36202	8	6
Mito	36228	36277	8	51
Mito	36329	36350	8	21
Mito	36356	36363	8	7
Mito	36437	36480	8	44
Mito	36514	36802	8	288
Mito	36814	37354	8	544
Mito	37366	37795	8	432
Mito	37898	38028	8	130
Mito	38044	38449	8	405
Mito	38460	38472	8	12
Mito	38474	38572	8	98
Mito	38574	38769	8	252
Mito	39012	39041	8	33
Mito	39160	39403	8	243
Mito	39410	40260	8	850
Mito	40272	40323	8	51
Mito	40338	40372	8	34
Mito	40388	40394	8	6
Mito	40406	40675	8	276
Mito	40690	42605	8	1921
Mito	42617	42846	8	230
Mito	42973	42988	8	15
Mito	43228	43254	8	26
Mito	43268	43347	8	80
Mito	43360	43437	8	77
Mito	43458	43461	8	3
Mito	43471	43537	8	66
Mito	43550	43597	8	47
Mito	43609	43645	8	36
Mito	43658	43709	8	51
Mito	43721	43737	8	16
Mito	43749	43750	8	1
Mito	43761	43763	8	2
Mito	43775	43793	8	18
Mito	43819	43830	8	11
Mito	43866	43878	8	12
Mito	43926	43973	8	47
Mito	43983	44063	8	80
Mito	44075	44128	8	55
Mito	44145	44146	8	1
Mito	44163	44180	8	22
Mito	44180	44180	8	19
Mito	44201	44212	8	11
Mito	44230	44251	8	21
Mito	44264	44273	8	9
Mito	44286	44304	8	18
Mito	44316	44337	8	24
Mito	44349	44353	8	4
Mito	44365	44403	8	38
Mito	44415	44438	8	23
Mito	44450	44493	8	46
Mito	44505	44551	8	46
Mito	44563	44571	8	8
Mito	44583	44653	8	72
Mito	44682	44741	8	59
Mito	44947	45014	8	67
Mito	45026	45055	8	29
Mito	45082	45111	8	29
Mito	45111	45137	8	26
Mito	45200	45217	8	17
Mito	45226	45238	8	14
Mito	45253	45271	8	19
Mito	45290	45314	8	24
Mito	45351	45384	8	34
Mito	45415	45416	8	1
Mito	48041	48080	8	39
Mito	48108	48110	8	2
Mito	48130	48136	8	6
Mito	57685	57736	8	51
Mito	66784	66797	8	14
Mito	66810	66811	8	1
Mito	69011	69037	8	26
Mito	69093	69108	8	23
Mito	69524	69552	8	28
Mito	80446	80452	8	6
Mito	80481	80482	8	1
Mito	80492	80501	8	9
Mito	80508	80509	8	1
Mito	80509	80550	8	41
Mito	83122	83156	8	36
Mito	84408	84432	8	29
Mito	84450	84451	8	1
Mito	84479	84509	8	30
Mito	84509	84541	8	32
Mito	84553	84561	8	8
Mito	84578	84579	8	1
XV	329	349	8	21
XV	349	373	8	24
XV	1104	11058	8	10289
XV	11244	11311	8	67
XV	11329	11489	8	175
XV	11489	11569	8	85
XV	11569	11612	8	43
XV	11612	11653	8	41
XV	11897	12147	8	259
XV	12218	13995	8	1778
XV	14016	14017	8	1
XV	14017	14926	8	939
XV	15026	21713	8	6688
XV	21729	23655	8	1927
XV	28900	30750	8	1889
XV	30755	30755	8	1
XV	30755	30837	8	82
XV	30837	30861	8	24
XV	31292	43006	8	11726
XV	43062	45685	8	2624
XV	45708	45723	8	15
XV	45730	55096	8	9390
XV	55128	60214	8	5086
XV	60236	110800	8	50591
XV	110804	110940	8	137
XV	110956	110967	8	11
XV	110979	111089	8	110
XV	111106	113812	8	2710
XV	113824	115080	8	1257
XV	115082	117689	8	2628
XV	123615	123618	8	3
XV	123635	160097	8	36471
XV	160548	160845	8	298
XV	160857	160904	8	48
XV	160916	160970	8	55
XV	160980	161434	8	460
XV	161446	161911	8	469
XV	161923	161951	8	28
XV	161963	162061	8	101
XV	162073	162232	8	159
XV	162244	162356	8	113
XV	162368	164779	8	2411
XV	164791	165325	8	534
XV	165337	167183	8	1852
XV	167195	167775	8	588
XV	167787	167938	8	152
XV	167950	167967	8	17
XV	167979	168427	8	451
XV	168439	172699	8	4270
XV	172825	200339	8	27521
XV	200359	204581	8	4222
XV	204592	216439	8	11881
XV	216449	216598	8	149
XV	216616	216904	8	288
XV	216916	218455	8	1540
XV	218466	227296	8	8831
XV	227314	228154	8	841
XV	228154	236197	8	8078
XV	236213	236297	8	84
XV	236299	236978	8	679
XV	236985	265319	8	28370
XV	265329	269691	8	4364
XV	269758	288070	8	18315
XV	288072	300947	8	12933
XV	300947	300947	8	1
XV	301019	301298	8	366
XV	301314	309097	8	7784
XV	309101	309101	8	1
XV	309107	316399	8	7293
XV	316424	326196	8	9782
XV	326267	338923	8	12656
XV	338939	344746	8	5810
XV	344830	344886	8	56
XV	344999	345000	8	1
XV	345051	346440	8	1389
XV	346446	354047	8	7610
XV	354059	354419	8	360
XV	354430	355077	8	647
XV	355099	418065	8	63158
XV	418081	422214	8	4133
XV	422236	427872	8	5641
XV	427917	427966	8	49
XV	428018	430155	8	2138
XV	430170	438514	8	8346
XV	438514	444490	8	5978
XV	444505	448669	8	4166
XV	448691	479566	8	30919
XV	479571	487323	8	7867
XV	487458	491007	8	3549
XV	491023	506066	8	15047
XV	506084	522805	8	16736
XV	522831	534509	8	11680
XV	534536	535162	8	626
XV	535170	537050	8	1880
XV	537070	537239	8	169
XV	537256	575097	8	37847
XV	575097	594521	8	19435
XV	594529	594529	8	1
XV	600413	600463	8	50
XV	600734	609376	8	8864
XV	609397	641410	8	32043
XV	641410	664041	8	22632
XV	664042	664055	8	13
XV	664055	664085	8	65
XV	664085	664085	8	22
XV	664085	664085	8	63
XV	664090	664866	8	776
XV	664873	664873	8	1
XV	665091	665146	8	56
XV	665146	667558	8	2413
XV	667569	667729	8	160
XV	667741	682470	8	14735
XV	682492	703772	8	21284
XV	710113	710210	8	97
XV	710221	710266	8	45
XV	710279	756378	8	46102
XV	756388	805008	8	48631
XV	805026	822918	8	17893
XV	822944	854271	8	31360
XV	854628	854982	8	354
XV	855001	860885	8	5896
XV	860890	868025	8	7145
XV	868090	877090	8	9000
XV	877102	882622	8	5520
XV	882632	889742	8	7114
XV	889756	911745	8	21998
XV	911750	944467	8	32724
XV	944489	954135	8	9646
XV	954156	960422	8	6269
XV	960439	960706	8	270
XV	960722	966290	8	5573
XV	966315	966564	8	275
XV	966592	967770	8	1179
XV	967786	967933	8	149
XV	967955	968441	8	504
XV	968463	968745	8	287
XV	968784	968898	8	115
XV	976397	976683	8	299
XV	976699	978140	8	1450
XV	978157	978221	8	64
XV	978237	979484	8	1284
XV	979512	979699	8	190
XV	979727	979883	8	157
XV	979926	979934	8	8
XV	979953	980072	8	147
XV	980088	980188	8	112
XV	980205	980368	8	240
XV	980391	980412	8	24
XV	980432	980461	8	32
XV	980484	980551	8	113
XV	980551	981533	8	1049
XV	981549	1031378	8	49841
XV	1031392	1036131	8	4739
XV	1036136	1051237	8	15103
XV	1051249	1057718	8	6478
XV	1077950	1077969	8	19
VI	15026	16172	8	1160
VI	16195	16268	8	73
VI	16297	16399	8	102
VI	16419	16624	8	207
VI	16666	16766	8	100
VI	16783	18730	8	1947
VI	18743	18989	8	249
VI	19001	19077	8	76
VI	19089	19104	8	15
VI	19116	19120	8	4
VI	19132	20175	8	1056
VI	20187	20297	8	111
VI	20309	20311	8	2
VI	20323	20480	8	157
VI	20489	20906	8	437
VI	20918	23014	8	2096
VI	23038	23077	8	39
VI	23087	23406	8	320
VI	23407	23407	8	1
VI	23407	25383	8	1980
VI	25385	25395	8	10
VI	25414	25480	8	71
VI	25583	25665	8	82
VI	25667	25669	8	2
VI	25671	25820	8	154
VI	25836	25981	8	145
VI	26001	26002	8	1
VI	26023	26095	8	72
VI	26111	26122	8	11
VI	26124	26186	8	62
VI	26214	26244	8	30
VI	26289	26357	8	69
VI	26359	26550	8	199
VI	26579	26585	8	6
VI	26600	26605	8	5
VI	26632	26664	8	32
VI	26680	26744	8	69
VI	26746	26795	8	49
VI	26797	26819	8	22
VI	26878	27423	8	547
VI	27429	27574	8	164
VI	27597	27879	8	286
VI	27960	28882	8	929
VI	28882	30088	8	1207
VI	30088	32496	8	2411
VI	32754	42613	8	9860
VI	42625	57962	8	15346
VI	57973	57999	8	26
VI	58025	62845	8	4820
VI	62845	62889	8	44
VI	62889	68822	8	5942
VI	68834	68939	8	105
VI	68958	73354	8	4405
VI	73385	75992	8	2612
VI	76008	76470	8	462
VI	76471	76471	8	1
VI	76471	78016	8	1557
VI	78023	78023	8	1
VI	78023	92338	8	14352
VI	92338	92416	8	78
VI	92416	97633	8	5237
VI	97659	97867	8	287
VI	97885	97945	8	60
VI	97971	98106	8	140
VI	98138	98982	8	891
VI	99000	99070	8	70
VI	99086	99296	8	213
VI	99308	99524	8	216
VI	99548	99603	8	55
VI	99625	100249	8	639
VI	100266	100493	8	232
VI	100516	100580	8	64
VI	101367	103193	8	1829
VI	103212	103929	8	725
VI	103945	104566	8	621
VI	104578	104579	8	1
VI	104579	104585	8	6
VI	104603	106875	8	2273
VI	106893	111027	8	4145
VI	111027	111129	8	102
VI	111204	111239	8	36
VI	111249	111352	8	106
VI	111378	111384	8	6
VI	111445	112016	8	582
VI	112027	112273	8	247
VI	112283	114044	8	1763
VI	114046	114115	8	70
VI	114134	114209	8	75
VI	114225	114311	8	88
VI	114313	114399	8	86
VI	114420	114494	8	76
VI	114496	115145	8	667
VI	115187	117320	8	2144
VI	117320	118552	8	1232
VI	118561	118814	8	257
VI	118831	119036	8	206
VI	119038	119069	8	33
VI	119110	119119	8	9
VI	119174	119193	8	19
VI	119210	119666	8	460
VI	119668	137766	8	18177
VI	137911	137912	8	1
VI	144851	162244	8	17409
VI	162244	162296	8	52
VI	162309	164937	8	2629
VI	164937	167472	8	2535
VI	167472	168313	8	841
VI	168350	169653	8	1306
VI	169673	174202	8	4531
VI	174214	176467	8	2254
VI	176479	178018	8	1539
VI	178171	179312	8	1141
VI	179312	181058	8	1746
VI	181551	186218	8	4685
VI	186248	192516	8	6270
VI	192540	204970	8	12434
VI	205007	205135	8	128
VI	205945	210338	8	4403
VI	210377	220663	8	10287
VI	220995	227345	8	6354
VI	227363	227474	8	111
VI	227485	232987	8	5503
VI	233014	237278	8	4270
VI	237279	252061	8	14803
VI	252067	252087	8	20
VI	252093	252138	8	49
VI	252165	253457	8	1308
VI	253473	255360	8	1893
VI	255377	256269	8	915
VI	256314	256328	8	14
VI	256361	256392	8	31
VI	256408	256589	8	526
VI	256625	257788	8	1462
VI	257788	257934	8	146
VI	257934	257943	8	87
VI	257943	257973	8	78
VI	257988	259907	8	2044
VI	259923	260144	8	231
VI	260160	261288	8	1172
VI	261485	262230	8	881
VI	262266	262273	8	7
VI	262310	262399	8	89
VI	262399	265363	8	3122
VI	265384	266035	8	671
VI	266055	266072	8	17
VI	269731	269944	8	213
VI	269965	269966	8	1
