LogLikelihood = -2152836.3336476283148

y0 1.7013422871156937966
y0_prime 0
y1 0.5036509913755722323
y1_prime 0
y2 1.9063401801804007452
y2_prime 0
y3 0.015926171150925896164
y3_prime 0
rho 0.00047774541774011660116
theta 0.0047698666595270547072
