time_index	left_time_boundary	right_time_boundary	lambda
0	0	6.88328e-06	6163.12
1	6.88328e-06	1.50196e-05	6163.12
2	1.50196e-05	2.46371e-05	6163.12
3	2.46371e-05	3.60053e-05	6163.12
4	3.60053e-05	4.9443e-05	6163.12
5	4.9443e-05	6.5327e-05	1905.3
6	6.5327e-05	8.41024e-05	2671.09
7	8.41024e-05	0.000106296	2947.83
8	0.000106296	0.000132529	2609.48
9	0.000132529	0.000163538	2249.22
10	0.000163538	0.000200192	2068.74
11	0.000200192	0.000243519	2003.53
12	0.000243519	0.000294732	1997.68
13	0.000294732	0.000355269	2042.62
14	0.000355269	0.000426826	2113.71
15	0.000426826	0.000511409	2114.79
16	0.000511409	0.00061139	1915.26
17	0.00061139	0.000729571	1512.94
18	0.000729571	0.000869267	1072.56
19	0.000869267	0.00103439	732.866
20	0.00103439	0.00122958	522.73
21	0.00122958	0.00146029	423.427
22	0.00146029	0.00173301	428.733
23	0.00173301	0.00205537	649.078
24	0.00205537	0.00243642	10343.7
25	0.00243642	0.00288683	2.64469
26	0.00288683	0.00341924	2.64469
27	0.00341924	0.00404856	2.64469
28	0.00404856	0.00479245	2.64469
29	0.00479245	inf	2.64469
