Chr	Start	Stop	BlockSize	BlockLength
IV	0	55	1	55
IV	55	78	4	23
IV	78	279	7	217
IV	279	308	1	32
IV	308	370	6	63
IV	370	392	6	22
IV	392	535	7	145
IV	535	886	9	360
IV	886	2162	1	1276
IV	2162	2210	2	48
IV	2210	2277	3	67
IV	2277	2339	2	62
IV	2339	16589	1	14250
IV	16589	16614	6	25
IV	16614	17229	7	615
IV	17229	17879	8	650
IV	17879	44529	9	26692
IV	44529	127635	9	84284
IV	127635	128997	1	1362
IV	128997	133634	9	4638
IV	133634	227632	9	95332
IV	227632	329655	9	102086
IV	329655	384123	9	54714
IV	384123	384394	8	731
IV	384394	384418	7	24
IV	384418	384469	5	51
IV	384469	384517	7	48
IV	384517	384580	9	81
IV	384580	410361	9	25825
IV	410361	410392	9	36
IV	410392	435120	9	24749
IV	435120	437109	9	2048
IV	437109	437143	9	34
IV	437143	437518	1	375
IV	437518	471851	9	34381
IV	471851	513320	9	41874
IV	513320	513522	9	312
IV	513522	513590	9	68
IV	513590	513688	9	98
IV	513688	519315	1	5627
IV	519315	519374	4	60
IV	519374	519453	1	79
IV	519453	519521	2	68
IV	519521	519582	8	79
IV	519582	519627	8	47
IV	519627	519652	8	25
IV	519652	520476	9	1043
IV	520476	520538	9	62
IV	520538	520582	8	44
IV	520582	527678	9	7324
IV	527678	527710	4	32
IV	527710	528083	5	466
IV	528083	528945	6	862
IV	528945	529014	4	69
IV	529014	529070	2	56
IV	529070	530287	1	1217
IV	530287	530349	6	62
IV	530349	531415	1	1066
IV	531415	531471	2	56
IV	531471	531500	3	29
IV	531500	533149	2	1649
IV	533149	533409	8	260
IV	533409	533496	7	87
IV	533496	534234	7	738
IV	534234	535363	9	1129
IV	535363	535385	9	22
IV	535385	535448	5	63
IV	535448	535783	6	335
IV	535783	535853	7	71
IV	535853	536715	8	862
IV	536715	536784	9	69
IV	536784	537034	9	250
IV	537034	537173	7	159
IV	537173	537294	8	241
IV	537294	537381	7	87
IV	537381	538057	6	730
IV	538057	538119	8	62
IV	538119	645115	9	107183
IV	645115	645162	8	47
IV	645162	645209	5	47
IV	645209	645261	7	52
IV	645261	645301	7	40
IV	645301	645336	4	35
IV	645336	645379	3	43
IV	645379	651059	1	5680
IV	651059	651081	7	23
IV	651081	651148	7	70
IV	651148	651179	5	31
IV	651179	651220	5	41
IV	651220	651301	4	205
IV	651301	651357	1	56
IV	651357	651420	5	72
IV	651420	651441	7	39
IV	651441	668019	9	16583
IV	668019	668095	9	76
IV	668095	668158	6	63
IV	668158	668192	7	34
IV	668192	668375	3	313
IV	668375	668436	8	61
IV	668436	757480	9	89324
IV	757480	757557	7	77
IV	757557	757658	8	101
IV	757658	759509	1	1851
IV	759509	759533	6	24
IV	759533	759561	6	28
IV	759561	759608	5	47
IV	759608	759634	8	26
IV	759634	759662	9	28
IV	759662	759701	5	39
IV	759701	802904	9	43409
IV	802904	802963	6	59
IV	802963	803052	3	89
IV	803052	803172	1	120
IV	803172	803468	2	296
IV	803468	804971	3	1503
IV	804971	805034	6	63
IV	805034	805202	7	168
IV	805202	805231	8	29
IV	805231	805577	7	346
IV	805577	864844	9	59314
IV	864844	864945	8	115
IV	864945	871820	9	6876
IV	871820	877784	1	5964
IV	877784	878302	9	668
IV	878302	884225	1	5923
IV	884225	945954	9	61900
IV	945954	946023	9	73
IV	946023	946064	6	41
IV	946064	946096	3	32
IV	946096	946127	5	31
IV	946127	946233	1	106
IV	946233	946301	7	69
IV	946301	946344	9	43
IV	946344	981170	9	34850
IV	981170	981231	9	61
IV	981231	981384	2	153
IV	981384	992642	1	11258
IV	992642	992698	8	56
IV	992698	1017267	9	24610
IV	1017267	1017290	9	23
IV	1017290	1017439	9	149
IV	1017439	1023199	9	5768
IV	1023199	1023477	8	278
IV	1023477	1087853	9	64439
IV	1087853	1088263	9	410
IV	1088263	1088326	8	63
IV	1088326	1095766	9	7442
IV	1095766	1095827	2	61
IV	1095827	1100696	1	4869
IV	1100696	1100759	3	63
IV	1100759	1101353	9	594
IV	1101353	1101697	1	344
IV	1101697	1150902	9	49262
IV	1150902	1150957	8	56
IV	1150957	1155204	9	4370
IV	1155204	1155355	4	151
IV	1155355	1155750	7	395
IV	1155750	1155813	8	63
IV	1155813	1159718	9	3927
IV	1159718	1159752	7	34
IV	1159752	1159817	2	65
IV	1159817	1159975	3	158
IV	1159975	1160022	8	47
IV	1160022	1160636	9	614
IV	1160636	1160747	9	111
IV	1160747	1161142	3	395
IV	1161142	1161205	5	63
IV	1161205	1175232	9	14132
IV	1175232	1175313	6	81
IV	1175313	1175376	7	63
IV	1175376	1175420	7	44
IV	1175420	1175472	7	85
IV	1175472	1175584	5	249
IV	1175584	1175648	7	64
IV	1175648	1175716	8	68
IV	1175716	1175751	8	41
IV	1175751	1175791	9	40
IV	1175791	1175828	8	37
IV	1175828	1175890	7	62
IV	1175890	1206706	9	30912
IV	1206706	1212629	1	5923
IV	1212629	1243229	9	30609
IV	1243229	1305627	9	62451
IV	1305627	1305658	7	31
IV	1305658	1307601	9	1944
IV	1307601	1308063	1	462
IV	1308063	1308156	6	93
IV	1308156	1308318	8	162
IV	1308318	1308362	9	44
IV	1308362	1308422	8	100
IV	1308422	1308486	9	816
IV	1308486	1352644	9	44176
IV	1352644	1352706	4	62
IV	1352706	1352966	1	260
IV	1352966	1461840	9	109156
IV	1461840	1523288	9	62651
IV	1523288	1523332	8	44
IV	1523332	1523548	7	246
IV	1523548	1523690	6	157
IV	1523690	1523714	7	24
IV	1523714	1523753	5	39
IV	1523753	1523808	8	55
IV	1523808	1524138	1	330
IV	1524138	1524224	3	86
IV	1524224	1524247	5	23
IV	1524247	1524288	2	41
IV	1524288	1524389	3	101
IV	1524389	1525274	1	885
IV	1525274	1525326	5	52
IV	1525326	1531933	1	6607
XIV	0	3599	1	3599
XIV	3599	4903	9	1354
XIV	4903	4904	2	51
XIV	4904	5982	9	1213
XIV	5982	6051	8	69
XIV	6051	6101	9	50
XIV	6101	6143	9	42
XIV	6143	6260	8	118
XIV	6260	6435	7	175
XIV	6435	6563	3	128
XIV	6563	6633	3	72
XIV	6633	6676	3	84
XIV	6676	6696	5	39
XIV	6696	6750	7	56
XIV	6750	6782	7	33
XIV	6782	6809	7	27
XIV	6809	6855	5	46
XIV	6855	6946	7	92
XIV	6946	7042	2	96
XIV	7042	7074	2	32
XIV	7074	7136	2	63
XIV	7136	7178	3	42
XIV	7178	7218	5	40
XIV	7218	7277	2	109
XIV	7277	7359	2	82
XIV	7359	7539	7	182
XIV	7539	7666	4	173
XIV	7666	7745	8	79
XIV	7745	7816	5	76
XIV	7816	7860	4	44
XIV	7860	7882	7	22
XIV	7882	7903	7	21
XIV	7903	7976	4	73
XIV	7976	8066	3	90
XIV	8066	8102	2	36
XIV	8102	8156	5	54
XIV	8156	8184	2	28
XIV	8184	8218	7	34
XIV	8218	8281	8	64
XIV	8281	8314	6	33
XIV	8314	8403	3	89
XIV	8403	8466	7	63
XIV	8466	8593	6	127
XIV	8593	8637	4	44
XIV	8637	8690	3	53
XIV	8690	8747	2	57
XIV	8747	8797	4	50
XIV	8797	8857	2	60
XIV	8857	8901	5	44
XIV	8901	8941	5	40
XIV	8941	9051	2	110
XIV	9051	9204	6	153
XIV	9204	9236	3	32
XIV	9236	9432	4	196
XIV	9432	9530	7	138
XIV	9530	9675	9	145
XIV	9675	9787	7	112
XIV	9787	9821	8	35
XIV	9821	14764	9	5078
XIV	14764	14996	8	232
XIV	14996	15178	9	182
XIV	15178	15242	8	64
XIV	15242	15305	4	63
XIV	15305	15794	6	489
XIV	15794	15857	8	63
XIV	15857	15952	7	104
XIV	15952	96444	9	80741
XIV	96444	96470	9	26
XIV	96470	96505	6	35
XIV	96505	96538	4	33
XIV	96538	96609	1	71
XIV	96609	96688	7	79
XIV	96688	96739	6	51
XIV	96739	96789	8	50
XIV	96789	96826	4	37
XIV	96826	96870	2	44
XIV	96870	97599	2	794
XIV	97599	97644	9	45
XIV	97644	97708	9	64
XIV	97708	98795	9	1137
XIV	98795	98962	9	361
XIV	98962	102464	1	3502
XIV	102464	102523	5	65
XIV	102523	102548	5	39
XIV	102548	252523	9	150052
XIV	252523	519181	9	267511
XIV	519181	519223	5	57
XIV	519223	519434	3	215
XIV	519434	519502	4	68
XIV	519502	519553	5	51
XIV	519553	525035	1	5482
XIV	525035	525086	2	51
XIV	525086	533244	9	8189
XIV	533244	533314	9	70
XIV	533314	546653	8	13340
XIV	546653	546736	8	83
XIV	546736	546795	6	66
XIV	546795	546842	3	47
XIV	546842	546870	2	56
XIV	546870	546940	5	70
XIV	546940	546977	7	37
XIV	546977	547019	6	42
XIV	547019	547081	5	62
XIV	547081	560783	8	13724
XIV	560783	560832	8	61
XIV	560832	561663	9	852
XIV	561663	564452	1	2789
XIV	564452	567726	2	3274
XIV	567726	567788	4	63
XIV	567788	567933	2	145
XIV	567933	567955	5	22
XIV	567955	567998	1	43
XIV	567998	569898	9	1919
XIV	569898	570043	8	145
XIV	570043	570137	7	95
XIV	570137	570200	8	63
XIV	570200	573948	9	3784
XIV	573948	599621	9	25708
XIV	599621	602050	8	2463
XIV	602050	602110	9	60
XIV	602110	602145	9	35
XIV	602145	602208	8	63
XIV	602208	602310	8	102
XIV	602310	602353	5	43
XIV	602353	631929	9	29650
XIV	631929	632004	9	75
XIV	632004	632057	9	162
XIV	632057	632112	9	241
XIV	632112	632223	9	111
XIV	632223	632268	6	45
XIV	632268	632405	7	138
XIV	632405	632464	8	210
XIV	632464	726155	9	94126
XIV	726155	726233	9	78
XIV	726233	726294	7	61
XIV	726294	726426	8	132
XIV	726426	727081	9	675
XIV	727081	750677	9	23629
XIV	750677	750765	8	88
XIV	750765	750840	8	75
XIV	750840	751076	7	236
XIV	751076	751901	8	825
XIV	751901	752310	6	409
XIV	752310	752849	7	589
XIV	752849	755175	8	2340
XIV	755175	772622	9	17469
XIV	772622	772779	8	157
XIV	772779	773007	6	228
XIV	773007	773041	2	34
XIV	773041	773105	8	286
XIV	773105	773168	9	63
XIV	773168	773246	7	78
XIV	773246	773328	6	175
XIV	773328	773492	5	164
XIV	773492	773528	7	36
XIV	773528	773600	5	72
XIV	773600	773657	6	57
XIV	773657	773747	7	90
XIV	773747	773798	6	51
XIV	773798	773834	2	36
XIV	773834	773870	2	36
XIV	773870	773954	3	84
XIV	773954	774221	7	348
XIV	774221	774304	4	83
XIV	774304	774343	5	39
XIV	774343	774663	6	320
XIV	774663	774776	6	113
XIV	774776	774856	8	80
XIV	774856	774924	7	68
XIV	774924	774951	6	27
XIV	774951	774976	6	25
XIV	774976	775018	6	43
XIV	775018	775040	8	22
XIV	775040	775081	6	41
XIV	775081	775167	9	86
XIV	775167	775266	9	99
XIV	775266	775313	9	47
XIV	775313	775377	9	64
XIV	775377	775449	9	72
XIV	775449	776213	8	764
XIV	776213	776258	6	45
XIV	776258	781166	9	4968
XIV	781166	781290	7	133
XIV	781290	781426	2	136
XIV	781426	781491	2	65
XIV	781491	781555	2	64
XIV	781555	781665	2	110
XIV	781665	781792	2	127
XIV	781792	781818	5	26
XIV	781818	781850	3	32
XIV	781850	781964	2	114
XIV	781964	781993	6	29
XIV	781993	782192	1	199
XIV	782192	782221	7	29
XIV	782221	782330	8	109
XIV	782330	782437	9	114
XIV	782437	782481	9	44
XIV	782481	782589	6	108
XIV	782589	782617	8	29
XIV	782617	782667	5	50
XIV	782667	782829	9	170
XIV	782829	782876	8	47
XIV	782876	782967	6	212
XIV	782967	783012	3	45
XIV	783012	783067	6	56
XIV	783067	783145	3	79
XIV	783145	783174	4	29
XIV	783174	783221	4	47
XIV	783221	783279	5	58
XIV	783279	783329	5	50
XIV	783329	783393	4	64
XIV	783393	783428	5	35
XIV	783428	783456	4	28
XIV	783456	783483	4	27
XIV	783483	783496	9	13
XIV	783496	783552	5	56
XIV	783552	783591	6	42
XIV	783591	783619	9	33
XIV	783619	783640	9	22
XIV	783640	783662	8	22
XIV	783662	783721	7	71
XIV	783721	783757	8	37
XIV	783757	783793	8	37
XIV	783793	783828	9	35
XIV	783828	783867	9	40
XIV	783867	783930	8	68
XIV	783930	784019	9	91
XIV	784019	784158	9	144
XIV	784158	784223	7	83
XIV	784223	784247	4	28
XIV	784247	784288	4	44
XIV	784288	784333	4	46
X	0	483	1	483
X	483	522	4	39
X	522	7224	1	6702
X	7224	7283	3	59
X	7283	7308	4	25
X	7308	7346	5	39
X	7346	7387	6	52
X	7387	7468	9	84
X	7468	7483	7	15
X	7483	7517	3	35
X	7517	7967	1	450
X	7967	8039	7	72
X	8039	8103	1	64
X	8103	8247	5	145
X	8247	8572	1	325
X	8572	8642	4	70
X	8642	8760	1	118
X	8760	8831	2	71
X	8831	8959	2	128
X	8959	9613	1	654
X	9613	9651	5	41
X	9651	9769	2	119
X	9769	9833	1	64
X	9833	9893	4	60
X	9893	10001	3	108
X	10001	10746	1	746
X	10746	10809	7	63
X	10809	10872	2	63
X	10872	11375	2	503
X	11375	13621	2	2248
X	13621	14163	7	542
X	14163	14572	6	409
X	14572	15772	7	1200
X	15772	15829	8	57
X	15829	16764	9	940
X	16764	16827	9	63
X	16827	16895	8	68
X	16895	16938	7	43
X	16938	17147	6	279
X	17147	17852	5	705
X	17852	17970	4	118
X	17970	18287	1	317
X	18287	18773	4	497
X	18773	18984	6	588
X	18984	19124	2	143
X	19124	19465	1	341
X	19465	19560	2	95
X	19560	20384	1	824
X	20384	20641	2	257
X	20641	20749	6	108
X	20749	20930	5	181
X	20930	20983	3	53
X	20983	24532	9	3549
X	24532	25126	4	594
X	25126	25569	6	444
X	25569	25942	2	373
X	25942	26026	3	84
X	26026	27051	4	1025
X	27051	59323	9	32565
X	59323	153522	9	94595
X	153522	197507	9	44007
X	197507	203782	1	6275
X	203782	203843	8	62
X	203843	203863	5	21
X	203863	203920	4	60
X	203920	203982	5	62
X	203982	204013	4	31
X	204013	204108	1	95
X	204108	204197	5	90
X	204197	204230	4	33
X	204230	204295	5	65
X	204295	204364	8	69
X	204364	204388	9	24
X	204388	204432	6	46
X	204432	204729	8	300
X	204729	204752	7	23
X	204752	338578	9	133990
X	338578	338613	5	35
X	338613	338768	6	155
X	338768	338831	4	63
X	338831	338896	4	65
X	338896	338929	2	33
X	338929	354243	9	15319
X	354243	354270	7	27
X	354270	354305	8	35
X	354305	354339	9	34
X	354339	354508	9	169
X	354508	354609	4	101
X	354609	354655	1	46
X	354655	354732	3	192
X	354732	355042	1	310
X	355042	355071	9	29
X	355071	355210	9	140
X	355210	355420	8	210
X	355420	355489	7	89
X	355489	374461	9	20405
X	374461	374596	7	185
X	374596	374903	6	307
X	374903	377902	9	2999
X	377902	378258	9	356
X	378258	424530	9	46978
X	424530	424765	9	235
X	424765	453745	9	29030
X	453745	454006	7	277
X	454006	454055	5	99
X	454055	454120	6	65
X	454120	454199	5	79
X	454199	454246	6	47
X	454246	454303	4	57
X	454303	454366	7	63
X	454366	472462	9	18106
X	472462	483977	1	11515
X	483977	524064	9	40126
X	524064	524104	4	40
X	524104	531721	9	7677
X	531721	538100	9	6382
X	538100	538161	3	61
X	538161	538367	1	206
X	538367	538413	5	46
X	538413	538434	6	21
X	538434	540672	9	2243
X	540672	540710	9	38
X	540710	540757	8	47
X	540757	541441	8	690
X	541441	541492	9	202
X	541492	541531	9	46
X	541531	543011	9	1482
X	543011	543056	7	45
X	543056	617743	9	74954
X	617743	702030	9	84705
X	702030	728475	9	27637
X	728475	728570	1	95
X	728570	729122	2	552
X	729122	729185	8	63
X	729185	729249	6	64
X	729249	729368	7	119
X	729368	729455	8	87
X	729455	729519	8	64
X	729519	729663	8	144
X	729663	729726	7	63
X	729726	729955	8	229
X	729955	732940	9	3005
X	732940	733038	7	98
X	733038	733284	9	246
X	733284	733324	5	40
X	733324	733392	3	68
X	733392	733449	4	57
X	733449	733539	6	90
X	733539	742664	9	9135
X	742664	742847	8	183
X	742847	742940	9	93
X	742940	742986	7	46
X	742986	743051	8	65
X	743051	743118	8	157
X	743118	743329	5	211
X	743329	743399	6	70
X	743399	743483	1	84
X	743483	743523	7	40
X	743523	743575	6	52
X	743575	743664	5	89
X	743664	743925	4	261
X	743925	743957	1	32
X	743957	743984	8	27
X	743984	744007	8	23
X	744007	744038	6	31
X	744038	744157	7	119
X	744157	744195	7	38
X	744195	744238	5	45
X	744238	744301	3	63
X	744301	744431	1	130
X	744431	744600	3	174
X	744600	745529	1	929
X	745529	745638	2	110
X	745638	745751	1	113
VI	0	4935	1	4935
VI	4935	4963	2	28
VI	4963	5003	2	40
VI	5003	5109	2	106
VI	5109	5159	8	50
VI	5159	5280	8	123
VI	5280	5320	8	40
VI	5320	5382	8	62
VI	5382	5408	6	26
VI	5408	5478	6	70
VI	5478	5509	5	31
VI	5509	5848	5	340
VI	5848	5906	7	69
VI	5906	5997	6	91
VI	5997	6045	8	48
VI	6045	6073	5	28
VI	6073	6100	5	27
VI	6100	6140	8	40
VI	6140	6168	8	28
VI	6168	6212	3	44
VI	6212	6235	4	23
VI	6235	6275	3	40
VI	6275	6357	8	82
VI	6357	12507	1	6150
VI	12507	12798	2	292
VI	12798	12942	8	144
VI	12942	12975	9	33
VI	12975	13006	8	31
VI	13006	13069	9	63
VI	13069	13278	8	209
VI	13278	30088	9	16871
VI	30088	117415	9	88155
VI	117415	118029	8	614
VI	118029	137912	9	20241
VI	137912	138179	1	267
VI	138179	138234	9	56
VI	138234	144851	1	6617
VI	144851	191571	9	46844
VI	191571	191623	6	52
VI	191623	204952	9	13334
VI	204952	205007	8	55
VI	205007	205135	9	128
VI	205135	205945	1	810
VI	205945	220609	9	14684
VI	220609	220663	8	54
VI	220663	220938	3	275
VI	220938	221001	8	63
VI	221001	266202	9	45353
VI	266202	270064	9	3868
VI	270064	270101	8	37
VI	270101	270151	8	50
VI	270151	270161	4	15
IX	0	146	1	146
IX	146	179	5	33
IX	179	221	4	42
IX	221	1845	1	1624
IX	1845	1895	3	145
IX	1895	7307	1	5412
IX	7307	7360	2	57
IX	7360	7447	6	93
IX	7447	7501	1	54
IX	7501	7548	3	47
IX	7548	7593	4	45
IX	7593	7721	2	128
IX	7721	21166	1	13445
IX	21166	21653	5	491
IX	21653	21726	8	73
IX	21726	69294	9	48078
IX	69294	69458	8	572
IX	69458	196647	9	127757
IX	196647	197023	1	376
IX	197023	197265	9	242
IX	197265	197345	7	80
IX	197345	197417	6	72
IX	197417	205176	9	7760
IX	205176	205219	8	44
IX	205219	205280	9	61
IX	205280	205352	8	73
IX	205352	205498	7	175
IX	205498	205551	9	53
IX	205551	210497	1	4946
IX	210497	210537	4	40
IX	210537	210585	1	48
IX	210585	210639	7	54
IX	210639	210683	9	44
IX	210683	246219	9	35866
IX	246219	246313	1	94
IX	246313	246775	6	772
IX	246775	247756	7	985
IX	247756	248833	9	1077
IX	248833	300731	9	52063
IX	300731	317500	9	16825
IX	317500	317766	2	266
IX	317766	317829	8	63
IX	317829	324314	9	6485
IX	324314	324363	9	49
IX	324363	324458	7	95
IX	324458	324481	3	23
IX	324481	324830	2	349
IX	324830	324866	4	36
IX	324866	324981	2	115
IX	324981	325098	3	123
IX	325098	325168	5	70
IX	325168	325205	4	46
IX	325205	325731	1	526
IX	325731	325765	6	92
IX	325765	391247	9	65928
IX	391247	391303	5	57
IX	391303	391346	6	43
IX	391346	391382	6	36
IX	391382	391403	7	21
IX	391403	391434	7	31
IX	391434	391465	9	31
IX	391465	391491	9	26
IX	391491	391553	9	62
IX	391553	391585	5	35
IX	391585	391624	4	148
IX	391624	391683	3	59
IX	391683	391745	4	62
IX	391745	392214	1	469
IX	392214	392240	5	26
IX	392240	392523	1	283
IX	392523	392532	7	83
IX	392532	392584	8	52
IX	392584	392619	7	35
IX	392619	392655	1	36
IX	392655	392717	8	62
IX	392717	433518	9	41040
IX	433518	433568	3	50
IX	433568	433630	1	62
IX	433630	433830	2	200
IX	433830	434428	1	598
IX	434428	437298	9	2901
IX	437298	437471	7	175
IX	437471	437549	4	78
IX	437549	437607	3	58
IX	437607	437651	1	44
IX	437651	437720	4	69
IX	437720	437761	1	41
IX	437761	437818	3	57
IX	437818	437871	4	53
IX	437871	437915	1	44
IX	437915	438042	5	127
IX	438042	438131	4	89
IX	438131	438155	4	24
IX	438155	438184	5	31
IX	438184	438224	8	41
IX	438224	438271	1	47
IX	438271	438292	4	32
IX	438292	438311	8	19
IX	438311	438398	1	87
IX	438398	438422	7	24
IX	438422	438514	5	92
IX	438514	438895	1	381
IX	438895	438955	4	60
IX	438955	438979	4	24
IX	438979	439376	1	397
IX	439376	439444	2	68
IX	439444	439496	1	52
IX	439496	439557	2	61
IX	439557	439636	2	79
IX	439636	439797	2	162
IX	439797	439888	1	93
XII	0	155	1	155
XII	155	198	3	43
XII	198	5612	1	5414
XII	5612	5723	3	141
XII	5723	5769	5	53
XII	5769	5800	6	38
XII	5800	5899	6	104
XII	5899	5905	3	54
XII	5905	7010	9	1105
XII	7010	7118	3	233
XII	7118	7213	8	96
XII	7213	7262	9	49
XII	7262	7329	7	121
XII	7329	7361	8	32
XII	7361	7397	9	36
XII	7397	7482	9	85
XII	7482	7552	6	70
XII	7552	7575	9	23
XII	7575	7626	8	51
XII	7626	7689	9	63
XII	7689	9370	9	1702
XII	9370	10776	1	1406
XII	10776	11141	2	365
XII	11141	11186	3	45
XII	11186	11263	2	96
XII	11263	11315	5	53
XII	11315	11350	4	36
XII	11350	11431	6	81
XII	11431	11474	2	43
XII	11474	11495	6	21
XII	11495	11515	3	23
XII	11515	11603	1	88
XII	11603	11684	2	81
XII	11684	11710	2	26
XII	11710	11779	6	69
XII	11779	11802	2	25
XII	11802	11872	2	70
XII	11872	11937	3	65
XII	11937	13325	1	1388
XII	13325	13440	2	115
XII	13440	13600	3	162
XII	13600	13744	2	144
XII	13744	13828	4	84
XII	13828	13859	3	31
XII	13859	47898	9	34396
XII	47898	48401	7	503
XII	48401	48464	8	63
XII	48464	95818	9	47769
XII	95818	97239	9	1421
XII	97239	214962	9	118487
XII	214962	215080	9	118
XII	215080	215142	6	62
XII	215142	215233	7	92
XII	215233	221004	1	5771
XII	221004	365735	9	145009
XII	365735	374070	9	8362
XII	374070	374103	7	33
XII	374103	374199	6	96
XII	374199	374256	7	58
XII	374256	374343	7	87
XII	374343	374372	9	29
XII	374372	451417	9	77171
XII	451417	451480	7	63
XII	451480	451511	8	31
XII	451511	451586	2	150
XII	451586	451623	9	40
XII	451623	451651	8	28
XII	451651	451676	9	25
XII	451676	451689	9	13
XII	451689	451780	9	91
XII	451780	451852	9	72
XII	451852	459689	1	7837
XII	459689	459701	9	12
XII	459701	459757	9	56
XII	459757	459832	6	75
XII	459832	459851	5	19
XII	459851	459870	9	19
XII	459870	459890	8	20
XII	459890	459934	9	44
XII	459934	459962	9	28
XII	459962	460005	8	43
XII	460005	460030	9	25
XII	460030	460088	8	58
XII	460088	460125	9	37
XII	460125	460207	9	82
XII	460207	460265	9	58
XII	460265	460313	9	48
XII	460313	460396	9	83
XII	460396	460424	6	28
XII	460424	460485	9	61
XII	460485	460514	9	29
XII	460514	460578	7	64
XII	460578	464236	1	3658
XII	464236	464300	8	64
XII	464300	464324	9	24
XII	464324	464382	8	58
XII	464382	464409	9	27
XII	464409	464465	9	56
XII	464465	464493	9	28
XII	464493	464514	9	21
XII	464514	464584	7	70
XII	464584	464621	9	37
XII	464621	464647	7	26
XII	464647	464689	9	42
XII	464689	464705	9	16
XII	464705	464727	6	22
XII	464727	464790	9	63
XII	464790	464853	7	63
XII	464853	464910	9	57
XII	464910	464978	9	68
XII	464978	465027	9	49
XII	465027	465154	9	127
XII	465154	466842	1	1688
XII	466842	466863	7	21
XII	466863	466902	9	39
XII	466902	466946	9	47
XII	466946	467010	9	64
XII	467010	467028	8	18
XII	467028	467057	9	29
XII	467057	467068	9	11
XII	467068	467092	9	24
XII	467092	467120	5	28
XII	467120	467147	9	27
XII	467147	467199	8	52
XII	467199	467217	9	18
XII	467217	467250	9	33
XII	467250	467302	9	52
XII	467302	467366	8	64
XII	467366	467407	7	41
XII	467407	467471	8	64
XII	467471	467511	9	40
XII	467511	467538	8	27
XII	467538	467611	8	73
XII	467611	467635	8	24
XII	467635	467677	7	42
XII	467677	467703	3	26
XII	467703	467779	9	76
XII	467779	467801	3	22
XII	467801	467850	9	49
XII	467850	467928	9	78
XII	467928	467959	9	31
XII	467959	467980	9	21
XII	467980	468001	8	21
XII	468001	468014	9	13
XII	468014	468048	9	34
XII	468048	468116	2	68
XII	468116	468147	9	31
XII	468147	468184	9	37
XII	468184	468248	9	64
XII	468248	468273	9	25
XII	468273	468294	6	21
XII	468294	468348	9	54
XII	468348	468412	8	64
XII	468412	468487	8	75
XII	468487	468500	9	13
XII	468500	468537	8	37
XII	468537	468622	9	85
XII	468622	468691	6	69
XII	468691	468755	9	64
XII	468755	468775	6	20
XII	468775	468839	5	64
XII	468839	468889	9	50
XII	468889	468916	9	27
XII	468916	489352	1	20436
XII	489352	489375	4	23
XII	489375	489412	6	37
XII	489412	489458	5	46
XII	489458	489479	4	21
XII	489479	489919	1	440
XII	489919	489958	7	39
XII	489958	490005	9	47
XII	490005	490026	8	21
XII	490026	490104	9	78
XII	490104	490140	9	36
XII	490140	490167	9	27
XII	490167	490217	2	100
XII	490217	490257	8	40
XII	490257	490275	7	18
XII	490275	490357	9	82
XII	490357	490389	9	32
XII	490389	490453	9	64
XII	490453	490479	4	26
XII	490479	592567	9	102182
XII	592567	592828	9	261
XII	592828	593132	9	304
XII	593132	599055	1	5923
XII	599055	650818	9	52128
XII	650818	656743	1	5925
XII	656743	687874	9	31401
XII	687874	687943	7	69
XII	687943	731662	9	43835
XII	731662	732000	1	338
XII	732000	734381	9	2436
XII	734381	734821	8	440
XII	734821	784337	9	49534
XII	784337	793906	9	9798
XII	793906	818324	9	24580
XII	818324	818352	7	79
XII	818352	818358	5	56
XII	818358	818423	4	119
XII	818423	818460	7	42
XII	818460	875358	9	56954
XII	875358	875427	9	69
XII	875427	941191	9	65773
XII	941191	947155	1	5964
XII	947155	976181	9	29054
XII	976181	976269	9	89
XII	976269	976318	5	50
XII	976318	976444	5	130
XII	976444	976545	6	102
XII	976545	976573	7	28
XII	976573	976636	8	63
XII	976636	981697	1	5061
XII	981697	1002236	9	20540
XII	1002236	1003021	8	785
XII	1003021	1003146	9	125
XII	1003146	1003345	8	199
XII	1003345	1003411	9	66
XII	1003411	1003674	8	363
XII	1003674	1003706	3	32
XII	1003706	1003737	5	31
XII	1003737	1003776	6	39
XII	1003776	1003869	8	93
XII	1003869	1052277	9	48665
XII	1052277	1052299	7	194
XII	1052299	1052316	6	24
XII	1052316	1059364	9	7238
XII	1059364	1059402	3	38
XII	1059402	1059431	5	29
XII	1059431	1059495	5	65
XII	1059495	1059527	7	32
XII	1059527	1059611	4	84
XII	1059611	1059689	5	78
XII	1059689	1059744	2	56
XII	1059744	1059821	2	77
XII	1059821	1060299	4	478
XII	1060299	1060426	4	127
XII	1060426	1060455	5	29
XII	1060455	1060534	5	79
XII	1060534	1060658	4	124
XII	1060658	1060813	2	155
XII	1060813	1060941	1	128
XII	1060941	1060984	2	43
XII	1060984	1061019	3	35
XII	1061019	1061083	5	64
XII	1061083	1061146	3	63
XII	1061146	1061196	4	50
XII	1061196	1061236	4	40
XII	1061236	1061283	2	47
XII	1061283	1061309	2	26
XII	1061309	1061347	2	38
XII	1061347	1061412	2	65
XII	1061412	1061464	2	52
XII	1061464	1061562	4	98
XII	1061562	1061649	3	87
XII	1061649	1061780	8	134
XII	1061780	1062017	3	237
XII	1062017	1062082	6	65
XII	1062082	1062099	4	77
XII	1062099	1062136	4	37
XII	1062136	1062239	4	103
XII	1062239	1062286	6	47
XII	1062286	1062362	7	77
XII	1062362	1062429	2	68
XII	1062429	1062497	2	70
XII	1062497	1062558	4	63
XII	1062558	1062620	5	64
XII	1062620	1062647	5	27
XII	1062647	1062764	1	117
XII	1062764	1062782	5	18
XII	1062782	1062994	1	212
XII	1062994	1063089	3	95
XII	1063089	1063374	1	285
XII	1063374	1063458	4	84
XII	1063458	1063480	4	22
XII	1063480	1063546	2	66
XII	1063546	1063585	6	39
XII	1063585	1063598	6	13
XII	1063598	1063722	3	124
XII	1063722	1063779	5	57
XII	1063779	1063810	8	32
XII	1063810	1063854	8	44
XII	1063854	1063992	9	190
XII	1063992	1064106	6	115
XII	1064106	1064164	5	58
XII	1064164	1064201	6	37
XII	1064201	1064244	7	43
XII	1064244	1064293	7	49
XII	1064293	1064336	3	43
XII	1064336	1064379	4	43
XII	1064379	1064430	5	51
XII	1064430	1064513	5	83
XII	1064513	1064542	6	29
XII	1064542	1064588	7	54
XII	1064588	1064604	2	32
XII	1064604	1064662	7	60
XII	1064662	1064695	7	33
XII	1064695	1064733	8	39
XII	1064733	1064770	4	38
XII	1064770	1064815	5	45
XII	1064815	1064890	4	77
XII	1064890	1064943	3	53
XII	1064943	1065021	4	80
XII	1065021	1071702	1	6681
XII	1071702	1072073	2	371
XII	1072073	1078177	1	6104
XV	0	6	4	6
XV	6	44	5	39
XV	44	58	5	41
XV	58	115	6	62
XV	115	143	6	30
XV	143	206	6	63
XV	206	228	7	22
XV	228	243	8	38
XV	243	321	2	156
XV	321	346	5	25
XV	346	403	4	57
XV	403	422	5	46
XV	422	459	6	38
XV	459	530	8	72
XV	530	548	6	18
XV	548	642	5	96
XV	642	697	4	55
XV	697	732	4	36
XV	732	819	6	87
XV	819	843	6	24
XV	843	858	3	53
XV	858	929	4	71
XV	929	1004	6	75
XV	1004	1037	4	33
XV	1037	1088	6	51
XV	1088	1099	6	11
XV	1099	1827	2	728
XV	1827	1884	2	57
XV	1884	1955	4	71
XV	1955	2002	4	47
XV	2002	2057	9	55
XV	2057	2131	8	74
XV	2131	2451	3	320
XV	2451	2492	4	41
XV	2492	2886	8	395
XV	2886	3274	9	399
XV	3274	11058	8	8105
XV	11058	11164	2	106
XV	11164	11234	7	70
XV	11234	11300	6	66
XV	11300	11362	9	63
XV	11362	11426	6	64
XV	11426	11455	3	29
XV	11455	11481	7	26
XV	11481	11524	3	43
XV	11524	11549	4	25
XV	11549	11669	3	120
XV	11669	11704	2	35
XV	11704	11746	2	42
XV	11746	11838	3	92
XV	11838	11879	3	41
XV	11879	22521	9	10680
XV	22521	22584	9	63
XV	22584	22631	7	47
XV	22631	22661	2	60
XV	22661	22905	4	304
XV	22905	23710	5	805
XV	23710	23799	6	89
XV	23799	23856	3	57
XV	23856	24045	2	189
XV	24045	25488	9	1483
XV	25488	25647	4	159
XV	25647	26160	7	573
XV	26160	26240	7	80
XV	26240	26417	9	177
XV	26417	26774	9	488
XV	26774	26922	9	148
XV	26922	26985	8	63
XV	26985	27470	9	489
XV	27470	45676	9	18389
XV	45676	45724	8	48
XV	45724	113687	9	68452
XV	113687	117689	9	4015
XV	117689	123615	1	5926
XV	123615	216906	9	93357
XV	216906	226777	9	9910
XV	226777	226840	7	63
XV	226840	226907	6	67
XV	226907	226978	8	71
XV	226978	227063	9	126
XV	227063	227083	9	29
XV	227083	227289	9	223
XV	227289	227334	9	46
XV	227334	227340	6	57
XV	227340	227405	6	150
XV	227405	227441	7	126
XV	227441	269717	9	42450
XV	269717	269754	8	135
XV	269754	282054	9	12301
XV	282054	464386	9	183137
XV	464386	571946	9	107626
XV	571946	575097	9	3153
XV	575097	594696	9	19608
XV	594696	594824	9	128
XV	594824	594882	3	58
XV	594882	595164	1	288
XV	595164	595213	4	49
XV	595213	595245	7	32
XV	595245	595281	4	36
XV	595281	595372	6	91
XV	595372	595422	7	50
XV	595422	595608	7	197
XV	595608	595670	4	63
XV	595670	595724	8	56
XV	595724	595784	9	60
XV	595784	595827	7	43
XV	595827	595891	5	64
XV	595891	595911	8	20
XV	595911	595984	7	75
XV	595984	596047	6	63
XV	596047	596070	7	23
XV	596070	596110	5	44
XV	596110	596150	6	40
XV	596150	596194	7	49
XV	596194	596266	6	72
XV	596266	596314	7	48
XV	596314	596455	7	141
XV	596455	596518	6	113
XV	596518	596549	7	31
XV	596549	596626	6	77
XV	596626	596686	9	60
XV	596686	596749	7	63
XV	596749	596771	7	22
XV	596771	596834	6	63
XV	596834	596928	4	94
XV	596928	597076	6	148
XV	597076	597139	5	63
XV	597139	597494	7	355
XV	597494	597557	7	63
XV	597557	597589	8	32
XV	597589	597677	8	88
XV	597677	598381	9	916
XV	598381	598441	3	63
XV	598441	598487	4	46
XV	598487	598570	5	83
XV	598570	598672	3	102
XV	598672	598739	7	67
XV	598739	598814	5	75
XV	598814	598878	5	64
XV	598878	598900	3	22
XV	598900	598923	8	23
XV	598923	598986	5	63
XV	598986	599051	5	65
XV	599051	599275	3	224
XV	599275	599344	7	69
XV	599344	599408	6	64
XV	599408	599465	4	57
XV	599465	599575	3	110
XV	599575	599680	4	105
XV	599680	599744	8	64
XV	599744	599807	7	63
XV	599807	599875	5	68
XV	599875	599939	7	64
XV	599939	600002	5	63
XV	600002	600264	5	262
XV	600264	600333	6	69
XV	600333	600361	8	28
XV	600361	600391	8	37
XV	600391	600425	6	34
XV	600425	600466	5	41
XV	600466	600575	6	115
XV	600575	600672	5	97
XV	600672	600742	7	74
XV	600742	664808	9	64110
XV	664808	665146	1	338
XV	665146	703788	9	38711
XV	703788	703833	9	45
XV	703833	703954	5	121
XV	703954	704039	6	85
XV	704039	704063	8	24
XV	704063	709964	1	5901
XV	709964	710028	3	64
XV	710028	710091	8	63
XV	710091	854270	9	144330
XV	854270	854771	9	501
XV	854771	970285	9	115683
XV	970285	976257	1	5972
XV	976257	980259	9	4559
XV	980259	980321	3	62
XV	980321	980421	2	100
XV	980421	980530	1	109
XV	980530	980591	3	61
XV	980591	1037786	9	57291
XV	1037786	1069915	9	32238
XV	1069915	1070455	9	542
XV	1070455	1070550	7	95
XV	1070550	1070613	5	63
XV	1070613	1070901	6	288
XV	1070901	1070964	9	63
XV	1070964	1072242	9	1278
XV	1072242	1073306	3	1065
XV	1073306	1074097	1	791
XV	1074097	1074213	4	116
XV	1074213	1077951	1	3738
XV	1077951	1078123	2	172
XV	1078123	1084290	1	6168
XV	1084290	1084381	4	106
XV	1084381	1084459	6	78
XV	1084459	1084555	7	99
XV	1084555	1084581	7	26
XV	1084581	1084614	8	33
XV	1084614	1091291	1	6677
I	0	892	1	892
I	892	1012	4	120
I	1012	1208	1	196
I	1208	1227	2	74
I	1227	1359	1	132
I	1359	1469	2	110
I	1469	1710	1	241
I	1710	1744	9	44
I	1744	2122	1	378
I	2122	2531	9	416
I	2531	2588	8	70
I	2588	2645	5	57
I	2645	6739	8	4116
I	6739	11743	9	5245
I	11743	11806	5	63
I	11806	12247	4	441
I	12247	12419	2	172
I	12419	12451	2	32
I	12451	12505	4	54
I	12505	12561	6	56
I	12561	12586	7	25
I	12586	12641	3	55
I	12641	12674	2	156
I	12674	12763	6	89
I	12763	12808	8	45
I	12808	12835	5	27
I	12835	12964	1	129
I	12964	13021	2	110
I	13021	13029	2	58
I	13029	13141	1	112
I	13141	13145	3	50
I	13145	13176	1	31
I	13176	13234	2	60
I	13234	13268	3	34
I	13268	13332	7	64
I	13332	24209	1	10877
I	24209	24272	4	63
I	24272	24476	3	204
I	24476	24689	4	213
I	24689	24885	4	196
I	24885	24904	5	39
I	24904	24940	4	145
I	24940	25000	6	60
I	25000	25063	5	66
I	25063	25246	6	183
I	25246	25310	1	64
I	25310	25393	8	83
I	25393	25455	9	62
I	25455	25518	8	63
I	25518	25560	4	42
I	25560	25793	1	233
I	25793	25812	5	19
I	25812	26825	1	1013
I	26825	27108	7	303
I	27108	27185	7	77
I	27185	27216	8	31
I	27216	139764	9	112766
I	139764	160114	9	20408
I	160114	160191	7	77
I	160191	160237	1	46
I	160237	160299	6	62
I	160299	166105	1	5806
I	166105	181052	9	14965
I	181052	182601	9	1594
I	182601	182679	3	79
I	182679	182859	2	181
I	182859	182897	5	38
I	182897	182979	7	85
I	182979	183110	7	131
I	183110	183157	5	47
I	183157	183202	4	45
I	183202	183239	4	38
I	183239	183399	5	221
I	183399	183562	9	163
I	183562	186406	4	3219
I	186406	187134	5	734
I	187134	198707	9	11869
I	198707	204295	9	5939
I	204295	204346	5	51
I	204346	204397	7	51
I	204397	204419	6	22
I	204419	204464	5	46
I	204464	204484	8	20
I	204484	204820	9	635
I	204820	204902	3	155
I	204902	204961	4	59
I	204961	206522	1	1561
I	206522	206590	4	68
I	206590	206721	1	131
I	206721	206811	7	140
I	206811	206817	7	31
I	206817	206877	7	60
I	206877	207011	5	134
I	207011	207037	7	26
I	207037	207064	6	27
I	207064	207127	4	63
I	207127	207777	1	650
I	207777	207806	3	29
I	207806	207840	5	34
I	207840	207974	1	134
I	207974	208037	6	63
I	208037	218752	9	10779
I	218752	218793	4	41
I	218793	218914	5	121
I	218914	218957	4	43
I	218957	218994	8	37
I	218994	219024	9	30
I	219024	219049	9	25
I	219049	219132	9	83
I	219132	219324	9	192
I	219324	223160	8	3847
I	223160	225097	3	1937
I	225097	226776	2	1680
I	226776	227361	1	585
I	227361	227433	8	88
I	227433	227863	6	542
I	227863	228104	4	241
I	228104	228146	4	42
I	228146	228207	5	63
I	228207	228895	7	767
I	228895	230218	1	1323
VII	0	78	2	88
VII	78	251	3	175
VII	251	293	1	42
VII	293	400	9	107
VII	400	437	5	37
VII	437	467	5	31
VII	467	583	1	116
VII	583	716	3	133
VII	716	787	4	71
VII	787	817	3	106
VII	817	864	8	62
VII	864	938	4	121
VII	938	1015	2	77
VII	1015	1188	8	178
VII	1188	1251	3	65
VII	1251	1453	1	202
VII	1453	2333	5	880
VII	2333	4161	9	1829
VII	4161	6072	9	1918
VII	6072	6115	1	44
VII	6115	6242	9	127
VII	6242	6415	1	176
VII	6415	6445	2	30
VII	6445	6776	1	331
VII	6776	6880	4	105
VII	6880	6938	2	58
VII	6938	7017	2	79
VII	7017	7063	7	46
VII	7063	7096	6	33
VII	7096	7214	4	121
VII	7214	7319	8	105
VII	7319	10386	9	3305
VII	10386	10449	6	63
VII	10449	10736	9	291
VII	10736	10799	5	63
VII	10799	10894	7	95
VII	10894	11435	5	543
VII	11435	11498	7	63
VII	11498	74165	9	62811
VII	74165	110782	9	36804
VII	110782	110833	9	60
VII	110833	111698	1	865
VII	111698	121694	9	10026
VII	121694	185766	9	64118
VII	185766	185798	8	32
VII	185798	205508	9	19712
VII	205508	205643	8	221
VII	205643	254655	9	49195
VII	254655	319340	9	64745
VII	319340	319425	9	85
VII	319425	319638	2	218
VII	319638	319760	1	122
VII	319760	327949	9	8328
VII	327949	328142	1	193
VII	328142	328252	3	120
VII	328252	328280	6	28
VII	328280	328540	6	260
VII	328540	328597	2	68
VII	328597	364404	9	35905
VII	364404	364880	4	476
VII	364880	364943	7	63
VII	364943	385762	9	20821
VII	385762	386922	8	1276
VII	386922	401612	9	14757
VII	401612	401661	9	50
VII	401661	401778	9	122
VII	401778	401792	8	36
VII	401792	401804	5	37
VII	401804	401905	8	101
VII	401905	401931	2	37
VII	401931	401958	3	28
VII	401958	402029	5	71
VII	402029	402090	2	61
VII	402090	402170	6	86
VII	402170	402196	4	42
VII	402196	402227	5	31
VII	402227	402293	7	66
VII	402293	405022	1	2729
VII	405022	405181	3	237
VII	405181	405252	4	104
VII	405252	405364	7	112
VII	405364	405408	8	44
VII	405408	405450	9	42
VII	405450	405490	8	41
VII	405490	423081	9	17597
VII	423081	423144	5	63
VII	423144	531689	9	109243
VII	531689	535219	9	3534
VII	535219	541377	1	6158
VII	541377	541621	2	244
VII	541621	541681	5	60
VII	541681	544568	9	2887
VII	544568	561359	9	17082
VII	561359	561397	7	38
VII	561397	561750	9	354
VII	561750	561837	9	87
VII	561837	561904	8	67
VII	561904	567760	1	5856
VII	567760	568735	9	976
VII	568735	574700	1	5965
VII	574700	648467	9	73944
VII	648467	648730	8	400
VII	648730	661596	9	13231
VII	661596	700568	9	38978
VII	700568	701128	9	560
VII	701128	701164	9	36
VII	701164	701227	9	63
VII	701227	707189	9	6100
VII	707189	712545	1	5356
VII	712545	735977	9	24219
VII	735977	736323	1	346
VII	736323	763822	9	27522
VII	763822	779004	9	15200
VII	779004	811440	9	33639
VII	811440	822925	1	11485
VII	822925	823001	7	76
VII	823001	823038	8	37
VII	823038	823323	6	291
VII	823323	823470	9	147
VII	823470	823504	9	34
VII	823504	857626	9	34144
VII	857626	879077	9	21671
VII	879077	882811	9	3751
VII	882811	882874	9	63
VII	882874	883033	7	159
VII	883033	883120	8	87
VII	883120	883186	8	115
VII	883186	883283	8	97
VII	883283	883312	8	29
VII	883312	883346	7	34
VII	883346	883432	7	86
VII	883432	883467	8	35
VII	883467	883633	8	166
VII	883633	931170	9	47577
VII	931170	931545	1	375
VII	931545	931748	9	203
VII	931748	931938	2	190
VII	931938	1000925	9	69237
VII	1000925	1067960	9	67515
VII	1067960	1068218	9	258
VII	1068218	1068407	7	189
VII	1068407	1068485	5	78
VII	1068485	1068535	4	50
VII	1068535	1068806	3	271
VII	1068806	1076129	9	7335
VII	1076129	1080254	9	4126
VII	1080254	1080378	8	124
VII	1080378	1080609	5	231
VII	1080609	1080719	2	110
VII	1080719	1080815	1	96
VII	1080815	1081207	9	392
VII	1081207	1081271	7	64
VII	1081271	1081320	8	49
VII	1081320	1081383	6	63
VII	1081383	1081528	1	145
VII	1081528	1081558	2	30
VII	1081558	1082797	1	1239
VII	1082797	1082880	3	84
VII	1082880	1083547	1	667
VII	1083547	1083599	3	52
VII	1083599	1083664	4	65
VII	1083664	1083687	6	23
VII	1083687	1083748	1	62
VII	1083748	1083798	7	54
VII	1083798	1083870	1	72
VII	1083870	1083925	3	55
VII	1083925	1083961	2	39
VII	1083961	1084000	3	41
VII	1084000	1084047	4	47
VII	1084047	1084116	6	69
VII	1084116	1084173	5	57
VII	1084173	1084196	5	23
VII	1084196	1084257	3	64
VII	1084257	1084393	2	141
VII	1084393	1084998	1	605
VII	1084998	1085042	5	44
VII	1085042	1090940	1	5898
VIII	0	34	3	42
VIII	34	76	4	43
VIII	76	117	3	41
VIII	117	160	2	43
VIII	160	5035	1	4875
VIII	5035	5092	6	57
VIII	5092	5432	1	340
VIII	5432	5480	3	48
VIII	5480	5559	5	79
VIII	5559	5669	1	110
VIII	5669	5720	8	67
VIII	5720	5907	2	249
VIII	5907	5941	4	34
VIII	5941	6005	4	64
VIII	6005	6217	1	212
VIII	6217	6244	8	63
VIII	6244	6329	5	85
VIII	6329	6382	6	53
VIII	6382	6433	5	51
VIII	6433	6505	6	72
VIII	6505	11877	9	5377
VIII	11877	11978	9	105
VIII	11978	12071	7	301
VIII	12071	12115	7	44
VIII	12115	12238	6	123
VIII	12238	12392	7	158
VIII	12392	35294	9	22907
VIII	35294	35797	5	503
VIII	35797	35860	7	63
VIII	35860	85579	9	49914
VIII	85579	85705	6	126
VIII	85705	85745	5	40
VIII	85745	85783	5	38
VIII	85783	85828	5	45
VIII	85828	85902	3	74
VIII	85902	91763	1	5861
VIII	91763	91826	9	63
VIII	91826	92127	8	301
VIII	92127	92270	9	143
VIII	92270	104896	9	12890
VIII	104896	105093	9	270
VIII	105093	116189	9	11267
VIII	116189	116341	9	152
VIII	116341	116513	9	172
VIII	116513	116611	7	101
VIII	116611	116693	6	82
VIII	116693	116752	9	59
VIII	116752	133048	9	16307
VIII	133048	133082	6	34
VIII	133082	133118	8	37
VIII	133118	146335	9	13246
VIII	146335	146391	3	56
VIII	146391	146663	8	352
VIII	146663	175410	9	28763
VIII	175410	175498	8	123
VIII	175498	193036	9	17673
VIII	193036	193119	6	83
VIII	193119	193183	7	64
VIII	193183	194176	9	993
VIII	194176	194299	8	123
VIII	194299	194382	8	135
VIII	194382	194445	9	63
VIII	194445	194507	9	62
VIII	194507	212265	9	17760
VIII	212265	214262	1	1997
VIII	214262	229544	9	15285
VIII	229544	229607	8	63
VIII	229607	230017	5	410
VIII	230017	358538	9	128845
VIII	358538	358571	7	33
VIII	358571	388932	9	30588
VIII	388932	388979	3	47
VIII	388979	389011	4	32
VIII	389011	389044	4	33
VIII	389044	389127	5	98
VIII	389127	389187	5	66
VIII	389187	389210	4	33
VIII	389210	389291	6	84
VIII	389291	389322	5	34
VIII	389322	389391	7	70
VIII	389391	451325	9	62127
VIII	451325	475795	9	24583
VIII	475795	475930	9	135
VIII	475930	504479	9	28552
VIII	504479	526012	9	21587
VIII	526012	526269	8	268
VIII	526269	526332	9	63
VIII	526332	526416	9	86
VIII	526416	526452	7	36
VIII	526452	526523	6	71
VIII	526523	526597	6	74
VIII	526597	526678	5	81
VIII	526678	526708	5	30
VIII	526708	526752	5	44
VIII	526752	526812	7	60
VIII	526812	526867	7	55
VIII	526867	526891	6	24
VIII	526891	527017	9	142
VIII	527017	527044	9	27
VIII	527044	527125	9	81
VIII	527125	527173	9	51
VIII	527173	527202	9	29
VIII	527202	527238	7	36
VIII	527238	527259	8	21
VIII	527259	527291	7	32
VIII	527291	527368	8	80
VIII	527368	527467	9	257
VIII	527467	527579	7	112
VIII	527579	527760	7	260
VIII	527760	527966	9	206
VIII	527966	528169	8	203
VIII	528169	528380	9	294
VIII	528380	528443	8	63
VIII	528443	528577	9	134
VIII	528577	528640	3	63
VIII	528640	528705	4	67
VIII	528705	539291	1	10586
VIII	539291	539395	2	104
VIII	539395	539453	2	58
VIII	539453	539537	2	84
VIII	539537	539559	6	27
VIII	539559	539617	7	59
VIII	539617	539660	5	43
VIII	539660	539685	6	25
VIII	539685	539734	4	49
VIII	539734	539868	3	254
VIII	539868	539926	2	58
VIII	539926	543591	6	3673
VIII	543591	549627	1	6036
VIII	549627	549772	6	148
VIII	549772	553415	7	3655
VIII	553415	554085	9	670
VIII	554085	554136	6	63
VIII	554136	554167	3	31
VIII	554167	554265	7	98
VIII	554265	554517	5	283
VIII	554517	554758	6	241
VIII	554758	554800	1	42
VIII	554800	554891	3	224
VIII	554891	555620	1	729
VIII	555620	555708	5	429
VIII	555708	555754	7	46
VIII	555754	555817	8	63
VIII	555817	556140	9	664
VIII	556140	556192	8	52
VIII	556192	556224	9	32
VIII	556224	556276	9	52
VIII	556276	556312	7	36
VIII	556312	556336	7	24
VIII	556336	556419	1	83
VIII	556419	556449	6	30
VIII	556449	556476	6	27
VIII	556476	556536	4	65
VIII	556536	556593	6	57
VIII	556593	556643	3	50
VIII	556643	556736	5	94
VIII	556736	556826	3	90
VIII	556826	556921	8	118
VIII	556921	562374	1	5453
VIII	562374	562504	5	135
VIII	562504	562581	3	77
VIII	562581	562643	1	62
XIII	0	10	4	10
XIII	10	46	4	39
XIII	46	114	4	69
XIII	114	181	3	67
XIII	181	194	5	13
XIII	194	5117	1	4923
XIII	5117	5482	2	365
XIII	5482	5538	1	56
XIII	5538	5553	4	32
XIII	5553	5608	3	64
XIII	5608	5630	4	22
XIII	5630	5687	3	57
XIII	5687	5769	1	82
XIII	5769	5852	2	83
XIII	5852	5919	3	67
XIII	5919	5944	3	25
XIII	5944	6061	1	117
XIII	6061	6094	2	33
XIII	6094	6125	4	31
XIII	6125	6153	2	28
XIII	6153	6332	1	179
XIII	6332	6434	2	103
XIII	6434	6940	1	506
XIII	6940	7003	7	64
XIII	7003	7067	9	64
XIII	7067	7879	1	812
XIII	7879	7930	5	51
XIII	7930	7965	2	35
XIII	7965	8058	1	93
XIII	8058	8078	8	20
XIII	8078	8121	5	43
XIII	8121	8162	9	41
XIII	8162	8250	2	175
XIII	8250	8340	5	90
XIII	8340	8397	9	57
XIII	8397	8460	6	63
XIII	8460	95747	9	87334
XIII	95747	132904	9	37392
XIII	132904	168348	9	35450
XIII	168348	168626	1	278
XIII	168626	168649	9	23
XIII	168649	168686	1	37
XIII	168686	183891	9	15224
XIII	183891	184169	9	293
XIII	184169	184230	4	61
XIII	184230	184276	7	46
XIII	184276	184317	6	41
XIII	184317	184365	7	48
XIII	184365	184501	6	136
XIII	184501	184558	6	57
XIII	184558	190083	1	5525
XIII	190083	196331	9	6392
XIII	196331	196375	5	44
XIII	196375	196604	9	229
XIII	196604	196641	8	37
XIII	196641	196674	8	34
XIII	196674	196729	6	55
XIII	196729	196807	6	78
XIII	196807	196874	7	67
XIII	196874	202188	1	5314
XIII	202188	239378	9	37387
XIII	239378	290298	9	51127
XIII	290298	321231	9	31089
XIII	321231	357005	9	35800
XIII	357005	362698	1	5693
XIII	362698	362924	9	237
XIII	362924	372528	9	9604
XIII	372528	372690	9	162
XIII	372690	378621	1	5931
XIII	378621	379349	9	728
XIII	379349	463773	9	84730
XIII	463773	503764	9	40824
XIII	503764	504140	1	376
XIII	504140	600377	9	96624
XIII	600377	600818	8	531
XIII	600818	601763	9	945
XIII	601763	602587	9	824
XIII	602587	602875	9	367
XIII	602875	603019	9	329
XIII	603019	609023	9	6081
XIII	609023	609158	8	375
XIII	609158	609189	9	42
XIII	609189	609224	8	35
XIII	609224	609258	3	34
XIII	609258	609318	6	60
XIII	609318	609381	5	180
XIII	609381	609462	6	81
XIII	609462	609488	6	26
XIII	609488	609609	5	194
XIII	609609	609642	7	33
XIII	609642	609695	5	101
XIII	609695	609746	7	189
XIII	609746	634207	9	24533
XIII	634207	806932	9	173002
XIII	806932	808547	9	1620
XIII	808547	808689	9	166
XIII	808689	808711	6	22
XIII	808711	808763	5	52
XIII	808763	808877	3	149
XIII	808877	808899	7	26
XIII	808899	808920	6	25
XIII	808920	809015	6	97
XIII	809015	837820	9	28811
XIII	837820	908147	9	70495
XIII	908147	908167	9	71
XIII	908167	908219	8	55
XIII	908219	908356	7	173
XIII	908356	908427	8	71
XIII	908427	908503	9	94
XIII	908503	908535	1	32
XIII	908535	908572	9	51
XIII	908572	908638	9	66
XIII	908638	917896	9	9349
XIII	917896	923512	1	5616
XIII	923512	923586	6	74
XIII	923586	923653	1	67
XIII	923653	923681	2	28
XIII	923681	923755	3	74
XIII	923755	923804	8	49
XIII	923804	923884	6	84
XIII	923884	923964	7	80
XIII	923964	924069	2	105
XIII	924069	924127	3	58
XIII	924127	924177	2	50
XIII	924177	924261	3	85
XIII	924261	924301	5	40
XIII	924301	924358	1	57
XIII	924358	924431	2	78
Mito	0	23	8	23
Mito	23	86	5	63
Mito	86	291	8	388
Mito	291	302	9	63
Mito	302	694	8	699
Mito	694	1057	5	369
Mito	1057	1228	8	717
Mito	1228	1291	4	63
Mito	1291	1336	6	45
Mito	1336	1399	4	63
Mito	1399	1506	8	108
Mito	1506	1534	6	28
Mito	1534	1569	5	35
Mito	1569	1626	9	57
Mito	1626	1681	2	55
Mito	1681	1746	3	65
Mito	1746	1880	8	134
Mito	1880	1988	3	108
Mito	1988	2089	1	101
Mito	2089	2128	5	39
Mito	2128	2207	1	79
Mito	2207	2308	3	101
Mito	2308	2390	1	82
Mito	2390	2527	3	137
Mito	2527	2639	2	112
Mito	2639	2662	3	23
Mito	2662	2757	4	103
Mito	2757	2839	3	82
Mito	2839	2924	3	99
Mito	2924	3160	3	294
Mito	3160	3202	5	71
Mito	3202	3431	7	488
Mito	3431	4660	8	1791
Mito	4660	10926	9	15119
Mito	10926	11150	2	224
Mito	11150	11521	6	610
Mito	11521	11582	7	62
Mito	11582	11698	6	116
Mito	11698	11742	6	233
Mito	11742	12126	6	586
Mito	12126	12232	7	287
Mito	12232	12438	8	432
Mito	12438	12466	9	184
Mito	12466	12594	8	130
Mito	12594	12754	9	164
Mito	12754	12765	8	51
Mito	12765	12796	7	31
Mito	12796	13119	7	619
Mito	13119	13166	6	47
Mito	13166	13179	3	63
Mito	13179	13230	8	63
Mito	13230	13306	9	163
Mito	13306	13321	7	40
Mito	13321	13379	8	293
Mito	13379	13398	8	25
Mito	13398	13424	7	48
Mito	13424	13459	8	37
Mito	13459	13536	7	80
Mito	13536	13590	6	81
Mito	13590	13648	7	168
Mito	13648	13678	8	36
Mito	13678	13719	6	101
Mito	13719	13756	5	141
Mito	13756	13860	6	231
Mito	13860	13883	7	31
Mito	13883	13918	6	105
Mito	13918	13930	5	238
Mito	13930	13986	6	56
Mito	13986	14877	9	993
Mito	14877	14959	9	83
Mito	14959	15064	9	105
Mito	15064	15180	9	116
Mito	15180	15345	9	186
Mito	15345	15375	9	30
Mito	15375	15487	9	180
Mito	15487	15556	9	69
Mito	15556	15620	9	67
Mito	15620	15659	9	39
Mito	15659	15706	9	47
Mito	15706	15731	9	25
Mito	15731	15794	9	63
Mito	15794	15971	9	181
Mito	15971	16049	9	78
Mito	16049	16470	9	442
Mito	16470	17402	1	932
Mito	17402	17424	2	22
Mito	17424	17506	1	82
Mito	17506	17611	2	105
Mito	17611	17671	1	60
Mito	17671	17727	2	56
Mito	17727	17901	1	174
Mito	17901	17931	2	30
Mito	17931	17983	3	52
Mito	17983	18049	3	66
Mito	18049	18088	2	39
Mito	18088	18152	1	64
Mito	18152	18190	2	38
Mito	18190	18213	2	23
Mito	18213	18278	2	65
Mito	18278	18521	1	243
Mito	18521	18551	2	30
Mito	18551	18953	1	402
Mito	18953	19052	6	104
Mito	19052	19469	5	438
Mito	19469	20570	4	1314
Mito	20570	20910	4	340
Mito	20910	21002	2	92
Mito	21002	21224	3	222
Mito	21224	21855	4	696
Mito	21855	21913	7	82
Mito	21913	21994	5	106
Mito	21994	22063	6	69
Mito	22063	22275	9	287
Mito	22275	22369	9	220
Mito	22369	22417	8	51
Mito	22417	22457	8	40
Mito	22457	22567	9	110
Mito	22567	22634	9	67
Mito	22634	22708	9	116
Mito	22708	22906	9	198
Mito	22906	24211	9	3450
Mito	24211	24396	7	185
Mito	24396	24451	7	55
Mito	24451	24514	7	63
Mito	24514	24566	7	52
Mito	24566	24614	9	104
Mito	24614	24685	7	73
Mito	24685	25521	7	1357
Mito	25521	27529	9	3963
Mito	27529	27584	6	55
Mito	27584	27661	2	77
Mito	27661	27855	2	194
Mito	27855	28146	5	531
Mito	28146	28189	3	43
Mito	28189	28223	4	34
Mito	28223	28248	2	30
Mito	28248	28263	2	93
Mito	28263	28332	4	81
Mito	28332	28378	5	47
Mito	28378	28534	6	164
Mito	28534	28594	6	60
Mito	28594	28699	6	105
Mito	28699	28762	6	63
Mito	28762	29741	5	992
Mito	29741	29835	6	203
Mito	29835	29845	5	34
Mito	29845	30049	6	364
Mito	30049	30115	5	75
Mito	30115	30175	6	338
Mito	30175	30220	5	45
Mito	30220	30296	7	78
Mito	30296	30512	5	219
Mito	30512	30554	7	42
Mito	30554	30582	4	128
Mito	30582	30719	6	139
Mito	30719	31376	5	871
Mito	31376	31391	6	21
Mito	31391	31495	6	163
Mito	31495	31556	6	66
Mito	31556	31642	6	90
Mito	31642	31677	6	64
Mito	31677	34999	6	6177
Mito	34999	35062	5	63
Mito	35062	35188	3	167
Mito	35188	35258	2	70
Mito	35258	35291	8	38
Mito	35291	35406	5	117
Mito	35406	35511	2	105
Mito	35511	35624	3	119
Mito	35624	35860	2	243
Mito	35860	35960	6	110
Mito	35960	36039	2	79
Mito	36039	36252	5	213
Mito	36252	36386	2	147
Mito	36386	36482	7	117
Mito	36482	36745	2	273
Mito	36745	36864	7	176
Mito	36864	37320	2	456
Mito	37320	37374	5	82
Mito	37374	37396	8	42
Mito	37396	37485	9	103
Mito	37485	37696	7	244
Mito	37696	37746	9	79
Mito	37746	37797	8	82
Mito	37797	37815	9	331
Mito	37815	37907	7	414
Mito	37907	37982	9	135
Mito	37982	38089	8	175
Mito	38089	38252	9	241
Mito	38252	38443	9	367
Mito	38443	39361	9	1625
Mito	39361	39461	5	100
Mito	39461	39567	2	106
Mito	39567	39818	9	364
Mito	39818	39890	8	492
Mito	39890	41544	9	2069
Mito	41544	41566	8	35
Mito	41566	41666	7	388
Mito	41666	41728	7	88
Mito	41728	41900	9	175
Mito	41900	41971	9	130
Mito	41971	41988	8	34
Mito	41988	42077	9	155
Mito	42077	42181	9	230
Mito	42181	42224	9	58
Mito	42224	42280	9	100
Mito	42280	42353	9	81
Mito	42353	42647	9	438
Mito	42647	42789	9	161
Mito	42789	42905	9	137
Mito	42905	43081	8	183
Mito	43081	43207	8	159
Mito	43207	43881	7	1404
Mito	43881	43919	8	47
Mito	43919	43958	7	72
Mito	43958	44049	8	119
Mito	44049	44572	7	759
Mito	44572	44618	9	63
Mito	44618	44710	7	127
Mito	44710	44774	9	74
Mito	44774	44939	7	245
Mito	44939	45024	8	327
Mito	45024	45144	7	138
Mito	45144	45503	7	806
Mito	45503	45596	7	336
Mito	45596	45736	6	264
Mito	45736	45786	8	89
Mito	45786	46260	7	986
Mito	46260	46306	8	340
Mito	46306	46715	6	674
Mito	46715	46772	7	97
Mito	46772	46831	6	133
Mito	46831	46893	6	271
Mito	46893	46916	7	63
Mito	46916	46994	6	158
Mito	46994	48270	5	1903
Mito	48270	48305	6	69
Mito	48305	48686	7	717
Mito	48686	48739	6	61
Mito	48739	48975	5	312
Mito	48975	49522	6	859
Mito	49522	49724	5	277
Mito	49724	50131	6	625
Mito	50131	50162	5	47
Mito	50162	50184	6	27
Mito	50184	50257	5	189
Mito	50257	50365	7	265
Mito	50365	50964	5	705
Mito	50964	51150	6	211
Mito	51150	51873	5	943
Mito	51873	51909	6	136
Mito	51909	52026	6	155
Mito	52026	52137	5	113
Mito	52137	52174	7	42
Mito	52174	52636	6	1002
Mito	52636	53603	7	1272
Mito	53603	54302	6	916
Mito	54302	54415	6	143
Mito	54415	54504	6	98
Mito	54504	54534	4	38
Mito	54534	54584	4	67
Mito	54584	54643	5	80
Mito	54643	54670	5	41
Mito	54670	54990	4	376
Mito	54990	55208	5	350
Mito	55208	55941	2	863
Mito	55941	56004	3	63
Mito	56004	56135	4	131
Mito	56135	56409	2	277
Mito	56409	56767	8	360
Mito	56767	56812	7	46
Mito	56812	57516	8	1002
Mito	57516	58030	9	878
Mito	58030	58196	9	195
Mito	58196	58289	9	1044
Mito	58289	58323	9	34
Mito	58323	60723	9	4444
Mito	60723	61074	7	681
Mito	61074	61117	6	75
Mito	61117	61183	8	111
Mito	61183	61598	9	661
Mito	61598	61704	8	231
Mito	61704	61795	9	113
Mito	61795	61866	6	188
Mito	61866	62190	9	400
Mito	62190	62302	6	158
Mito	62302	62341	2	39
Mito	62341	62367	3	26
Mito	62367	62432	3	65
Mito	62432	62487	6	68
Mito	62487	62666	3	189
Mito	62666	62741	6	176
Mito	62741	62785	6	45
Mito	62785	62817	8	54
Mito	62817	63070	2	316
Mito	63070	63125	7	55
Mito	63125	63158	7	34
Mito	63158	63269	6	145
Mito	63269	63284	8	17
Mito	63284	63322	6	82
Mito	63322	63394	8	78
Mito	63394	63713	9	319
Mito	63713	64030	9	324
Mito	64030	64173	2	143
Mito	64173	64211	5	38
Mito	64211	64249	8	38
Mito	64249	64301	6	52
Mito	64301	64405	8	140
Mito	64405	64517	9	192
Mito	64517	64550	8	43
Mito	64550	64689	9	175
Mito	64689	64827	8	374
Mito	64827	64924	9	104
Mito	64924	65364	7	901
Mito	65364	65386	8	36
Mito	65386	65488	8	333
Mito	65488	65514	7	77
Mito	65514	65608	8	136
Mito	65608	65623	8	43
Mito	65623	65766	7	377
Mito	65766	65878	9	223
Mito	65878	65951	9	89
Mito	65951	66011	8	66
Mito	66011	66278	9	582
Mito	66278	66326	8	86
Mito	66326	66454	7	314
Mito	66454	66520	6	307
Mito	66520	66548	8	32
Mito	66548	66580	7	51
Mito	66580	66818	7	331
Mito	66818	66879	7	79
Mito	66879	66977	9	106
Mito	66977	67152	7	490
Mito	67152	67263	9	220
Mito	67263	67332	7	437
Mito	67332	67407	8	140
Mito	67407	67737	9	450
Mito	67737	67800	2	63
Mito	67800	67935	4	136
Mito	67935	68070	5	152
Mito	68070	68196	5	127
Mito	68196	68893	7	1077
Mito	68893	68978	8	358
Mito	68978	69146	7	195
Mito	69146	69193	8	59
Mito	69193	69256	8	125
Mito	69256	71356	8	4608
Mito	71356	71427	9	75
Mito	71427	71509	8	481
Mito	71509	71589	7	126
Mito	71589	71657	8	74
Mito	71657	71659	2	51
Mito	71659	71696	8	37
Mito	71696	71799	9	122
Mito	71799	71848	6	49
Mito	71848	73471	8	3206
Mito	73471	73503	6	32
Mito	73503	73521	7	24
Mito	73521	73584	6	77
Mito	73584	73620	9	48
Mito	73620	73683	9	68
Mito	73683	73818	9	136
Mito	73818	75032	9	1882
Mito	75032	75124	9	92
Mito	75124	75298	9	186
Mito	75298	75379	9	138
Mito	75379	75420	9	41
Mito	75420	76374	8	1154
Mito	76374	76418	4	51
Mito	76418	77311	8	2303
Mito	77311	77354	7	61
Mito	77354	77417	6	63
Mito	77417	77480	5	63
Mito	77480	77530	8	50
Mito	77530	77586	6	56
Mito	77586	77633	6	71
Mito	77633	78030	9	443
Mito	78030	78260	9	231
Mito	78260	78389	8	613
Mito	78389	78532	9	143
Mito	78532	78609	9	77
Mito	78609	78668	8	63
Mito	78668	78689	6	1205
Mito	78689	78831	7	147
Mito	78831	78860	3	29
Mito	78860	78884	3	24
Mito	78884	78918	4	80
Mito	78918	79142	4	226
Mito	79142	79164	6	26
Mito	79164	79190	7	27
Mito	79190	79296	6	106
Mito	79296	79935	5	639
Mito	79935	79956	8	28
Mito	79956	79996	7	49
Mito	79996	80024	8	53
Mito	80024	80223	6	201
Mito	80223	80286	7	63
Mito	80286	80444	6	159
Mito	80444	80496	6	54
Mito	80496	80631	9	177
Mito	80631	80916	7	1067
Mito	80916	80993	8	107
Mito	80993	81185	7	206
Mito	81185	81286	8	294
Mito	81286	81639	9	555
Mito	81639	81807	7	361
Mito	81807	81923	9	272
Mito	81923	82057	6	315
Mito	82057	82162	7	133
Mito	82162	82328	6	167
Mito	82328	82534	7	348
Mito	82534	82581	6	47
Mito	82581	82656	6	174
Mito	82656	82947	8	747
Mito	82947	82971	9	26
Mito	82971	83103	8	141
Mito	83103	83143	9	40
Mito	83143	83744	8	811
Mito	83744	84424	7	754
Mito	84424	84857	8	593
Mito	84857	84895	8	38
Mito	84895	84917	7	57
Mito	84917	84960	5	43
Mito	84960	85026	5	77
Mito	85026	85089	6	153
Mito	85089	85152	8	63
Mito	85152	85463	9	312
Mito	85463	85524	9	61
Mito	85524	85563	7	39
Mito	85563	85703	2	140
Mito	85703	85730	2	27
Mito	85730	85779	8	49
III	0	6	6	6
III	6	55	6	69
III	55	70	5	34
III	70	128	7	68
III	128	195	7	78
III	195	251	7	62
III	251	272	2	21
III	272	304	7	35
III	304	361	8	67
III	361	386	7	28
III	386	441	7	56
III	441	476	3	35
III	476	548	4	72
III	548	667	1	119
III	667	722	3	55
III	722	813	1	91
III	813	862	5	49
III	862	1006	1	144
III	1006	1045	3	39
III	1045	1086	7	41
III	1086	1197	9	112
III	1197	1429	9	232
III	1429	4042	8	2613
III	4042	4071	9	29
III	4071	4140	8	70
III	4140	6181	9	2060
III	6181	6251	9	70
III	6251	6273	9	22
III	6273	6337	9	64
III	6337	6401	9	64
III	6401	6445	9	44
III	6445	8354	9	1909
III	8354	8464	9	170
III	8464	8594	3	130
III	8594	9131	1	537
III	9131	9193	4	62
III	9193	9247	2	54
III	9247	11218	1	1971
III	11218	12301	9	1083
III	12301	12333	1	32
III	12333	12880	8	547
III	12880	13753	9	873
III	13753	13869	1	117
III	13869	13932	2	153
III	13932	13954	9	22
III	13954	84365	9	70937
III	84365	84445	3	80
III	84445	84564	2	120
III	84564	90705	1	6141
III	90705	90921	8	284
III	90921	124131	9	33345
III	124131	124194	8	63
III	124194	124269	8	343
III	124269	124404	1	135
III	124404	149547	9	25445
III	149547	149651	9	105
III	149651	149721	8	70
III	149721	149745	8	24
III	149745	149928	9	183
III	149928	151520	9	1842
III	151520	151562	9	42
III	151562	151723	8	311
III	151723	168383	9	17538
III	168383	169068	2	708
III	169068	169418	9	350
III	169418	169544	1	126
III	169544	199463	9	30021
III	199463	199495	4	32
III	199495	200850	1	1355
III	200850	200977	6	127
III	200977	201017	8	40
III	201017	201080	9	63
III	201080	201128	9	48
III	201128	201172	9	44
III	201172	268681	9	67790
III	268681	268744	8	113
III	268744	268808	7	84
III	268808	268933	9	125
III	268933	269008	8	75
III	269008	269063	5	55
III	269063	269113	3	100
III	269113	293094	9	24519
III	293094	293126	9	32
III	293126	293188	9	62
III	293188	293673	8	485
III	293673	294378	9	705
III	294378	294545	5	167
III	294545	294952	9	407
III	294952	295475	9	628
III	295475	295498	3	23
III	295498	296949	9	1678
III	296949	303766	9	6898
III	303766	303967	9	201
III	303967	304030	9	85
III	304030	304072	5	84
III	304072	304092	6	426
III	304092	304322	9	231
III	304322	304402	9	81
III	304402	305236	9	834
III	305236	305499	9	263
III	305499	305560	9	61
III	305560	305626	9	66
III	305626	305651	9	25
III	305651	305689	9	38
III	305689	305770	8	162
III	305770	305870	9	100
III	305870	305913	9	43
III	305913	306014	9	101
III	306014	306079	9	65
III	306079	306143	9	64
III	306143	306198	8	55
III	306198	306253	8	55
III	306253	306387	6	234
III	306387	306532	7	145
III	306532	306560	8	28
III	306560	306625	7	65
III	306625	306860	6	256
III	306860	307080	7	220
III	307080	307104	7	32
III	307104	307167	4	65
III	307167	307240	6	74
III	307240	307387	9	159
III	307387	307430	8	43
III	307430	307489	9	59
III	307489	307645	9	158
III	307645	307670	9	25
III	307670	307763	9	93
III	307763	307922	8	159
III	307922	307979	7	57
III	307979	308049	8	70
III	308049	308084	9	35
III	308084	308115	7	31
III	308115	311079	9	2966
III	311079	311120	5	41
III	311120	311183	6	63
III	311183	311440	5	257
III	311440	311503	7	63
III	311503	314570	9	3067
III	314570	314625	1	55
III	314625	314737	8	338
III	314737	315552	9	815
III	315552	315584	7	32
III	315584	315620	7	36
III	315620	315712	9	93
III	315712	315850	8	139
III	315850	315897	6	47
III	315897	316001	8	104
III	316001	316042	9	71
III	316042	316088	1	46
III	316088	316159	6	72
III	316159	316201	3	44
III	316201	316264	4	63
III	316264	316307	6	149
III	316307	316389	5	83
III	316389	316449	7	60
III	316449	316472	8	23
III	316472	316526	8	68
III	316526	316575	6	61
III	316575	316609	4	36
III	316609	316620	4	11
XVI	0	1167	1	1167
XVI	1167	1187	7	20
XVI	1187	1337	2	150
XVI	1337	1401	7	64
XVI	1401	1464	3	63
XVI	1464	1524	1	60
XVI	1524	1555	2	110
XVI	1555	1771	1	216
XVI	1771	1846	4	75
XVI	1846	5337	1	3491
XVI	5337	5400	2	63
XVI	5400	5464	5	64
XVI	5464	5828	1	364
XVI	5828	5925	3	97
XVI	5925	6010	3	85
XVI	6010	6126	2	117
XVI	6126	6356	5	230
XVI	6356	6472	4	117
XVI	6472	6524	2	52
XVI	6524	6578	3	55
XVI	6578	6626	4	48
XVI	6626	6674	4	48
XVI	6674	6757	5	83
XVI	6757	6805	4	48
XVI	6805	6846	2	54
XVI	6846	6897	3	52
XVI	6897	7302	8	426
XVI	7302	7369	8	67
XVI	7369	7410	4	41
XVI	7410	8037	9	629
XVI	8037	8208	2	171
XVI	8208	8260	2	52
XVI	8260	8281	7	21
XVI	8281	8690	4	410
XVI	8690	8753	5	63
XVI	8753	9365	4	612
XVI	9365	9525	5	160
XVI	9525	9587	5	62
XVI	9587	13304	6	3724
XVI	13304	14770	7	1466
XVI	14770	14825	8	55
XVI	14825	17549	8	3015
XVI	17549	18422	4	875
XVI	18422	18629	9	207
XVI	18629	22957	9	4329
XVI	22957	56228	9	33279
XVI	56228	56350	6	122
XVI	56350	56374	7	24
XVI	56374	56408	6	34
XVI	56408	56512	7	104
XVI	56512	56555	8	44
XVI	56555	56587	5	32
XVI	56587	56725	6	138
XVI	56725	56788	8	63
XVI	56788	62712	1	5924
XVI	62712	62736	6	24
XVI	62736	62776	1	40
XVI	62776	62871	3	95
XVI	62871	62912	1	41
XVI	62912	63019	2	107
XVI	63019	63068	4	49
XVI	63068	63096	6	31
XVI	63096	63976	7	889
XVI	63976	96760	9	32844
XVI	96760	135804	9	39081
XVI	135804	174093	9	38299
XVI	174093	174569	6	476
XVI	174569	174632	9	63
XVI	174632	376242	9	202115
XVI	376242	376469	9	227
XVI	376469	376532	9	63
XVI	376532	377204	9	672
XVI	377204	377330	9	126
XVI	377330	436320	9	59030
XVI	436320	436488	8	169
XVI	436488	436531	3	43
XVI	436531	436587	4	57
XVI	436587	443138	1	6551
XVI	443138	443356	8	218
XVI	443356	560542	9	117425
XVI	560542	560669	2	133
XVI	560669	560718	5	49
XVI	560718	560751	4	33
XVI	560751	572102	9	11351
XVI	572102	572345	1	243
XVI	572345	622592	9	50265
XVI	622592	622636	8	44
XVI	622636	689584	9	66999
XVI	689584	700593	9	11010
XVI	700593	744084	9	43845
XVI	744084	744262	9	178
XVI	744262	769256	9	24994
XVI	769256	769386	9	130
XVI	769386	769457	8	80
XVI	769457	769539	9	82
XVI	769539	769598	8	59
XVI	769598	769661	7	63
XVI	769661	804645	9	35432
XVI	804645	810454	1	5809
XVI	810454	810568	9	114
XVI	810568	837966	9	27584
XVI	837966	844405	9	6439
XVI	844405	850339	1	5934
XVI	850339	850637	9	298
XVI	850637	856568	1	5931
XVI	856568	856592	9	24
XVI	856592	856978	5	386
XVI	856978	882922	9	26384
XVI	882922	942421	9	59532
XVI	942421	942518	8	126
XVI	942518	942573	6	109
XVI	942573	942621	2	48
XVI	942621	942728	2	112
XVI	942728	942806	2	78
XVI	942806	942932	8	126
XVI	942932	942986	6	104
XVI	942986	943049	7	63
XVI	943049	943166	6	117
XVI	943166	943229	3	63
XVI	943229	943301	5	72
XVI	943301	943602	4	301
XVI	943602	943701	2	99
XVI	943701	943777	5	76
XVI	943777	944172	4	395
XVI	944172	946479	1	2307
XVI	946479	946516	3	37
XVI	946516	946580	2	64
XVI	946580	946639	3	59
XVI	946639	946689	3	50
XVI	946689	946729	2	40
XVI	946729	946816	3	87
XVI	946816	946851	2	35
XVI	946851	946978	2	127
XVI	946978	947837	1	859
XVI	947837	947915	4	78
XVI	947915	947967	6	52
XVI	947967	948009	4	42
XVI	948009	948066	6	57
V	0	22	5	22
V	22	49	5	27
V	49	1174	1	1125
V	1174	1238	7	64
V	1238	1265	7	27
V	1265	1324	7	59
V	1324	1387	1	63
V	1387	1441	7	54
V	1441	1852	1	411
V	1852	1876	2	72
V	1876	1950	1	74
V	1950	4908	3	3037
V	4908	4962	3	54
V	4962	6338	1	1376
V	6338	6383	6	108
V	6383	6408	4	28
V	6408	6443	1	35
V	6443	6562	3	119
V	6562	6612	7	50
V	6612	6731	7	120
V	6731	6791	6	60
V	6791	7102	7	311
V	7102	7203	9	110
V	7203	7748	9	549
V	7748	10057	7	2309
V	10057	20502	9	10572
V	20502	20712	7	210
V	20712	20793	4	81
V	20793	21225	3	432
V	21225	21870	1	645
V	21870	22019	3	149
V	22019	22082	6	63
V	22082	22140	7	58
V	22140	22287	1	147
V	22287	22355	7	130
V	22355	22418	9	63
V	22418	22740	8	322
V	22740	22782	1	42
V	22782	22846	2	64
V	22846	22880	3	54
V	22880	22917	6	37
V	22917	23108	9	191
V	23108	61978	9	38944
V	61978	63811	9	1833
V	63811	63934	8	123
V	63934	64090	9	156
V	64090	64142	9	52
V	64142	86495	9	22365
V	86495	86558	9	114
V	86558	86662	9	176
V	86662	100122	9	13463
V	100122	132565	9	32593
V	132565	136167	9	3616
V	136167	207340	9	71200
V	207340	249923	9	42842
V	249923	250208	1	285
V	250208	250269	2	61
V	250269	277758	9	27552
V	277758	277931	4	173
V	277931	289835	9	11918
V	289835	290386	8	551
V	290386	354445	9	64514
V	354445	354486	6	41
V	354486	354532	7	46
V	354532	354566	8	34
V	354566	354590	7	24
V	354590	354631	7	41
V	354631	354669	7	38
V	354669	354730	9	61
V	354730	354772	9	45
V	354772	363237	9	8471
V	363237	363640	4	403
V	363640	431492	9	68072
V	431492	431822	1	330
V	431822	436238	9	4421
V	436238	436351	8	113
V	436351	436427	9	76
V	436427	438460	9	2050
V	438460	442755	9	4295
V	442755	442814	7	73
V	442814	443071	3	261
V	443071	443214	2	144
V	443214	443280	2	66
V	443280	443369	2	96
V	443369	449103	1	5734
V	449103	449259	2	156
V	449259	449312	6	53
V	449312	449616	8	450
V	449616	449625	7	100
V	449625	449637	8	253
V	449637	449710	9	218
V	449710	450026	9	317
V	450026	487833	9	37839
V	487833	487893	2	60
V	487893	488165	1	272
V	488165	492361	9	4204
V	492361	492437	8	76
V	492437	492591	5	154
V	492591	492645	6	54
V	492645	492695	4	50
V	492695	498421	1	5726
V	498421	498511	8	90
V	498511	566404	9	68253
V	566404	566700	8	296
V	566700	566761	4	61
V	566761	566956	3	195
V	566956	568802	1	1848
V	568802	568888	3	102
V	568888	569070	4	182
V	569070	569454	1	384
V	569454	569503	4	49
V	569503	569525	6	22
V	569525	569587	6	63
V	569587	569626	3	39
V	569626	576874	1	7248
II	0	5889	1	5889
II	5889	5975	3	86
II	5975	6017	1	42
II	6017	6114	2	97
II	6114	6180	2	66
II	6180	6467	1	287
II	6467	6550	8	88
II	6550	6867	1	317
II	6867	6943	2	76
II	6943	7942	1	999
II	7942	8005	6	63
II	8005	8059	1	54
II	8059	8123	3	64
II	8123	8338	1	215
II	8338	8381	2	43
II	8381	8540	1	159
II	8540	9573	9	1147
II	9573	29256	9	19684
II	29256	29654	9	398
II	29654	29701	2	47
II	29701	30032	1	331
II	30032	30085	6	53
II	30085	30133	2	48
II	30133	34612	1	4479
II	34612	34687	8	75
II	34687	34724	6	37
II	34724	34753	6	29
II	34753	34807	4	54
II	34807	34851	7	44
II	34851	35166	8	315
II	35166	35270	7	104
II	35270	35314	7	44
II	35314	35401	6	87
II	35401	35484	1	83
II	35484	35602	6	122
II	35602	35850	9	248
II	35850	36226	1	376
II	36226	88521	9	52472
II	88521	88924	3	403
II	88924	197164	9	108435
II	197164	197312	8	620
II	197312	197346	8	34
II	197346	197374	8	28
II	197374	197510	7	136
II	197510	197688	9	179
II	197688	197722	7	35
II	197722	197808	8	86
II	197808	197902	9	94
II	197902	197925	9	23
II	197925	197976	8	51
II	197976	221036	9	23107
II	221036	226888	1	5852
II	226888	226969	5	81
II	226969	259571	9	32662
II	259571	265493	1	5922
II	265493	266367	9	874
II	266367	300039	9	33867
II	300039	300164	9	125
II	300164	326883	9	26727
II	326883	405866	9	79322
II	405866	429662	9	24039
II	429662	429775	7	113
II	429775	477670	9	48083
II	477670	478985	8	1315
II	478985	561231	9	82439
II	561231	591660	9	30445
II	591660	591709	4	49
II	591709	591751	9	42
II	591751	628903	9	37173
II	628903	643361	9	14459
II	643361	643481	9	120
II	643481	643857	1	376
II	643857	644358	9	501
II	644358	644962	9	607
II	644962	660519	9	15593
II	660519	660689	8	170
II	660689	660752	9	63
II	660752	701960	9	41222
II	701960	702075	8	115
II	702075	801929	9	99949
II	801929	801940	9	11
II	801940	803552	9	1680
II	803552	804443	8	891
II	804443	804682	9	240
II	804682	804880	9	198
II	804880	805790	1	910
II	805790	805871	4	81
II	805871	805931	4	60
II	805931	806057	8	186
II	806057	806372	6	335
II	806372	807183	9	830
II	807183	809377	1	2194
II	809377	809418	3	41
II	809418	812927	1	3509
II	812927	812974	3	47
II	812974	813017	2	43
II	813017	813102	2	85
II	813102	813151	4	50
II	813151	813184	1	33
XI	0	166	1	166
XI	166	297	2	131
XI	297	385	2	88
XI	385	427	3	44
XI	427	536	1	109
XI	536	822	2	314
XI	822	921	2	103
XI	921	980	8	60
XI	980	1051	2	93
XI	1051	1072	2	21
XI	1072	1119	2	47
XI	1119	1487	1	368
XI	1487	1525	8	38
XI	1525	1669	1	144
XI	1669	2134	9	520
XI	2134	2271	7	141
XI	2271	2392	9	121
XI	2392	2479	6	87
XI	2479	2541	5	62
XI	2541	2603	4	62
XI	2603	2606	9	57
XI	2606	2654	8	48
XI	2654	2737	8	86
XI	2737	2776	8	39
XI	2776	24337	9	22671
XI	24337	144706	9	120710
XI	144706	144946	7	328
XI	144946	162737	9	18099
XI	162737	164870	9	2133
XI	164870	202638	9	38005
XI	202638	202983	1	345
XI	202983	302830	9	99967
XI	302830	302964	8	134
XI	302964	313596	9	10775
XI	313596	313918	1	322
XI	313918	314103	9	185
XI	314103	379668	9	65610
XI	379668	379693	2	25
XI	379693	458134	9	79811
XI	458134	458412	1	278
XI	458412	458471	7	59
XI	458471	458548	9	77
XI	458548	458608	8	60
XI	458608	490956	9	32783
XI	490956	513708	9	22765
XI	513708	513851	9	144
XI	513851	555046	9	41576
XI	555046	556092	8	1046
XI	556092	578453	9	22401
XI	578453	580849	9	2407
XI	580849	580973	8	136
XI	580973	647390	9	67079
XI	647390	647479	8	232
XI	647479	647512	5	33
XI	647512	647556	6	44
XI	647556	647605	6	76
XI	647605	647617	9	12
XI	647617	647660	8	43
XI	647660	659423	9	11868
XI	659423	659487	8	64
XI	659487	660591	9	1126
XI	660591	660641	8	51
XI	660641	661195	9	554
XI	661195	661242	8	48
XI	661242	661304	5	63
XI	661304	661351	3	47
XI	661351	661402	4	51
XI	661402	663260	3	1859
XI	663260	663314	4	54
XI	663314	663454	3	140
XI	663454	663535	2	81
XI	663535	664278	1	743
XI	664278	665288	2	1015
XI	665288	665342	4	54
XI	665342	665376	1	34
XI	665376	665442	7	166
XI	665442	665606	8	164
XI	665606	665680	9	74
XI	665680	665716	1	36
XI	665716	665777	9	63
XI	665777	665849	2	72
XI	665849	665933	7	271
XI	665933	665968	5	35
XI	665968	665999	6	31
XI	665999	666053	1	60
XI	666053	666075	3	22
XI	666075	666143	3	68
XI	666143	666186	2	43
XI	666186	666286	3	100
XI	666286	666319	4	33
XI	666319	666350	3	31
XI	666350	666388	3	39
XI	666388	666431	9	43
XI	666431	666486	4	58
XI	666486	666527	4	41
XI	666527	666624	3	104
XI	666624	666649	4	28
XI	666649	666753	1	104
XI	666753	666807	5	66
XI	666807	666816	3	9
