Chr	Start	Stop	BlockSize	BlockLength
IV	535	886	9	359
IV	17879	44529	9	26692
IV	44529	127635	9	83388
IV	128997	133634	9	4638
IV	133634	227632	9	94201
IV	227632	329655	9	102083
IV	329655	384123	9	54630
IV	384517	384580	9	81
IV	384580	410361	9	25810
IV	410361	410392	9	36
IV	410392	435120	9	24747
IV	435120	437109	9	1996
IV	437109	437143	9	34
IV	437518	471851	9	34381
IV	471851	513320	9	41774
IV	513320	513522	9	241
IV	513522	513590	9	68
IV	513590	513688	9	98
IV	519652	520476	9	975
IV	520476	520538	9	62
IV	520582	527678	9	7174
IV	534234	535363	9	1129
IV	535363	535385	9	22
IV	536715	536784	9	69
IV	536784	537034	9	250
IV	538119	645115	9	107116
IV	651441	668019	9	16583
IV	668019	668095	9	76
IV	668436	757480	9	89309
IV	759634	759662	9	28
IV	759701	802904	9	43406
IV	805577	864844	9	59314
IV	864945	871820	9	6876
IV	877784	878302	9	518
IV	884225	945954	9	61896
IV	945954	946023	9	69
IV	946301	946344	9	43
IV	946344	981170	9	34850
IV	981170	981231	9	61
IV	992698	1017267	9	24610
IV	1017267	1017290	9	23
IV	1017290	1017439	9	149
IV	1017439	1023199	9	5767
IV	1023477	1087853	9	64439
IV	1087853	1088263	9	410
IV	1088326	1095766	9	7442
IV	1100759	1101353	9	594
IV	1101697	1150902	9	49235
IV	1150957	1155204	9	4320
IV	1155813	1159718	9	3927
IV	1160022	1160636	9	614
IV	1160636	1160747	9	111
IV	1161205	1175232	9	14058
IV	1175751	1175791	9	40
IV	1175890	1206706	9	30912
IV	1212629	1243229	9	30609
IV	1243229	1305627	9	62451
IV	1305658	1307601	9	1944
IV	1308318	1308362	9	44
IV	1308422	1308486	9	340
IV	1308486	1352644	9	44176
IV	1352966	1461840	9	109065
IV	1461840	1523288	9	61612
XIV	3599	4903	9	1354
XIV	4904	5982	9	1213
XIV	6051	6101	9	50
XIV	6101	6143	9	42
XIV	9530	9675	9	145
XIV	9821	14764	9	5078
XIV	14996	15178	9	182
XIV	15952	96444	9	80681
XIV	96444	96470	9	26
XIV	97599	97644	9	45
XIV	97644	97708	9	64
XIV	97708	98795	9	1091
XIV	98795	98962	9	214
XIV	102548	252523	9	150051
XIV	252523	519181	9	267275
XIV	525086	533244	9	8189
XIV	533244	533314	9	70
XIV	560832	561663	9	852
XIV	567998	569898	9	1916
XIV	570200	573948	9	3784
XIV	573948	599621	9	25708
XIV	602050	602110	9	60
XIV	602110	602145	9	35
XIV	602353	631929	9	29650
XIV	631929	632004	9	75
XIV	632004	632057	9	162
XIV	632057	632112	9	164
XIV	632112	632223	9	111
XIV	632464	726155	9	94030
XIV	726155	726233	9	78
XIV	726426	727081	9	655
XIV	727081	750677	9	23629
XIV	755175	772622	9	17469
XIV	773105	773168	9	63
XIV	775081	775167	9	86
XIV	775167	775266	9	99
XIV	775266	775313	9	47
XIV	775313	775377	9	64
XIV	775377	775449	9	72
XIV	776258	781166	9	4968
XIV	782330	782437	9	109
XIV	782437	782481	9	44
XIV	782667	782829	9	164
XIV	783483	783496	9	13
XIV	783591	783619	9	28
XIV	783619	783640	9	22
XIV	783793	783828	9	35
XIV	783828	783867	9	40
XIV	783930	784019	9	90
XIV	784019	784158	9	140
X	7387	7468	9	84
X	15829	16764	9	940
X	16764	16827	9	63
X	20983	24532	9	3549
X	27051	59323	9	32309
X	59323	153522	9	94492
X	153522	197507	9	44005
X	204364	204388	9	24
X	204752	338578	9	133988
X	338929	354243	9	15319
X	354305	354339	9	34
X	354339	354508	9	169
X	355042	355071	9	29
X	355071	355210	9	140
X	355489	374461	9	18993
X	374903	377902	9	2999
X	377902	378258	9	356
X	378258	424530	9	46858
X	424530	424765	9	235
X	424765	453745	9	29030
X	454366	472462	9	18106
X	483977	524064	9	40126
X	524104	531721	9	7621
X	531721	538100	9	6382
X	538434	540672	9	2243
X	540672	540710	9	38
X	541441	541492	9	202
X	541492	541531	9	46
X	541531	543011	9	1482
X	543056	617743	9	74954
X	617743	702030	9	84680
X	702030	728475	9	26986
X	729955	732940	9	3005
X	733038	733284	9	246
X	733539	742664	9	9135
X	742847	742940	9	93
VI	12942	12975	9	33
VI	13006	13069	9	63
VI	13278	30088	9	16868
VI	30088	117415	9	87912
VI	118029	137912	9	19966
VI	138179	138234	9	56
VI	144851	191571	9	46814
VI	191623	204952	9	13334
VI	205007	205135	9	128
VI	205945	220609	9	14684
VI	221001	266202	9	45353
VI	266202	270064	9	3868
IX	21726	69294	9	47829
IX	69458	196647	9	127632
IX	197023	197265	9	242
IX	197417	205176	9	7760
IX	205219	205280	9	61
IX	205498	205551	9	53
IX	210639	210683	9	44
IX	210683	246219	9	35541
IX	247756	248833	9	1077
IX	248833	300731	9	52017
IX	300731	317500	9	16807
IX	317829	324314	9	6485
IX	324314	324363	9	49
IX	325765	391247	9	65919
IX	391434	391465	9	31
IX	391465	391491	9	26
IX	391491	391553	9	62
IX	392717	433518	9	40995
IX	434428	437298	9	2901
XII	5905	7010	9	1105
XII	7213	7262	9	49
XII	7361	7397	9	36
XII	7397	7482	9	85
XII	7552	7575	9	23
XII	7626	7689	9	63
XII	7689	9370	9	1686
XII	13859	47898	9	34394
XII	48464	95818	9	47498
XII	95818	97239	9	1421
XII	97239	214962	9	118386
XII	214962	215080	9	118
XII	221004	365735	9	144922
XII	365735	374070	9	8362
XII	374343	374372	9	29
XII	374372	451417	9	77171
XII	451586	451623	9	40
XII	451651	451676	9	25
XII	451676	451689	9	13
XII	451689	451780	9	91
XII	451780	451852	9	72
XII	459689	459701	9	12
XII	459701	459757	9	56
XII	459851	459870	9	19
XII	459890	459934	9	44
XII	459934	459962	9	28
XII	460005	460030	9	25
XII	460088	460125	9	37
XII	460125	460207	9	82
XII	460207	460265	9	58
XII	460265	460313	9	48
XII	460313	460396	9	83
XII	460424	460485	9	61
XII	460485	460514	9	29
XII	464300	464324	9	24
XII	464382	464409	9	27
XII	464409	464465	9	56
XII	464465	464493	9	28
XII	464493	464514	9	21
XII	464584	464621	9	37
XII	464647	464689	9	42
XII	464689	464705	9	16
XII	464727	464790	9	63
XII	464853	464910	9	57
XII	464910	464978	9	68
XII	464978	465027	9	49
XII	465027	465154	9	127
XII	466863	466902	9	39
XII	466902	466946	9	44
XII	466946	467010	9	64
XII	467028	467057	9	29
XII	467057	467068	9	11
XII	467068	467092	9	24
XII	467120	467147	9	27
XII	467199	467217	9	18
XII	467217	467250	9	33
XII	467250	467302	9	52
XII	467471	467511	9	40
XII	467703	467779	9	76
XII	467801	467850	9	49
XII	467850	467928	9	78
XII	467928	467959	9	31
XII	467959	467980	9	21
XII	468001	468014	9	13
XII	468014	468048	9	34
XII	468116	468147	9	31
XII	468147	468184	9	37
XII	468184	468248	9	64
XII	468248	468273	9	25
XII	468294	468348	9	54
XII	468487	468500	9	13
XII	468537	468622	9	85
XII	468691	468755	9	64
XII	468839	468889	9	50
XII	468889	468916	9	27
XII	489958	490005	9	47
XII	490026	490104	9	78
XII	490104	490140	9	36
XII	490140	490167	9	27
XII	490275	490357	9	82
XII	490357	490389	9	32
XII	490389	490453	9	64
XII	490479	592567	9	102182
XII	592567	592828	9	261
XII	592828	593132	9	304
XII	599055	650818	9	52115
XII	656743	687874	9	31397
XII	687943	731662	9	43835
XII	732000	734381	9	2436
XII	734821	784337	9	49534
XII	784337	793906	9	9800
XII	793906	818324	9	24580
XII	818460	875358	9	56953
XII	875358	875427	9	69
XII	875427	941191	9	65773
XII	947155	976181	9	29053
XII	976181	976269	9	88
XII	981697	1002236	9	20540
XII	1003021	1003146	9	125
XII	1003345	1003411	9	66
XII	1003869	1052277	9	48604
XII	1052316	1059364	9	7238
XII	1063854	1063992	9	190
XV	2002	2057	9	55
XV	2886	3274	9	393
XV	11300	11362	9	63
XV	11879	22521	9	10680
XV	22521	22584	9	63
XV	24045	25488	9	1479
XV	26240	26417	9	177
XV	26417	26774	9	416
XV	26774	26922	9	148
XV	26985	27470	9	489
XV	27470	45676	9	18341
XV	45724	113687	9	68379
XV	113687	117689	9	4027
XV	123615	216906	9	93356
XV	216906	226777	9	9909
XV	226978	227063	9	126
XV	227063	227083	9	26
XV	227083	227289	9	223
XV	227289	227334	9	46
XV	227441	269717	9	42450
XV	269754	282054	9	12301
XV	282054	464386	9	183000
XV	464386	571946	9	107624
XV	571946	575097	9	3153
XV	575097	594696	9	19608
XV	594696	594824	9	128
XV	595724	595784	9	60
XV	596626	596686	9	60
XV	597677	598381	9	785
XV	600742	664808	9	64110
XV	665146	703788	9	38711
XV	703788	703833	9	45
XV	710091	854270	9	144375
XV	854270	854771	9	501
XV	854771	970285	9	115655
XV	976257	980259	9	4342
XV	980591	1037786	9	57291
XV	1037786	1069915	9	32238
XV	1069915	1070455	9	542
XV	1070901	1070964	9	63
XV	1070964	1072242	9	1278
I	1710	1744	9	44
I	2122	2531	9	416
I	6739	11743	9	5245
I	25393	25455	9	62
I	27216	139764	9	112762
I	139764	160114	9	20408
I	166105	181052	9	14965
I	181052	182601	9	1594
I	183399	183562	9	163
I	187134	198707	9	11870
I	198707	204295	9	5959
I	204484	204820	9	635
I	208037	218752	9	10779
I	218994	219024	9	30
I	219024	219049	9	25
I	219049	219132	9	83
I	219132	219324	9	192
VII	293	400	9	107
VII	2333	4161	9	1829
VII	4161	6072	9	1918
VII	6115	6242	9	127
VII	7319	10386	9	3304
VII	10449	10736	9	291
VII	11498	74165	9	62798
VII	74165	110782	9	36743
VII	110782	110833	9	69
VII	111698	121694	9	10026
VII	121694	185766	9	64100
VII	185798	205508	9	19712
VII	205643	254655	9	49045
VII	254655	319340	9	64745
VII	319340	319425	9	85
VII	319760	327949	9	8321
VII	328597	364404	9	35905
VII	364943	385762	9	20821
VII	386922	401612	9	14757
VII	401612	401661	9	55
VII	401661	401778	9	122
VII	405408	405450	9	42
VII	405490	423081	9	17597
VII	423144	531689	9	109190
VII	531689	535219	9	3534
VII	541681	544568	9	2887
VII	544568	561359	9	17082
VII	561397	561750	9	354
VII	561750	561837	9	87
VII	567760	568735	9	976
VII	574700	648467	9	73910
VII	648730	661596	9	13230
VII	661596	700568	9	38978
VII	700568	701128	9	560
VII	701128	701164	9	36
VII	701164	701227	9	63
VII	701227	707189	9	5996
VII	712545	735977	9	23899
VII	736323	763822	9	27522
VII	763822	779004	9	15200
VII	779004	811440	9	33152
VII	823323	823470	9	147
VII	823470	823504	9	34
VII	823504	857626	9	34143
VII	857626	879077	9	21643
VII	879077	882811	9	3751
VII	882811	882874	9	63
VII	883633	931170	9	47577
VII	931545	931748	9	203
VII	931938	1000925	9	69186
VII	1000925	1067960	9	67513
VII	1067960	1068218	9	258
VII	1068806	1076129	9	7335
VII	1076129	1080254	9	4126
VII	1080815	1081207	9	392
VIII	6505	11877	9	5377
VIII	11877	11978	9	105
VIII	12392	35294	9	22907
VIII	35860	85579	9	49913
VIII	91763	91826	9	63
VIII	92127	92270	9	143
VIII	92270	104896	9	12885
VIII	104896	105093	9	197
VIII	105093	116189	9	11267
VIII	116189	116341	9	152
VIII	116341	116513	9	172
VIII	116693	116752	9	59
VIII	116752	133048	9	16307
VIII	133118	146335	9	13246
VIII	146663	175410	9	28763
VIII	175498	193036	9	17669
VIII	193183	194176	9	993
VIII	194382	194445	9	63
VIII	194445	194507	9	62
VIII	194507	212265	9	17760
VIII	214262	229544	9	15285
VIII	230017	358538	9	128845
VIII	358571	388932	9	30488
VIII	389391	451325	9	62124
VIII	451325	475795	9	24582
VIII	475795	475930	9	135
VIII	475930	504479	9	28550
VIII	504479	526012	9	21585
VIII	526269	526332	9	63
VIII	526332	526416	9	84
VIII	526891	527017	9	142
VIII	527017	527044	9	27
VIII	527044	527125	9	81
VIII	527125	527173	9	51
VIII	527173	527202	9	29
VIII	527368	527467	9	134
VIII	527760	527966	9	206
VIII	528169	528380	9	294
VIII	528443	528577	9	134
VIII	553415	554085	9	670
VIII	555817	556140	9	431
VIII	556192	556224	9	32
VIII	556224	556276	9	52
XIII	7003	7067	9	64
XIII	8121	8162	9	41
XIII	8340	8397	9	57
XIII	8460	95747	9	87334
XIII	95747	132904	9	37392
XIII	132904	168348	9	35450
XIII	168626	168649	9	23
XIII	168686	183891	9	15224
XIII	183891	184169	9	285
XIII	190083	196331	9	6372
XIII	196375	196604	9	229
XIII	202188	239378	9	37387
XIII	239378	290298	9	51125
XIII	290298	321231	9	31039
XIII	321231	357005	9	35800
XIII	362698	362924	9	237
XIII	362924	372528	9	9604
XIII	372528	372690	9	162
XIII	378621	379349	9	728
XIII	379349	463773	9	84730
XIII	463773	503764	9	40405
XIII	504140	600377	9	96636
XIII	600818	601763	9	945
XIII	601763	602587	9	824
XIII	602587	602875	9	300
XIII	602875	603019	9	145
XIII	603019	609023	9	6081
XIII	609158	609189	9	42
XIII	609746	634207	9	24533
XIII	634207	806932	9	172983
XIII	806932	808547	9	1620
XIII	808547	808689	9	164
XIII	809015	837820	9	28811
XIII	837820	908147	9	70494
XIII	908147	908167	9	71
XIII	908427	908503	9	94
XIII	908535	908572	9	51
XIII	908572	908638	9	66
XIII	908638	917896	9	9349
Mito	291	302	9	63
Mito	1569	1626	9	57
Mito	4660	10926	9	9694
Mito	12438	12466	9	186
Mito	12594	12754	9	182
Mito	13230	13306	9	163
Mito	13986	14877	9	990
Mito	14877	14959	9	83
Mito	14959	15064	9	105
Mito	15064	15180	9	116
Mito	15180	15345	9	191
Mito	15345	15375	9	30
Mito	15375	15487	9	180
Mito	15487	15556	9	69
Mito	15556	15620	9	70
Mito	15620	15659	9	39
Mito	15659	15706	9	47
Mito	15706	15731	9	25
Mito	15731	15794	9	63
Mito	15794	15971	9	181
Mito	15971	16049	9	78
Mito	16049	16470	9	433
Mito	22063	22275	9	212
Mito	22275	22369	9	118
Mito	22457	22567	9	110
Mito	22567	22634	9	67
Mito	22634	22708	9	86
Mito	22708	22906	9	198
Mito	22906	24211	9	1620
Mito	24566	24614	9	104
Mito	25521	27529	9	2573
Mito	37396	37485	9	99
Mito	37696	37746	9	79
Mito	37797	37815	9	224
Mito	37907	37982	9	122
Mito	38089	38252	9	240
Mito	38252	38443	9	344
Mito	38443	39361	9	1627
Mito	39567	39818	9	368
Mito	39890	41544	9	2013
Mito	41728	41900	9	174
Mito	41900	41971	9	148
Mito	41988	42077	9	150
Mito	42077	42181	9	246
Mito	42181	42224	9	55
Mito	42224	42280	9	99
Mito	42280	42353	9	84
Mito	42353	42647	9	455
Mito	42647	42789	9	159
Mito	42789	42905	9	143
Mito	44572	44618	9	63
Mito	44710	44774	9	90
Mito	57516	58030	9	735
Mito	58030	58196	9	170
Mito	58196	58289	9	407
Mito	58289	58323	9	34
Mito	58323	60723	9	2747
Mito	61183	61598	9	678
Mito	61704	61795	9	100
Mito	61866	62190	9	325
Mito	63394	63713	9	319
Mito	63713	64030	9	324
Mito	64405	64517	9	172
Mito	64550	64689	9	159
Mito	64827	64924	9	97
Mito	65766	65878	9	221
Mito	65878	65951	9	91
Mito	66011	66278	9	570
Mito	66879	66977	9	98
Mito	67152	67263	9	222
Mito	67407	67737	9	459
Mito	71356	71427	9	72
Mito	71696	71799	9	125
Mito	73584	73620	9	48
Mito	73620	73683	9	67
Mito	73683	73818	9	136
Mito	73818	75032	9	1423
Mito	75032	75124	9	92
Mito	75124	75298	9	184
Mito	75298	75379	9	87
Mito	75379	75420	9	41
Mito	77633	78030	9	436
Mito	78030	78260	9	231
Mito	78389	78532	9	143
Mito	78532	78609	9	77
Mito	80496	80631	9	196
Mito	81286	81639	9	515
Mito	81807	81923	9	251
Mito	82947	82971	9	26
Mito	83103	83143	9	40
Mito	85152	85463	9	312
Mito	85463	85524	9	61
III	1086	1197	9	112
III	1197	1429	9	232
III	4042	4071	9	29
III	4140	6181	9	2060
III	6181	6251	9	70
III	6251	6273	9	22
III	6273	6337	9	64
III	6337	6401	9	64
III	6401	6445	9	44
III	6445	8354	9	1909
III	8354	8464	9	170
III	11218	12301	9	1083
III	12880	13753	9	873
III	13932	13954	9	22
III	13954	84365	9	70929
III	90921	124131	9	33285
III	124404	149547	9	25288
III	149547	149651	9	105
III	149745	149928	9	183
III	149928	151520	9	1784
III	151520	151562	9	42
III	151723	168383	9	16909
III	169068	169418	9	350
III	169544	199463	9	30021
III	201017	201080	9	63
III	201080	201128	9	48
III	201128	201172	9	44
III	201172	268681	9	67756
III	268808	268933	9	133
III	269113	293094	9	24314
III	293094	293126	9	32
III	293126	293188	9	62
III	293673	294378	9	705
III	294545	294952	9	407
III	294952	295475	9	628
III	295498	296949	9	1678
III	296949	303766	9	6898
III	303766	303967	9	201
III	303967	304030	9	63
III	304092	304322	9	256
III	304322	304402	9	80
III	304402	305236	9	834
III	305236	305499	9	263
III	305499	305560	9	61
III	305560	305626	9	66
III	305626	305651	9	25
III	305651	305689	9	38
III	305770	305870	9	100
III	305870	305913	9	43
III	305913	306014	9	101
III	306014	306079	9	65
III	306079	306143	9	64
III	307240	307387	9	159
III	307430	307489	9	59
III	307489	307645	9	158
III	307645	307670	9	25
III	307670	307763	9	93
III	308049	308084	9	35
III	308115	311079	9	2966
III	311503	314570	9	3067
III	314737	315552	9	815
III	315620	315712	9	93
III	316001	316042	9	48
XVI	7410	8037	9	629
XVI	18422	18629	9	207
XVI	18629	22957	9	4329
XVI	22957	56228	9	33279
XVI	63976	96760	9	32844
XVI	96760	135804	9	39081
XVI	135804	174093	9	38299
XVI	174569	174632	9	63
XVI	174632	376242	9	201924
XVI	376242	376469	9	227
XVI	376469	376532	9	63
XVI	376532	377204	9	672
XVI	377204	377330	9	126
XVI	377330	436320	9	59030
XVI	443356	560542	9	117425
XVI	560751	572102	9	11351
XVI	572345	622592	9	50265
XVI	622636	689584	9	66998
XVI	689584	700593	9	11010
XVI	700593	744084	9	43499
XVI	744084	744262	9	178
XVI	744262	769256	9	24994
XVI	769256	769386	9	130
XVI	769457	769539	9	82
XVI	769661	804645	9	35167
XVI	810454	810568	9	114
XVI	810568	837966	9	27584
XVI	837966	844405	9	6439
XVI	850339	850637	9	298
XVI	856568	856592	9	24
XVI	856978	882922	9	26284
XVI	882922	942421	9	59532
V	7102	7203	9	110
V	7203	7748	9	549
V	10057	20502	9	10585
V	22355	22418	9	63
V	22917	23108	9	191
V	23108	61978	9	38942
V	61978	63811	9	1833
V	63934	64090	9	156
V	64090	64142	9	52
V	64142	86495	9	22362
V	86495	86558	9	64
V	86558	86662	9	104
V	86662	100122	9	13463
V	100122	132565	9	32593
V	132565	136167	9	3603
V	136167	207340	9	71200
V	207340	249923	9	42722
V	250269	277758	9	27523
V	277931	289835	9	11914
V	290386	354445	9	64093
V	354669	354730	9	61
V	354730	354772	9	45
V	354772	363237	9	8471
V	363640	431492	9	67995
V	431822	436238	9	4419
V	436351	436427	9	76
V	436427	438460	9	2050
V	438460	442755	9	4295
V	449637	449710	9	218
V	449710	450026	9	317
V	450026	487833	9	37839
V	488165	492361	9	4204
V	498511	566404	9	68215
II	8540	9573	9	1098
II	9573	29256	9	19684
II	29256	29654	9	398
II	35602	35850	9	248
II	36226	88521	9	52422
II	88924	197164	9	108431
II	197510	197688	9	179
II	197808	197902	9	94
II	197902	197925	9	23
II	197976	221036	9	23092
II	226969	259571	9	32612
II	265493	266367	9	874
II	266367	300039	9	33867
II	300039	300164	9	125
II	300164	326883	9	26727
II	326883	405866	9	79290
II	405866	429662	9	23894
II	429775	477670	9	48083
II	478985	561231	9	82433
II	561231	591660	9	30444
II	591709	591751	9	42
II	591751	628903	9	37173
II	628903	643361	9	14459
II	643361	643481	9	120
II	643857	644358	9	501
II	644358	644962	9	607
II	644962	660519	9	15593
II	660689	660752	9	63
II	660752	701960	9	41222
II	702075	801929	9	99949
II	801929	801940	9	11
II	801940	803552	9	1672
II	804443	804682	9	240
II	804682	804880	9	198
II	806372	807183	9	823
XI	1669	2134	9	503
XI	2271	2392	9	121
XI	2603	2606	9	56
XI	2776	24337	9	21660
XI	24337	144706	9	120727
XI	144946	162737	9	18099
XI	162737	164870	9	2133
XI	164870	202638	9	38005
XI	202983	302830	9	99953
XI	302964	313596	9	10775
XI	313918	314103	9	185
XI	314103	379668	9	65621
XI	379693	458134	9	79315
XI	458471	458548	9	77
XI	458608	490956	9	32777
XI	490956	513708	9	22765
XI	513708	513851	9	144
XI	513851	555046	9	41375
XI	556092	578453	9	22401
XI	578453	580849	9	2407
XI	580973	647390	9	66685
XI	647605	647617	9	12
XI	647660	659423	9	11769
XI	659487	660591	9	1126
XI	660641	661195	9	554
XI	665606	665680	9	74
XI	665716	665777	9	61
XI	666388	666431	9	43
