time_index	left_time_boundary	right_time_boundary	lambda
0	0	4.71959e-06	4194.31
1	4.71959e-06	1.02983e-05	4194.31
2	1.02983e-05	1.68927e-05	4194.31
3	1.68927e-05	2.46874e-05	4194.31
4	2.46874e-05	3.39011e-05	4194.31
5	3.39011e-05	4.47921e-05	252.321
6	4.47921e-05	5.76657e-05	561.982
7	5.76657e-05	7.28828e-05	939.303
8	7.28828e-05	9.08701e-05	1325.39
9	9.08701e-05	0.000112132	1756.83
10	0.000112132	0.000137264	2306.89
11	0.000137264	0.000166971	3052.91
12	0.000166971	0.000202086	4032.73
13	0.000202086	0.000243594	5071.89
14	0.000243594	0.000292658	5645.88
15	0.000292658	0.000350653	5542.15
16	0.000350653	0.000419206	5057.55
17	0.000419206	0.000500238	4356.64
18	0.000500238	0.000596022	3556.21
19	0.000596022	0.000709242	2768.48
20	0.000709242	0.000843073	2105.42
21	0.000843073	0.00100127	1599.04
22	0.00100127	0.00118826	1192.54
23	0.00118826	0.00140929	840.785
24	0.00140929	0.00167056	554.078
25	0.00167056	0.00197939	1188.11
26	0.00197939	0.00234443	1188.11
27	0.00234443	0.00277594	1188.11
28	0.00277594	0.00328599	1188.11
29	0.00328599	inf	1188.11
