time_index	left_time_boundary	right_time_boundary	lambda
0	0	2.23125e-06	55122
1	2.23125e-06	4.86867e-06	55122
2	4.86867e-06	7.98621e-06	55122
3	7.98621e-06	1.16713e-05	55122
4	1.16713e-05	1.60272e-05	55122
5	1.60272e-05	2.1176e-05	3677.5
6	2.1176e-05	2.72622e-05	2519.99
7	2.72622e-05	3.44563e-05	1745.27
8	3.44563e-05	4.296e-05	1400.45
9	4.296e-05	5.30117e-05	1326.47
10	5.30117e-05	6.48932e-05	1361.67
11	6.48932e-05	7.89377e-05	1361.67
12	7.89377e-05	9.55389e-05	1321.64
13	9.55389e-05	0.000115162	1358.28
14	0.000115162	0.000138358	1560.41
15	0.000138358	0.000165776	1955.64
16	0.000165776	0.000198185	2533.98
17	0.000198185	0.000236494	3255.81
18	0.000236494	0.000281777	4034.46
19	0.000281777	0.000335303	4631.13
20	0.000335303	0.000398573	4751.82
21	0.000398573	0.000473361	4626.33
22	0.000473361	0.000561763	4709.43
23	0.000561763	0.000666258	5252.22
24	0.000666258	0.000789776	6794.08
25	0.000789776	0.000935779	91.1315
26	0.000935779	0.00110836	91.1315
27	0.00110836	0.00131236	91.1315
28	0.00131236	0.00155349	91.1315
29	0.00155349	inf	91.1315
