LogLikelihood = -47462.498905963730067

y0 3.3478408599849176497
y0_prime 0
y1 1.3138850909280774281e-06
y1_prime 0
y2 1.9058423123820888989
y2_prime 0
y3 0.035666811407983223248
y3_prime 0
rho 0.0011945697371880258271
theta 0.00026159480397894632753
