time_index	left_time_boundary	right_time_boundary	lambda
0	0	8.14069e-07	202148
1	8.14069e-07	1.77633e-06	202148
2	1.77633e-06	2.91377e-06	202148
3	2.91377e-06	4.25826e-06	202148
4	4.25826e-06	5.84751e-06	202148
5	5.84751e-06	7.72607e-06	249423
6	7.72607e-06	9.9466e-06	175436
7	9.9466e-06	1.25714e-05	121127
8	1.25714e-05	1.56739e-05	83771
9	1.56739e-05	1.93413e-05	56285.6
10	1.93413e-05	2.36763e-05	34581.4
11	2.36763e-05	2.88004e-05	18651.2
12	2.88004e-05	3.48573e-05	8842.5
13	3.48573e-05	4.20169e-05	3872.84
14	4.20169e-05	5.04797e-05	1692.68
15	5.04797e-05	6.04832e-05	798.104
16	6.04832e-05	7.23077e-05	433.224
17	7.23077e-05	8.62847e-05	283.673
18	8.62847e-05	0.000102806	230.478
19	0.000102806	0.000122335	235.591
20	0.000122335	0.000145419	304.74
21	0.000145419	0.000172706	500.206
22	0.000172706	0.000204959	1049
23	0.000204959	0.000243084	2924.47
24	0.000243084	0.00028815	25836.1
25	0.00028815	0.000341419	22.3619
26	0.000341419	0.000404385	22.3619
27	0.000404385	0.000478814	22.3619
28	0.000478814	0.000566792	22.3619
29	0.000566792	inf	22.3619
