LogLikelihood = -676190.15808118251152

y0 5.2848163785214845589
y0_prime 0
y1 1.0990386445721991689e-09
y1_prime 0
y2 0.26736061159917728913
y2_prime 0
y3 0.32391271449948644268
y3_prime 0
rho 0.0026625417631368081262
rho.alpha 1.059344981542334363
r_ii 0.99970061420542066788
theta 0.0014653514061938671068
