Chr	Start	Stop	BlockSize	BlockLength
XII	0	5713	1	5713
XII	5713	5724	8	40
XII	5724	6119	1	395
XII	6119	7358	2	1239
XII	7358	11195	1	3837
XII	11195	11275	3	80
XII	11275	11309	3	34
XII	11309	11353	2	47
XII	11353	11375	7	27
XII	11375	11385	7	11
XII	11385	11456	4	71
XII	11456	11491	8	36
XII	11491	11523	6	36
XII	11523	11562	5	41
XII	11562	11581	5	24
XII	11581	11649	4	70
XII	11649	11794	2	154
XII	11794	11821	4	29
XII	11821	11842	4	21
XII	11842	11963	3	121
XII	11963	12054	4	91
XII	12054	12136	1	82
XII	12136	12166	5	30
XII	12166	12295	2	129
XII	12295	12605	1	310
XII	12605	12668	3	64
XII	12668	12847	1	179
XII	12847	12887	3	40
XII	12887	13372	1	485
XII	13372	13410	5	38
XII	13410	13593	2	183
XII	13593	13656	9	64
XII	13656	13750	8	122
XII	13750	14108	9	491
XII	14108	47898	9	34183
XII	47898	47961	7	63
XII	47961	48464	8	503
XII	48464	48560	9	96
XII	48560	95818	9	47737
XII	95818	96040	8	222
XII	96040	167997	9	72535
XII	167997	168043	6	46
XII	168043	215079	9	47394
XII	215079	215128	5	50
XII	215128	215174	2	46
XII	215174	215254	3	80
XII	215254	221004	1	5750
XII	221004	373763	9	153850
XII	373763	373998	9	244
XII	373998	374244	1	246
XII	374244	374276	4	32
XII	374276	374343	4	69
XII	374343	426839	9	52612
XII	426839	427063	9	224
XII	427063	427141	9	78
XII	427141	427193	9	52
XII	427193	448987	9	22117
XII	448987	451480	9	3121
XII	451480	451555	8	75
XII	451555	451613	7	58
XII	451613	451651	9	38
XII	451651	451714	5	63
XII	451714	451767	9	53
XII	451767	451816	6	49
XII	451816	451879	5	63
XII	451879	451916	9	37
XII	451916	459673	1	7757
XII	459673	459701	6	28
XII	459701	459764	9	63
XII	459764	459834	6	70
XII	459834	459847	5	13
XII	459847	459870	9	23
XII	459870	459934	8	64
XII	459934	459947	6	13
XII	459947	460021	8	74
XII	460021	460069	9	48
XII	460069	460083	9	14
XII	460083	460135	6	52
XII	460135	460226	8	91
XII	460226	460256	7	30
XII	460256	460327	5	71
XII	460327	460404	7	77
XII	460404	460440	6	36
XII	460440	460474	7	34
XII	460474	460505	8	31
XII	460505	460568	7	63
XII	460568	460612	8	44
XII	460612	460687	5	75
XII	460687	460788	5	101
XII	460788	460864	4	76
XII	460864	464236	1	3372
XII	464236	464249	9	13
XII	464249	464313	7	64
XII	464313	464340	6	27
XII	464340	464353	8	13
XII	464353	464390	7	37
XII	464390	464457	9	67
XII	464457	464520	4	63
XII	464520	464588	9	68
XII	464588	464614	8	26
XII	464614	464678	8	64
XII	464678	464706	9	28
XII	464706	464727	9	21
XII	464727	464744	9	17
XII	464744	464830	7	86
XII	464830	464846	7	16
XII	464846	464895	9	49
XII	464895	464917	8	22
XII	464917	464958	7	41
XII	464958	464985	9	27
XII	464985	465027	4	42
XII	465027	465091	8	64
XII	465091	465154	7	63
XII	465154	465192	8	38
XII	465192	465256	7	64
XII	465256	465280	9	24
XII	465280	465319	9	39
XII	465319	465355	9	36
XII	465355	466853	1	1498
XII	466853	466938	5	85
XII	466938	466962	9	24
XII	466962	467007	8	45
XII	467007	467028	9	21
XII	467028	467057	2	29
XII	467057	467075	6	18
XII	467075	467092	7	17
XII	467092	467145	3	53
XII	467145	467177	9	32
XII	467177	467209	9	32
XII	467209	467236	8	27
XII	467236	467277	5	41
XII	467277	467296	5	19
XII	467296	467334	9	38
XII	467334	467404	6	70
XII	467404	467471	2	67
XII	467471	467511	7	40
XII	467511	467538	8	27
XII	467538	467607	8	69
XII	467607	467647	8	40
XII	467647	467703	7	56
XII	467703	467755	7	52
XII	467755	467801	4	46
XII	467801	467831	6	30
XII	467831	467879	9	48
XII	467879	467902	8	23
XII	467902	467943	9	41
XII	467943	467980	8	37
XII	467980	468014	8	34
XII	468014	468048	9	34
XII	468048	468065	8	17
XII	468065	468145	7	80
XII	468145	468184	4	39
XII	468184	468211	9	27
XII	468211	468260	6	49
XII	468260	468327	9	67
XII	468327	468394	7	67
XII	468394	468423	9	29
XII	468423	468463	4	40
XII	468463	468504	9	41
XII	468504	468574	9	70
XII	468574	468622	9	48
XII	468622	468690	8	68
XII	468690	468755	7	65
XII	468755	468775	5	20
XII	468775	468902	8	127
XII	468902	479105	1	10203
XII	479105	489308	1	10203
XII	489308	489375	8	67
XII	489375	489410	9	35
XII	489410	489480	2	70
XII	489480	490090	1	610
XII	490090	490104	9	14
XII	490104	490128	7	24
XII	490128	490160	7	32
XII	490160	490224	8	64
XII	490224	490257	7	33
XII	490257	490301	7	44
XII	490301	490354	7	53
XII	490354	490389	6	35
XII	490389	490449	7	60
XII	490449	490479	7	30
XII	490479	592810	9	102535
XII	592810	593026	8	502
XII	593026	593132	9	111
XII	593132	599055	1	5923
XII	599055	605390	9	6359
XII	605390	605637	4	247
XII	605637	650818	9	45202
XII	650818	656743	1	5925
XII	656743	688049	9	31410
XII	688049	688109	8	61
XII	688109	688151	7	173
XII	688151	688180	8	98
XII	688180	688252	9	114
XII	688252	688481	8	229
XII	688481	731662	9	43236
XII	731662	731940	1	278
XII	731940	732000	3	60
XII	732000	734521	9	2579
XII	734521	734612	9	93
XII	734612	734704	9	92
XII	734704	793183	9	59124
XII	793183	793236	8	54
XII	793236	793257	8	21
XII	793257	793269	6	12
XII	793269	817896	9	24853
XII	817896	818108	9	212
XII	818108	818311	4	203
XII	818311	941191	9	123072
XII	941191	947155	1	5964
XII	947155	963070	9	16055
XII	963070	976035	9	12968
XII	976035	976077	8	42
XII	976077	976257	9	193
XII	976257	976327	3	71
XII	976327	976369	4	43
XII	976369	976538	2	173
XII	976538	981697	1	5159
XII	981697	1002919	9	21226
XII	1002919	1003050	9	131
XII	1003050	1003077	9	27
XII	1003077	1003674	8	711
XII	1003674	1003797	9	123
XII	1003797	1003893	8	96
XII	1003893	1059674	9	55991
XII	1059674	1059725	7	53
XII	1059725	1059771	7	46
XII	1059771	1060101	8	330
XII	1060101	1060191	7	90
XII	1060191	1060525	6	334
XII	1060525	1060750	6	225
XII	1060750	1060854	7	104
XII	1060854	1060978	9	124
XII	1060978	1061056	8	78
XII	1061056	1061119	5	63
XII	1061119	1061153	7	34
XII	1061153	1061224	5	71
XII	1061224	1061287	4	63
XII	1061287	1061380	6	93
XII	1061380	1061507	5	127
XII	1061507	1061556	4	49
XII	1061556	1061824	3	268
XII	1061824	1061869	3	45
XII	1061869	1061887	6	179
XII	1061887	1062091	6	361
XII	1062091	1062165	8	122
XII	1062165	1062336	7	184
XII	1062336	1062423	5	90
XII	1062423	1062626	5	212
XII	1062626	1062671	4	45
XII	1062671	1062729	2	58
XII	1062729	1062816	2	87
XII	1062816	1062878	1	62
XII	1062878	1062957	2	79
XII	1062957	1063222	1	265
XII	1063222	1063299	2	80
XII	1063299	1063347	3	52
XII	1063347	1063422	2	75
XII	1063422	1063694	1	272
XII	1063694	1063777	4	83
XII	1063777	1063836	1	59
XII	1063836	1063884	2	48
XII	1063884	1063913	4	29
XII	1063913	1063994	5	81
XII	1063994	1064032	2	38
XII	1064032	1064106	4	74
XII	1064106	1064134	6	28
XII	1064134	1064223	6	89
XII	1064223	1064291	5	68
XII	1064291	1064508	9	225
XII	1064508	1064567	9	59
XII	1064567	1064591	9	24
XII	1064591	1064636	8	47
XII	1064636	1064697	7	61
XII	1064697	1064729	6	32
XII	1064729	1064818	7	89
XII	1064818	1064935	6	117
XII	1064935	1065106	5	196
XII	1065106	1065131	5	26
XII	1065131	1065217	2	86
XII	1065217	1078177	1	12960
XVI	0	1579	1	1579
XVI	1579	1623	4	44
XVI	1623	1952	1	329
XVI	1952	3508	2	1556
XVI	3508	3571	2	63
XVI	3571	6344	3	2773
XVI	6344	6466	5	125
XVI	6466	6515	4	49
XVI	6515	6539	2	84
XVI	6539	6556	8	17
XVI	6556	6593	2	37
XVI	6593	6628	3	35
XVI	6628	6750	3	123
XVI	6750	6793	3	43
XVI	6793	6827	6	51
XVI	6827	6876	7	49
XVI	6876	6907	6	32
XVI	6907	7023	5	121
XVI	7023	7052	3	29
XVI	7052	7099	8	47
XVI	7099	7126	8	27
XVI	7126	7165	9	39
XVI	7165	7213	8	48
XVI	7213	7253	9	40
XVI	7253	7296	8	43
XVI	7296	7359	8	106
XVI	7359	7405	7	47
XVI	7405	7420	7	28
XVI	7420	7465	7	68
XVI	7465	7521	7	73
XVI	7521	7545	7	24
XVI	7545	7568	7	23
XVI	7568	7632	7	67
XVI	7632	7954	9	348
XVI	7954	7980	2	26
XVI	7980	8040	2	60
XVI	8040	8107	2	67
XVI	8107	8145	6	38
XVI	8145	8275	2	130
XVI	8275	9392	9	1120
XVI	9392	9455	6	63
XVI	9455	10770	8	1315
XVI	10770	12840	8	2367
XVI	12840	14832	8	2039
XVI	14832	14886	6	54
XVI	14886	16592	8	1769
XVI	16592	17569	8	1212
XVI	17569	17621	8	52
XVI	17621	23034	9	5439
XVI	23034	56228	9	33246
XVI	56228	56356	8	128
XVI	56356	56408	6	52
XVI	56408	56452	4	56
XVI	56452	56460	4	62
XVI	56460	56503	3	63
XVI	56503	56680	4	180
XVI	56680	56726	7	46
XVI	56726	56788	7	63
XVI	56788	63068	1	6280
XVI	63068	63976	6	920
XVI	63976	96760	9	32833
XVI	96760	97581	8	821
XVI	97581	98316	8	738
XVI	98316	135804	9	37613
XVI	135804	136328	7	524
XVI	136328	136391	8	63
XVI	136391	174144	9	37835
XVI	174144	174179	6	35
XVI	174179	174242	7	63
XVI	174242	174569	6	327
XVI	174569	174632	8	63
XVI	174632	338935	9	164689
XVI	338935	339307	9	387
XVI	339307	377402	9	38112
XVI	377402	377911	6	509
XVI	377911	436483	9	58826
XVI	436483	436540	8	57
XVI	436540	436884	7	345
XVI	436884	443112	1	6228
XVI	443112	560197	9	117454
XVI	560197	560238	8	41
XVI	560238	560298	9	60
XVI	560298	582046	9	21986
XVI	582046	582146	8	100
XVI	582146	622757	9	40731
XVI	622757	685882	9	63258
XVI	685882	687319	9	1437
XVI	687319	687405	9	86
XVI	687405	689490	9	2098
XVI	689490	689544	9	54
XVI	689544	689584	5	41
XVI	689584	700593	9	11031
XVI	700593	731245	9	30653
XVI	731245	776116	9	45483
XVI	776116	804645	9	28737
XVI	804645	810454	1	5809
XVI	810454	810568	9	114
XVI	810568	819375	9	8868
XVI	819375	819430	9	152
XVI	819430	838020	9	18892
XVI	838020	844446	9	6428
XVI	844446	856416	1	11970
XVI	856416	880538	9	24148
XVI	880538	880596	4	58
XVI	880596	880628	8	32
XVI	880628	939197	9	58710
XVI	939197	942514	9	3349
XVI	942514	942576	8	73
XVI	942576	942637	2	61
XVI	942637	942682	5	45
XVI	942682	942732	5	50
XVI	942732	942777	2	47
XVI	942777	942797	3	22
XVI	942797	946422	1	3625
XVI	946422	946550	2	128
XVI	946550	948066	1	1516
Mito	0	767	1	767
Mito	767	873	4	106
Mito	873	1628	1	755
Mito	1628	1702	2	75
Mito	1702	1746	8	44
Mito	1746	2090	1	344
Mito	2090	2125	2	35
Mito	2125	2164	9	66
Mito	2164	2251	1	87
Mito	2251	2401	2	150
Mito	2401	2471	2	70
Mito	2471	2496	2	25
Mito	2496	2634	2	145
Mito	2634	2938	2	308
Mito	2938	3298	2	361
Mito	3298	3361	8	132
Mito	3361	3412	9	60
Mito	3412	3439	4	31
Mito	3439	3595	2	156
Mito	3595	3631	3	36
Mito	3631	3713	2	82
Mito	3713	3876	2	163
Mito	3876	3882	3	121
Mito	3882	3914	7	32
Mito	3914	4030	1	116
Mito	4030	4152	2	123
Mito	4152	4271	1	119
Mito	4271	4297	2	26
Mito	4297	4367	2	70
Mito	4367	4496	3	129
Mito	4496	4529	3	41
Mito	4529	4754	4	256
Mito	4754	4866	4	141
Mito	4866	4966	4	104
Mito	4966	5082	3	116
Mito	5082	5428	2	346
Mito	5428	5467	6	46
Mito	5467	5517	2	247
Mito	5517	5761	8	272
Mito	5761	5837	9	244
Mito	5837	5990	8	164
Mito	5990	6388	8	513
Mito	6388	6454	4	66
Mito	6454	6481	6	27
Mito	6481	6517	5	36
Mito	6517	6622	6	126
Mito	6622	6675	2	53
Mito	6675	7508	9	956
Mito	7508	7562	6	54
Mito	7562	7627	6	66
Mito	7627	7689	8	127
Mito	7689	8194	9	667
Mito	8194	8669	9	1320
Mito	8669	11246	2	3079
Mito	11246	11309	5	64
Mito	11309	11550	2	241
Mito	11550	11980	3	430
Mito	11980	11993	5	152
Mito	11993	12146	3	160
Mito	12146	12425	8	292
Mito	12425	12493	3	68
Mito	12493	12515	6	28
Mito	12515	12578	5	204
Mito	12578	12639	6	61
Mito	12639	12719	7	80
Mito	12719	12765	5	46
Mito	12765	12828	7	63
Mito	12828	12889	7	61
Mito	12889	13213	8	606
Mito	13213	13238	8	29
Mito	13238	13383	8	161
Mito	13383	13541	8	164
Mito	13541	13582	9	42
Mito	13582	13741	1	159
Mito	13741	13802	6	61
Mito	13802	13866	7	64
Mito	13866	13986	3	120
Mito	13986	16424	1	2438
Mito	16424	18770	2	2347
Mito	18770	18846	1	111
Mito	18846	18946	2	100
Mito	18946	19663	9	797
Mito	19663	19830	9	172
Mito	19830	19866	5	36
Mito	19866	20015	2	150
Mito	20015	20326	9	343
Mito	20326	20383	9	192
Mito	20383	20449	7	66
Mito	20449	20878	9	447
Mito	20878	20942	9	64
Mito	20942	21913	9	1328
Mito	21913	22111	8	216
Mito	22111	22677	9	650
Mito	22677	23294	9	818
Mito	23294	23408	4	176
Mito	23408	23744	9	432
Mito	23744	23876	9	134
Mito	23876	23942	6	66
Mito	23942	23989	6	47
Mito	23989	24013	9	24
Mito	24013	24069	9	57
Mito	24069	24187	6	118
Mito	24187	24396	9	222
Mito	24396	24432	9	36
Mito	24432	24514	9	90
Mito	24514	24565	9	51
Mito	24565	24602	3	37
Mito	24602	24685	5	83
Mito	24685	24842	9	162
Mito	24842	24938	9	96
Mito	24938	24998	9	67
Mito	24998	25190	9	414
Mito	25190	25342	9	216
Mito	25342	25789	2	447
Mito	25789	25832	2	43
Mito	25832	25863	3	31
Mito	25863	25896	6	39
Mito	25896	25920	9	24
Mito	25920	26005	2	85
Mito	26005	26121	3	144
Mito	26121	26229	2	108
Mito	26229	26505	9	365
Mito	26505	26658	8	176
Mito	26658	26680	8	22
Mito	26680	26777	4	105
Mito	26777	26788	8	11
Mito	26788	26849	7	73
Mito	26849	26880	3	31
Mito	26880	26903	8	51
Mito	26903	26920	8	34
Mito	26920	26935	7	15
Mito	26935	26964	8	29
Mito	26964	27236	8	412
Mito	27236	27536	9	321
Mito	27536	27609	9	87
Mito	27609	27812	8	285
Mito	27812	28374	9	1689
Mito	28374	28397	8	50
Mito	28397	28480	9	85
Mito	28480	29102	9	657
Mito	29102	29244	9	174
Mito	29244	29902	9	1009
Mito	29902	29954	5	62
Mito	29954	30017	5	64
Mito	30017	30040	7	152
Mito	30040	30170	7	259
Mito	30170	30235	6	65
Mito	30235	30280	6	45
Mito	30280	30299	7	19
Mito	30299	30347	6	48
Mito	30347	30379	8	32
Mito	30379	30655	7	281
Mito	30655	30959	6	328
Mito	30959	31217	7	268
Mito	31217	31464	6	291
Mito	31464	31833	5	369
Mito	31833	31959	6	145
Mito	31959	32202	5	244
Mito	32202	32245	6	43
Mito	32245	32531	6	419
Mito	32531	33170	7	966
Mito	33170	33302	6	268
Mito	33302	33624	7	330
Mito	33624	33731	6	235
Mito	33731	33994	7	263
Mito	33994	34068	8	74
Mito	34068	34123	8	56
Mito	34123	34676	7	567
Mito	34676	34801	7	259
Mito	34801	34871	7	70
Mito	34871	34920	8	52
Mito	34920	35003	8	106
Mito	35003	35114	7	380
Mito	35114	35293	7	181
Mito	35293	35408	9	207
Mito	35408	35495	8	87
Mito	35495	35623	8	154
Mito	35623	35735	8	123
Mito	35735	35898	9	269
Mito	35898	36160	8	357
Mito	36160	36418	6	664
Mito	36418	36479	7	78
Mito	36479	36586	8	130
Mito	36586	36977	5	483
Mito	36977	36994	6	22
Mito	36994	37087	6	97
Mito	37087	37124	5	48
Mito	37124	37312	6	243
Mito	37312	37371	7	70
Mito	37371	37543	8	368
Mito	37543	37649	8	140
Mito	37649	37717	8	98
Mito	37717	37883	8	282
Mito	37883	37952	8	105
Mito	37952	38024	8	86
Mito	38024	38151	8	267
Mito	38151	38203	8	69
Mito	38203	38236	7	37
Mito	38236	38280	6	69
Mito	38280	38392	8	144
Mito	38392	38455	8	77
Mito	38455	38671	8	380
Mito	38671	38725	8	129
Mito	38725	38751	8	45
Mito	38751	38803	8	53
Mito	38803	38842	8	39
Mito	38842	38866	7	38
Mito	38866	38999	8	220
Mito	38999	39138	5	160
Mito	39138	39164	6	26
Mito	39164	39269	6	106
Mito	39269	39411	5	194
Mito	39411	39455	9	44
Mito	39455	39512	6	66
Mito	39512	39598	5	86
Mito	39598	39661	6	105
Mito	39661	40692	5	1221
Mito	40692	41482	5	790
Mito	41482	41600	6	161
Mito	41600	42846	5	1382
Mito	42846	42876	6	30
Mito	42876	42909	7	126
Mito	42909	43304	6	459
Mito	43304	43383	7	79
Mito	43383	43529	6	242
Mito	43529	43554	7	59
Mito	43554	43972	6	482
Mito	43972	44137	7	209
Mito	44137	44164	6	45
Mito	44164	44177	7	23
Mito	44177	44221	7	155
Mito	44221	44386	6	172
Mito	44386	44474	7	88
Mito	44474	44585	6	111
Mito	44585	44736	7	151
Mito	44736	44800	6	65
Mito	44800	44874	7	74
Mito	44874	44945	5	280
Mito	44945	44992	6	145
Mito	44992	45217	5	344
Mito	45217	45239	6	300
Mito	45239	45303	7	84
Mito	45303	45974	6	837
Mito	45974	46103	7	170
Mito	46103	46220	8	122
Mito	46220	46381	7	161
Mito	46381	46513	8	134
Mito	46513	46592	8	79
Mito	46592	46706	8	226
Mito	46706	48015	7	1328
Mito	48015	48141	8	126
Mito	48141	48468	7	393
Mito	48468	48767	7	465
Mito	48767	48885	8	210
Mito	48885	49699	7	916
Mito	49699	49780	6	190
Mito	49780	49866	7	86
Mito	49866	50106	7	247
Mito	50106	50261	7	319
Mito	50261	50689	7	448
Mito	50689	50814	7	132
Mito	50814	50904	7	100
Mito	50904	51047	8	237
Mito	51047	51094	7	47
Mito	51094	51166	6	157
Mito	51166	51672	7	564
Mito	51672	51717	7	45
Mito	51717	51861	7	144
Mito	51861	51924	7	208
Mito	51924	52165	6	248
Mito	52165	52250	7	88
Mito	52250	52320	7	275
Mito	52320	52423	7	107
Mito	52423	53498	6	1357
Mito	53498	53608	7	114
Mito	53608	53664	7	56
Mito	53664	53730	7	78
Mito	53730	53769	7	56
Mito	53769	53827	6	58
Mito	53827	53890	7	63
Mito	53890	53935	6	45
Mito	53935	53986	7	52
Mito	53986	54575	6	591
Mito	54575	54825	7	456
Mito	54825	55321	6	678
Mito	55321	55384	7	63
Mito	55384	55508	8	124
Mito	55508	55552	7	49
Mito	55552	55679	7	127
Mito	55679	56823	6	1372
Mito	56823	56984	6	161
Mito	56984	57029	7	45
Mito	57029	57146	7	210
Mito	57146	57461	6	444
Mito	57461	57523	7	171
Mito	57523	57586	8	63
Mito	57586	57799	7	215
Mito	57799	57866	8	87
Mito	57866	59060	7	1287
Mito	59060	59139	8	79
Mito	59139	59437	7	370
Mito	59437	60787	6	1481
Mito	60787	60812	7	30
Mito	60812	60918	8	134
Mito	60918	60986	9	90
Mito	60986	61096	9	126
Mito	61096	61213	7	199
Mito	61213	61334	9	310
Mito	61334	61374	8	56
Mito	61374	61412	8	53
Mito	61412	61602	9	404
Mito	61602	62045	6	722
Mito	62045	62096	8	101
Mito	62096	62118	7	31
Mito	62118	62170	6	68
Mito	62170	62230	5	113
Mito	62230	62264	6	34
Mito	62264	62542	8	410
Mito	62542	62605	9	70
Mito	62605	62691	5	177
Mito	62691	62724	6	36
Mito	62724	62767	9	47
Mito	62767	62951	9	301
Mito	62951	63639	6	1191
Mito	63639	63696	5	97
Mito	63696	63744	6	51
Mito	63744	63841	7	118
Mito	63841	63872	6	89
Mito	63872	64031	7	204
Mito	64031	64090	6	63
Mito	64090	64095	6	225
Mito	64095	64177	7	182
Mito	64177	64187	8	26
Mito	64187	64245	8	94
Mito	64245	64323	9	224
Mito	64323	64423	8	260
Mito	64423	64745	9	556
Mito	64745	64834	8	201
Mito	64834	65361	9	1018
Mito	65361	65438	8	260
Mito	65438	65542	8	142
Mito	65542	66296	9	1229
Mito	66296	66325	8	78
Mito	66325	66351	8	304
Mito	66351	66424	9	104
Mito	66424	66489	9	85
Mito	66489	66530	9	80
Mito	66530	66639	8	284
Mito	66639	67097	9	587
Mito	67097	67192	8	155
Mito	67192	67253	8	62
Mito	67253	67587	9	337
Mito	67587	67728	8	289
Mito	67728	67737	9	14
Mito	67737	68642	8	1265
Mito	68642	68723	9	173
Mito	68723	68807	8	244
Mito	68807	68914	8	397
Mito	68914	69051	9	337
Mito	69051	69117	8	86
Mito	69117	69153	9	157
Mito	69153	69179	8	62
Mito	69179	69444	9	750
Mito	69444	69495	8	51
Mito	69495	69671	9	204
Mito	69671	69746	9	88
Mito	69746	70281	9	554
Mito	70281	70797	9	1230
Mito	70797	70888	9	235
Mito	70888	70924	9	46
Mito	70924	71001	9	235
Mito	71001	71077	9	95
Mito	71077	71132	8	135
Mito	71132	71353	9	322
Mito	71353	71433	9	118
Mito	71433	71465	8	42
Mito	71465	71849	9	751
Mito	71849	71966	9	270
Mito	71966	72130	9	308
Mito	72130	72152	9	35
Mito	72152	72199	8	139
Mito	72199	72384	9	442
Mito	72384	72432	8	53
Mito	72432	72456	9	25
Mito	72456	73448	9	1872
Mito	73448	73457	8	32
Mito	73457	73885	8	602
Mito	73885	74576	9	744
Mito	74576	74627	9	51
Mito	74627	74850	9	272
Mito	74850	74910	9	117
Mito	74910	75509	9	912
Mito	75509	75605	9	202
Mito	75605	75845	9	311
Mito	75845	76016	8	227
Mito	76016	76188	9	276
Mito	76188	76274	9	112
Mito	76274	76280	8	28
Mito	76280	76311	7	31
Mito	76311	76499	9	247
Mito	76499	76797	7	312
Mito	76797	76927	6	386
Mito	76927	77184	7	287
Mito	77184	77330	8	294
Mito	77330	77381	8	229
Mito	77381	77444	8	96
Mito	77444	77769	9	384
Mito	77769	77854	9	98
Mito	77854	77945	9	98
Mito	77945	78096	8	179
Mito	78096	78354	9	533
Mito	78354	78386	8	32
Mito	78386	78630	9	325
Mito	78630	78719	7	92
Mito	78719	78748	3	137
Mito	78748	78868	7	226
Mito	78868	78891	4	23
Mito	78891	78957	1	66
Mito	78957	79009	6	52
Mito	79009	79097	1	88
Mito	79097	79256	4	159
Mito	79256	79440	1	184
Mito	79440	79479	2	39
Mito	79479	79534	4	55
Mito	79534	80026	1	492
Mito	80026	80163	2	162
Mito	80163	80223	2	61
Mito	80223	80344	2	121
Mito	80344	80381	1	37
Mito	80381	80432	7	71
Mito	80432	80495	7	65
Mito	80495	80564	4	69
Mito	80564	80617	2	53
Mito	80617	80618	2	30
Mito	80618	80876	2	300
Mito	80876	81020	6	242
Mito	81020	81147	2	168
Mito	81147	81261	6	114
Mito	81261	81285	8	147
Mito	81285	81301	9	25
Mito	81301	81378	8	254
Mito	81378	81498	8	123
Mito	81498	81652	9	167
Mito	81652	81667	8	30
Mito	81667	81674	8	27
Mito	81674	81746	7	75
Mito	81746	81795	8	49
Mito	81795	81856	9	222
Mito	81856	81929	8	120
Mito	81929	82033	9	118
Mito	82033	82155	9	136
Mito	82155	82217	7	142
Mito	82217	82277	5	60
Mito	82277	82325	9	53
Mito	82325	82328	7	154
Mito	82328	82618	8	857
Mito	82618	84593	8	2659
Mito	84593	84647	7	186
Mito	84647	85201	9	755
Mito	85201	85249	8	49
Mito	85249	85310	8	129
Mito	85310	85571	9	441
Mito	85571	85650	9	88
Mito	85650	85679	4	39
Mito	85679	85779	1	100
IV	0	654	1	654
IV	654	683	8	29
IV	683	706	8	23
IV	706	734	8	28
IV	734	844	1	110
IV	844	869	6	25
IV	869	1005	4	138
IV	1005	1107	4	102
IV	1107	1638	1	531
IV	1638	1735	2	97
IV	1735	2147	1	412
IV	2147	2274	3	127
IV	2274	3008	9	734
IV	3008	15748	1	12740
IV	15748	15777	2	32
IV	15777	15833	8	63
IV	15833	16018	4	186
IV	16018	16070	4	53
IV	16070	16120	4	50
IV	16120	16362	1	242
IV	16362	16653	2	291
IV	16653	16928	3	275
IV	16928	16970	1	42
IV	16970	17003	3	33
IV	17003	17067	1	64
IV	17067	17187	3	120
IV	17187	17360	2	173
IV	17360	17909	3	549
IV	17909	17957	5	48
IV	17957	17993	8	36
IV	17993	44313	9	26359
IV	44313	44529	6	216
IV	44529	127635	9	83274
IV	127635	128997	1	1362
IV	128997	134392	9	5397
IV	134392	134455	8	63
IV	134455	227632	9	93293
IV	227632	359430	9	132004
IV	359430	359567	8	137
IV	359567	359615	9	48
IV	359615	383727	9	24136
IV	383727	383836	8	109
IV	383836	383923	9	126
IV	383923	383938	9	151
IV	383938	383956	8	67
IV	383956	383961	8	340
IV	383961	384013	7	88
IV	384013	384052	8	147
IV	384052	384159	7	176
IV	384159	384166	7	72
IV	384166	384205	8	51
IV	384205	384311	7	142
IV	384311	384346	8	124
IV	384346	384372	7	57
IV	384372	384423	8	56
IV	384423	384469	8	49
IV	384469	384518	6	290
IV	384518	384542	8	44
IV	384542	384626	9	84
IV	384626	408314	9	23896
IV	408314	434425	9	26318
IV	434425	434902	1	477
IV	434902	437143	9	2417
IV	437143	437196	1	53
IV	437196	437263	2	89
IV	437263	437290	3	31
IV	437290	437359	4	69
IV	437359	437406	8	47
IV	437406	437445	8	39
IV	437445	437518	3	89
IV	437518	437605	9	272
IV	437605	437655	8	50
IV	437655	471851	9	34272
IV	471851	512987	9	41409
IV	512987	519317	1	6512
IV	519317	527249	9	8325
IV	527249	535010	1	7761
IV	535010	620023	9	85153
IV	620023	620053	9	30
IV	620053	645114	9	25089
IV	645114	645167	9	53
IV	645167	645227	8	271
IV	645227	645615	1	388
IV	645615	645707	9	101
IV	645707	645772	7	65
IV	645772	645835	9	63
IV	645835	651497	1	5662
IV	651497	668096	9	16700
IV	668096	668141	1	45
IV	668141	668235	9	96
IV	668235	668337	9	106
IV	668337	668358	8	30
IV	668358	668417	7	78
IV	668417	668513	9	108
IV	668513	757443	9	89059
IV	757443	757502	7	59
IV	757502	757531	5	29
IV	757531	757615	5	84
IV	757615	757672	7	61
IV	757672	757698	5	26
IV	757698	757763	6	65
IV	757763	757815	6	52
IV	757815	757859	8	44
IV	757859	757922	9	63
IV	757922	757997	8	75
IV	757997	758021	7	24
IV	758021	758053	9	32
IV	758053	759628	1	1575
IV	759628	759725	4	97
IV	759725	759781	3	56
IV	759781	803029	9	43276
IV	803029	805524	1	2496
IV	805524	871818	9	66450
IV	871818	871835	8	17
IV	871835	877799	1	5964
IV	877799	877824	6	25
IV	877824	877981	5	157
IV	877981	878302	9	321
IV	878302	884225	1	5923
IV	884225	945954	9	61816
IV	945954	946300	1	346
IV	946300	946371	9	148
IV	946371	981242	9	34944
IV	981242	981258	8	190
IV	981258	981379	1	121
IV	981379	981402	9	23
IV	981402	981455	8	54
IV	981455	981492	9	38
IV	981492	991101	1	9609
IV	991101	991450	9	349
IV	991450	991491	8	41
IV	991491	991505	9	77
IV	991505	991608	8	166
IV	991608	991671	1	63
IV	991671	992326	9	656
IV	992326	992659	9	340
IV	992659	992742	7	83
IV	992742	1017381	9	24736
IV	1017381	1017457	9	76
IV	1017457	1017570	9	113
IV	1017570	1023136	9	5574
IV	1023136	1023482	1	346
IV	1023482	1087757	9	64372
IV	1087757	1087790	7	33
IV	1087790	1088661	8	874
IV	1088661	1095766	9	7110
IV	1095766	1101697	1	5931
IV	1101697	1150902	9	49240
IV	1150902	1151048	8	148
IV	1151048	1151049	8	63
IV	1151049	1154160	9	3112
IV	1154160	1154223	8	63
IV	1154223	1154262	3	39
IV	1154262	1154360	4	98
IV	1154360	1154393	2	33
IV	1154393	1154443	2	50
IV	1154443	1154488	7	45
IV	1154488	1154665	6	177
IV	1154665	1154896	3	231
IV	1154896	1154959	6	63
IV	1154959	1155098	4	139
IV	1155098	1155211	2	113
IV	1155211	1155355	4	144
IV	1155355	1155398	8	43
IV	1155398	1159552	9	4187
IV	1159552	1159615	6	63
IV	1159615	1159689	9	74
IV	1159689	1159835	8	146
IV	1159835	1160038	5	203
IV	1160038	1160255	5	217
IV	1160255	1160298	4	43
IV	1160298	1160351	5	53
IV	1160351	1160490	7	139
IV	1160490	1160540	3	50
IV	1160540	1160747	6	207
IV	1160747	1160804	6	57
IV	1160804	1161142	6	338
IV	1161142	1164153	9	3053
IV	1164153	1164294	3	141
IV	1164294	1175154	9	10868
IV	1175154	1175203	8	49
IV	1175203	1175310	9	119
IV	1175310	1175645	1	335
IV	1175645	1201410	9	25770
IV	1201410	1206706	9	5298
IV	1206706	1212629	1	5923
IV	1212629	1245761	9	33140
IV	1245761	1305525	9	59818
IV	1305525	1305583	8	58
IV	1305583	1305618	9	37
IV	1305618	1305657	8	39
IV	1305657	1307646	9	1990
IV	1307646	1307690	9	44
IV	1307690	1307939	1	249
IV	1307939	1308157	2	218
IV	1308157	1308186	2	29
IV	1308186	1308241	3	71
IV	1308241	1308279	5	38
IV	1308279	1308341	7	62
IV	1308341	1308404	7	63
IV	1308404	1308426	9	22
IV	1308426	1308485	6	59
IV	1308485	1352480	9	44031
IV	1352480	1352569	8	89
IV	1352569	1352592	8	24
IV	1352592	1352650	4	58
IV	1352650	1352703	3	53
IV	1352703	1352860	2	163
IV	1352860	1352911	4	57
IV	1352911	1352938	5	38
IV	1352938	1352975	2	37
IV	1352975	1461923	9	109073
IV	1461923	1504509	9	42811
IV	1504509	1523342	9	19352
IV	1523342	1523436	7	94
IV	1523436	1523542	6	106
IV	1523542	1523563	6	21
IV	1523563	1523753	4	220
IV	1523753	1523788	4	35
IV	1523788	1523944	3	213
IV	1523944	1524033	2	89
IV	1524033	1524126	3	93
IV	1524126	1524193	2	67
IV	1524193	1524235	3	42
IV	1524235	1524269	3	34
IV	1524269	1524324	7	55
IV	1524324	1524387	2	63
IV	1524387	1524449	5	62
IV	1524449	1524478	4	29
IV	1524478	1524566	1	88
IV	1524566	1524782	3	216
IV	1524782	1525035	3	376
IV	1525035	1525125	3	100
IV	1525125	1525154	4	33
IV	1525154	1525226	3	79
IV	1525226	1525411	3	194
IV	1525411	1531933	1	6522
V	0	6338	1	6338
V	6338	6366	8	101
V	6366	6481	9	137
V	6481	6531	7	50
V	6531	6706	7	176
V	6706	6791	8	86
V	6791	6839	6	48
V	6839	6902	5	63
V	6902	7144	3	242
V	7144	10057	6	2914
V	10057	20784	9	10748
V	20784	20871	6	87
V	20871	20921	4	50
V	20921	20975	5	54
V	20975	21225	5	250
V	21225	21503	3	280
V	21503	21552	4	49
V	21552	21583	2	31
V	21583	21677	6	94
V	21677	21704	7	27
V	21704	21741	4	37
V	21741	21864	9	123
V	21864	21939	5	75
V	21939	22037	3	98
V	22037	22100	8	63
V	22100	22187	1	87
V	22187	22263	4	76
V	22263	22368	2	105
V	22368	22700	2	332
V	22700	22748	4	48
V	22748	22907	3	159
V	22907	23054	4	147
V	23054	23123	6	69
V	23123	23168	9	45
V	23168	62089	9	39049
V	62089	62201	9	112
V	62201	63784	9	1583
V	63784	63981	8	197
V	63981	100050	9	36167
V	100050	118283	9	18412
V	118283	118396	8	442
V	118396	131164	9	12774
V	131164	136106	9	4944
V	136106	138444	9	2346
V	138444	177006	9	38749
V	177006	249032	9	72410
V	249032	249929	9	907
V	249929	249951	7	22
V	249951	249999	5	49
V	249999	250035	7	49
V	250035	250064	8	37
V	250064	250111	7	47
V	250111	250178	6	67
V	250178	250269	3	91
V	250269	277758	9	27646
V	277758	277915	4	157
V	277915	289835	9	11924
V	289835	290386	8	551
V	290386	290449	8	63
V	290449	354362	9	64083
V	354362	354412	6	50
V	354412	354451	7	39
V	354451	354511	7	60
V	354511	354602	6	91
V	354602	354643	6	41
V	354643	354669	6	26
V	354669	354736	9	67
V	354736	363237	9	9025
V	363237	363640	6	403
V	363640	363703	7	63
V	363703	431531	9	68012
V	431531	431861	1	330
V	431861	434625	9	2772
V	434625	434711	9	86
V	434711	434971	1	262
V	434971	435915	9	944
V	435915	435949	5	197
V	435949	436019	4	70
V	436019	436045	3	26
V	436045	436283	1	246
V	436283	436371	5	145
V	436371	438606	9	2252
V	438606	438713	8	108
V	438713	438783	9	406
V	438783	442627	9	3847
V	442627	443396	9	1622
V	443396	443466	3	70
V	443466	449320	1	5854
V	449320	449359	6	39
V	449359	449522	2	164
V	449522	449570	1	49
V	449570	449652	2	82
V	449652	449715	6	93
V	449715	469304	9	19864
V	469304	469342	7	84
V	469342	469383	1	41
V	469383	469406	2	29
V	469406	487833	9	18450
V	487833	488170	1	337
V	488170	492433	9	4285
V	492433	498510	1	6077
V	498510	498671	9	161
V	498671	551620	9	53306
V	551620	566864	9	15632
V	566864	566955	8	91
V	566955	566991	8	36
V	566991	568768	5	1778
V	568768	568887	7	135
V	568887	569041	7	160
V	569041	569117	5	76
V	569117	569183	6	70
V	569183	569234	6	98
V	569234	569318	7	84
V	569318	569449	6	131
V	569449	569596	9	162
V	569596	569878	9	282
V	569878	570010	8	138
V	570010	570082	9	77
V	570082	570102	8	21
V	570102	570129	8	27
V	570129	570173	8	44
V	570173	570331	7	165
V	570331	576874	1	6543
VII	0	290	1	290
VII	290	317	4	27
VII	317	510	4	199
VII	510	545	3	35
VII	545	607	3	62
VII	607	633	5	26
VII	633	665	5	32
VII	665	807	4	142
VII	807	857	8	73
VII	857	894	9	37
VII	894	941	8	141
VII	941	1082	9	221
VII	1082	1117	8	40
VII	1117	3039	8	1922
VII	3039	3126	9	87
VII	3126	3328	9	202
VII	3328	3373	8	45
VII	3373	3426	7	53
VII	3426	3473	6	47
VII	3473	3667	7	194
VII	3667	6230	8	2565
VII	6230	6345	6	118
VII	6345	6377	5	32
VII	6377	6417	6	40
VII	6417	6493	5	76
VII	6493	6579	5	86
VII	6579	6633	2	54
VII	6633	6922	3	289
VII	6922	7012	6	91
VII	7012	7168	5	159
VII	7168	7247	6	79
VII	7247	7319	7	76
VII	7319	7988	8	889
VII	7988	10314	9	2346
VII	10314	10385	5	71
VII	10385	10732	6	350
VII	10732	10895	8	163
VII	10895	73911	9	63134
VII	73911	110854	9	36990
VII	110854	110915	2	61
VII	110915	110997	5	82
VII	110997	111103	3	106
VII	111103	111162	2	59
VII	111162	111230	9	68
VII	111230	114947	9	3840
VII	114947	114987	9	40
VII	114987	115020	9	34
VII	115020	115081	9	63
VII	115081	115179	8	98
VII	115179	115242	8	63
VII	115242	115378	7	136
VII	115378	115392	8	23
VII	115392	121175	9	5845
VII	121175	121588	9	414
VII	121588	205093	9	83658
VII	205093	205128	8	35
VII	205128	205325	9	200
VII	205325	254655	9	49394
VII	254655	255242	8	587
VII	255242	287408	9	32261
VII	287408	287461	9	53
VII	287461	319430	9	31977
VII	319430	319754	1	324
VII	319754	319793	2	39
VII	319793	328269	9	8882
VII	328269	364404	9	36193
VII	364404	364829	6	425
VII	364829	364857	9	28
VII	364857	364892	9	35
VII	364892	401890	9	37037
VII	401890	401959	8	69
VII	401959	402027	8	68
VII	402027	402106	5	79
VII	402106	402180	1	74
VII	402180	402237	2	57
VII	402237	402291	5	54
VII	402291	402321	8	30
VII	402321	402365	8	44
VII	402365	402564	3	201
VII	402564	402677	4	113
VII	402677	402859	5	183
VII	402859	403276	3	417
VII	403276	403629	4	358
VII	403629	403730	5	101
VII	403730	404367	9	658
VII	404367	404422	9	55
VII	404422	404550	9	130
VII	404550	404826	9	277
VII	404826	404913	8	94
VII	404913	404933	5	20
VII	404933	404976	3	43
VII	404976	405065	9	89
VII	405065	405109	7	44
VII	405109	405170	2	118
VII	405170	405199	5	55
VII	405199	405228	8	55
VII	405228	405237	6	50
VII	405237	405353	8	116
VII	405353	405389	9	38
VII	405389	405453	9	69
VII	405453	412462	9	7012
VII	412462	422805	9	10354
VII	422805	423080	9	275
VII	423080	423216	4	136
VII	423216	440918	9	17780
VII	440918	531514	9	90916
VII	531514	535219	9	3918
VII	535219	535682	9	469
VII	535682	535750	9	68
VII	535750	535878	1	128
VII	535878	535970	2	92
VII	535970	536034	1	64
VII	536034	536173	9	139
VII	536173	539087	9	2955
VII	539087	540116	9	1113
VII	540116	541345	9	1229
VII	541345	541421	9	76
VII	541421	541476	8	55
VII	541476	541521	2	45
VII	541521	541615	3	94
VII	541615	541681	4	66
VII	541681	561714	9	20044
VII	561714	561755	8	41
VII	561755	561848	9	93
VII	561848	561906	4	61
VII	561906	567760	1	5854
VII	567760	568741	9	982
VII	568741	574706	1	5965
VII	574706	648467	9	73911
VII	648467	648724	8	257
VII	648724	701157	9	52748
VII	701157	701230	9	92
VII	701230	701243	8	101
VII	701243	701277	7	198
VII	701277	707072	9	5851
VII	707072	707195	8	124
VII	707195	712551	1	5356
VII	712551	712667	8	116
VII	712667	712688	5	21
VII	712688	712752	4	64
VII	712752	735480	9	23075
VII	735480	735529	8	49
VII	735529	735989	9	519
VII	735989	736261	1	272
VII	736261	736324	7	66
VII	736324	763876	9	27592
VII	763876	811446	9	48043
VII	811446	811488	4	42
VII	811488	811517	5	29
VII	811517	811758	2	242
VII	811758	823304	1	11546
VII	823304	823329	2	25
VII	823329	828796	9	5471
VII	828796	845621	9	16844
VII	845621	845719	9	98
VII	845719	876098	9	30411
VII	876098	876208	9	146
VII	876208	878768	9	2579
VII	878768	878888	8	138
VII	878888	879073	9	185
VII	879073	882874	9	3802
VII	882874	883096	6	222
VII	883096	883393	7	320
VII	883393	883456	7	63
VII	883456	931170	9	47752
VII	931170	931261	9	92
VII	931261	931544	2	283
VII	931544	931690	9	146
VII	931690	932027	1	337
VII	932027	1000925	9	69183
VII	1000925	1068538	9	67750
VII	1068538	1068652	3	114
VII	1068652	1068677	3	25
VII	1068677	1068713	4	36
VII	1068713	1068797	4	84
VII	1068797	1068830	3	33
VII	1068830	1068930	4	100
VII	1068930	1068993	6	63
VII	1068993	1076129	9	7163
VII	1076129	1076656	8	528
VII	1076656	1077683	9	1045
VII	1077683	1077942	8	259
VII	1077942	1080365	6	2424
VII	1080365	1080392	8	27
VII	1080392	1080505	8	113
VII	1080505	1080605	9	100
VII	1080605	1081193	9	800
VII	1081193	1081325	9	132
VII	1081325	1081382	4	57
VII	1081382	1081411	6	29
VII	1081411	1081445	5	34
VII	1081445	1081529	9	84
VII	1081529	1081556	9	27
VII	1081556	1081590	9	34
VII	1081590	1081626	3	36
VII	1081626	1081685	9	59
VII	1081685	1081733	7	48
VII	1081733	1081823	4	90
VII	1081823	1081893	5	70
VII	1081893	1081937	5	44
VII	1081937	1082000	3	63
VII	1082000	1082099	3	99
VII	1082099	1082138	5	39
VII	1082138	1082253	4	115
VII	1082253	1082358	7	105
VII	1082358	1082421	3	63
VII	1082421	1082459	6	38
VII	1082459	1082484	3	25
VII	1082484	1082540	5	56
VII	1082540	1082592	6	52
VII	1082592	1082655	4	63
VII	1082655	1082705	5	50
VII	1082705	1082769	2	64
VII	1082769	1082808	4	39
VII	1082808	1082843	4	35
VII	1082843	1082970	2	127
VII	1082970	1083086	3	116
VII	1083086	1083176	5	90
VII	1083176	1083256	2	80
VII	1083256	1083314	1	58
VII	1083314	1083390	2	76
VII	1083390	1083437	5	47
VII	1083437	1083476	2	39
VII	1083476	1083577	4	101
VII	1083577	1083764	4	189
VII	1083764	1083809	1	45
VII	1083809	1083885	2	76
VII	1083885	1083935	7	51
VII	1083935	1083979	8	50
VII	1083979	1084043	8	65
VII	1084043	1084077	8	34
VII	1084077	1084103	8	26
VII	1084103	1084165	7	62
VII	1084165	1084215	9	52
VII	1084215	1084249	6	71
VII	1084249	1084280	7	41
VII	1084280	1084340	4	60
VII	1084340	1090940	1	6600
X	0	12	7	12
X	12	64	6	79
X	64	465	7	422
X	465	1370	7	905
X	1370	1763	8	393
X	1763	2414	7	901
X	2414	3834	7	1420
X	3834	3867	7	33
X	3867	3970	7	103
X	3970	5662	7	1692
X	5662	5833	8	171
X	5833	6048	7	215
X	6048	6263	8	215
X	6263	6806	7	544
X	6806	7224	1	418
X	7224	7295	6	72
X	7295	7353	3	58
X	7353	7479	1	126
X	7479	7551	4	72
X	7551	7645	3	94
X	7645	7672	3	27
X	7672	7847	2	175
X	7847	7873	9	26
X	7873	7930	7	57
X	7930	7981	1	51
X	7981	8075	2	94
X	8075	8155	4	80
X	8155	8204	6	49
X	8204	8283	4	79
X	8283	8366	3	83
X	8366	9221	1	855
X	9221	9281	5	60
X	9281	9359	6	79
X	9359	9420	7	61
X	9420	9582	1	162
X	9582	9689	2	107
X	9689	10334	1	645
X	10334	10396	6	62
X	10396	10513	8	129
X	10513	10587	9	74
X	10587	10682	7	183
X	10682	10717	6	36
X	10717	10809	7	92
X	10809	13034	6	2353
X	13034	13088	5	63
X	13088	13267	6	206
X	13267	13847	4	580
X	13847	14667	5	820
X	14667	15326	8	659
X	15326	16787	9	1468
X	16787	16827	9	40
X	16827	16893	4	66
X	16893	16965	3	72
X	16965	17048	7	83
X	17048	17209	8	161
X	17209	17960	2	751
X	17960	18047	3	87
X	18047	18088	2	41
X	18088	19838	1	1750
X	19838	20015	3	177
X	20015	20221	4	206
X	20221	20348	4	127
X	20348	20398	3	50
X	20398	20447	3	49
X	20447	20477	2	30
X	20477	20497	2	20
X	20497	20540	3	43
X	20540	20614	2	74
X	20614	20893	3	279
X	20893	20965	4	72
X	20965	21049	6	84
X	21049	21103	5	54
X	21103	24532	9	3434
X	24532	25069	7	537
X	25069	25463	9	398
X	25463	26008	7	545
X	26008	27126	6	1257
X	27126	59074	9	31970
X	59074	59183	8	138
X	59183	59447	9	266
X	59447	115993	9	56715
X	115993	116028	8	35
X	116028	120924	9	5059
X	120924	121032	8	256
X	121032	121062	9	66
X	121062	121126	9	64
X	121126	121189	8	137
X	121189	121239	8	50
X	121239	121304	9	65
X	121304	153522	9	32242
X	153522	197373	9	43952
X	197373	197409	8	36
X	197409	197509	9	100
X	197509	197544	4	35
X	197544	197605	6	61
X	197605	204052	1	6447
X	204052	204108	6	56
X	204108	204234	5	127
X	204234	204321	6	87
X	204321	204482	4	162
X	204482	204599	6	141
X	204599	204645	7	46
X	204645	354064	9	149808
X	354064	354303	9	239
X	354303	354531	9	229
X	354531	354605	8	74
X	354605	354642	6	37
X	354642	354876	3	280
X	354876	354910	4	45
X	354910	354928	3	23
X	354928	354967	8	66
X	354967	354982	5	45
X	354982	355042	6	70
X	355042	355100	4	75
X	355100	355140	3	80
X	355140	355184	8	44
X	355184	355187	9	24
X	355187	355219	9	32
X	355219	355420	9	201
X	355420	355489	8	70
X	355489	374461	9	18994
X	374461	374532	8	71
X	374532	374591	9	59
X	374591	374907	9	316
X	374907	377890	9	2985
X	377890	416921	9	39362
X	416921	453745	9	36887
X	453745	453905	6	160
X	453905	453967	6	62
X	453967	454006	5	39
X	454006	454121	6	115
X	454121	454264	4	143
X	454264	472462	9	18261
X	472462	483977	1	11515
X	483977	538102	9	54174
X	538102	538174	4	72
X	538174	538196	5	22
X	538196	538276	7	80
X	538276	538303	8	30
X	538303	538339	9	36
X	538339	538371	8	33
X	538371	538440	8	69
X	538440	540739	9	2300
X	540739	540870	9	131
X	540870	540938	8	68
X	540938	540960	8	22
X	540960	541186	7	226
X	541186	541218	8	32
X	541218	541441	9	223
X	541441	541531	8	90
X	541531	617968	9	76573
X	617968	702030	9	84438
X	702030	728288	9	26916
X	728288	728498	8	211
X	728498	728530	7	32
X	728530	728631	6	101
X	728631	728732	1	101
X	728732	728796	4	64
X	728796	728829	1	33
X	728829	728871	4	42
X	728871	729666	1	795
X	729666	729730	6	64
X	729730	729760	7	31
X	729760	729823	6	63
X	729823	729955	9	132
X	729955	730369	9	427
X	730369	730415	7	46
X	730415	730953	5	538
X	730953	731009	7	61
X	731009	733324	9	2383
X	733324	733416	9	92
X	733416	733602	8	186
X	733602	742250	9	8674
X	742250	742312	6	63
X	742312	742549	9	242
X	742549	742612	6	63
X	742612	742955	9	343
X	742955	743028	7	73
X	743028	743067	6	39
X	743067	743108	6	41
X	743108	743382	3	274
X	743382	743408	7	26
X	743408	743546	5	138
X	743546	743590	5	44
X	743590	743813	3	258
X	743813	743876	4	75
X	743876	743905	4	29
X	743905	743942	3	37
X	743942	743964	7	24
X	743964	744025	5	61
X	744025	744107	9	82
X	744107	744150	4	43
X	744150	744298	1	148
X	744298	744408	4	140
X	744408	744524	5	219
X	744524	744628	5	111
X	744628	744699	5	71
X	744699	744920	5	224
X	744920	745035	6	115
X	745035	745155	6	120
X	745155	745177	8	22
X	745177	745210	8	40
X	745210	745259	7	50
X	745259	745394	5	249
X	745394	745714	8	343
X	745714	745751	8	37
XI	0	37	4	37
XI	37	208	4	187
XI	208	418	2	210
XI	418	460	3	42
XI	460	488	4	29
XI	488	538	3	50
XI	538	588	3	50
XI	588	688	2	100
XI	688	784	1	96
XI	784	966	8	182
XI	966	1156	9	193
XI	1156	1268	1	112
XI	1268	1313	2	45
XI	1313	1389	1	76
XI	1389	1408	6	19
XI	1408	1499	2	91
XI	1499	1561	1	62
XI	1561	1597	8	36
XI	1597	1642	2	46
XI	1642	1671	4	29
XI	1671	1742	9	71
XI	1742	1785	2	43
XI	1785	1851	4	66
XI	1851	2085	1	234
XI	2085	2287	2	203
XI	2287	2398	3	112
XI	2398	2446	4	48
XI	2446	2513	2	67
XI	2513	2557	7	46
XI	2557	2623	8	66
XI	2623	2669	9	46
XI	2669	2701	8	35
XI	2701	2732	7	31
XI	2732	2839	6	107
XI	2839	74250	9	71798
XI	74250	74308	8	58
XI	74308	74337	9	29
XI	74337	74438	8	101
XI	74438	74619	9	474
XI	74619	74683	8	64
XI	74683	84110	9	9449
XI	84110	84226	9	116
XI	84226	84304	8	78
XI	84304	141271	9	57056
XI	141271	141289	9	30
XI	141289	202651	9	62137
XI	202651	202921	1	270
XI	202921	202988	2	67
XI	202988	302574	9	99788
XI	302574	302625	9	51
XI	302625	308609	9	6000
XI	308609	308641	9	32
XI	308641	313998	9	5477
XI	313998	458018	9	144333
XI	458018	458136	9	118
XI	458136	458199	7	74
XI	458199	458369	5	176
XI	458369	458410	4	41
XI	458410	458471	5	61
XI	458471	490978	9	32641
XI	490978	513848	9	22901
XI	513848	517385	9	3539
XI	517385	517455	9	70
XI	517455	517792	1	338
XI	517792	555046	9	37420
XI	555046	578869	9	23837
XI	578869	578955	9	89
XI	578955	579011	8	56
XI	579011	647350	9	68652
XI	647350	647402	9	52
XI	647402	647452	9	50
XI	647452	647467	2	70
XI	647467	647496	9	29
XI	647496	647540	1	46
XI	647540	647603	8	63
XI	647603	647665	8	134
XI	647665	647722	7	57
XI	647722	647747	8	25
XI	647747	647839	8	92
XI	647839	647849	9	10
XI	647849	647912	4	63
XI	647912	647947	5	35
XI	647947	648070	8	123
XI	648070	648091	9	27
XI	648091	659465	9	11419
XI	659465	659556	7	91
XI	659556	660515	9	959
XI	660515	660578	9	85
XI	660578	661289	9	713
XI	661289	661352	6	63
XI	661352	663324	9	1978
XI	663324	663577	9	271
XI	663577	663578	7	50
XI	663578	663690	9	114
XI	663690	663953	9	269
XI	663953	665008	5	1055
XI	665008	665066	6	64
XI	665066	665124	6	58
XI	665124	665188	6	64
XI	665188	665315	6	127
XI	665315	665669	8	378
XI	665669	665745	8	76
XI	665745	665777	2	32
XI	665777	665813	3	36
XI	665813	665880	8	87
XI	665880	665963	7	109
XI	665963	665997	8	121
XI	665997	666124	7	127
XI	666124	666472	7	622
XI	666472	666511	8	39
XI	666511	666562	2	51
XI	666562	666583	2	21
XI	666583	666816	1	233
XIII	0	1699	2	1699
XIII	1699	5534	1	3835
XIII	5534	5547	7	14
XIII	5547	5727	6	232
XIII	5727	5766	3	43
XIII	5766	5856	2	90
XIII	5856	5937	3	82
XIII	5937	5997	4	62
XIII	5997	6028	2	32
XIII	6028	6106	3	79
XIII	6106	6128	7	22
XIII	6128	6223	3	153
XIII	6223	6309	3	86
XIII	6309	6474	3	219
XIII	6474	6677	2	206
XIII	6677	6745	7	73
XIII	6745	6815	2	72
XIII	6815	6916	7	101
XIII	6916	7028	7	113
XIII	7028	7059	7	33
XIII	7059	7135	6	76
XIII	7135	7173	6	38
XIII	7173	7221	4	48
XIII	7221	7275	7	62
XIII	7275	7310	6	35
XIII	7310	7372	5	62
XIII	7372	7432	6	159
XIII	7432	7470	6	38
XIII	7470	7530	6	60
XIII	7530	7593	5	63
XIII	7593	7652	6	59
XIII	7652	7716	5	64
XIII	7716	8437	1	727
XIII	8437	131812	9	123883
XIII	131812	131907	8	95
XIII	131907	132105	9	198
XIII	132105	168348	9	36992
XIII	168348	168406	6	58
XIII	168406	168623	1	217
XIII	168623	168686	6	63
XIII	168686	184164	9	15593
XIII	184164	190083	1	5919
XIII	190083	196331	9	6339
XIII	196331	196393	4	62
XIII	196393	196477	1	84
XIII	196477	196499	2	22
XIII	196499	202119	1	5620
XIII	202119	259179	9	57188
XIII	259179	259249	4	73
XIII	259249	356974	9	97923
XIII	356974	357005	9	31
XIII	357005	362856	1	5851
XIII	362856	362924	5	68
XIII	362924	372573	9	9711
XIII	372573	372644	9	72
XIII	372644	372678	7	38
XIII	372678	372690	8	13
XIII	372690	378621	1	5931
XIII	378621	378699	8	78
XIII	378699	378998	7	465
XIII	378998	379198	7	340
XIII	379198	420677	9	41555
XIII	420677	463000	9	42709
XIII	463000	481235	9	18268
XIII	481235	503764	9	22804
XIII	503764	504140	1	376
XIII	504140	504736	9	929
XIII	504736	573131	9	68786
XIII	573131	599553	9	26559
XIII	599553	599900	7	347
XIII	599900	600440	8	644
XIII	600440	601763	9	1388
XIII	601763	602110	7	347
XIII	602110	602173	8	63
XIII	602173	608937	9	6946
XIII	608937	608984	9	135
XIII	608984	609099	7	165
XIII	609099	609120	8	21
XIII	609120	609180	6	65
XIII	609180	609308	5	134
XIII	609308	609477	4	169
XIII	609477	609540	7	63
XIII	609540	609578	8	104
XIII	609578	609659	8	81
XIII	609659	609746	9	140
XIII	609746	609777	8	60
XIII	609777	609801	8	24
XIII	609801	609822	8	42
XIII	609822	609833	9	135
XIII	609833	632663	9	22920
XIII	632663	634201	7	1553
XIII	634201	753315	9	119265
XIII	753315	753508	7	193
XIII	753508	753572	8	64
XIII	753572	753635	9	63
XIII	753635	768424	9	14805
XIII	768424	768540	9	208
XIII	768540	806945	9	38501
XIII	806945	808528	9	1587
XIII	808528	808579	1	52
XIII	808579	808826	2	247
XIII	808826	808903	1	77
XIII	808903	837589	9	28723
XIII	837589	837832	9	540
XIII	837832	908178	9	70555
XIII	908178	908248	9	70
XIII	908248	908284	9	36
XIII	908284	908350	9	66
XIII	908350	908425	8	75
XIII	908425	908426	2	50
XIII	908426	908443	8	37
XIII	908443	908469	8	26
XIII	908469	908503	8	34
XIII	908503	908543	9	40
XIII	908543	908574	9	31
XIII	908574	908610	8	172
XIII	908610	908637	9	27
XIII	908637	917896	9	9518
XIII	917896	922825	1	4929
XIII	922825	922903	2	78
XIII	922903	923525	1	622
XIII	923525	923635	3	117
XIII	923635	923696	9	61
XIII	923696	923749	9	112
XIII	923749	923777	9	28
XIII	923777	923814	6	37
XIII	923814	923849	4	40
XIII	923849	923892	4	43
XIII	923892	923965	4	73
XIII	923965	924342	3	382
XIII	924342	924365	8	30
XIII	924365	924396	8	31
XIII	924396	924431	7	35
XIV	0	6557	1	6557
XIV	6557	6622	3	65
XIV	6622	6699	6	87
XIV	6699	6800	6	103
XIV	6800	6826	7	26
XIV	6826	6949	6	135
XIV	6949	7005	5	60
XIV	7005	7076	6	75
XIV	7076	7178	6	103
XIV	7178	7365	5	255
XIV	7365	7422	7	57
XIV	7422	7478	5	58
XIV	7478	7514	5	36
XIV	7514	7604	7	90
XIV	7604	7718	8	114
XIV	7718	7754	7	54
XIV	7754	7858	7	104
XIV	7858	8009	5	240
XIV	8009	8396	4	392
XIV	8396	8509	6	135
XIV	8509	8700	4	191
XIV	8700	8805	5	105
XIV	8805	8861	2	56
XIV	8861	8959	2	98
XIV	8959	8983	2	24
XIV	8983	9004	2	21
XIV	9004	9172	6	168
XIV	9172	9325	3	153
XIV	9325	9397	6	72
XIV	9397	9430	7	33
XIV	9430	9468	7	38
XIV	9468	9502	6	34
XIV	9502	9613	9	111
XIV	9613	9647	8	34
XIV	9647	9680	8	33
XIV	9680	9744	9	64
XIV	9744	9802	8	58
XIV	9802	9839	9	38
XIV	9839	9906	9	67
XIV	9906	10060	9	154
XIV	10060	13014	9	2961
XIV	13014	14116	5	1104
XIV	14116	14179	6	63
XIV	14179	14270	6	91
XIV	14270	14376	6	107
XIV	14376	14461	6	87
XIV	14461	14524	5	63
XIV	14524	14667	8	143
XIV	14667	14717	9	51
XIV	14717	14761	8	44
XIV	14761	14887	9	126
XIV	14887	14941	8	54
XIV	14941	15059	9	118
XIV	15059	15141	9	82
XIV	15141	15197	9	56
XIV	15197	15218	9	21
XIV	15218	15244	9	26
XIV	15244	15281	6	50
XIV	15281	15338	7	57
XIV	15338	15379	9	41
XIV	15379	15443	9	64
XIV	15443	15497	9	54
XIV	15497	15524	9	27
XIV	15524	15559	9	35
XIV	15559	15598	9	39
XIV	15598	15695	9	97
XIV	15695	15761	8	66
XIV	15761	15803	9	42
XIV	15803	15866	7	63
XIV	15866	15929	8	63
XIV	15929	15992	8	65
XIV	15992	16093	9	175
XIV	16093	16453	9	379
XIV	16453	16484	8	31
XIV	16484	96455	9	80103
XIV	96455	96633	8	178
XIV	96633	96672	8	40
XIV	96672	96731	9	59
XIV	96731	96755	7	24
XIV	96755	96804	6	49
XIV	96804	96880	5	77
XIV	96880	96941	6	61
XIV	96941	96997	3	56
XIV	96997	97058	3	61
XIV	97058	97915	5	857
XIV	97915	97978	6	63
XIV	97978	98172	5	194
XIV	98172	99201	6	1115
XIV	99201	99295	5	94
XIV	99295	102048	4	2798
XIV	102048	102115	3	67
XIV	102115	102179	5	64
XIV	102179	102257	2	104
XIV	102257	102305	6	48
XIV	102305	102327	9	22
XIV	102327	102355	7	28
XIV	102355	102396	5	86
XIV	102396	102460	3	66
XIV	102460	102501	5	61
XIV	102501	102547	6	46
XIV	102547	102579	6	41
XIV	102579	136861	9	34361
XIV	136861	139497	9	2637
XIV	139497	252307	9	112866
XIV	252307	252523	6	216
XIV	252523	253581	7	1058
XIV	253581	307510	9	54132
XIV	307510	519180	9	211922
XIV	519180	519221	2	41
XIV	519221	525086	1	5865
XIV	525086	546737	9	21722
XIV	546737	547082	1	345
XIV	547082	561422	9	14809
XIV	561422	561445	8	27
XIV	561445	561609	9	165
XIV	561609	561636	5	42
XIV	561636	561659	9	23
XIV	561659	561695	2	36
XIV	561695	561915	1	220
XIV	561915	561980	7	65
XIV	561980	567935	1	5955
XIV	567935	567967	9	32
XIV	567967	568000	1	33
XIV	568000	570301	9	2371
XIV	570301	570364	6	63
XIV	570364	570409	9	64
XIV	570409	570472	7	63
XIV	570472	570553	5	81
XIV	570553	570638	2	85
XIV	570638	572541	7	1921
XIV	572541	572604	8	63
XIV	572604	575847	9	3245
XIV	575847	575918	7	71
XIV	575918	576816	8	898
XIV	576816	576879	9	63
XIV	576879	576929	3	50
XIV	576929	577022	9	93
XIV	577022	599624	9	22641
XIV	599624	599760	9	153
XIV	599760	599821	9	63
XIV	599821	601612	9	1791
XIV	601612	601676	9	64
XIV	601676	601778	9	102
XIV	601778	601886	4	110
XIV	601886	601949	7	63
XIV	601949	602340	8	391
XIV	602340	632015	9	30234
XIV	632015	632052	7	37
XIV	632052	632108	6	56
XIV	632108	632113	2	58
XIV	632113	632118	8	43
XIV	632118	632171	3	53
XIV	632171	632218	4	47
XIV	632218	632247	5	29
XIV	632247	632325	6	78
XIV	632325	632362	5	37
XIV	632362	632394	6	32
XIV	632394	632427	8	35
XIV	632427	632489	6	65
XIV	632489	632616	8	135
XIV	632616	726155	9	93981
XIV	726155	726225	9	70
XIV	726225	726250	9	58
XIV	726250	726399	2	149
XIV	726399	726935	1	536
XIV	726935	727139	9	519
XIV	727139	751090	9	24039
XIV	751090	751159	8	69
XIV	751159	752356	7	1197
XIV	752356	752413	6	57
XIV	752413	752869	7	456
XIV	752869	752937	6	69
XIV	752937	753205	8	268
XIV	753205	772624	9	19517
XIV	772624	772764	8	140
XIV	772764	772791	9	27
XIV	772791	772833	5	42
XIV	772833	772932	5	99
XIV	772932	773033	6	101
XIV	773033	773282	3	249
XIV	773282	773346	2	64
XIV	773346	773483	2	137
XIV	773483	773600	3	117
XIV	773600	773700	3	100
XIV	773700	773787	7	87
XIV	773787	773810	4	23
XIV	773810	773954	3	144
XIV	773954	774083	2	129
XIV	774083	774210	2	127
XIV	774210	774221	7	11
XIV	774221	774384	6	163
XIV	774384	774418	3	34
XIV	774418	774663	2	246
XIV	774663	775017	3	354
XIV	775017	775104	5	87
XIV	775104	776305	6	1204
XIV	776305	776454	8	149
XIV	776454	781361	9	4922
XIV	781361	781394	7	33
XIV	781394	781427	7	33
XIV	781427	781473	5	46
XIV	781473	781606	4	133
XIV	781606	781634	2	28
XIV	781634	781791	3	158
XIV	781791	781908	2	117
XIV	781908	781949	3	41
XIV	781949	782088	3	139
XIV	782088	782115	2	27
XIV	782115	782174	2	59
XIV	782174	782238	2	64
XIV	782238	782301	1	63
XIV	782301	782335	2	38
XIV	782335	782405	3	72
XIV	782405	782467	2	62
XIV	782467	782515	6	48
XIV	782515	782549	7	34
XIV	782549	782576	8	27
XIV	782576	782676	8	101
XIV	782676	782757	8	82
XIV	782757	782823	7	177
XIV	782823	782924	9	102
XIV	782924	782968	4	44
XIV	782968	783009	6	41
XIV	783009	783034	6	25
XIV	783034	783079	4	45
XIV	783079	783131	7	53
XIV	783131	783187	8	56
XIV	783187	783228	7	41
XIV	783228	783269	8	41
XIV	783269	783309	7	59
XIV	783309	783313	5	26
XIV	783313	783337	5	79
XIV	783337	783399	7	62
XIV	783399	783498	5	99
XIV	783498	783548	4	50
XIV	783548	783593	6	45
XIV	783593	783681	5	92
XIV	783681	783714	6	40
XIV	783714	783793	7	82
XIV	783793	784017	6	234
XIV	784017	784041	6	24
XIV	784041	784083	7	44
XIV	784083	784107	4	24
XIV	784107	784158	4	51
XIV	784158	784199	2	48
XIV	784199	784233	1	34
XIV	784233	784261	2	28
XIV	784261	784333	1	72
III	0	228	1	228
III	228	295	2	67
III	295	316	7	21
III	316	375	6	71
III	375	425	8	50
III	425	492	8	69
III	492	703	7	214
III	703	706	6	78
III	706	735	8	55
III	735	784	7	56
III	784	818	7	36
III	818	848	8	30
III	848	1001	2	154
III	1001	1038	2	37
III	1038	1092	3	54
III	1092	1136	6	45
III	1136	1159	6	23
III	1159	1190	5	31
III	1190	1291	7	101
III	1291	1429	6	138
III	1429	4034	7	2605
III	4034	4096	6	62
III	4096	4145	2	103
III	4145	4193	3	48
III	4193	4246	3	53
III	4246	4322	2	76
III	4322	4440	1	118
III	4440	4567	6	127
III	4567	4631	7	64
III	4631	4694	7	63
III	4694	4751	7	59
III	4751	5780	7	1053
III	5780	8416	1	2640
III	8416	8479	7	76
III	8479	9132	3	653
III	9132	9219	2	87
III	9219	9282	2	63
III	9282	10178	3	896
III	10178	10268	3	90
III	10268	10395	4	127
III	10395	11098	3	703
III	11098	11218	1	120
III	11218	12301	9	1084
III	12301	13753	1	1452
III	13753	13819	5	66
III	13819	13885	4	66
III	13885	13937	2	52
III	13937	14360	9	430
III	14360	82624	9	68426
III	82624	82742	9	118
III	82742	82893	9	168
III	82893	84052	9	1159
III	84052	84068	8	44
III	84068	84126	7	58
III	84126	84294	3	168
III	84294	84355	5	61
III	84355	84508	1	153
III	84508	84565	2	57
III	84565	84648	2	83
III	84648	84679	4	31
III	84679	84870	2	191
III	84870	90452	1	5582
III	90452	90642	7	241
III	90642	90711	8	70
III	90711	142873	9	52403
III	142873	142946	1	73
III	142946	143006	4	60
III	143006	143408	9	402
III	143408	149658	9	6251
III	149658	149713	6	55
III	149713	149750	8	37
III	149750	149779	9	29
III	149779	149814	9	36
III	149814	149905	9	98
III	149905	149928	9	23
III	149928	149982	6	54
III	149982	151639	9	1660
III	151639	151670	3	50
III	151670	151754	3	84
III	151754	168427	9	16727
III	168427	168510	1	83
III	168510	168531	8	34
III	168531	168554	9	30
III	168554	168588	7	42
III	168588	168673	6	100
III	168673	168812	5	142
III	168812	168851	3	54
III	168851	169544	1	693
III	169544	198670	9	29247
III	198670	199400	9	730
III	199400	200913	9	1515
III	200913	200979	2	66
III	200979	201042	7	63
III	201042	201097	9	55
III	201097	268695	9	67941
III	268695	268737	9	42
III	268737	268761	2	24
III	268761	268883	8	123
III	268883	268887	8	107
III	268887	268965	9	78
III	268965	269022	4	57
III	269022	269155	9	133
III	269155	293031	9	24346
III	293031	294378	9	1347
III	294378	294441	5	63
III	294441	294507	8	67
III	294507	294570	8	63
III	294570	294592	9	22
III	294592	295008	9	416
III	295008	295097	9	89
III	295097	295159	2	62
III	295159	295198	3	39
III	295198	295234	3	36
III	295234	295259	6	25
III	295259	300288	9	5037
III	300288	303795	9	3712
III	303795	303858	6	64
III	303858	303893	5	35
III	303893	304117	2	236
III	304117	304179	5	62
III	304179	304234	8	55
III	304234	304263	5	29
III	304263	304349	3	86
III	304349	304442	3	93
III	304442	304705	4	263
III	304705	304768	5	63
III	304768	304832	3	64
III	304832	305417	2	585
III	305417	305499	3	82
III	305499	305582	2	83
III	305582	305723	8	141
III	305723	305747	9	24
III	305747	305820	9	79
III	305820	305876	8	56
III	305876	305984	8	108
III	305984	306063	7	80
III	306063	306183	8	120
III	306183	306478	9	295
III	306478	306797	7	543
III	306797	306860	4	63
III	306860	307022	5	162
III	307022	307167	6	163
III	307167	307189	2	22
III	307189	307201	5	12
III	307201	307572	1	383
III	307572	307621	3	49
III	307621	307653	4	32
III	307653	307715	3	62
III	307715	307783	3	68
III	307783	307826	4	43
III	307826	307889	4	63
III	307889	307962	5	73
III	307962	308000	3	38
III	308000	308067	6	67
III	308067	308102	8	35
III	308102	311093	9	3059
III	311093	311170	8	77
III	311170	311477	8	307
III	311477	314290	9	2813
III	314290	314509	9	219
III	314509	314591	7	82
III	314591	314636	5	45
III	314636	314657	6	21
III	314657	314737	6	80
III	314737	314786	6	49
III	314786	314900	7	114
III	314900	314963	7	63
III	314963	315368	6	405
III	315368	315431	7	63
III	315431	315473	8	42
III	315473	315538	7	65
III	315538	315585	9	47
III	315585	315636	5	52
III	315636	315694	5	59
III	315694	315752	7	58
III	315752	315916	8	164
III	315916	315995	9	79
III	315995	316071	3	76
III	316071	316093	5	23
III	316093	316140	6	48
III	316140	316174	3	36
III	316174	316223	6	56
III	316223	316345	4	123
III	316345	316429	4	86
III	316429	316576	3	152
III	316576	316620	8	44
IX	0	36	2	36
IX	36	19858	1	19822
IX	19858	19891	6	33
IX	19891	19989	1	98
IX	19989	20133	2	144
IX	20133	20170	7	37
IX	20170	20197	8	27
IX	20197	20260	7	63
IX	20260	20417	1	157
IX	20417	20433	7	16
IX	20433	20497	5	64
IX	20497	20530	3	33
IX	20530	20583	3	53
IX	20583	20595	2	12
IX	20595	21273	1	678
IX	21273	21716	5	446
IX	21716	69231	9	47864
IX	69231	69294	8	63
IX	69294	69328	3	34
IX	69328	69448	2	120
IX	69448	69521	8	73
IX	69521	196647	9	127460
IX	196647	196744	1	97
IX	196744	196963	2	219
IX	196963	197023	8	60
IX	197023	197147	9	124
IX	197147	197412	8	265
IX	197412	197425	8	22
IX	197425	205222	9	8087
IX	205222	210655	1	5433
IX	210655	231604	9	20973
IX	231604	231667	2	63
IX	231667	231777	3	110
IX	231777	231840	8	63
IX	231840	284853	9	53212
IX	284853	300491	9	15671
IX	300491	300502	9	11
IX	300502	300572	8	70
IX	300572	300634	8	62
IX	300634	300670	7	36
IX	300670	300776	6	120
IX	300776	301452	1	676
IX	301452	317437	9	16040
IX	317437	317775	5	338
IX	317775	317838	7	63
IX	317838	324371	9	6611
IX	324371	324407	9	36
IX	324407	324509	9	102
IX	324509	324538	8	29
IX	324538	324591	2	53
IX	324591	324740	3	149
IX	324740	324785	4	45
IX	324785	324828	6	43
IX	324828	324893	7	65
IX	324893	324972	7	79
IX	324972	325014	5	46
IX	325014	325091	6	77
IX	325091	325165	7	74
IX	325165	325203	4	38
IX	325203	336499	9	11337
IX	336499	370228	9	33786
IX	370228	391008	9	20915
IX	391008	391051	6	43
IX	391051	391089	8	38
IX	391089	391112	9	23
IX	391112	391121	8	54
IX	391121	391202	7	81
IX	391202	391247	6	45
IX	391247	391268	5	21
IX	391268	391290	2	229
IX	391290	391329	8	39
IX	391329	391379	7	50
IX	391379	391403	5	24
IX	391403	392111	1	708
IX	392111	392141	5	30
IX	392141	392165	8	24
IX	392165	392238	8	73
IX	392238	392270	3	32
IX	392270	392337	7	76
IX	392337	392361	8	79
IX	392361	392399	8	47
IX	392399	392412	4	22
IX	392412	392447	5	41
IX	392447	392471	7	24
IX	392471	392497	7	26
IX	392497	392523	4	26
IX	392523	392541	7	18
IX	392541	392576	7	35
IX	392576	392588	6	12
IX	392588	392649	7	61
IX	392649	392719	7	70
IX	392719	433260	9	40917
IX	433260	433422	8	162
IX	433422	433526	6	104
IX	433526	433647	7	124
IX	433647	433744	8	98
IX	433744	433770	2	35
IX	433770	433945	8	177
IX	433945	437130	9	3204
IX	437130	437183	7	53
IX	437183	437287	9	104
IX	437287	437445	8	158
IX	437445	437486	8	41
IX	437486	437509	8	23
IX	437509	437603	7	94
IX	437603	437703	2	100
IX	437703	437999	3	408
IX	437999	438042	4	43
IX	438042	438067	4	28
IX	438067	438111	6	44
IX	438111	438193	3	82
IX	438193	438346	4	211
IX	438346	438751	3	408
IX	438751	438798	2	47
IX	438798	438830	5	32
IX	438830	438865	4	35
IX	438865	438930	3	65
IX	438930	439009	3	79
IX	439009	439065	5	56
IX	439065	439105	5	69
IX	439105	439201	4	161
IX	439201	439278	1	77
IX	439278	439344	4	66
IX	439344	439370	5	27
IX	439370	439437	1	68
IX	439437	439468	5	31
IX	439468	439566	1	98
IX	439566	439709	5	146
IX	439709	439888	5	193
I	0	19	3	19
I	19	62	8	43
I	62	130	4	71
I	130	179	7	51
I	179	211	4	32
I	211	583	9	382
I	583	672	8	116
I	672	758	9	86
I	758	791	4	39
I	791	841	4	50
I	841	1444	1	603
I	1444	1505	4	61
I	1505	1532	6	28
I	1532	1722	1	190
I	1722	1853	2	131
I	1853	2128	1	275
I	2128	2185	2	57
I	2185	2294	3	109
I	2294	2447	3	154
I	2447	2632	5	185
I	2632	2756	7	127
I	2756	11806	9	9080
I	11806	11897	4	102
I	11897	12263	3	366
I	12263	12297	5	34
I	12297	12363	6	66
I	12363	12451	7	88
I	12451	12487	9	36
I	12487	12517	8	40
I	12517	12576	8	98
I	12576	12584	7	32
I	12584	12592	4	73
I	12592	12661	6	87
I	12661	12694	6	33
I	12694	12762	5	68
I	12762	12839	6	80
I	12839	12861	3	22
I	12861	12887	7	26
I	12887	12933	9	49
I	12933	12980	8	145
I	12980	13176	1	305
I	13176	13234	3	58
I	13234	13302	6	68
I	13302	13326	2	24
I	13326	24209	1	10883
I	24209	24320	4	111
I	24320	24383	5	63
I	24383	24447	6	64
I	24447	24626	1	179
I	24626	24707	8	81
I	24707	24753	5	46
I	24753	24826	4	73
I	24826	24879	5	53
I	24879	24912	2	33
I	24912	24940	2	28
I	24940	24957	6	17
I	24957	24986	6	29
I	24986	25053	7	67
I	25053	25098	4	45
I	25098	25153	3	55
I	25153	25183	8	139
I	25183	25195	2	75
I	25195	25233	3	38
I	25233	25263	2	57
I	25263	25300	3	37
I	25300	25326	4	26
I	25326	25417	3	94
I	25417	25550	7	133
I	25550	25587	5	37
I	25587	25652	3	65
I	25652	25725	8	73
I	25725	25782	4	57
I	25782	25806	6	24
I	25806	25830	6	24
I	25830	25869	4	39
I	25869	25893	4	24
I	25893	26074	1	181
I	26074	26114	6	40
I	26114	26168	1	54
I	26168	26225	2	66
I	26225	26306	3	81
I	26306	26400	1	94
I	26400	26450	7	50
I	26450	26476	6	32
I	26476	26848	1	372
I	26848	26877	6	29
I	26877	26955	6	78
I	26955	26982	8	27
I	26982	27018	8	36
I	27018	27079	8	61
I	27079	139764	9	112815
I	139764	139986	8	222
I	139986	160105	9	20133
I	160105	160197	9	93
I	160197	160238	9	41
I	160238	160304	2	66
I	160304	166168	1	5864
I	166168	180493	9	14357
I	180493	180851	9	359
I	180851	183147	9	2391
I	183147	183345	5	301
I	183345	183403	7	58
I	183403	183437	8	34
I	183437	183468	9	31
I	183468	183482	9	26
I	183482	183505	7	32
I	183505	183569	4	64
I	183569	183688	5	123
I	183688	183745	3	59
I	183745	183828	8	83
I	183828	183858	8	30
I	183858	184148	7	311
I	184148	184169	8	21
I	184169	184869	8	796
I	184869	184980	8	123
I	184980	185587	8	634
I	185587	185619	8	89
I	185619	185649	7	31
I	185649	185735	8	139
I	185735	185762	7	60
I	185762	185893	7	205
I	185893	185943	8	91
I	185943	185996	9	55
I	185996	186050	9	54
I	186050	186171	8	121
I	186171	186542	9	486
I	186542	186609	9	73
I	186609	186818	7	240
I	186818	186924	7	134
I	186924	186943	7	50
I	186943	186991	6	49
I	186991	187220	5	231
I	187220	187751	6	531
I	187751	187977	7	293
I	187977	187999	8	22
I	187999	188087	8	102
I	188087	188150	7	63
I	188150	188190	4	40
I	188190	188706	2	516
I	188706	188842	7	136
I	188842	188942	4	100
I	188942	188972	4	30
I	188972	189146	3	175
I	189146	189181	3	35
I	189181	189244	5	63
I	189244	189292	6	48
I	189292	189335	2	43
I	189335	189418	3	83
I	189418	189467	4	49
I	189467	189502	5	35
I	189502	189605	7	103
I	189605	189669	8	64
I	189669	198707	9	9065
I	198707	204215	9	5880
I	204215	204287	8	83
I	204287	204363	7	79
I	204363	204389	7	26
I	204389	204426	6	37
I	204426	204469	7	43
I	204469	204524	8	55
I	204524	204554	6	30
I	204554	204576	3	70
I	204576	204623	5	49
I	204623	204682	6	59
I	204682	204809	5	127
I	204809	204889	5	80
I	204889	206528	1	1639
I	206528	206606	6	78
I	206606	206649	3	43
I	206649	206738	2	89
I	206738	207003	1	265
I	207003	207062	2	59
I	207062	207579	1	517
I	207579	207667	3	88
I	207667	207709	3	42
I	207709	207756	5	47
I	207756	207806	3	50
I	207806	207974	5	168
I	207974	219261	9	11702
I	219261	219345	9	84
I	219345	219387	5	42
I	219387	219830	4	443
I	219830	219874	5	44
I	219874	219952	4	78
I	219952	224695	3	4748
I	224695	225091	3	396
I	225091	226605	9	1516
I	226605	226641	9	36
I	226641	227384	9	751
I	227384	227418	8	45
I	227418	227476	8	58
I	227476	227509	9	33
I	227509	227531	9	22
I	227531	227575	9	44
I	227575	227596	7	22
I	227596	227642	7	46
I	227642	227707	6	65
I	227707	227799	3	92
I	227799	229724	1	1925
I	229724	229737	9	70
I	229737	229793	9	57
I	229793	229973	9	181
I	229973	230218	3	263
II	0	6627	1	6627
II	6627	6688	5	61
II	6688	6817	7	129
II	6817	6859	2	42
II	6859	6980	1	121
II	6980	7107	2	127
II	7107	7942	1	835
II	7942	8238	5	297
II	8238	8287	8	49
II	8287	8771	9	485
II	8771	8909	9	138
II	8909	9032	2	123
II	9032	9088	2	56
II	9088	9152	1	64
II	9152	9265	6	118
II	9265	9321	9	56
II	9321	9424	1	103
II	9424	9470	8	46
II	9470	29248	9	19797
II	29248	29638	9	392
II	29638	35602	1	5964
II	35602	35851	9	252
II	35851	35913	6	69
II	35913	35972	6	61
II	35972	36141	7	187
II	36141	36180	7	74
II	36180	36226	6	46
II	36226	36379	9	153
II	36379	88521	9	52283
II	88521	88924	6	403
II	88924	197314	9	108510
II	197314	197509	9	195
II	197509	197572	8	63
II	197572	197646	9	76
II	197646	197688	6	42
II	197688	197782	8	94
II	197782	197817	7	35
II	197817	197861	6	44
II	197861	197902	6	41
II	197902	197939	7	37
II	197939	220857	9	22934
II	220857	221055	9	498
II	221055	226622	1	5567
II	226622	226666	4	261
II	226666	226890	1	224
II	226890	226982	2	92
II	226982	227135	9	157
II	227135	255451	9	28328
II	255451	255594	9	143
II	255594	259256	9	3663
II	259256	259578	9	322
II	259578	265500	1	5922
II	265500	266164	9	664
II	266164	266241	8	77
II	266241	266273	6	32
II	266273	266457	8	184
II	266457	300164	9	33772
II	300164	327107	9	26992
II	327107	327122	5	59
II	327122	327220	9	98
II	327220	350750	9	23971
II	350750	427776	9	77138
II	427776	427839	8	63
II	427839	427925	3	86
II	427925	428016	1	91
II	428016	428054	6	38
II	428054	428108	8	54
II	428108	429626	9	1522
II	429626	429689	7	63
II	429689	429775	6	86
II	429775	429838	6	63
II	429838	429866	9	28
II	429866	429895	9	29
II	429895	429958	8	63
II	429958	464082	9	34310
II	464082	477670	9	13631
II	477670	591823	9	114434
II	591823	643068	9	51279
II	643068	643167	8	102
II	643167	643360	6	194
II	643360	643372	5	12
II	643372	643454	5	82
II	643454	643520	6	82
II	643520	643561	6	47
II	643561	643619	8	67
II	643619	643670	9	54
II	643670	643736	5	66
II	643736	643774	9	46
II	643774	643821	9	53
II	643821	643857	8	37
II	643857	644962	9	1426
II	644962	660519	9	15575
II	660519	660618	8	145
II	660618	660645	3	27
II	660645	660664	2	19
II	660664	801940	9	141614
II	801940	804095	9	2242
II	804095	804492	7	397
II	804492	804880	8	388
II	804880	805815	1	935
II	805815	805878	8	63
II	805878	806694	9	834
II	806694	807118	7	424
II	807118	807183	9	67
II	807183	809103	7	1923
II	809103	813184	1	4081
VIII	0	5020	1	5020
VIII	5020	5043	5	23
VIII	5043	5148	6	128
VIII	5148	5244	6	97
VIII	5244	5271	6	27
VIII	5271	5304	5	33
VIII	5304	5335	7	31
VIII	5335	5400	8	65
VIII	5400	5436	7	36
VIII	5436	5509	8	73
VIII	5509	5529	6	21
VIII	5529	5562	2	33
VIII	5562	5683	7	121
VIII	5683	5773	7	92
VIII	5773	5799	6	26
VIII	5799	5827	7	28
VIII	5827	6073	6	261
VIII	6073	6116	6	44
VIII	6116	6150	9	35
VIII	6150	6213	8	173
VIII	6213	6290	9	77
VIII	6290	6435	8	146
VIII	6435	6494	9	59
VIII	6494	6600	9	106
VIII	6600	6711	9	111
VIII	6711	6749	9	38
VIII	6749	7129	9	491
VIII	7129	7325	9	196
VIII	7325	7512	8	187
VIII	7512	7647	9	135
VIII	7647	8044	7	398
VIII	8044	11981	9	3938
VIII	11981	12030	5	49
VIII	12030	12043	6	13
VIII	12043	12085	3	42
VIII	12085	12225	2	140
VIII	12225	12399	7	174
VIII	12399	12506	8	108
VIII	12506	15613	9	3122
VIII	15613	15845	9	255
VIII	15845	16191	9	346
VIII	16191	35294	9	19108
VIII	35294	35357	8	63
VIII	35357	35860	4	503
VIII	35860	85538	9	49838
VIII	85538	85600	2	62
VIII	85600	85641	2	41
VIII	85641	92127	1	6486
VIII	92127	116420	9	24903
VIII	116420	116485	3	65
VIII	116485	116536	6	51
VIII	116536	116601	3	65
VIII	116601	116638	2	37
VIII	116638	116679	1	41
VIII	116679	116691	6	61
VIII	116691	116749	3	58
VIII	116749	133250	9	16566
VIII	133250	133340	9	90
VIII	133340	133423	9	114
VIII	133423	133492	9	69
VIII	133492	133750	8	258
VIII	133750	133794	8	44
VIII	133794	133872	8	78
VIII	133872	133936	7	64
VIII	133936	134009	6	73
VIII	134009	134215	7	206
VIII	134215	146325	9	12117
VIII	146325	146671	1	346
VIII	146671	147569	9	898
VIII	147569	192850	9	45404
VIII	192850	193029	6	179
VIII	193029	193218	7	189
VIII	193218	194113	9	898
VIII	194113	194355	8	242
VIII	194355	194507	7	152
VIII	194507	214253	9	19753
VIII	214253	216251	1	1998
VIII	216251	229511	9	13264
VIII	229511	229544	8	33
VIII	229544	358477	9	129162
VIII	358477	358508	9	31
VIII	358508	358538	9	34
VIII	358538	358634	9	112
VIII	358634	358735	8	101
VIII	358735	358762	9	27
VIII	358762	358842	9	89
VIII	358842	358849	8	200
VIII	358849	358943	8	101
VIII	358943	358997	9	59
VIII	358997	359067	9	77
VIII	359067	359137	8	70
VIII	359137	389176	9	30314
VIII	389176	389235	2	60
VIII	389235	389246	2	28
VIII	389246	389442	1	217
VIII	389442	389509	6	76
VIII	389509	451325	9	62307
VIII	451325	475882	9	24682
VIII	475882	504479	9	28623
VIII	504479	526309	9	21855
VIII	526309	526350	5	41
VIII	526350	526392	7	42
VIII	526392	526456	6	64
VIII	526456	526514	4	58
VIII	526514	526613	9	111
VIII	526613	526639	6	26
VIII	526639	526648	9	9
VIII	526648	526678	8	30
VIII	526678	526777	7	107
VIII	526777	526806	6	30
VIII	526806	526896	3	90
VIII	526896	526922	9	35
VIII	526922	526957	8	35
VIII	526957	526974	9	17
VIII	526974	527015	7	41
VIII	527015	527065	7	50
VIII	527065	527163	7	98
VIII	527163	527189	8	26
VIII	527189	527238	9	49
VIII	527238	527267	8	29
VIII	527267	527291	8	24
VIII	527291	527334	6	46
VIII	527334	527384	5	50
VIII	527384	527418	5	37
VIII	527418	527429	6	38
VIII	527429	527489	6	120
VIII	527489	527532	4	43
VIII	527532	527593	5	61
VIII	527593	527659	4	66
VIII	527659	527694	6	35
VIII	527694	527705	2	11
VIII	527705	527733	4	28
VIII	527733	527766	6	33
VIII	527766	527872	8	106
VIII	527872	527956	7	156
VIII	527956	527987	8	31
VIII	527987	528018	5	31
VIII	528018	528050	4	32
VIII	528050	528096	5	46
VIII	528096	528127	6	31
VIII	528127	528189	6	62
VIII	528189	528256	7	67
VIII	528256	528352	3	150
VIII	528352	528577	7	225
VIII	528577	528714	9	142
VIII	528714	539164	1	10450
VIII	539164	539546	9	384
VIII	539546	539585	4	39
VIII	539585	539638	9	53
VIII	539638	539685	8	47
VIII	539685	539734	7	49
VIII	539734	539758	3	24
VIII	539758	539799	9	41
VIII	539799	539836	1	37
VIII	539836	539926	2	90
VIII	539926	540257	7	331
VIII	540257	540432	4	175
VIII	540432	540476	8	44
VIII	540476	540539	7	63
VIII	540539	543156	6	2617
VIII	543156	543320	2	164
VIII	543320	543613	6	293
VIII	543613	549799	1	6186
VIII	549799	550022	8	224
VIII	550022	550243	9	221
VIII	550243	550938	9	699
VIII	550938	551332	1	394
VIII	551332	551739	4	407
VIII	551739	553091	4	1352
VIII	553091	553154	4	63
VIII	553154	553183	5	29
VIII	553183	553211	4	28
VIII	553211	553274	8	63
VIII	553274	553360	9	86
VIII	553360	553423	5	63
VIII	553423	553958	2	535
VIII	553958	553997	3	39
VIII	553997	554020	8	23
VIII	554020	554063	2	43
VIII	554063	554087	3	26
VIII	554087	554160	2	73
VIII	554160	554186	5	26
VIII	554186	554228	4	42
VIII	554228	554251	3	23
VIII	554251	554298	2	47
VIII	554298	554379	7	81
VIII	554379	554427	9	48
VIII	554427	554497	9	70
VIII	554497	554563	5	66
VIII	554563	554758	3	285
VIII	554758	554920	4	162
VIII	554920	555047	8	127
VIII	555047	555340	4	293
VIII	555340	555384	5	44
VIII	555384	555406	5	22
VIII	555406	555484	4	78
VIII	555484	555511	6	27
VIII	555511	555902	5	391
VIII	555902	555934	9	32
VIII	555934	555998	9	64
VIII	555998	556069	8	72
VIII	556069	556102	9	33
VIII	556102	556140	7	38
VIII	556140	556215	2	75
VIII	556215	556282	4	67
VIII	556282	556375	5	93
VIII	556375	556458	7	89
VIII	556458	556472	6	14
VIII	556472	556492	5	22
VIII	556492	556514	6	25
VIII	556514	556585	5	71
VIII	556585	556606	4	21
VIII	556606	556695	7	92
VIII	556695	556760	6	91
VIII	556760	556830	4	71
VIII	556830	556852	5	22
VIII	556852	556909	5	63
VIII	556909	556950	6	41
VIII	556950	556988	2	39
VIII	556988	558886	1	1898
VIII	558886	558949	4	63
VIII	558949	562643	1	3694
XV	0	15	3	15
XV	15	79	9	83
XV	79	134	8	81
XV	134	374	9	248
XV	374	440	8	89
XV	440	487	8	47
XV	487	517	9	31
XV	517	566	8	54
XV	566	598	6	32
XV	598	679	8	81
XV	679	787	9	144
XV	787	812	8	25
XV	812	936	8	246
XV	936	992	8	56
XV	992	1045	9	53
XV	1045	1089	2	44
XV	1089	1196	8	107
XV	1196	1664	9	468
XV	1664	1919	9	255
XV	1919	2057	6	138
XV	2057	2138	9	81
XV	2138	2201	9	63
XV	2201	2401	8	200
XV	2401	2435	8	34
XV	2435	11059	9	8883
XV	11059	11156	8	208
XV	11156	11255	9	100
XV	11255	11299	9	44
XV	11299	11381	8	84
XV	11381	11426	7	45
XV	11426	11509	8	90
XV	11509	11572	7	63
XV	11572	11603	8	31
XV	11603	11654	7	51
XV	11654	11725	8	71
XV	11725	11758	7	52
XV	11758	11794	7	36
XV	11794	22522	9	10768
XV	22522	22585	6	63
XV	22585	22801	6	216
XV	22801	22905	4	104
XV	22905	22985	5	80
XV	22985	23681	6	696
XV	23681	23718	5	37
XV	23718	23863	4	145
XV	23863	23961	6	98
XV	23961	24045	7	85
XV	24045	24133	7	88
XV	24133	24239	7	106
XV	24239	24281	8	42
XV	24281	24312	9	31
XV	24312	24361	9	49
XV	24361	24475	9	114
XV	24475	24499	9	24
XV	24499	24539	9	40
XV	24539	24579	8	40
XV	24579	24747	9	168
XV	24747	24795	8	48
XV	24795	25545	7	767
XV	25545	25647	4	102
XV	25647	25853	4	206
XV	25853	25953	3	100
XV	25953	25997	4	44
XV	25997	26060	6	63
XV	26060	26096	8	36
XV	26096	26189	9	93
XV	26189	26253	2	64
XV	26253	26301	4	102
XV	26301	26316	6	15
XV	26316	26343	6	27
XV	26343	26390	6	47
XV	26390	26453	8	63
XV	26453	26741	9	288
XV	26741	26768	9	53
XV	26768	26879	8	111
XV	26879	27029	8	152
XV	27029	27206	8	180
XV	27206	27472	9	266
XV	27472	111157	9	84512
XV	111157	111200	8	43
XV	111200	111226	8	26
XV	111226	113404	9	2559
XV	113404	113426	7	22
XV	113426	113458	7	87
XV	113458	113562	8	410
XV	113562	113610	9	124
XV	113610	117689	9	4115
XV	117689	123615	1	5926
XV	123615	226773	9	103269
XV	226773	227935	9	1213
XV	227935	227967	6	55
XV	227967	227979	7	34
XV	227979	228125	9	146
XV	228125	228208	8	83
XV	228208	228242	9	34
XV	228242	228344	8	102
XV	228344	274656	9	46486
XV	274656	340530	9	66173
XV	340530	340692	9	163
XV	340692	354408	9	13761
XV	354408	354674	6	266
XV	354674	354942	7	276
XV	354942	464449	9	110184
XV	464449	464484	9	35
XV	464484	571870	9	107465
XV	571870	571941	9	71
XV	571941	575097	9	3163
XV	575097	594596	9	19508
XV	594596	594640	7	44
XV	594640	594697	8	57
XV	594697	594823	9	126
XV	594823	600742	1	5919
XV	600742	663867	9	63177
XV	663867	663902	9	49
XV	663902	664002	8	100
XV	664002	664024	9	22
XV	664024	664181	8	158
XV	664181	664808	9	627
XV	664808	665146	1	338
XV	665146	699230	9	34140
XV	699230	699340	8	110
XV	699340	703772	9	4776
XV	703772	710051	1	6279
XV	710051	710113	6	62
XV	710113	900339	9	190527
XV	900339	900597	9	258
XV	900597	900660	9	63
XV	900660	970088	9	69648
XV	970088	970200	9	112
XV	970200	970285	9	89
XV	970285	976257	1	5972
XV	976257	976343	9	90
XV	976343	976400	9	57
XV	976400	976483	9	83
XV	976483	980259	9	4082
XV	980259	980596	1	337
XV	980596	1065089	9	84652
XV	1065089	1065885	8	796
XV	1065885	1069852	9	4037
XV	1069852	1070546	7	695
XV	1070546	1070609	8	63
XV	1070609	1070941	7	334
XV	1070941	1073251	9	2310
XV	1073251	1073306	8	55
XV	1073306	1074099	1	793
XV	1074099	1074211	7	114
XV	1074211	1084568	1	10357
XV	1084568	1084589	3	21
XV	1084589	1091291	1	6702
VI	0	4842	1	4842
VI	4842	4892	7	82
VI	4892	4915	7	24
VI	4915	4960	6	47
VI	4960	4983	6	23
VI	4983	5135	1	152
VI	5135	5185	3	50
VI	5185	5222	4	39
VI	5222	5438	1	216
VI	5438	5478	5	40
VI	5478	5519	6	41
VI	5519	5597	1	78
VI	5597	5666	6	69
VI	5666	5965	2	299
VI	5965	6004	1	39
VI	6004	6064	3	60
VI	6064	6167	4	104
VI	6167	7016	1	850
VI	7016	7079	3	63
VI	7079	10885	1	3806
VI	10885	11016	5	131
VI	11016	11080	2	64
VI	11080	13087	1	2007
VI	13087	13156	4	69
VI	13156	13278	1	122
VI	13278	13435	3	157
VI	13435	13690	1	255
VI	13690	13728	2	38
VI	13728	13900	7	172
VI	13900	13931	8	31
VI	13931	14563	4	632
VI	14563	14676	8	113
VI	14676	14706	9	30
VI	14706	30088	9	15434
VI	30088	117415	9	87771
VI	117415	117494	7	79
VI	117494	117887	8	393
VI	117887	117966	9	79
VI	117966	137625	9	19662
VI	137625	137723	1	98
VI	137723	137785	3	62
VI	137785	143440	1	5655
VI	143440	143555	9	133
VI	143555	143603	1	48
VI	143603	143725	8	123
VI	143725	158085	9	14370
VI	158085	158182	9	115
VI	158182	161594	9	3467
VI	161594	161820	8	227
VI	161820	161919	7	99
VI	161919	162011	7	92
VI	162011	162073	8	63
VI	162073	162120	9	47
VI	162120	181702	9	19800
VI	181702	191663	9	10047
VI	191663	191731	8	302
VI	191731	192436	8	707
VI	192436	205012	9	12584
VI	205012	220600	9	15641
VI	220600	220938	6	338
VI	220938	266020	9	45188
VI	266020	270111	9	4108
VI	270111	270161	8	94
