Chr	Start	Stop	BlockSize	BlockLength
XII	13593	13656	9	64
XII	13750	13799	9	52
XII	13812	14108	9	297
XII	14108	17850	9	3743
XII	17862	19909	9	2047
XII	19923	22805	9	2882
XII	22825	22909	9	84
XII	22921	41217	9	18673
XII	41246	47541	9	6300
XII	47557	47898	9	341
XII	48464	48560	9	96
XII	48560	48849	9	291
XII	48872	50108	9	1237
XII	50122	52726	9	2606
XII	52759	64211	9	11455
XII	64223	64669	9	446
XII	64683	64816	9	133
XII	64829	77097	9	12275
XII	77109	84328	9	7230
XII	84328	86720	9	2399
XII	86732	92500	9	5770
XII	92512	92584	9	72
XII	92596	93296	9	702
XII	93401	94928	9	1528
XII	94940	95384	9	444
XII	95394	95818	9	424
XII	96040	100531	9	4492
XII	100543	103673	9	3190
XII	103673	103673	9	85
XII	103677	116170	9	12502
XII	116182	122002	9	5822
XII	122025	123482	9	1457
XII	123492	125393	9	1901
XII	125407	130071	9	4665
XII	130083	130093	9	10
XII	130111	140755	9	10651
XII	140784	146035	9	5252
XII	146047	151135	9	5322
XII	151151	167899	9	16754
XII	167911	167997	9	87
XII	168043	168199	9	156
XII	168213	168244	9	31
XII	168256	168769	9	513
XII	168803	169768	9	966
XII	169787	170676	9	891
XII	170696	171173	9	479
XII	171185	172013	9	828
XII	172036	202317	9	30297
XII	202329	215067	9	12746
XII	215078	215079	9	1
XII	221004	221156	9	152
XII	221158	221158	9	1
XII	221164	222133	9	970
XII	222145	222860	9	715
XII	222870	223965	9	1099
XII	223977	224304	9	327
XII	224316	245251	9	20942
XII	245268	252767	9	7503
XII	252779	262906	9	10132
XII	262918	264070	9	1152
XII	264094	282485	9	18399
XII	282497	329723	9	47242
XII	329734	342867	9	13151
XII	342879	365941	9	23072
XII	365953	369381	9	3430
XII	369393	373654	9	4270
XII	373664	373763	9	99
XII	373763	373812	9	49
XII	373820	373998	9	179
XII	374343	375266	9	923
XII	375274	375317	9	43
XII	375375	391139	9	15769
XII	391162	393721	9	2568
XII	393733	394052	9	319
XII	394064	412957	9	18906
XII	412957	415532	9	2576
XII	415550	421490	9	5942
XII	421506	422156	9	650
XII	422168	424612	9	2444
XII	424633	426839	9	2210
XII	426839	427063	9	224
XII	427063	427141	9	78
XII	427141	427193	9	52
XII	427193	442937	9	15752
XII	442949	448737	9	5791
XII	448749	448800	9	51
XII	448812	448895	9	83
XII	448908	448941	9	33
XII	448953	448987	9	34
XII	448993	449284	9	291
XII	449296	450160	9	868
XII	450172	451249	9	1081
XII	451292	451480	9	189
XII	451613	451636	9	23
XII	451650	451651	9	1
XII	451714	451767	9	53
XII	451879	451916	9	37
XII	459701	459764	9	63
XII	459847	459870	9	23
XII	460036	460069	9	33
XII	460069	460083	9	14
XII	464236	464249	9	13
XII	464390	464457	9	67
XII	464520	464588	9	68
XII	464678	464706	9	28
XII	464706	464727	9	21
XII	464727	464744	9	17
XII	464846	464895	9	49
XII	464958	464985	9	27
XII	465256	465280	9	24
XII	465280	465319	9	39
XII	465319	465355	9	36
XII	466954	466962	9	8
XII	467007	467028	9	21
XII	467145	467177	9	32
XII	467177	467209	9	32
XII	467296	467334	9	38
XII	467843	467854	9	11
XII	467878	467879	9	1
XII	467913	467943	9	30
XII	468014	468029	9	15
XII	468047	468048	9	1
XII	468184	468191	9	7
XII	468210	468211	9	1
XII	468260	468327	9	67
XII	468394	468423	9	29
XII	468473	468504	9	31
XII	468504	468529	9	25
XII	468573	468574	9	1
XII	468574	468622	9	48
XII	489375	489410	9	35
XII	490090	490104	9	14
XII	490479	511512	9	21051
XII	511538	522312	9	10786
XII	522329	537177	9	14853
XII	537202	538457	9	1255
XII	538462	543542	9	5094
XII	543555	553689	9	10160
XII	553696	556462	9	2771
XII	556479	556606	9	127
XII	556618	563498	9	6887
XII	563521	566356	9	2835
XII	566372	585917	9	19563
XII	585930	592561	9	6638
XII	592573	592810	9	241
XII	593032	593132	9	100
XII	599055	602111	9	3060
XII	602123	605390	9	3281
XII	605637	605676	9	39
XII	605692	645151	9	39468
XII	645163	645748	9	590
XII	645764	646195	9	431
XII	646216	650818	9	4605
XII	656743	657267	9	526
XII	657279	667370	9	10091
XII	667382	667986	9	604
XII	667996	669839	9	1844
XII	669861	682252	9	12395
XII	682261	687592	9	5341
XII	687614	688022	9	408
XII	688048	688049	9	1
XII	688193	688252	9	59
XII	688481	688840	9	361
XII	688852	699932	9	11082
XII	699951	701219	9	1268
XII	701234	713385	9	12177
XII	713401	731662	9	18269
XII	732000	732130	9	130
XII	732142	734521	9	2382
XII	734521	734612	9	93
XII	734612	734704	9	92
XII	734704	734886	9	182
XII	734915	751906	9	16998
XII	751918	757473	9	5555
XII	757486	766497	9	9014
XII	766514	769157	9	2643
XII	769169	783602	9	14440
XII	783602	784385	9	798
XII	784397	789125	9	4737
XII	789137	789146	9	9
XII	789152	792963	9	3819
XII	792975	793183	9	209
XII	793279	793745	9	466
XII	793757	817896	9	24159
XII	817896	818108	9	212
XII	818311	823375	9	5069
XII	823387	823440	9	54
XII	823476	827921	9	4448
XII	827933	827957	9	24
XII	827964	828340	9	376
XII	828350	829399	9	1049
XII	829414	859532	9	30126
XII	859548	875416	9	15878
XII	875428	904156	9	28735
XII	904168	932243	9	28080
XII	932273	932686	9	414
XII	932698	941191	9	8494
XII	947155	950141	9	2988
XII	950153	962988	9	12844
XII	963000	963070	9	70
XII	963070	976035	9	12968
XII	976077	976257	9	193
XII	981697	1000197	9	18503
XII	1000219	1002919	9	2701
XII	1002919	1003050	9	131
XII	1003050	1003077	9	27
XII	1003674	1003797	9	123
XII	1003893	1011943	9	8055
XII	1011960	1014193	9	2240
XII	1014207	1024976	9	10772
XII	1025013	1031396	9	6387
XII	1031407	1038153	9	6748
XII	1038163	1043987	9	5832
XII	1043997	1053317	9	9321
XII	1053333	1059566	9	6238
XII	1059579	1059674	9	95
XII	1060854	1060978	9	124
XII	1064291	1064486	9	203
XII	1064507	1064508	9	1
XII	1064508	1064567	9	59
XII	1064567	1064591	9	24
XVI	7126	7165	9	39
XVI	7213	7253	9	40
XVI	7632	7809	9	178
XVI	7821	7947	9	127
XVI	7954	7954	9	1
XVI	8275	9392	9	1120
XVI	17621	23034	9	5439
XVI	23034	38898	9	15875
XVI	38909	46589	9	7687
XVI	46601	53078	9	6477
XVI	53085	56228	9	3149
XVI	63976	64167	9	194
XVI	64187	64347	9	161
XVI	64376	75317	9	10951
XVI	75360	82016	9	6667
XVI	82031	82321	9	290
XVI	82333	85396	9	3064
XVI	85412	96760	9	11349
XVI	98316	99014	9	698
XVI	99025	117205	9	18194
XVI	117210	121986	9	4795
XVI	122005	126526	9	4522
XVI	126542	132266	9	5730
XVI	132271	132452	9	183
XVI	132466	135804	9	3339
XVI	136391	136987	9	596
XVI	136999	138278	9	1279
XVI	138290	139577	9	1287
XVI	139594	144683	9	5092
XVI	144704	162368	9	17669
XVI	162386	165824	9	3446
XVI	165836	167758	9	1932
XVI	167776	169650	9	1876
XVI	169708	174144	9	4439
XVI	174632	181278	9	6647
XVI	181290	185384	9	4097
XVI	185407	191507	9	6105
XVI	191515	192960	9	1445
XVI	192982	193902	9	920
XVI	193971	194030	9	59
XVI	194045	197759	9	3714
XVI	197771	211563	9	13802
XVI	211912	211967	9	55
XVI	211977	212819	9	843
XVI	212834	232517	9	19693
XVI	232523	239112	9	6592
XVI	239132	242428	9	3299
XVI	242440	250552	9	8114
XVI	250562	252268	9	1706
XVI	252298	252312	9	14
XVI	252326	296519	9	44209
XVI	296531	312936	9	16413
XVI	312957	313000	9	43
XVI	313012	338935	9	25932
XVI	338935	339247	9	312
XVI	339259	339307	9	48
XVI	339307	377402	9	38112
XVI	377911	379427	9	1527
XVI	379442	381750	9	2311
XVI	381762	381842	9	80
XVI	381863	393879	9	12016
XVI	393897	398019	9	4122
XVI	398031	404752	9	6723
XVI	404768	435900	9	31148
XVI	435912	436483	9	572
XVI	443112	451163	9	8056
XVI	451171	451490	9	319
XVI	451505	453571	9	2068
XVI	453588	453633	9	46
XVI	453642	455692	9	2050
XVI	455710	460659	9	4954
XVI	460675	462239	9	1564
XVI	462256	462788	9	532
XVI	462800	485921	9	23130
XVI	485936	486163	9	228
XVI	486175	490103	9	3930
XVI	490111	495404	9	5295
XVI	495416	501013	9	5604
XVI	501025	502673	9	1648
XVI	502699	503379	9	680
XVI	503395	520946	9	17552
XVI	520971	521025	9	54
XVI	521037	521076	9	39
XVI	521100	522063	9	964
XVI	522063	522081	9	35
XVI	522097	522105	9	15
XVI	522111	525411	9	3300
XVI	525423	533499	9	8096
XVI	533516	536702	9	3186
XVI	536755	560197	9	23455
XVI	560238	560298	9	60
XVI	560298	560470	9	172
XVI	560817	563521	9	2704
XVI	563533	569007	9	5476
XVI	569030	572248	9	3221
XVI	572260	572273	9	13
XVI	572285	572371	9	87
XVI	572377	581332	9	8971
XVI	581355	582046	9	694
XVI	582146	588214	9	6100
XVI	588219	589892	9	1685
XVI	589904	591716	9	1818
XVI	591729	600554	9	8827
XVI	600570	606373	9	5803
XVI	606388	607461	9	1073
XVI	607477	619933	9	12466
XVI	619962	620111	9	149
XVI	620123	621897	9	1774
XVI	621910	622757	9	847
XVI	622757	631279	9	8529
XVI	631285	645570	9	14317
XVI	645582	650493	9	4913
XVI	650524	657337	9	6827
XVI	657349	657384	9	35
XVI	657396	685882	9	28509
XVI	685882	687319	9	1437
XVI	687319	687405	9	86
XVI	687405	689485	9	2082
XVI	689490	689490	9	1
XVI	689490	689544	9	54
XVI	689584	700593	9	11031
XVI	700593	728627	9	28034
XVI	728649	731245	9	2597
XVI	731245	731367	9	122
XVI	731568	743958	9	12392
XVI	743970	753239	9	9271
XVI	753256	759852	9	6597
XVI	759864	769249	9	9390
XVI	769262	769307	9	45
XVI	769665	774821	9	5160
XVI	774833	775890	9	1058
XVI	775900	775937	9	37
XVI	775949	776116	9	167
XVI	776116	776928	9	812
XVI	776944	777084	9	145
XVI	777096	786414	9	9403
XVI	786418	786519	9	112
XVI	786525	804456	9	17943
XVI	804483	804645	9	166
XVI	810454	810523	9	69
XVI	810561	810568	9	7
XVI	810568	818550	9	8033
XVI	818555	819375	9	820
XVI	819375	819414	9	39
XVI	819426	819430	9	4
XVI	819436	825235	9	5800
XVI	825247	830686	9	5451
XVI	830698	832885	9	2191
XVI	832910	835071	9	2161
XVI	835087	837806	9	2719
XVI	837828	838020	9	192
XVI	838020	840622	9	2602
XVI	840647	844446	9	3801
XVI	856416	856548	9	132
XVI	856589	856598	9	9
XVI	856721	856760	9	39
XVI	856797	856815	9	18
XVI	856896	880277	9	23401
XVI	880291	880538	9	247
XVI	880628	897089	9	16470
XVI	897113	900124	9	3013
XVI	900136	900540	9	404
XVI	900553	901575	9	1023
XVI	901577	908159	9	6585
XVI	908171	913745	9	5580
XVI	913759	929725	9	15986
XVI	929741	930085	9	345
XVI	930105	937337	9	7237
XVI	937354	939197	9	1845
XVI	939197	942439	9	3244
XVI	942451	942514	9	81
Mito	2143	2152	9	11
Mito	2158	2164	9	16
Mito	3361	3399	9	38
Mito	3411	3412	9	1
Mito	5761	5776	9	15
Mito	5782	5805	9	30
Mito	5810	5825	9	15
Mito	5825	5837	9	12
Mito	6675	6797	9	129
Mito	6829	6858	9	52
Mito	6874	6934	9	101
Mito	6950	7007	9	86
Mito	7031	7064	9	33
Mito	7091	7169	9	84
Mito	7215	7225	9	10
Mito	7237	7249	9	12
Mito	7270	7353	9	84
Mito	7370	7508	9	149
Mito	7689	7745	9	60
Mito	7773	7788	9	15
Mito	7827	7931	9	110
Mito	7973	7995	9	28
Mito	7998	8015	9	17
Mito	8031	8077	9	84
Mito	8082	8143	9	61
Mito	8193	8194	9	1
Mito	8200	8232	9	34
Mito	8288	8289	9	1
Mito	8306	8386	9	100
Mito	8398	8409	9	11
Mito	8409	8440	9	32
Mito	8442	8454	9	12
Mito	8455	8474	9	20
Mito	8483	8517	9	37
Mito	8530	8538	9	8
Mito	8565	8656	9	105
Mito	8662	8662	9	18
Mito	8662	8669	9	24
Mito	13541	13566	9	26
Mito	13581	13582	9	1
Mito	18946	19391	9	456
Mito	19391	19589	9	239
Mito	19609	19663	9	54
Mito	19663	19830	9	172
Mito	20015	20166	9	160
Mito	20216	20271	9	59
Mito	20277	20326	9	55
Mito	20326	20329	9	3
Mito	20365	20382	9	17
Mito	20383	20383	9	1
Mito	20449	20878	9	447
Mito	20878	20942	9	64
Mito	20942	20972	9	78
Mito	20972	21027	9	89
Mito	21041	21067	9	30
Mito	21070	21088	9	20
Mito	21108	21168	9	60
Mito	21184	21199	9	15
Mito	21217	21317	9	104
Mito	21333	21540	9	257
Mito	21558	21728	9	272
Mito	21745	21902	9	213
Mito	21912	21913	9	1
Mito	22111	22177	9	66
Mito	22187	22241	9	57
Mito	22253	22260	9	7
Mito	22281	22357	9	76
Mito	22365	22486	9	121
Mito	22500	22637	9	141
Mito	22677	22677	9	1
Mito	22710	22724	9	14
Mito	22759	22780	9	21
Mito	22812	22813	9	1
Mito	22826	22831	9	5
Mito	22837	22854	9	18
Mito	22868	22869	9	1
Mito	22892	22913	9	21
Mito	22933	22952	9	19
Mito	22964	22991	9	27
Mito	22999	23041	9	42
Mito	23054	23135	9	81
Mito	23149	23150	9	1
Mito	23171	23191	9	20
Mito	23200	23213	9	13
Mito	23239	23261	9	22
Mito	23267	23269	9	2
Mito	23280	23294	9	14
Mito	23408	23439	9	31
Mito	23456	23460	9	4
Mito	23473	23479	9	6
Mito	23488	23504	9	20
Mito	23516	23571	9	56
Mito	23583	23592	9	9
Mito	23617	23655	9	38
Mito	23667	23744	9	77
Mito	23744	23822	9	79
Mito	23853	23855	9	2
Mito	23875	23876	9	1
Mito	23989	23997	9	8
Mito	24012	24013	9	1
Mito	24013	24069	9	57
Mito	24187	24256	9	70
Mito	24287	24315	9	28
Mito	24327	24396	9	72
Mito	24396	24432	9	36
Mito	24432	24485	9	53
Mito	24497	24498	9	1
Mito	24510	24514	9	4
Mito	24514	24565	9	51
Mito	24685	24762	9	78
Mito	24774	24819	9	45
Mito	24841	24842	9	1
Mito	24842	24864	9	22
Mito	24907	24938	9	31
Mito	24938	24970	9	32
Mito	24983	24998	9	15
Mito	25004	25007	9	3
Mito	25020	25047	9	27
Mito	25072	25096	9	25
Mito	25108	25134	9	26
Mito	25143	25153	9	10
Mito	25188	25190	9	34
Mito	25190	25190	9	1
Mito	25250	25269	9	19
Mito	25293	25296	9	3
Mito	25313	25342	9	29
Mito	25896	25899	9	3
Mito	25919	25920	9	1
Mito	26239	26249	9	10
Mito	26311	26376	9	65
Mito	26384	26429	9	45
Mito	26441	26449	9	8
Mito	26492	26505	9	13
Mito	27236	27292	9	57
Mito	27311	27314	9	3
Mito	27339	27350	9	11
Mito	27365	27388	9	23
Mito	27406	27438	9	32
Mito	27464	27473	9	9
Mito	27495	27526	9	31
Mito	27536	27536	9	1
Mito	27546	27549	9	3
Mito	27563	27585	9	22
Mito	27597	27609	9	12
Mito	27820	27826	9	6
Mito	27837	27838	9	1
Mito	27854	27895	9	46
Mito	27914	27929	9	18
Mito	27958	27977	9	19
Mito	27990	28028	9	38
Mito	28049	28050	9	1
Mito	28110	28133	9	23
Mito	28274	28283	9	9
Mito	28297	28305	9	8
Mito	28325	28329	9	4
Mito	28372	28374	9	2
Mito	28397	28418	9	21
Mito	28437	28462	9	26
Mito	28478	28480	9	2
Mito	28480	28492	9	12
Mito	28505	28741	9	249
Mito	28755	28857	9	102
Mito	28865	28873	9	8
Mito	28901	28947	9	46
Mito	28978	29054	9	78
Mito	29067	29085	9	18
Mito	29101	29102	9	1
Mito	29102	29126	9	24
Mito	29175	29183	9	8
Mito	29210	29221	9	11
Mito	29239	29241	9	2
Mito	29244	29244	9	1
Mito	29244	29253	9	10
Mito	29266	29333	9	67
Mito	29348	29443	9	99
Mito	29455	29498	9	43
Mito	29552	29632	9	80
Mito	29645	29683	9	38
Mito	29696	29777	9	84
Mito	29789	29815	9	29
Mito	29827	29877	9	50
Mito	29890	29902	9	12
Mito	35293	35337	9	44
Mito	35351	35356	9	5
Mito	35371	35408	9	37
Mito	35735	35753	9	18
Mito	35769	35789	9	20
Mito	35851	35898	9	48
Mito	39411	39455	9	44
Mito	60918	60926	9	8
Mito	60954	60986	9	32
Mito	60986	61058	9	84
Mito	61095	61096	9	1
Mito	61213	61213	9	4
Mito	61216	61232	9	16
Mito	61244	61289	9	68
Mito	61289	61304	9	20
Mito	61314	61334	9	40
Mito	61412	61418	9	6
Mito	61421	61602	9	205
Mito	61602	61602	9	1
Mito	62542	62545	9	3
Mito	62575	62585	9	12
Mito	62605	62605	9	1
Mito	62724	62731	9	10
Mito	62762	62767	9	5
Mito	62767	62779	9	12
Mito	62794	62823	9	29
Mito	62840	62847	9	7
Mito	62858	62892	9	34
Mito	62903	62921	9	18
Mito	62944	62951	9	7
Mito	64251	64252	9	1
Mito	64269	64285	9	25
Mito	64293	64302	9	9
Mito	64313	64323	9	12
Mito	64323	64323	9	30
Mito	64443	64452	9	9
Mito	64461	64475	9	41
Mito	64490	64494	9	4
Mito	64499	64513	9	14
Mito	64555	64576	9	21
Mito	64577	64577	9	18
Mito	64583	64617	9	34
Mito	64672	64687	9	17
Mito	64717	64737	9	31
Mito	64745	64745	9	1
Mito	64843	64861	9	18
Mito	64883	64896	9	13
Mito	64901	64921	9	22
Mito	64930	64994	9	66
Mito	65002	65013	9	11
Mito	65017	65041	9	31
Mito	65053	65057	9	5
Mito	65108	65120	9	14
Mito	65132	65198	9	114
Mito	65198	65228	9	43
Mito	65235	65244	9	9
Mito	65246	65266	9	21
Mito	65306	65317	9	11
Mito	65328	65342	9	14
Mito	65360	65361	9	1
Mito	65557	65567	9	10
Mito	65577	65626	9	52
Mito	65628	65678	9	50
Mito	65715	65777	9	73
Mito	65818	65862	9	44
Mito	65869	65869	9	1
Mito	65875	65893	9	18
Mito	65959	65990	9	31
Mito	66007	66034	9	29
Mito	66048	66065	9	17
Mito	66120	66132	9	12
Mito	66176	66213	9	38
Mito	66231	66241	9	10
Mito	66253	66267	9	14
Mito	66285	66286	9	1
Mito	66296	66296	9	1
Mito	66351	66355	9	4
Mito	66366	66367	9	1
Mito	66379	66409	9	30
Mito	66424	66424	9	1
Mito	66424	66430	9	6
Mito	66455	66472	9	17
Mito	66475	66489	9	17
Mito	66489	66504	9	40
Mito	66528	66530	9	2
Mito	66639	66682	9	60
Mito	66685	66687	9	2
Mito	66705	66747	9	45
Mito	66780	66819	9	55
Mito	66864	66884	9	21
Mito	66893	66945	9	52
Mito	66955	66979	9	24
Mito	67043	67086	9	45
Mito	67086	67097	9	11
Mito	67263	67268	9	5
Mito	67284	67300	9	16
Mito	67313	67345	9	32
Mito	67421	67433	9	12
Mito	67451	67455	9	4
Mito	67469	67480	9	11
Mito	67546	67558	9	12
Mito	67575	67587	9	15
Mito	67728	67737	9	14
Mito	68659	68717	9	74
Mito	68723	68723	9	1
Mito	68937	68951	9	14
Mito	68956	68956	9	21
Mito	68973	68980	9	17
Mito	68988	68997	9	9
Mito	69005	69051	9	46
Mito	69117	69124	9	7
Mito	69133	69139	9	6
Mito	69153	69153	9	3
Mito	69153	69153	9	1
Mito	69185	69205	9	20
Mito	69217	69223	9	6
Mito	69236	69257	9	21
Mito	69263	69292	9	29
Mito	69309	69381	9	76
Mito	69382	69400	9	18
Mito	69419	69423	9	4
Mito	69443	69444	9	1
Mito	69495	69503	9	8
Mito	69511	69522	9	11
Mito	69588	69636	9	51
Mito	69643	69660	9	17
Mito	69670	69671	9	1
Mito	69671	69673	9	2
Mito	69697	69718	9	21
Mito	69740	69746	9	12
Mito	69754	69807	9	53
Mito	69916	69938	9	22
Mito	69954	69970	9	16
Mito	70003	70010	9	7
Mito	70029	70043	9	14
Mito	70087	70115	9	29
Mito	70244	70266	9	22
Mito	70279	70281	9	2
Mito	70288	70317	9	36
Mito	70323	70335	9	12
Mito	70343	70344	9	1
Mito	70359	70365	9	6
Mito	70418	70423	9	5
Mito	70436	70438	9	2
Mito	70460	70487	9	27
Mito	70558	70568	9	10
Mito	70578	70599	9	26
Mito	70615	70616	9	1
Mito	70629	70649	9	20
Mito	70664	70668	9	13
Mito	70692	70704	9	19
Mito	70713	70734	9	21
Mito	70748	70797	9	54
Mito	70797	70797	9	1
Mito	70806	70816	9	10
Mito	70833	70853	9	20
Mito	70867	70888	9	31
Mito	70888	70888	9	1
Mito	70888	70891	9	7
Mito	70912	70924	9	18
Mito	70924	70948	9	32
Mito	70954	70979	9	36
Mito	70984	71001	9	17
Mito	71001	71009	9	15
Mito	71020	71055	9	36
Mito	71076	71077	9	1
Mito	71165	71178	9	13
Mito	71192	71211	9	19
Mito	71224	71232	9	8
Mito	71270	71272	9	2
Mito	71289	71301	9	13
Mito	71316	71323	9	7
Mito	71335	71353	9	22
Mito	71353	71382	9	29
Mito	71399	71410	9	12
Mito	71422	71433	9	11
Mito	71433	71433	9	1
Mito	71470	71489	9	19
Mito	71506	71554	9	56
Mito	71565	71596	9	35
Mito	71599	71619	9	20
Mito	71626	71631	9	5
Mito	71649	71717	9	74
Mito	71723	71727	9	4
Mito	71732	71748	9	19
Mito	71776	71793	9	17
Mito	71831	71843	9	12
Mito	71849	71849	9	1
Mito	71849	71851	9	2
Mito	71859	71864	9	5
Mito	71874	71899	9	25
Mito	71918	71926	9	8
Mito	71936	71952	9	16
Mito	71960	71966	9	6
Mito	71968	71973	9	5
Mito	71981	72002	9	21
Mito	72013	72018	9	5
Mito	72040	72050	9	10
Mito	72065	72069	9	4
Mito	72080	72086	9	6
Mito	72096	72129	9	34
Mito	72130	72130	9	1
Mito	72130	72152	9	35
Mito	72209	72214	9	5
Mito	72226	72275	9	49
Mito	72300	72308	9	8
Mito	72324	72356	9	33
Mito	72383	72384	9	1
Mito	72432	72456	9	25
Mito	72456	72473	9	21
Mito	72486	72501	9	20
Mito	72501	72514	9	33
Mito	72521	72567	9	70
Mito	72567	72573	9	18
Mito	72588	72597	9	9
Mito	72613	72641	9	39
Mito	72655	72680	9	25
Mito	72707	72735	9	28
Mito	72747	72762	9	15
Mito	72825	72844	9	19
Mito	72854	72863	9	9
Mito	72873	72876	9	3
Mito	72907	72953	9	46
Mito	72964	73017	9	53
Mito	73050	73089	9	46
Mito	73169	73182	9	13
Mito	73263	73264	9	1
Mito	73281	73288	9	7
Mito	73292	73305	9	14
Mito	73319	73320	9	1
Mito	73339	73407	9	68
Mito	73414	73448	9	52
Mito	73448	73448	9	1
Mito	73891	74554	9	671
Mito	74555	74576	9	21
Mito	74576	74627	9	51
Mito	74633	74792	9	165
Mito	74810	74850	9	40
Mito	74850	74862	9	12
Mito	74874	74908	9	34
Mito	74910	74910	9	1
Mito	74931	75467	9	536
Mito	75478	75502	9	24
Mito	75509	75509	9	1
Mito	75509	75543	9	34
Mito	75553	75576	9	23
Mito	75589	75605	9	19
Mito	75682	75698	9	16
Mito	75711	75723	9	12
Mito	75740	75845	9	105
Mito	76021	76040	9	19
Mito	76052	76102	9	51
Mito	76110	76125	9	15
Mito	76138	76160	9	22
Mito	76173	76178	9	5
Mito	76188	76188	9	1
Mito	76198	76274	9	77
Mito	76319	76361	9	42
Mito	76373	76400	9	27
Mito	76412	76499	9	91
Mito	77444	77517	9	73
Mito	77535	77552	9	17
Mito	77567	77604	9	37
Mito	77617	77647	9	30
Mito	77658	77665	9	7
Mito	77718	77721	9	3
Mito	77733	77769	9	37
Mito	77777	77837	9	60
Mito	77853	77854	9	1
Mito	77854	77871	9	17
Mito	77937	77945	9	8
Mito	78102	78123	9	21
Mito	78167	78219	9	52
Mito	78232	78237	9	5
Mito	78247	78253	9	6
Mito	78264	78276	9	12
Mito	78288	78289	9	1
Mito	78301	78314	9	13
Mito	78320	78354	9	35
Mito	78386	78418	9	32
Mito	78430	78438	9	8
Mito	78450	78476	9	26
Mito	78500	78522	9	22
Mito	78534	78575	9	41
Mito	78587	78598	9	11
Mito	78611	78630	9	19
Mito	81285	81301	9	25
Mito	81560	81652	9	105
Mito	81801	81840	9	55
Mito	81855	81856	9	1
Mito	81929	81977	9	62
Mito	81999	82022	9	23
Mito	82032	82033	9	1
Mito	82033	82135	9	116
Mito	82154	82155	9	1
Mito	82290	82325	9	36
Mito	84647	84652	9	5
Mito	84696	84701	9	5
Mito	84712	84748	9	36
Mito	84776	84794	9	21
Mito	84825	84918	9	96
Mito	84937	84949	9	12
Mito	84961	84971	9	10
Mito	85011	85026	9	15
Mito	85047	85058	9	11
Mito	85076	85190	9	166
Mito	85195	85201	9	10
Mito	85310	85372	9	86
Mito	85383	85435	9	57
Mito	85447	85474	9	27
Mito	85481	85511	9	34
Mito	85517	85519	9	2
Mito	85544	85571	9	28
Mito	85571	85584	9	16
Mito	85604	85634	9	31
Mito	85649	85650	9	1
IV	2274	2970	9	696
IV	2989	3008	9	19
IV	17993	19130	9	1139
IV	19151	19762	9	615
IV	19774	19835	9	61
IV	19847	20520	9	673
IV	20542	29106	9	8565
IV	29124	44313	9	15190
IV	44529	56975	9	12452
IV	56995	73910	9	16929
IV	73929	83233	9	9307
IV	83262	92676	9	9430
IV	92698	118265	9	25582
IV	118449	123722	9	5275
IV	123728	124587	9	859
IV	124722	126544	9	1825
IV	126552	127635	9	1083
IV	128997	132970	9	3975
IV	133028	133055	9	27
IV	133085	134392	9	1307
IV	134455	137785	9	3330
IV	137866	139411	9	1545
IV	139423	149111	9	9688
IV	149139	169830	9	20708
IV	169839	181915	9	12079
IV	181933	182760	9	827
IV	182768	201603	9	18843
IV	201615	205584	9	3976
IV	205613	211314	9	5704
IV	211318	218118	9	6812
IV	218297	220382	9	2085
IV	220521	226811	9	6293
IV	226845	227632	9	789
IV	227632	239927	9	12312
IV	239939	244834	9	4895
IV	244846	256574	9	11731
IV	256583	263223	9	6641
IV	263240	271752	9	8513
IV	271768	273624	9	1856
IV	273640	274967	9	1327
IV	275004	285380	9	10379
IV	285388	300117	9	14732
IV	300129	302324	9	2197
IV	302342	302405	9	63
IV	302405	307091	9	4688
IV	307104	315169	9	8074
IV	315196	323671	9	8481
IV	323695	323978	9	283
IV	323990	329635	9	5645
IV	329653	329781	9	128
IV	329789	336201	9	6415
IV	336217	340279	9	4062
IV	340296	340394	9	98
IV	340404	343999	9	3597
IV	344016	350986	9	6971
IV	350992	357112	9	6131
IV	357124	359430	9	2309
IV	359567	359615	9	48
IV	359629	369255	9	9635
IV	369273	370958	9	1686
IV	370972	383559	9	12593
IV	383601	383727	9	126
IV	383836	383923	9	115
IV	383923	383923	9	1
IV	383923	383931	9	26
IV	383938	383938	9	1
IV	384542	384626	9	84
IV	384626	384878	9	252
IV	385085	390444	9	5380
IV	390450	390552	9	102
IV	390568	392104	9	1536
IV	392120	392142	9	22
IV	392163	408314	9	16153
IV	408314	410043	9	1730
IV	410055	410134	9	79
IV	410146	432131	9	22015
IV	432147	434414	9	2279
IV	434424	434425	9	1
IV	434902	435260	9	360
IV	435260	435934	9	676
IV	435949	436192	9	243
IV	436205	436385	9	182
IV	436406	437137	9	731
IV	437143	437143	9	1
IV	437540	437547	9	7
IV	437559	437605	9	46
IV	437655	441261	9	3606
IV	441280	441305	9	25
IV	441323	444477	9	3164
IV	444484	471851	9	27417
IV	471851	476318	9	4468
IV	476323	478830	9	2545
IV	478842	484139	9	5297
IV	484151	489435	9	5286
IV	489448	491616	9	2169
IV	491628	492048	9	420
IV	492059	505229	9	13171
IV	505245	507026	9	1781
IV	507049	509619	9	2570
IV	509638	512987	9	3350
IV	519317	519893	9	609
IV	519917	520444	9	527
IV	520456	520464	9	8
IV	520810	522981	9	2204
IV	522997	523162	9	166
IV	523181	527249	9	4133
IV	535010	538727	9	3725
IV	538754	544674	9	5925
IV	544807	545474	9	667
IV	545490	548541	9	3051
IV	548557	576323	9	27792
IV	576335	587833	9	11508
IV	587854	592185	9	4331
IV	592185	592248	9	65
IV	592256	592517	9	261
IV	592563	593280	9	717
IV	593292	601027	9	7743
IV	601083	604268	9	3189
IV	604272	607036	9	2764
IV	607052	612021	9	4969
IV	612033	617270	9	5239
IV	617287	617484	9	197
IV	617484	620023	9	2540
IV	620023	620053	9	30
IV	620053	620977	9	925
IV	620983	621708	9	725
IV	621731	621873	9	142
IV	621891	645114	9	23234
IV	645114	645167	9	53
IV	645615	645628	9	13
IV	645706	645707	9	1
IV	645772	645835	9	63
IV	651497	651833	9	352
IV	651847	651917	9	70
IV	651929	654335	9	2407
IV	654354	654805	9	451
IV	654822	668096	9	13278
IV	668141	668147	9	6
IV	668178	668208	9	30
IV	668226	668235	9	11
IV	668235	668247	9	12
IV	668282	668298	9	16
IV	668336	668337	9	1
IV	668478	668513	9	47
IV	668513	678007	9	9504
IV	678039	683936	9	5913
IV	683947	694837	9	10896
IV	694840	721185	9	26349
IV	721197	747079	9	25892
IV	747088	747506	9	418
IV	747511	754462	9	6971
IV	754480	757443	9	2963
IV	757859	757896	9	37
IV	757921	757922	9	1
IV	758021	758053	9	32
IV	759781	766570	9	6790
IV	766580	778785	9	12206
IV	778815	801680	9	22868
IV	801701	801923	9	222
IV	801943	802843	9	900
IV	802865	802969	9	122
IV	802991	803029	9	38
IV	805524	805529	9	5
IV	805541	810467	9	4930
IV	810472	810725	9	255
IV	810728	812956	9	2231
IV	812974	819175	9	6204
IV	819187	827408	9	8223
IV	827414	834006	9	6594
IV	834020	840416	9	6407
IV	840434	843499	9	3065
IV	843511	851065	9	7560
IV	851083	864861	9	13781
IV	864873	871818	9	6954
IV	877981	878302	9	321
IV	884225	884396	9	171
IV	884416	884542	9	126
IV	884556	886984	9	2428
IV	886996	892696	9	5700
IV	892724	923041	9	30329
IV	923051	930958	9	7916
IV	930980	945954	9	14978
IV	946300	946365	9	65
IV	946371	946371	9	1
IV	946371	955980	9	9610
IV	955996	966501	9	10510
IV	966501	968043	9	1545
IV	968055	981161	9	13126
IV	981200	981242	9	52
IV	981395	981402	9	7
IV	981455	981492	9	38
IV	991101	991450	9	349
IV	991491	991501	9	10
IV	991505	991505	9	1
IV	991671	992326	9	656
IV	992326	992338	9	12
IV	992430	992447	9	17
IV	992502	992507	9	5
IV	992658	992659	9	1
IV	992742	995802	9	3062
IV	995811	1010847	9	15040
IV	1010853	1012091	9	1243
IV	1012102	1017381	9	5320
IV	1017381	1017457	9	76
IV	1017457	1017570	9	113
IV	1017570	1023136	9	5574
IV	1023482	1032045	9	8572
IV	1032057	1043108	9	11054
IV	1043117	1075200	9	32105
IV	1075212	1079891	9	4683
IV	1079903	1080938	9	1036
IV	1080975	1081924	9	949
IV	1081936	1087495	9	5562
IV	1087507	1087757	9	250
IV	1088661	1090107	9	1446
IV	1090123	1095766	9	5648
IV	1101697	1111974	9	10289
IV	1112004	1120018	9	8015
IV	1120040	1150902	9	30884
IV	1151049	1151362	9	314
IV	1151629	1154160	9	2531
IV	1155398	1159552	9	4187
IV	1159615	1159689	9	74
IV	1161142	1162488	9	1364
IV	1162507	1164153	9	1670
IV	1164294	1175154	9	10868
IV	1175210	1175310	9	100
IV	1175645	1201410	9	25770
IV	1201410	1206706	9	5298
IV	1212629	1233612	9	20989
IV	1233628	1239025	9	5397
IV	1239047	1245761	9	6716
IV	1245761	1251240	9	5480
IV	1251264	1279159	9	27911
IV	1279169	1290978	9	11809
IV	1290985	1292120	9	1135
IV	1292146	1296740	9	4596
IV	1296750	1305525	9	8780
IV	1305583	1305618	9	37
IV	1305657	1307646	9	1990
IV	1307646	1307690	9	44
IV	1308404	1308426	9	22
IV	1308485	1321976	9	13492
IV	1321994	1334770	9	12782
IV	1334783	1341045	9	6263
IV	1341057	1341633	9	576
IV	1341655	1346531	9	4877
IV	1346549	1352453	9	5904
IV	1352466	1352480	9	14
IV	1352999	1357469	9	4473
IV	1357498	1385467	9	27975
IV	1385480	1385520	9	40
IV	1385533	1385992	9	460
IV	1386004	1411623	9	25636
IV	1411635	1418463	9	6829
IV	1418480	1431935	9	13470
IV	1431941	1447764	9	15829
IV	1447776	1456584	9	8814
IV	1456597	1458156	9	1560
IV	1458164	1461923	9	3760
IV	1461923	1466412	9	4513
IV	1466429	1468937	9	2508
IV	1468959	1471479	9	2522
IV	1471489	1478123	9	6635
IV	1478129	1493589	9	15493
IV	1493601	1503870	9	10288
IV	1503917	1504098	9	181
IV	1504508	1504509	9	1
IV	1504515	1505694	9	1180
IV	1505701	1518942	9	13258
IV	1518954	1523342	9	4398
V	6373	6481	9	108
V	10057	10069	9	12
V	10079	12996	9	2919
V	13019	14612	9	1595
V	14631	20784	9	6156
V	21741	21832	9	91
V	21863	21864	9	1
V	23123	23168	9	45
V	23168	31454	9	8293
V	31476	61898	9	30444
V	61910	62089	9	179
V	62089	62129	9	40
V	62200	62201	9	1
V	62486	63784	9	1298
V	63981	65287	9	1307
V	65303	76000	9	10706
V	76021	79225	9	3204
V	79237	81206	9	1969
V	81223	86383	9	5171
V	86400	86483	9	83
V	86506	100050	9	13555
V	100050	100141	9	91
V	100153	100571	9	421
V	100583	102539	9	1957
V	102551	118215	9	15676
V	118227	118257	9	33
V	118269	118272	9	3
V	118282	118283	9	1
V	118396	118572	9	176
V	118596	122722	9	4126
V	122740	131164	9	8430
V	131164	132552	9	1388
V	132571	133001	9	430
V	133017	135596	9	2581
V	135945	136106	9	161
V	136106	138444	9	2346
V	138453	142935	9	4488
V	142950	151822	9	8876
V	151834	151974	9	140
V	151986	156264	9	4290
V	156272	175581	9	19315
V	175593	175660	9	67
V	175668	175671	9	3
V	175701	177006	9	1305
V	177006	177243	9	237
V	177255	187915	9	10672
V	187937	192679	9	4742
V	192693	198586	9	5896
V	198602	207247	9	8648
V	207259	225776	9	18529
V	225788	234923	9	9135
V	234935	241861	9	6933
V	241887	243655	9	1769
V	243681	243780	9	104
V	243795	249032	9	5255
V	249032	249917	9	895
V	249928	249929	9	1
V	250269	256297	9	6039
V	256317	260118	9	3813
V	260138	260214	9	77
V	260226	261458	9	1233
V	261476	266901	9	5432
V	266913	274368	9	7461
V	274380	275898	9	1518
V	275911	277758	9	1847
V	277915	284378	9	6465
V	284405	284422	9	17
V	284444	289835	9	5393
V	290449	298042	9	7597
V	298048	305703	9	7665
V	305809	306970	9	1163
V	307081	309000	9	1920
V	309009	311718	9	2709
V	311735	353562	9	41847
V	353562	354362	9	800
V	354669	354706	9	37
V	354735	354736	9	1
V	354742	354744	9	2
V	354756	354945	9	189
V	354957	355244	9	289
V	355255	357888	9	2634
V	357901	363237	9	5340
V	363703	382292	9	18603
V	382314	397457	9	15147
V	397469	407057	9	9594
V	407068	431496	9	24436
V	431516	431531	9	15
V	431861	434625	9	2772
V	434635	434686	9	51
V	434710	434711	9	1
V	434971	435915	9	944
V	436371	436444	9	73
V	436453	438606	9	2153
V	438721	438783	9	62
V	438783	442627	9	3847
V	442633	442817	9	184
V	442829	443248	9	421
V	443260	443263	9	3
V	443275	443363	9	89
V	443384	443385	9	1
V	443396	443396	9	1
V	449715	460460	9	10751
V	460472	461865	9	1393
V	461871	468978	9	7124
V	468990	469185	9	195
V	469198	469304	9	106
V	469406	469410	9	4
V	469426	469563	9	138
V	469579	469603	9	25
V	469616	482231	9	12618
V	482246	487604	9	5370
V	487629	487833	9	205
V	488170	490205	9	2037
V	490214	492433	9	2221
V	498510	498671	9	161
V	498677	517528	9	18855
V	517547	540398	9	22856
V	540410	545181	9	4774
V	545200	546339	9	1139
V	546350	548171	9	1822
V	548183	551620	9	3442
V	551620	553266	9	1646
V	553282	555150	9	1880
V	555162	566864	9	11739
V	569449	569535	9	89
V	569547	569596	9	49
V	569596	569878	9	282
V	570010	570065	9	60
V	570081	570082	9	1
VII	857	894	9	37
VII	947	1082	9	135
VII	3039	3126	9	87
VII	3126	3328	9	202
VII	7988	8620	9	645
VII	8782	10314	9	1539
VII	10895	16798	9	5918
VII	16815	20008	9	3204
VII	20022	21511	9	1500
VII	21533	23636	9	2104
VII	23642	44503	9	20864
VII	44509	53141	9	8639
VII	53149	56220	9	3071
VII	56230	65304	9	9076
VII	65312	69346	9	4034
VII	69377	70181	9	804
VII	70197	73911	9	3715
VII	73911	75468	9	1560
VII	75486	79013	9	3533
VII	79040	80598	9	1558
VII	80625	110803	9	30196
VII	110815	110854	9	39
VII	111162	111219	9	57
VII	111229	111230	9	1
VII	111230	111263	9	33
VII	111297	111369	9	72
VII	111385	111393	9	8
VII	111453	112174	9	721
VII	112189	112946	9	776
VII	112952	114947	9	1995
VII	114947	114987	9	40
VII	114987	115020	9	34
VII	115020	115081	9	63
VII	115392	115523	9	131
VII	115535	121175	9	5644
VII	121175	121588	9	414
VII	121588	140306	9	18728
VII	140329	145374	9	5045
VII	145386	148740	9	3356
VII	148763	154573	9	5820
VII	154589	156100	9	1511
VII	156127	158860	9	2734
VII	158876	158928	9	99
VII	158934	163129	9	4195
VII	163136	192187	9	29064
VII	192193	200485	9	8301
VII	200500	205093	9	4595
VII	205128	205218	9	90
VII	205324	205325	9	1
VII	205336	224890	9	19586
VII	224896	228348	9	3452
VII	228360	245635	9	17276
VII	245659	254655	9	9001
VII	255242	262478	9	7236
VII	262490	270265	9	7776
VII	270281	270294	9	13
VII	270311	272286	9	1976
VII	272302	274692	9	2394
VII	274703	278774	9	4077
VII	278798	278826	9	28
VII	278839	280073	9	1234
VII	280148	280157	9	9
VII	280183	287408	9	7230
VII	287408	287461	9	53
VII	287461	298087	9	10629
VII	298103	307187	9	9084
VII	307227	318898	9	11676
VII	319061	319430	9	369
VII	319793	321481	9	1691
VII	321497	323360	9	1865
VII	323378	324538	9	1179
VII	324557	328263	9	3713
VII	328269	328269	9	1
VII	328269	358111	9	29891
VII	358126	364404	9	6278
VII	364829	364857	9	28
VII	364857	364892	9	35
VII	364892	366193	9	1308
VII	366212	375912	9	9702
VII	375924	378020	9	2096
VII	378038	379000	9	962
VII	379012	379156	9	144
VII	379177	385762	9	6587
VII	385836	400545	9	14714
VII	400564	401618	9	1056
VII	401692	401699	9	7
VII	401762	401765	9	3
VII	401809	401815	9	6
VII	401841	401890	9	49
VII	403730	404236	9	506
VII	404248	404367	9	119
VII	404367	404422	9	55
VII	404422	404550	9	130
VII	404550	404826	9	277
VII	404976	405065	9	89
VII	405353	405389	9	38
VII	405389	405409	9	20
VII	405421	405453	9	32
VII	405453	412462	9	7012
VII	412473	422805	9	10343
VII	422805	423080	9	275
VII	423216	427223	9	4009
VII	427232	429787	9	2555
VII	429799	431415	9	1619
VII	431440	434514	9	3077
VII	434572	437292	9	2726
VII	437310	440918	9	3614
VII	440918	442169	9	1254
VII	442203	448892	9	6694
VII	448903	449245	9	342
VII	449257	467700	9	18448
VII	467706	469201	9	1502
VII	469253	479310	9	10061
VII	479322	480743	9	1430
VII	480755	485501	9	4749
VII	485511	498002	9	12502
VII	498020	508594	9	10574
VII	508610	508788	9	180
VII	508814	519099	9	10290
VII	519162	530025	9	10930
VII	530036	530049	9	54
VII	530052	531514	9	1467
VII	531524	531622	9	98
VII	531634	531847	9	213
VII	531868	535213	9	3349
VII	535219	535219	9	1
VII	535571	535682	9	111
VII	535682	535750	9	68
VII	536034	536173	9	139
VII	536173	536502	9	329
VII	536514	536733	9	219
VII	536764	538302	9	1538
VII	538314	539087	9	773
VII	539087	539336	9	249
VII	539348	540116	9	768
VII	540116	541345	9	1229
VII	541345	541376	9	31
VII	541391	541421	9	30
VII	541681	555975	9	14302
VII	556009	561714	9	5708
VII	561755	561831	9	76
VII	561847	561848	9	1
VII	567760	568741	9	982
VII	574706	582003	9	7297
VII	582030	593367	9	11341
VII	593386	593541	9	156
VII	593547	599288	9	5754
VII	599296	604583	9	5289
VII	604595	611740	9	7152
VII	611752	624026	9	12279
VII	624038	627180	9	3146
VII	627207	628182	9	976
VII	628205	639679	9	11479
VII	639696	640611	9	916
VII	640632	644767	9	4135
VII	644797	648467	9	3671
VII	648724	661139	9	12440
VII	661156	661574	9	425
VII	661586	678068	9	16493
VII	678081	699994	9	21917
VII	700011	701157	9	1147
VII	701157	701208	9	51
VII	701220	701221	9	1
VII	701229	701230	9	1
VII	701281	707072	9	5800
VII	712752	724958	9	12215
VII	724994	730982	9	5998
VII	730994	731108	9	115
VII	731120	731268	9	149
VII	731280	735480	9	4218
VII	735529	735847	9	319
VII	735859	735972	9	113
VII	735988	735989	9	1
VII	736324	746569	9	10257
VII	746592	753170	9	6578
VII	753182	753290	9	108
VII	753311	763488	9	10182
VII	763500	763876	9	379
VII	763876	774093	9	10237
VII	774105	778930	9	4843
VII	778948	778968	9	20
VII	779117	807329	9	28380
VII	807343	807480	9	137
VII	807502	807862	9	360
VII	807875	808380	9	506
VII	808394	811446	9	3053
VII	823329	828796	9	5471
VII	828796	828920	9	124
VII	828932	845621	9	16703
VII	845621	845719	9	98
VII	845719	845874	9	155
VII	845891	848504	9	2617
VII	848516	876098	9	27600
VII	876098	876152	9	54
VII	876167	876208	9	41
VII	876208	877134	9	926
VII	877140	877195	9	55
VII	877225	878768	9	1544
VII	878888	879073	9	185
VII	879093	882874	9	3782
VII	883456	910106	9	26661
VII	910126	920919	9	10799
VII	920931	930944	9	10013
VII	930955	931170	9	216
VII	931170	931232	9	63
VII	931260	931261	9	1
VII	931544	931690	9	146
VII	932027	937716	9	5689
VII	937730	949245	9	11521
VII	949257	949446	9	195
VII	949452	957506	9	8065
VII	957518	959773	9	2256
VII	959789	977892	9	18113
VII	977906	982254	9	4354
VII	982264	985718	9	3454
VII	985733	988888	9	3187
VII	988902	994372	9	5473
VII	994384	999532	9	5149
VII	999544	999552	9	8
VII	999563	1000622	9	1061
VII	1000634	1000925	9	291
VII	1000925	1004502	9	3577
VII	1004507	1038702	9	34210
VII	1038714	1043760	9	5046
VII	1043778	1048403	9	4625
VII	1048415	1052326	9	3915
VII	1052338	1063410	9	11073
VII	1063420	1066489	9	3072
VII	1066499	1068516	9	2017
VII	1068537	1068538	9	1
VII	1068993	1069910	9	919
VII	1069922	1076129	9	6220
VII	1076656	1077306	9	650
VII	1077318	1077430	9	112
VII	1077442	1077683	9	241
VII	1080505	1080605	9	100
VII	1080605	1080917	9	319
VII	1080929	1081193	9	265
VII	1081193	1081325	9	132
VII	1081445	1081529	9	84
VII	1081529	1081556	9	27
VII	1081556	1081590	9	34
VII	1081626	1081685	9	59
VII	1084165	1084193	9	28
VII	1084215	1084215	9	1
X	7847	7873	9	26
X	10513	10587	9	74
X	15326	16787	9	1468
X	16787	16827	9	40
X	21103	24532	9	3434
X	25069	25200	9	132
X	25217	25218	9	1
X	25241	25448	9	210
X	25462	25463	9	1
X	27126	29440	9	2318
X	29459	30759	9	1301
X	30770	59074	9	28321
X	59183	59447	9	266
X	59457	74385	9	14933
X	74397	75582	9	1185
X	75594	76556	9	962
X	76573	99500	9	22947
X	99525	99629	9	105
X	99653	113468	9	13823
X	113481	114865	9	1387
X	114884	115993	9	1112
X	116028	119842	9	3820
X	119854	120789	9	936
X	120802	120837	9	35
X	120845	120849	9	4
X	120924	120924	9	1
X	121040	121062	9	22
X	121062	121126	9	64
X	121239	121304	9	65
X	121304	134106	9	12812
X	134123	136905	9	2785
X	136922	153522	9	16611
X	153522	159423	9	5904
X	159432	177916	9	18490
X	177930	189036	9	11111
X	189048	197373	9	8331
X	197409	197475	9	66
X	197508	197509	9	1
X	204657	207446	9	2790
X	207463	220083	9	12621
X	220095	230943	9	10864
X	230955	245291	9	14341
X	245315	251750	9	6437
X	251770	265866	9	14102
X	265882	289582	9	23708
X	289596	293127	9	3592
X	293133	293200	9	108
X	293224	294445	9	1224
X	294457	317074	9	22658
X	317092	338922	9	21838
X	338935	342342	9	3408
X	342359	354064	9	11707
X	354064	354303	9	239
X	354303	354531	9	229
X	355184	355187	9	24
X	355187	355219	9	32
X	355219	355420	9	201
X	355489	355730	9	243
X	355730	361632	9	5905
X	361652	366765	9	5113
X	367058	367342	9	284
X	367399	374461	9	7062
X	374532	374591	9	59
X	374591	374741	9	150
X	374781	374907	9	126
X	374907	377890	9	2985
X	377890	378044	9	156
X	378183	391236	9	13062
X	391248	393831	9	2584
X	393842	400240	9	6432
X	400252	400295	9	43
X	400299	400850	9	591
X	400862	402001	9	1139
X	402055	404062	9	2007
X	404078	415974	9	11898
X	415986	416211	9	225
X	416249	416254	9	5
X	416266	416906	9	640
X	416920	416921	9	1
X	416921	424167	9	7248
X	424186	424900	9	714
X	424920	448847	9	23958
X	448852	453745	9	4893
X	454264	455855	9	1591
X	455880	456065	9	187
X	456091	457897	9	1806
X	457918	464349	9	6437
X	464365	467610	9	3248
X	467622	470125	9	2504
X	470136	472462	9	2326
X	483977	497095	9	13121
X	497106	497298	9	192
X	497312	519249	9	21938
X	519277	523898	9	4621
X	523914	523956	9	42
X	523968	537682	9	13723
X	537694	538102	9	409
X	538303	538321	9	18
X	538338	538339	9	1
X	538440	538499	9	59
X	538513	540739	9	2227
X	540739	540870	9	131
X	541218	541232	9	14
X	541258	541311	9	53
X	541432	541441	9	9
X	541531	547804	9	6278
X	547813	550316	9	2504
X	550328	586105	9	35793
X	586115	594181	9	8066
X	594205	606338	9	12137
X	606350	617646	9	11306
X	617658	617670	9	12
X	617682	617824	9	142
X	617836	617968	9	132
X	617968	635773	9	18095
X	635779	639202	9	3427
X	639218	639702	9	484
X	639728	640000	9	272
X	640036	661758	9	21733
X	661781	677397	9	15619
X	677414	701740	9	24326
X	701772	701883	9	111
X	701910	702030	9	120
X	702030	703390	9	1362
X	703408	712814	9	9413
X	713082	714162	9	1080
X	714318	714423	9	105
X	714578	714900	9	325
X	714904	714924	9	64
X	714924	714955	9	32
X	714955	715094	9	139
X	715108	715125	9	17
X	715132	715132	9	29
X	715138	715245	9	107
X	715252	716325	9	1110
X	716332	717507	9	1175
X	717519	724867	9	7380
X	724873	724917	9	44
X	724923	727718	9	2801
X	727730	728288	9	558
X	729823	729955	9	132
X	729980	730299	9	319
X	730311	730369	9	58
X	731009	731763	9	755
X	731777	731994	9	217
X	732006	733324	9	1319
X	733348	733416	9	68
X	733602	734652	9	1050
X	734659	734901	9	242
X	734909	742250	9	7346
X	742312	742371	9	59
X	742381	742549	9	168
X	742612	742955	9	343
X	744025	744070	9	45
X	744088	744107	9	19
XI	1076	1156	9	81
XI	1671	1742	9	71
XI	2623	2669	9	46
XI	2839	7656	9	4823
XI	7669	9732	9	2064
XI	9745	16118	9	6376
XI	16130	19269	9	3140
XI	19286	22035	9	2769
XI	22063	26585	9	4524
XI	26606	32761	9	6156
XI	32773	36583	9	3810
XI	36601	42330	9	5734
XI	42338	64017	9	21683
XI	64026	64028	9	2
XI	64040	64064	9	24
XI	64075	64179	9	104
XI	64191	64196	9	5
XI	64208	68339	9	4145
XI	68356	68746	9	393
XI	68759	74250	9	5498
XI	74318	74337	9	19
XI	74438	74525	9	87
XI	74537	74619	9	83
XI	74683	76129	9	1451
XI	76172	78793	9	2621
XI	78810	84110	9	5309
XI	84110	84226	9	116
XI	84304	114768	9	30485
XI	114775	126096	9	11329
XI	126103	137701	9	11606
XI	137713	141271	9	3558
XI	141277	141289	9	12
XI	141289	144763	9	3583
XI	144773	144811	9	38
XI	144823	144851	9	28
XI	144863	144898	9	35
XI	144898	164838	9	19994
XI	164865	168991	9	4128
XI	169005	173892	9	4901
XI	173903	179242	9	5339
XI	179251	196842	9	17609
XI	196860	202637	9	5788
XI	202650	202651	9	1
XI	202988	212433	9	9451
XI	212441	219517	9	7079
XI	219537	220779	9	1243
XI	220786	223169	9	2384
XI	223182	226071	9	2890
XI	226083	226086	9	3
XI	226107	234586	9	8490
XI	234600	235318	9	718
XI	235337	240675	9	5339
XI	240704	253045	9	12349
XI	253057	280415	9	27390
XI	280423	280935	9	512
XI	280951	302574	9	21643
XI	302574	302625	9	51
XI	302625	304931	9	2313
XI	304955	306847	9	1894
XI	306859	308609	9	1753
XI	308609	308641	9	32
XI	308641	308780	9	139
XI	308797	313590	9	4913
XI	313924	313998	9	74
XI	313998	314181	9	184
XI	314530	321759	9	7236
XI	321791	335169	9	13392
XI	335186	337562	9	2382
XI	337591	364310	9	26751
XI	364329	369799	9	5470
XI	369811	374332	9	4523
XI	374348	378939	9	4593
XI	378955	381517	9	2566
XI	381531	382545	9	1016
XI	382578	384839	9	2261
XI	384849	385098	9	249
XI	385120	387142	9	2023
XI	387155	387374	9	221
XI	387386	389135	9	1750
XI	389135	431302	9	42169
XI	431329	432525	9	1197
XI	432659	434669	9	2010
XI	434681	451562	9	16889
XI	451580	458018	9	6440
XI	458018	458136	9	118
XI	458471	458599	9	128
XI	458612	463256	9	4648
XI	463273	464462	9	1189
XI	464466	465182	9	736
XI	465196	489980	9	24794
XI	490009	490956	9	951
XI	490977	490978	9	1
XI	490978	493694	9	2716
XI	493700	513848	9	20171
XI	513848	514537	9	690
XI	514586	517385	9	2800
XI	517385	517455	9	70
XI	517792	518061	9	270
XI	518078	518116	9	38
XI	518130	524037	9	5925
XI	524056	525296	9	1240
XI	525305	553699	9	28400
XI	553720	555046	9	1326
XI	555046	576493	9	21458
XI	576518	578869	9	2354
XI	578869	578955	9	89
XI	579011	579725	9	714
XI	579730	580876	9	1147
XI	580887	613205	9	32330
XI	613217	613541	9	324
XI	613553	613632	9	79
XI	613645	613682	9	37
XI	613715	613772	9	57
XI	613788	613984	9	196
XI	613992	615115	9	1123
XI	615115	617552	9	2438
XI	617569	618060	9	491
XI	618234	627466	9	9242
XI	627497	632828	9	5332
XI	632835	642734	9	9904
XI	642776	644800	9	2024
XI	644812	647350	9	2540
XI	647350	647402	9	52
XI	647402	647425	9	23
XI	647451	647452	9	1
XI	647467	647496	9	29
XI	647839	647849	9	10
XI	648070	648077	9	7
XI	648089	648091	9	2
XI	648091	658141	9	10059
XI	658153	659465	9	1312
XI	659556	660515	9	959
XI	660515	660578	9	85
XI	660578	661289	9	713
XI	661352	663324	9	1978
XI	663324	663485	9	162
XI	663485	663577	9	92
XI	663578	663690	9	114
XI	663690	663757	9	68
XI	663767	663953	9	186
XIII	8437	8501	9	65
XIII	8513	21939	9	13442
XIII	21951	21952	9	1
XIII	21971	26580	9	4619
XIII	26593	26810	9	222
XIII	26827	43912	9	17093
XIII	43922	44368	9	448
XIII	44391	45964	9	1573
XIII	45964	65921	9	19976
XIII	65942	86945	9	21018
XIII	87023	95727	9	8709
XIII	95735	99593	9	3859
XIII	99610	120598	9	21004
XIII	120610	122628	9	2020
XIII	122636	130089	9	7454
XIII	130101	131812	9	1711
XIII	131907	132105	9	198
XIII	132111	132541	9	432
XIII	132553	143080	9	10532
XIII	143090	146081	9	2991
XIII	146100	158654	9	12556
XIII	158666	159854	9	1189
XIII	159868	164386	9	4519
XIII	164404	165417	9	1013
XIII	165433	168348	9	2921
XIII	168686	168823	9	137
XIII	168835	169488	9	655
XIII	169510	175907	9	6398
XIII	175918	179687	9	3770
XIII	179694	184164	9	4474
XIII	190083	191985	9	1903
XIII	191994	192738	9	746
XIII	192748	196103	9	3360
XIII	196115	196331	9	216
XIII	202119	202160	9	55
XIII	202178	209864	9	7691
XIII	209878	209947	9	69
XIII	209953	233290	9	23342
XIII	233299	238758	9	5461
XIII	238778	239347	9	569
XIII	239371	248144	9	8778
XIII	248156	251654	9	3503
XIII	251666	256651	9	4989
XIII	256665	259179	9	2515
XIII	259249	266848	9	7604
XIII	266854	280722	9	13881
XIII	280740	306141	9	25416
XIII	306153	309497	9	3348
XIII	309509	321324	9	11821
XIII	321340	344126	9	22798
XIII	344138	352157	9	8022
XIII	352169	354547	9	2378
XIII	354561	356107	9	1547
XIII	356112	356974	9	865
XIII	356974	357005	9	31
XIII	362924	363175	9	251
XIII	363187	370951	9	7768
XIII	370963	372555	9	1594
XIII	372572	372573	9	1
XIII	372573	372644	9	72
XIII	379198	379346	9	148
XIII	379358	388679	9	9323
XIII	388697	406133	9	17440
XIII	406145	409174	9	3029
XIII	409186	409210	9	24
XIII	409234	409502	9	268
XIII	409521	410422	9	901
XIII	410439	420677	9	10242
XIII	420677	421001	9	546
XIII	421015	421082	9	67
XIII	421095	421166	9	72
XIII	421166	421166	9	1
XIII	421166	429848	9	8689
XIII	429875	433347	9	3472
XIII	433366	462688	9	29329
XIII	462699	463000	9	301
XIII	463000	473081	9	10089
XIII	473093	481235	9	8149
XIII	481235	482185	9	1057
XIII	482185	489735	9	7694
XIII	489759	497687	9	7928
XIII	497699	503764	9	6068
XIII	504140	504479	9	342
XIII	504495	504728	9	233
XIII	504736	504736	9	1
XIII	504736	504948	9	213
XIII	504961	510075	9	5116
XIII	510087	514625	9	4676
XIII	514640	515564	9	924
XIII	515587	527627	9	12040
XIII	527652	538601	9	10951
XIII	538630	540849	9	2219
XIII	540859	541429	9	571
XIII	541435	541699	9	272
XIII	541709	552705	9	11004
XIII	552718	561871	9	9156
XIII	561895	573131	9	11240
XIII	573131	587681	9	14552
XIII	587695	588597	9	966
XIII	588601	599553	9	10952
XIII	600440	600621	9	181
XIII	600750	601763	9	1015
XIII	602173	602428	9	255
XIII	602440	602834	9	394
XIII	602960	608893	9	5940
XIII	608913	608937	9	39
XIII	608937	608937	9	1
XIII	608943	608971	9	28
XIII	608973	608984	9	11
XIII	609659	609677	9	18
XIII	609690	609746	9	75
XIII	609822	609832	9	17
XIII	609833	609833	9	1
XIII	609833	618394	9	8595
XIII	618406	622163	9	3757
XIII	622178	625407	9	3233
XIII	625437	632663	9	7236
XIII	634201	646849	9	12649
XIII	646869	653154	9	6298
XIII	653166	654910	9	1745
XIII	654929	668249	9	13321
XIII	668267	698673	9	30419
XIII	698689	703385	9	4697
XIII	703394	703554	9	160
XIII	703579	743709	9	40138
XIII	743721	753315	9	9598
XIII	753572	753635	9	63
XIII	753635	756975	9	3341
XIII	757009	758899	9	1893
XIII	758915	768424	9	9521
XIII	768424	768426	9	2
XIII	768438	768466	9	28
XIII	768478	768489	9	11
XIII	768501	768532	9	31
XIII	768539	768540	9	1
XIII	768883	772667	9	3789
XIII	772682	773477	9	795
XIII	773489	779640	9	6156
XIII	779649	806945	9	27315
XIII	806945	807685	9	740
XIII	807701	808201	9	500
XIII	808210	808528	9	318
XIII	808903	811231	9	2331
XIII	811249	811667	9	418
XIII	811679	822584	9	10908
XIII	822615	828323	9	5715
XIII	828335	833261	9	4926
XIII	833273	837589	9	4316
XIII	837589	837826	9	238
XIII	837832	837832	9	1
XIII	837832	837962	9	130
XIII	837974	851707	9	13736
XIII	851724	852152	9	428
XIII	852163	854472	9	2312
XIII	854488	867247	9	12770
XIII	867257	869829	9	2572
XIII	869835	874553	9	4718
XIII	874571	878806	9	4235
XIII	878816	896932	9	18125
XIII	896944	908178	9	11239
XIII	908178	908248	9	70
XIII	908248	908284	9	36
XIII	908284	908350	9	66
XIII	908503	908543	9	40
XIII	908543	908574	9	31
XIII	908610	908637	9	27
XIII	908637	910310	9	1673
XIII	910322	910338	9	16
XIII	910344	911048	9	705
XIII	911060	912407	9	1347
XIII	912419	915846	9	3432
XIII	915870	917063	9	1203
XIII	917078	917204	9	126
XIII	917216	917896	9	681
XIII	923635	923696	9	61
XIII	923696	923723	9	27
XIII	923735	923749	9	14
XIII	923749	923777	9	28
XIV	9502	9613	9	111
XIV	9680	9744	9	64
XIV	9802	9839	9	38
XIV	9839	9906	9	67
XIV	9906	10060	9	154
XIV	10060	10208	9	148
XIV	10225	13014	9	2796
XIV	14667	14717	9	51
XIV	14761	14887	9	126
XIV	14941	15059	9	118
XIV	15059	15141	9	82
XIV	15141	15197	9	56
XIV	15197	15218	9	21
XIV	15218	15244	9	26
XIV	15338	15379	9	41
XIV	15379	15443	9	64
XIV	15443	15497	9	54
XIV	15497	15524	9	27
XIV	15524	15559	9	35
XIV	15559	15598	9	39
XIV	15598	15695	9	97
XIV	15761	15803	9	42
XIV	16004	16009	9	5
XIV	16021	16081	9	63
XIV	16092	16093	9	1
XIV	16093	16096	9	3
XIV	16108	16453	9	345
XIV	16484	23401	9	6919
XIV	23413	23997	9	585
XIV	24009	31542	9	7536
XIV	31553	33258	9	1708
XIV	33270	40475	9	7205
XIV	40487	43272	9	2785
XIV	43287	51862	9	8575
XIV	51878	70020	9	18169
XIV	70038	89729	9	19693
XIV	89741	96455	9	6721
XIV	96672	96731	9	59
XIV	102305	102313	9	8
XIV	102326	102327	9	1
XIV	102579	129409	9	26844
XIV	129414	131634	9	2237
XIV	131646	135893	9	4249
XIV	135899	136861	9	962
XIV	136861	139497	9	2637
XIV	139497	144076	9	4583
XIV	144148	154918	9	10772
XIV	154935	252307	9	97422
XIV	253581	264493	9	10921
XIV	264508	270173	9	5670
XIV	270181	271335	9	1155
XIV	271347	281625	9	10286
XIV	281670	282723	9	1053
XIV	282738	290016	9	7281
XIV	290052	300931	9	10891
XIV	300939	306433	9	5504
XIV	306454	307510	9	1058
XIV	307510	331904	9	24412
XIV	332010	333262	9	1252
XIV	333270	350716	9	17470
XIV	350728	356635	9	5914
XIV	356672	357006	9	334
XIV	357034	359345	9	2314
XIV	359378	359577	9	199
XIV	359594	373677	9	14083
XIV	373693	383699	9	10020
XIV	383716	397696	9	13981
XIV	397708	413442	9	15739
XIV	413464	415048	9	1584
XIV	415086	418909	9	3828
XIV	418923	427001	9	8080
XIV	427011	429770	9	2759
XIV	429788	441268	9	11490
XIV	441303	442487	9	1186
XIV	442503	476615	9	34134
XIV	476627	479382	9	2765
XIV	479394	479455	9	61
XIV	479471	479881	9	410
XIV	479904	493047	9	13149
XIV	493064	501234	9	8187
XIV	501249	512454	9	11210
XIV	512468	515979	9	3511
XIV	515997	519180	9	3184
XIV	525086	527252	9	2177
XIV	527264	529347	9	2083
XIV	529352	546737	9	17410
XIV	547082	547127	9	45
XIV	547139	552427	9	5289
XIV	552433	561009	9	8593
XIV	561021	561274	9	267
XIV	561287	561422	9	135
XIV	561445	561609	9	165
XIV	561636	561659	9	23
XIV	567935	567967	9	32
XIV	568000	568148	9	148
XIV	568160	570301	9	2146
XIV	570369	570409	9	42
XIV	572604	575847	9	3245
XIV	576816	576879	9	63
XIV	576965	577022	9	57
XIV	577049	579957	9	2908
XIV	579975	583632	9	3675
XIV	583644	599624	9	15992
XIV	599624	599659	9	35
XIV	599694	599712	9	18
XIV	599724	599760	9	36
XIV	599760	599821	9	63
XIV	599821	601612	9	1791
XIV	601612	601676	9	64
XIV	601676	601778	9	102
XIV	602340	605714	9	3410
XIV	605740	606141	9	402
XIV	606152	624684	9	18556
XIV	624696	627311	9	2616
XIV	627327	631906	9	4597
XIV	631920	631922	9	2
XIV	631934	632015	9	81
XIV	632616	642475	9	9863
XIV	642485	644223	9	1743
XIV	644238	651854	9	7618
XIV	651857	652048	9	198
XIV	652071	652351	9	280
XIV	652357	653154	9	811
XIV	653166	654652	9	1489
XIV	654663	662243	9	7582
XIV	662257	664981	9	2732
XIV	664992	667320	9	2332
XIV	667341	678597	9	11258
XIV	678613	680550	9	1937
XIV	680562	692954	9	12394
XIV	692971	694236	9	1265
XIV	694256	701524	9	7276
XIV	701539	703105	9	1566
XIV	703122	704338	9	1216
XIV	704346	704501	9	155
XIV	704501	720267	9	15819
XIV	720291	720390	9	139
XIV	720396	722269	9	1875
XIV	722280	724775	9	2496
XIV	724787	725337	9	550
XIV	725354	726155	9	803
XIV	726155	726225	9	70
XIV	726225	726244	9	19
XIV	726250	726250	9	1
XIV	726941	727139	9	198
XIV	727139	727531	9	394
XIV	727543	739551	9	12016
XIV	739563	739707	9	144
XIV	739721	751090	9	11381
XIV	753205	755200	9	1996
XIV	755213	769872	9	14676
XIV	769886	772613	9	2735
XIV	772623	772624	9	1
XIV	772764	772791	9	27
XIV	776454	777547	9	1095
XIV	777562	781361	9	3802
XIV	782823	782924	9	102
III	11218	12301	9	1084
III	13937	14360	9	430
III	14360	27652	9	13303
III	27670	29317	9	1647
III	29323	29452	9	129
III	29476	40879	9	11411
III	40888	41999	9	1112
III	42018	44534	9	2516
III	44550	46972	9	2422
III	46985	48686	9	1702
III	48692	50320	9	1645
III	50336	52394	9	2060
III	52412	52430	9	18
III	52446	60766	9	8320
III	60770	62742	9	1975
III	62750	70618	9	7871
III	70641	74334	9	3694
III	74489	82624	9	8147
III	82624	82696	9	72
III	82741	82742	9	1
III	82742	82799	9	66
III	82832	82872	9	48
III	82892	82893	9	1
III	83187	84052	9	865
III	90711	103425	9	12788
III	103437	123861	9	20442
III	123873	124122	9	249
III	124471	125560	9	1093
III	125572	142873	9	17423
III	143006	143408	9	402
III	143408	149658	9	6251
III	149750	149779	9	29
III	149779	149814	9	36
III	149814	149831	9	17
III	149843	149905	9	63
III	149905	149928	9	23
III	149982	151612	9	1633
III	151638	151639	9	1
III	151754	154678	9	2924
III	154690	164226	9	9538
III	164240	164695	9	458
III	164707	168427	9	3724
III	168531	168554	9	30
III	169544	169631	9	87
III	169643	170338	9	696
III	170359	177679	9	7322
III	177691	190267	9	12580
III	190283	198670	9	8412
III	198670	199400	9	730
III	199400	200913	9	1515
III	201042	201097	9	55
III	201097	204412	9	3315
III	204430	208079	9	3652
III	208096	209793	9	1698
III	209805	210594	9	789
III	210604	211612	9	1009
III	211622	212409	9	789
III	212422	224767	9	12351
III	224775	225631	9	857
III	225643	230999	9	5358
III	231015	233778	9	2763
III	233813	234909	9	1096
III	234909	242441	9	7541
III	242458	247974	9	5516
III	247996	249308	9	1312
III	249351	260020	9	10673
III	260034	262127	9	2093
III	262135	264213	9	2081
III	264241	268695	9	4454
III	268695	268737	9	42
III	268887	268898	9	11
III	268964	268965	9	1
III	269098	269155	9	57
III	269155	270046	9	891
III	270053	270053	9	4
III	270053	270053	9	10
III	270053	270053	9	42
III	270053	271468	9	1468
III	271474	291576	9	20114
III	291586	292570	9	985
III	292586	293031	9	448
III	293031	294378	9	1347
III	294570	294592	9	22
III	294592	294941	9	349
III	295007	295008	9	1
III	295008	295072	9	64
III	295096	295097	9	1
III	295259	299927	9	4675
III	299954	300288	9	335
III	300288	300421	9	133
III	300435	300455	9	20
III	300467	301718	9	1252
III	301730	303171	9	1446
III	303185	303688	9	514
III	303700	303795	9	95
III	305723	305747	9	24
III	305747	305814	9	67
III	305820	305820	9	1
III	306183	306478	9	295
III	308102	310498	9	2404
III	310510	310945	9	438
III	310957	311093	9	136
III	311477	314290	9	2813
III	314290	314509	9	219
III	315538	315585	9	47
III	315916	315995	9	79
IX	21716	22006	9	292
IX	22029	22038	9	9
IX	22104	22416	9	390
IX	22435	22516	9	100
IX	22574	22591	9	17
IX	22610	22626	9	16
IX	22644	22738	9	163
IX	22754	22879	9	142
IX	22900	22922	9	22
IX	22952	23068	9	116
IX	23135	23171	9	36
IX	23191	23208	9	17
IX	23406	23440	9	37
IX	23497	23629	9	132
IX	23704	24222	9	518
IX	24263	25473	9	1210
IX	25565	25592	9	27
IX	25645	25675	9	30
IX	25812	28533	9	2741
IX	28549	33343	9	4829
IX	33358	49501	9	16156
IX	49513	54686	9	5181
IX	54698	56783	9	2085
IX	56800	69231	9	12434
IX	69521	102530	9	33024
IX	102547	105346	9	2799
IX	105354	105762	9	411
IX	105787	128667	9	22887
IX	128675	128721	9	46
IX	128740	137140	9	8410
IX	137144	138423	9	1284
IX	138442	138960	9	519
IX	138970	141445	9	2490
IX	141457	144111	9	2658
IX	144135	146985	9	2850
IX	146985	147050	9	65
IX	147062	157162	9	10103
IX	157181	163240	9	6065
IX	163259	169468	9	6209
IX	169491	174955	9	5465
IX	174965	175136	9	172
IX	175173	177458	9	2285
IX	177474	179713	9	2240
IX	179721	187832	9	8113
IX	187854	196647	9	8795
IX	197023	197147	9	124
IX	197425	205049	9	7630
IX	205061	205222	9	162
IX	210655	212180	9	1528
IX	212192	231604	9	19413
IX	231840	237670	9	5830
IX	237686	241027	9	3341
IX	241043	241198	9	155
IX	241215	245965	9	4754
IX	245979	245985	9	6
IX	245998	246208	9	210
IX	246558	274035	9	27500
IX	274049	284743	9	10696
IX	284755	284853	9	98
IX	284853	293851	9	9007
IX	293856	300491	9	6647
IX	300491	300502	9	11
IX	301452	301533	9	81
IX	301557	302500	9	944
IX	302513	302938	9	425
IX	302950	310493	9	7547
IX	310505	314004	9	3504
IX	314016	317437	9	3423
IX	317838	324351	9	6513
IX	324370	324371	9	1
IX	324371	324407	9	36
IX	324407	324509	9	102
IX	325203	334323	9	9122
IX	334329	336499	9	2178
IX	336499	339219	9	2727
IX	339241	350020	9	10780
IX	350030	363037	9	13013
IX	363043	366525	9	3482
IX	366575	368426	9	1851
IX	368456	369837	9	1381
IX	369856	370228	9	372
IX	370228	370233	9	5
IX	370245	373022	9	2778
IX	373028	375803	9	2775
IX	375825	376610	9	785
IX	376620	382675	9	6065
IX	382693	382906	9	213
IX	382918	385574	9	2659
IX	385586	385636	9	50
IX	385648	385857	9	209
IX	385873	385962	9	89
IX	385974	386641	9	677
IX	386670	387137	9	468
IX	387166	387279	9	113
IX	387295	389977	9	2689
IX	390004	391008	9	1004
IX	391089	391112	9	23
IX	392719	392809	9	90
IX	392857	393025	9	174
IX	393037	399995	9	6966
IX	400028	424678	9	24671
IX	424689	424886	9	197
IX	425107	425175	9	68
IX	425181	425237	9	56
IX	425239	425349	9	129
IX	425355	425863	9	510
IX	425875	426198	9	323
IX	426204	426518	9	314
IX	426530	427810	9	1284
IX	427816	428325	9	511
IX	428325	430230	9	1948
IX	430230	433260	9	3034
IX	433945	436022	9	2090
IX	436032	437130	9	1099
IX	437183	437287	9	104
I	211	213	9	2
I	270	307	9	37
I	483	546	9	73
I	563	583	9	20
I	672	723	9	51
I	757	758	9	1
I	2756	11806	9	9080
I	12451	12487	9	36
I	12894	12933	9	39
I	27079	29866	9	2798
I	29918	30093	9	176
I	30102	30399	9	297
I	30411	31108	9	700
I	31134	31499	9	365
I	31510	69675	9	38192
I	69702	69813	9	111
I	69834	70900	9	1073
I	70918	71524	9	608
I	71540	74993	9	3454
I	75009	77496	9	2487
I	77517	83191	9	5677
I	83203	101275	9	18076
I	101295	101445	9	150
I	101457	101460	9	3
I	101474	113044	9	11572
I	113065	128099	9	15038
I	128111	139102	9	10994
I	139114	139398	9	288
I	139414	139764	9	350
I	139986	160105	9	20133
I	160105	160197	9	93
I	160197	160238	9	41
I	166168	166422	9	255
I	166434	169222	9	2788
I	169235	180493	9	11271
I	180493	180851	9	359
I	180851	182538	9	1691
I	182550	182608	9	58
I	182965	183139	9	174
I	183147	183147	9	1
I	183437	183468	9	31
I	183468	183474	9	6
I	183481	183482	9	1
I	185943	185996	9	55
I	185996	186050	9	54
I	186184	186211	9	28
I	186221	186430	9	212
I	186440	186460	9	23
I	186473	186542	9	70
I	186542	186560	9	18
I	186572	186609	9	37
I	189669	192299	9	2631
I	192317	193942	9	1625
I	193958	193988	9	30
I	193999	198707	9	4716
I	198707	199066	9	365
I	199072	199085	9	14
I	199109	199498	9	438
I	199648	199698	9	51
I	199737	199844	9	138
I	199877	199887	9	10
I	199911	200200	9	315
I	200263	200276	9	13
I	200325	200868	9	560
I	200897	201019	9	309
I	201043	201163	9	125
I	201190	201373	9	183
I	201373	201751	9	386
I	201767	202534	9	782
I	202550	204215	9	1669
I	207974	209452	9	1494
I	209472	212932	9	3468
I	212940	214621	9	1701
I	214926	216377	9	1487
I	216394	219261	9	2876
I	219261	219324	9	63
I	219344	219345	9	1
I	225091	225388	9	299
I	225406	226605	9	1199
I	226605	226641	9	36
I	226641	226904	9	265
I	226922	227360	9	444
I	227377	227384	9	7
I	227476	227509	9	33
I	227509	227531	9	22
I	227531	227575	9	44
I	229724	229737	9	70
I	229737	229759	9	23
I	229784	229793	9	9
I	229793	229816	9	23
I	229838	229863	9	25
I	229888	229973	9	85
II	8305	8771	9	467
II	8771	8909	9	138
II	9265	9303	9	38
II	9320	9321	9	1
II	9470	23938	9	14482
II	23950	29248	9	5299
II	29248	29638	9	392
II	35602	35766	9	167
II	35783	35851	9	68
II	36226	36379	9	153
II	36379	40585	9	4207
II	40605	43107	9	2502
II	43130	59977	9	16850
II	59989	62996	9	3013
II	63013	68276	9	5266
II	68327	72375	9	4053
II	72382	88478	9	16100
II	88495	88521	9	26
II	88924	133864	9	44988
II	133883	136461	9	2580
II	136477	137648	9	1171
II	137672	145909	9	8242
II	145928	150345	9	4417
II	150349	151381	9	1033
II	151397	159838	9	8443
II	159850	165897	9	6048
II	165918	169954	9	4050
II	169985	171309	9	1325
II	171321	174493	9	3172
II	174511	197314	9	22817
II	197314	197509	9	195
II	197572	197646	9	76
II	197939	205748	9	7809
II	205775	213814	9	8043
II	213835	215018	9	1183
II	215030	220857	9	5827
II	220863	221055	9	198
II	226982	226996	9	14
II	227008	227135	9	127
II	227135	255451	9	28328
II	255451	255594	9	143
II	255594	259256	9	3663
II	259256	259578	9	322
II	265500	266164	9	664
II	266457	267414	9	958
II	267426	270453	9	3029
II	270464	272531	9	2069
II	272549	274303	9	1755
II	274323	300027	9	25728
II	300047	300164	9	117
II	300164	301724	9	1560
II	301736	307134	9	5399
II	307146	316944	9	9825
II	316958	327098	9	10150
II	327107	327107	9	1
II	327122	327220	9	98
II	327220	327245	9	25
II	327338	333535	9	6197
II	333547	338634	9	5087
II	338645	347578	9	8938
II	347590	350750	9	3164
II	350750	351449	9	699
II	351480	353616	9	2149
II	353637	363192	9	9555
II	363213	381531	9	18329
II	381561	389483	9	7928
II	389513	398338	9	8836
II	398350	417206	9	18863
II	417219	417638	9	420
II	417644	420367	9	2726
II	420383	427776	9	7397
II	428108	429626	9	1522
II	429838	429866	9	28
II	429866	429895	9	29
II	429958	431353	9	1395
II	431369	434293	9	2938
II	434310	436812	9	2502
II	436824	455270	9	18463
II	455285	455655	9	370
II	455663	455750	9	87
II	455765	457718	9	1953
II	457735	460588	9	2871
II	460600	464035	9	3439
II	464049	464082	9	45
II	464082	464082	9	1
II	464082	464093	9	11
II	464103	464155	9	52
II	464165	464223	9	68
II	464229	477083	9	12857
II	477104	477670	9	567
II	477670	499530	9	21898
II	499548	505212	9	5666
II	505221	541452	9	36284
II	541495	541599	9	104
II	541609	543902	9	2293
II	543920	546576	9	2657
II	546604	559757	9	13160
II	559773	561219	9	1448
II	561242	562898	9	1656
II	562910	563027	9	118
II	563042	563914	9	872
II	563926	576026	9	12102
II	576041	580106	9	4066
II	580120	591823	9	11707
II	591823	642987	9	51198
II	643003	643068	9	65
II	643619	643632	9	13
II	643649	643670	9	24
II	643736	643774	9	46
II	643774	643797	9	29
II	643815	643821	9	6
II	643860	644489	9	630
II	644501	644962	9	461
II	644962	646095	9	1133
II	646129	649335	9	3207
II	649348	650241	9	893
II	650250	660519	9	10276
II	660664	702001	9	41365
II	702022	712776	9	10763
II	712813	714126	9	1313
II	714139	716490	9	2351
II	716502	746356	9	29862
II	746375	779861	9	33520
II	779864	780425	9	565
II	780425	786673	9	6256
II	786703	793193	9	6492
II	793200	796539	9	3339
II	796548	801940	9	5397
II	801940	801988	9	80
II	802005	802029	9	24
II	802054	802114	9	64
II	802155	802233	9	80
II	802259	802456	9	243
II	802478	802494	9	16
II	802510	802539	9	29
II	802555	802569	9	14
II	802589	802590	9	1
II	802608	804095	9	1490
II	805878	806069	9	201
II	806091	806694	9	611
II	807118	807183	9	67
VIII	6116	6150	9	35
VIII	6213	6290	9	77
VIII	6435	6494	9	59
VIII	6494	6600	9	106
VIII	6600	6711	9	111
VIII	6711	6749	9	38
VIII	6749	6876	9	127
VIII	6888	7129	9	241
VIII	7129	7325	9	196
VIII	7512	7647	9	135
VIII	8044	11969	9	3926
VIII	11980	11981	9	1
VIII	12506	15613	9	3122
VIII	15613	15666	9	53
VIII	15678	15730	9	52
VIII	15742	15845	9	104
VIII	15845	16191	9	346
VIII	16191	35294	9	19108
VIII	35860	39522	9	3665
VIII	39538	48220	9	8686
VIII	48252	49381	9	1137
VIII	49387	49462	9	75
VIII	49465	52025	9	2564
VIII	52030	58389	9	6412
VIII	58402	66122	9	7722
VIII	66140	66563	9	423
VIII	66584	67318	9	734
VIII	67336	71913	9	4577
VIII	71929	75970	9	4048
VIII	75990	78490	9	2503
VIII	78504	81852	9	3350
VIII	81871	85105	9	3234
VIII	85117	85427	9	311
VIII	85471	85517	9	46
VIII	85537	85538	9	1
VIII	92127	92284	9	157
VIII	92296	93339	9	1046
VIII	93363	103209	9	10095
VIII	103221	104892	9	1671
VIII	105034	111524	9	6492
VIII	111542	116406	9	4869
VIII	116419	116420	9	1
VIII	116749	117742	9	997
VIII	117754	123940	9	6213
VIII	123950	125826	9	1876
VIII	125843	126144	9	301
VIII	126160	131643	9	5490
VIII	131659	133250	9	1596
VIII	133250	133340	9	90
VIII	133346	133423	9	78
VIII	133423	133492	9	69
VIII	134215	146325	9	12117
VIII	146671	147569	9	898
VIII	147569	149251	9	1683
VIII	149261	167618	9	18365
VIII	167632	169166	9	1547
VIII	169193	175441	9	6249
VIII	175441	175441	9	33
VIII	175445	184013	9	8574
VIII	184034	187025	9	2991
VIII	187039	192850	9	5818
VIII	193218	194113	9	898
VIII	194507	195363	9	856
VIII	195380	212723	9	17349
VIII	212739	214253	9	1515
VIII	216251	229195	9	12946
VIII	229208	229511	9	303
VIII	229544	234747	9	5207
VIII	234763	234889	9	126
VIII	234901	236951	9	2050
VIII	236977	237984	9	1007
VIII	237992	252923	9	15018
VIII	252941	293266	9	40351
VIII	293287	297301	9	4018
VIII	297313	314719	9	17406
VIII	314731	358477	9	43769
VIII	358477	358508	9	31
VIII	358508	358526	9	18
VIII	358537	358538	9	1
VIII	358538	358547	9	9
VIII	358559	358634	9	75
VIII	358735	358762	9	27
VIII	358762	358842	9	89
VIII	358943	358944	9	1
VIII	358956	358997	9	41
VIII	358997	359045	9	48
VIII	359057	359067	9	10
VIII	359137	359220	9	83
VIII	359232	359631	9	399
VIII	359643	365373	9	5736
VIII	365387	370538	9	5153
VIII	370556	378124	9	7579
VIII	378158	382137	9	3982
VIII	382238	387087	9	4852
VIII	387096	389162	9	2067
VIII	389175	389176	9	1
VIII	389509	389919	9	410
VIII	389931	391277	9	1346
VIII	391316	391821	9	506
VIII	391833	406718	9	14919
VIII	406735	420551	9	13838
VIII	420579	436708	9	16137
VIII	436720	451325	9	14616
VIII	451325	464527	9	13209
VIII	464539	465796	9	1258
VIII	465831	475710	9	9882
VIII	475722	475882	9	160
VIII	475882	475927	9	45
VIII	475936	498765	9	22833
VIII	498782	499843	9	1061
VIII	499855	504479	9	4625
VIII	504479	508794	9	4315
VIII	508816	514825	9	6010
VIII	514846	520494	9	5651
VIII	520506	520589	9	83
VIII	520601	523589	9	2995
VIII	523665	524841	9	1176
VIII	524858	526296	9	1444
VIII	526308	526309	9	1
VIII	526584	526613	9	29
VIII	526896	526922	9	35
VIII	526957	526963	9	6
VIII	526973	526974	9	1
VIII	527189	527238	9	49
VIII	528577	528714	9	142
VIII	539164	539301	9	137
VIII	539317	539323	9	6
VIII	539342	539531	9	191
VIII	539545	539546	9	1
VIII	539585	539638	9	53
VIII	539758	539778	9	20
VIII	539798	539799	9	1
VIII	550022	550243	9	221
VIII	550243	550492	9	250
VIII	550517	550851	9	337
VIII	550898	550938	9	40
VIII	553274	553360	9	86
VIII	554379	554427	9	48
VIII	554427	554497	9	70
VIII	555902	555934	9	32
VIII	555934	555998	9	64
VIII	556069	556102	9	33
XV	33	40	9	7
XV	51	63	9	12
XV	78	79	9	1
XV	134	374	9	248
XV	487	517	9	31
XV	679	720	9	41
XV	732	787	9	55
XV	992	1045	9	53
XV	1196	1664	9	468
XV	1664	1919	9	255
XV	2057	2138	9	81
XV	2138	2201	9	63
XV	2435	11059	9	8883
XV	11156	11255	9	100
XV	11255	11299	9	44
XV	11794	13992	9	2198
XV	14011	18750	9	4771
XV	18777	22522	9	3753
XV	24281	24312	9	31
XV	24312	24361	9	49
XV	24361	24475	9	114
XV	24475	24499	9	24
XV	24499	24539	9	40
XV	24579	24747	9	168
XV	26096	26168	9	72
XV	26188	26189	9	1
XV	26453	26741	9	288
XV	26748	26768	9	21
XV	27206	27472	9	266
XV	27472	29297	9	1828
XV	29309	31013	9	1743
XV	31026	31067	9	41
XV	31118	31169	9	51
XV	31220	32488	9	1274
XV	32504	32631	9	127
XV	32643	32773	9	130
XV	32792	33523	9	735
XV	33539	33615	9	76
XV	33634	33834	9	201
XV	33849	43006	9	9167
XV	43062	45686	9	2626
XV	45714	53932	9	8219
XV	53944	55096	9	1176
XV	55138	56370	9	1232
XV	56382	60207	9	3826
XV	60232	81633	9	21416
XV	81641	106319	9	24691
XV	106323	110769	9	4448
XV	110779	110812	9	48
XV	110818	110966	9	157
XV	110978	111157	9	179
XV	111232	113404	9	2215
XV	113568	113610	9	42
XV	113610	115095	9	1485
XV	115113	115124	9	11
XV	115152	117689	9	2537
XV	123615	123618	9	3
XV	123635	162158	9	38529
XV	162170	170297	9	8127
XV	170315	170387	9	72
XV	170387	196342	9	25963
XV	196344	197140	9	800
XV	197152	200333	9	3181
XV	200355	213864	9	13514
XV	213876	216785	9	2942
XV	216802	218449	9	1648
XV	218462	224203	9	5743
XV	224215	226773	9	2560
XV	226773	227300	9	527
XV	227320	227935	9	648
XV	227979	228125	9	146
XV	228208	228242	9	34
XV	228344	235383	9	7044
XV	235389	236196	9	822
XV	236208	236283	9	75
XV	236302	236971	9	669
XV	236977	238194	9	1217
XV	238215	269751	9	31565
XV	269751	272419	9	2688
XV	272431	274656	9	2226
XV	274656	274715	9	59
XV	274728	277870	9	3143
XV	277887	290765	9	12885
XV	290781	294760	9	3980
XV	294772	301287	9	6520
XV	301301	307235	9	5935
XV	307259	309081	9	1822
XV	309096	315625	9	6530
XV	315641	316399	9	758
XV	316424	323101	9	6677
XV	323117	326191	9	3074
XV	326207	340530	9	14334
XV	340530	340692	9	163
XV	340692	344743	9	4056
XV	344795	344963	9	168
XV	345050	346503	9	1453
XV	346516	354173	9	7662
XV	354197	354408	9	213
XV	354942	355078	9	136
XV	355100	355812	9	712
XV	355857	408141	9	52479
XV	408151	414379	9	6232
XV	414391	427905	9	13533
XV	427937	427975	9	38
XV	427988	430153	9	2166
XV	430166	437299	9	7134
XV	437299	437610	9	311
XV	437633	438533	9	900
XV	438545	438672	9	127
XV	438686	448665	9	9984
XV	448686	464449	9	15785
XV	464449	464484	9	35
XV	464484	479249	9	14771
XV	479256	479681	9	430
XV	479693	487151	9	7459
XV	487163	489772	9	2609
XV	489787	491007	9	1221
XV	491024	522806	9	31796
XV	522831	535160	9	12329
XV	535178	537050	9	1872
XV	537070	571466	9	34402
XV	571466	571822	9	358
XV	571834	571870	9	36
XV	571870	571941	9	71
XV	571941	575097	9	3163
XV	575097	594596	9	19508
XV	594697	594728	9	31
XV	594742	594823	9	81
XV	600742	609376	9	8642
XV	609397	642043	9	32668
XV	642055	659786	9	17739
XV	659798	663867	9	4071
XV	663877	663887	9	10
XV	663899	663902	9	3
XV	664002	664024	9	22
XV	664181	664808	9	627
XV	665146	667559	9	2416
XV	667576	670593	9	3035
XV	670599	670760	9	166
XV	670777	675319	9	4548
XV	675335	682465	9	7134
XV	682487	697656	9	15174
XV	697671	699230	9	1561
XV	699340	700706	9	1366
XV	700730	703612	9	2885
XV	703624	703697	9	73
XV	703709	703772	9	63
XV	710113	710267	9	154
XV	710279	720196	9	9920
XV	720212	746554	9	26354
XV	746568	768680	9	22124
XV	768694	785569	9	16882
XV	785581	796541	9	10969
XV	796553	815961	9	19415
XV	815979	816940	9	961
XV	816952	822918	9	5970
XV	822957	830967	9	8014
XV	830977	836589	9	5615
XV	836601	848384	9	11786
XV	848396	854264	9	5869
XV	854621	854983	9	362
XV	855011	859558	9	4547
XV	859577	860884	9	1308
XV	860890	868052	9	7166
XV	868063	870066	9	2007
XV	870078	877949	9	7872
XV	877961	882621	9	4661
XV	882632	888844	9	6212
XV	888863	889742	9	879
XV	889754	894317	9	4567
XV	894323	896858	9	2535
XV	896870	896903	9	33
XV	896910	900339	9	3429
XV	900339	900597	9	258
XV	900597	900660	9	63
XV	900660	912659	9	12024
XV	912671	923123	9	10453
XV	923130	944460	9	21350
XV	944490	944491	9	1
XV	944503	954136	9	9634
XV	954156	970088	9	15954
XV	970088	970200	9	112
XV	970200	970285	9	89
XV	976257	976343	9	90
XV	976343	976400	9	57
XV	976400	976483	9	83
XV	976483	980004	9	3531
XV	980016	980259	9	243
XV	980596	981533	9	938
XV	981549	989595	9	8051
XV	989611	994937	9	5331
XV	994949	998341	9	3392
XV	998357	1013011	9	14668
XV	1013029	1019956	9	6952
XV	1019966	1031375	9	11416
XV	1031394	1036140	9	4746
XV	1036158	1037521	9	1363
XV	1037534	1053898	9	16375
XV	1053915	1056990	9	3077
XV	1057003	1060794	9	3806
XV	1060802	1064984	9	4183
XV	1064996	1065089	9	93
XV	1065885	1065925	9	40
XV	1065943	1068529	9	2597
XV	1068541	1069852	9	1312
XV	1070941	1071490	9	549
XV	1071511	1073251	9	1740
VI	14676	14706	9	30
VI	14706	18726	9	4021
VI	18738	20498	9	1763
VI	20508	30088	9	9614
VI	30088	31613	9	1530
VI	31724	57999	9	26288
VI	58027	68943	9	10921
VI	68961	73350	9	4391
VI	73360	78005	9	4661
VI	78017	92474	9	14506
VI	92514	97538	9	5027
VI	97550	99354	9	1824
VI	99367	100375	9	1008
VI	100393	103930	9	3541
VI	103946	104568	9	622
VI	104589	106875	9	2290
VI	106893	107803	9	920
VI	107814	110293	9	2480
VI	110309	111322	9	1013
VI	111332	111727	9	396
VI	111744	115145	9	3407
VI	115187	117415	9	2228
VI	117887	117966	9	79
VI	117966	137625	9	19662
VI	143440	143498	9	67
VI	143516	143538	9	22
VI	143554	143555	9	1
VI	143725	143794	9	69
VI	143875	158085	9	14220
VI	158096	158156	9	60
VI	158168	158170	9	2
VI	158181	158182	9	1
VI	158182	159663	9	1483
VI	159675	160587	9	916
VI	160597	161594	9	998
VI	162073	162120	9	47
VI	162120	167465	9	5345
VI	167477	168313	9	837
VI	168350	169653	9	1303
VI	169673	178131	9	8459
VI	178147	179306	9	1159
VI	179325	181702	9	2377
VI	181702	182876	9	1176
VI	182881	182989	9	113
VI	183002	186218	9	3216
VI	186253	191657	9	5410
VI	191663	191663	9	1
VI	192436	205012	9	12584
VI	205012	206965	9	1953
VI	206977	210339	9	3366
VI	210390	210510	9	120
VI	210527	220600	9	10083
VI	220938	222190	9	1258
VI	222208	224129	9	1926
VI	224141	227345	9	3216
VI	227363	227475	9	112
VI	227491	257096	9	29626
VI	257125	258030	9	905
VI	258051	259957	9	1907
VI	259969	266020	9	6100
VI	266020	270111	9	4108
