LogLikelihood = -1192619.2797606240492

y0 5.1493173599625690073
y0_prime 0
y1 9.9999999999999997989e-13
y1_prime 0
y2 1.4843206432542144224
y2_prime 0
y3 0.023795910864452162609
y3_prime 0
rho 136.68473006079835841
rho.alpha 0.072845193131269234121
r_ii 0.99997333047323766486
theta 0.0047954376091409109395
