Chr	Start	Stop	BlockSize	BlockLength
IX	25900	37804	36	12315
IX	37804	38719	36	917
IX	38719	39111	36	395
IX	39111	52215	36	13194
IX	52215	69458	36	17353
IX	69458	105351	36	35939
IX	105351	105767	36	463
IX	105767	136375	36	30625
IX	136375	137105	36	730
IX	137105	146883	36	9868
IX	146883	146941	36	116
IX	147019	196647	36	50189
IX	197023	197176	36	153
IX	197252	197285	36	33
IX	197285	197320	36	35
IX	197320	197382	36	62
IX	197602	205145	36	7546
IX	205145	205217	36	72
IX	210725	210747	36	57
IX	210783	246219	36	35525
IX	246557	268118	36	21710
IX	268118	300406	36	32562
IX	300406	300524	36	118
IX	300524	300591	36	116
IX	300591	300741	36	224
IX	300741	317443	36	16830
IX	317838	324356	36	6519
IX	325805	350025	36	24588
IX	350025	356309	36	6310
IX	356309	356366	36	57
IX	356366	382944	36	26967
IX	382944	385657	36	2837
IX	385657	390702	36	5546
IX	390702	390972	36	459
IX	390972	391116	36	146
IX	391116	391152	36	36
IX	391665	391705	36	40
IX	391705	391872	36	233
IX	393524	394386	36	864
IX	394386	394679	36	293
IX	394679	394692	36	68
IX	394730	394915	36	208
IX	394915	394979	36	64
IX	394979	399529	36	4556
IX	399529	399608	36	79
IX	399608	399672	36	64
IX	399672	407952	36	8291
IX	407952	408016	36	64
IX	408016	408080	36	64
IX	408080	425474	36	17523
IX	425474	425532	36	58
IX	425532	433275	36	7871
XV	26972	26994	36	24
XV	31477	60236	36	29015
XV	60236	71113	36	11038
XV	71113	71175	36	64
XV	71175	93457	36	22378
XV	93457	111227	36	17997
XV	111227	111285	36	58
XV	111285	111373	36	88
XV	111373	113616	36	2465
XV	113616	113647	36	31
XV	113647	115050	36	1499
XV	115164	117689	36	2606
XV	123615	160097	36	36497
XV	160548	161342	36	794
XV	161342	161404	36	62
XV	161404	162372	36	971
XV	162372	216907	36	54788
XV	216907	227150	36	10502
XV	227150	227306	36	156
XV	227306	227336	36	135
XV	227336	227749	36	415
XV	227749	228050	36	357
XV	228050	274595	36	46805
XV	274595	282225	36	7631
XV	282225	326210	36	44297
XV	326210	340353	36	14186
XV	340458	340994	36	543
XV	340994	341052	36	58
XV	341052	344751	36	4049
XV	344930	354789	36	10108
XV	354789	430176	36	75922
XV	430176	438216	36	8337
XV	438216	448561	36	10544
XV	448703	462746	36	14071
XV	462778	464297	36	1521
XV	464297	464323	36	26
XV	464323	464386	36	64
XV	464386	464437	36	65
XV	464437	487423	36	23054
XV	487498	575097	36	87935
XV	575097	594509	36	19553
XV	594509	594539	36	146
XV	594539	594630	36	198
XV	594630	594675	36	45
XV	594675	594738	36	63
XV	594738	594827	36	89
XV	598747	598777	36	30
XV	598777	598802	36	25
XV	598802	598835	36	33
XV	598835	598862	36	27
XV	598862	598899	36	37
XV	598899	598926	36	27
XV	598926	598963	36	37
XV	598963	598988	36	25
XV	598988	599018	36	30
XV	599126	599189	36	74
XV	599189	599342	36	153
XV	599471	599529	36	61
XV	599529	599553	36	24
XV	599553	599635	36	82
XV	599635	599699	36	64
XV	599699	599774	36	78
XV	599807	599868	36	80
XV	599967	600065	36	98
XV	600065	600194	36	129
XV	600194	600235	36	41
XV	600284	600299	36	15
XV	600299	600348	36	49
XV	600742	600854	36	371
XV	600854	600875	36	96
XV	600875	664418	36	63640
XV	664418	664510	36	100
XV	664510	664813	36	303
XV	665146	667572	36	2431
XV	667587	703709	36	37236
XV	703709	703780	36	71
XV	710109	710184	36	75
XV	710184	710309	36	253
XV	710309	780287	36	70158
XV	780287	804933	36	24660
XV	804933	823089	36	18219
XV	823089	849257	36	26199
XV	849257	854271	36	5114
XV	854615	854721	36	106
XV	854721	860853	36	6145
XV	860903	954159	36	93454
XV	954159	959573	36	5416
XV	959573	959627	36	54
XV	959627	960686	36	1082
XV	960686	970285	36	9759
XV	976245	976339	36	293
XV	976430	979732	36	3318
XV	979732	979800	36	68
XV	979800	979827	36	27
XV	979827	980070	36	243
XV	980070	980259	36	406
XV	980596	1057175	36	76885
V	6999	7062	36	63
V	7062	18906	36	11853
V	23230	23242	36	13
V	23242	61951	36	39088
V	62517	62574	36	57
V	62574	63820	36	1246
V	64041	86458	36	22619
V	86563	86662	36	105
V	86662	98976	36	12318
V	98976	106376	36	7552
V	106376	118302	36	11929
V	118460	135307	36	16942
V	135408	135646	36	322
V	135646	136195	36	611
V	136195	159044	36	23301
V	159044	159207	36	163
V	159207	172614	36	13414
V	172614	175564	36	2953
V	175564	175659	36	95
V	175659	175802	36	223
V	175802	175844	36	42
V	175844	176919	36	1075
V	176919	177009	36	90
V	177009	177116	36	107
V	177116	177160	36	44
V	177160	207348	36	30216
V	207417	225782	36	18503
V	225802	250040	36	24409
V	250300	266854	36	16567
V	266949	277602	36	10658
V	278053	289835	36	11821
V	290370	290449	36	79
V	290449	312083	36	21785
V	312198	312261	36	63
V	312261	354422	36	42196
V	354730	354820	36	90
V	354820	363237	36	8451
V	363703	431457	36	68000
V	431457	431488	36	31
V	431488	431531	36	47
V	431861	431884	36	23
V	431884	431991	36	107
V	431991	432049	36	72
V	432049	434551	36	2837
V	436424	436580	36	156
V	437989	438020	36	33
V	438256	438277	36	21
V	438432	438460	36	29
V	438460	438487	36	27
V	438487	438545	36	58
V	438720	441331	36	2613
V	441331	441393	36	62
V	441393	441757	36	364
V	441757	443162	36	1463
V	443215	443255	36	40
V	449635	449710	36	75
V	449739	449754	36	15
V	449754	449817	36	338
V	449817	449862	36	45
V	449862	449929	36	69
V	449977	449986	36	73
V	449986	450051	36	321
V	450051	469086	36	19217
V	469086	469193	36	164
V	469193	487833	36	18877
V	488164	492369	36	4564
V	492369	492429	36	60
V	498448	498651	36	203
V	498651	551296	36	53027
V	551296	551345	36	49
V	551446	565335	36	14258
V	565335	566701	36	1422
VII	11087	11498	36	411
VII	11498	18529	36	7056
VII	18529	73846	36	55591
VII	73911	73939	36	28
VII	73939	74172	36	236
VII	74172	110554	36	36708
VII	110554	110634	36	83
VII	110634	110697	36	63
VII	110744	110801	36	60
VII	111698	115003	36	3330
VII	115043	115094	36	108
VII	115094	115118	36	24
VII	115118	115198	36	80
VII	115198	115408	36	219
VII	115408	115537	36	129
VII	115537	121693	36	6170
VII	121693	122003	36	310
VII	122003	156121	36	34209
VII	156170	254655	36	98798
VII	255231	274704	36	19501
VII	274704	287558	36	12984
VII	287558	307085	36	19527
VII	307238	319085	36	11972
VII	319085	319217	36	139
VII	319793	319852	36	59
VII	319852	319883	36	31
VII	319883	323370	36	3508
VII	323370	324281	36	1065
VII	324281	338262	36	14193
VII	338262	348161	36	9932
VII	348161	364404	36	16411
VII	364943	385762	36	20835
VII	386878	386985	36	118
VII	386985	387006	36	21
VII	387006	401474	36	14516
VII	401474	401954	36	540
VII	401954	402075	36	124
VII	402610	403010	36	509
VII	403231	403247	36	16
VII	405389	412355	36	7099
VII	412355	422820	36	10541
VII	422820	423080	36	260
VII	423216	423259	36	44
VII	423322	440776	36	17708
VII	440776	442162	36	1386
VII	442162	442195	36	82
VII	442195	442226	36	79
VII	442226	531421	36	89888
VII	531421	531670	36	367
VII	531670	531854	36	186
VII	531863	535219	36	3362
VII	541533	541576	36	43
VII	541681	544631	36	2990
VII	544631	544720	36	92
VII	544720	544829	36	109
VII	544829	544887	36	58
VII	544887	561714	36	16954
VII	561714	561750	36	36
VII	561750	561846	36	96
VII	567760	567914	36	157
VII	567914	568735	36	821
VII	574700	611749	36	37143
VII	611749	627430	36	15896
VII	627430	627489	36	59
VII	627489	639680	36	12294
VII	639680	653153	36	13623
VII	653153	660285	36	7360
VII	660285	661427	36	1142
VII	661427	661585	36	158
VII	661585	661613	36	28
VII	661613	661663	36	50
VII	661663	700186	36	38593
VII	700186	701150	36	1021
VII	701150	701595	36	1222
VII	701595	707189	36	5626
VII	712545	712815	36	270
VII	712815	726618	36	13884
VII	726618	735647	36	9056
VII	735647	735981	36	334
VII	736350	763822	36	27538
VII	763822	774000	36	10231
VII	774000	774058	36	58
VII	774058	778925	36	5153
VII	779031	779517	36	486
VII	779517	811167	36	32087
VII	811167	811440	36	328
VII	823323	828749	36	5427
VII	828749	828961	36	212
VII	828961	845201	36	16244
VII	845201	845309	36	108
VII	845309	845457	36	148
VII	845457	845481	36	24
VII	845481	857606	36	12211
VII	857606	857789	36	184
VII	857789	875752	36	17979
VII	875752	876159	36	407
VII	876159	878765	36	2915
VII	878765	878969	36	204
VII	879092	879131	36	338
VII	879131	879411	36	553
VII	879411	883120	36	3727
VII	883502	930890	36	47479
VII	930890	930965	36	78
VII	930965	931040	36	75
VII	931040	931170	36	130
VII	931670	931711	36	41
VII	931711	931929	36	251
VII	931982	986810	36	55300
VII	986810	1000925	36	14150
VII	1002122	1043770	36	41959
VII	1043770	1063414	36	19752
VII	1063414	1067884	36	4476
VII	1080800	1080864	36	64
VII	1080864	1081017	36	177
VII	1081017	1081055	36	38
VII	1081055	1081148	36	93
VII	1081148	1081212	36	64
II	9295	9318	36	23
II	9318	9455	36	137
II	9455	9511	36	56
II	9511	9582	36	72
II	9614	9641	36	107
II	9641	29432	36	20130
II	29432	29638	36	206
II	35602	35845	36	243
II	36221	36305	36	100
II	36305	40597	36	4296
II	40630	71825	36	31325
II	71825	88521	36	16810
II	88987	90477	36	1493
II	90477	174684	36	84691
II	174723	196640	36	21927
II	196640	197188	36	554
II	197249	197412	36	200
II	197412	197480	36	73
II	198001	198038	36	37
II	198051	220689	36	22737
II	220689	221036	36	347
II	226918	259578	36	33018
II	265500	300047	36	34760
II	300047	300164	36	117
II	301167	301365	36	198
II	301365	301418	36	53
II	301418	302191	36	773
II	302191	316966	36	14844
II	316966	321856	36	4890
II	321856	321930	36	77
II	321930	326574	36	4644
II	326574	327209	36	691
II	327209	327509	36	465
II	327509	350513	36	23235
II	350513	353630	36	3131
II	353630	395852	36	42800
II	395852	395916	36	64
II	395916	395980	36	64
II	395980	405619	36	9817
II	405619	405653	36	34
II	405653	405710	36	57
II	405710	405926	36	216
II	406040	427655	36	21782
II	429503	429662	36	159
II	429775	452035	36	22268
II	452035	464012	36	12280
II	464012	464180	36	204
II	464180	477670	36	13591
II	479048	561234	36	82660
II	561234	562935	36	1701
II	562935	563035	36	169
II	563045	591711	36	28761
II	591711	643462	36	52222
II	644972	660522	36	15559
II	661679	700356	36	38699
II	700356	702039	36	1690
II	702067	801341	36	99460
II	801341	801449	36	110
II	801841	802245	36	404
II	802245	802308	36	65
II	802308	802368	36	65
II	802368	802567	36	199
II	802567	802592	36	25
II	802592	802656	36	64
II	802656	803630	36	974
II	803630	803736	36	106
II	803984	804036	36	52
II	804036	809000	36	5142
II	809000	809023	36	23
IV	17225	17973	36	748
IV	18215	20547	36	2363
IV	20547	44529	36	24057
IV	45660	46353	36	693
IV	47920	47942	36	23
IV	47942	82514	36	34888
IV	82514	82975	36	518
IV	82975	83418	36	456
IV	83608	118278	36	34851
IV	118444	124573	36	6271
IV	124782	127635	36	3032
IV	128997	133634	36	4690
IV	134438	164955	36	30771
IV	164955	220579	36	56050
IV	220579	227632	36	7155
IV	228435	323690	36	95706
IV	323690	359465	36	35871
IV	359465	359625	36	160
IV	359625	361097	36	1473
IV	361097	361161	36	64
IV	361161	361225	36	64
IV	361225	383426	36	22799
IV	383570	383662	36	191
IV	383722	383757	36	35
IV	383757	383852	36	158
IV	383852	383884	36	32
IV	383884	383926	36	42
IV	384274	384619	36	832
IV	384619	384789	36	170
IV	384789	384828	36	180
IV	384828	384898	36	268
IV	385034	385096	36	198
IV	385096	385118	36	22
IV	385118	410173	36	25141
IV	410173	410231	36	58
IV	410231	434223	36	24009
IV	434223	434338	36	149
IV	434338	434522	36	185
IV	434522	434545	36	23
IV	434545	434610	36	65
IV	434610	435392	36	782
IV	435392	435456	36	173
IV	435456	435509	36	53
IV	435509	435717	36	209
IV	435717	437143	36	1522
IV	437518	462631	36	25336
IV	462631	471851	36	9297
IV	472918	485413	36	12546
IV	485413	485471	36	58
IV	485471	513257	36	27883
IV	513521	513553	36	55
IV	519253	519268	36	15
IV	520337	520983	36	1128
IV	520983	526810	36	5878
IV	526810	527428	36	618
IV	527428	527470	36	42
IV	527470	527530	36	60
IV	538278	538317	36	39
IV	538317	538490	36	173
IV	538490	568815	36	30505
IV	568815	568934	36	147
IV	568981	581864	36	12893
IV	581864	592485	36	10698
IV	592485	600967	36	8535
IV	600967	601041	36	116
IV	601122	601149	36	27
IV	601149	601250	36	101
IV	601250	601325	36	75
IV	601533	604267	36	2861
IV	604267	604316	36	49
IV	604316	636354	36	32171
IV	636354	636454	36	100
IV	636454	645114	36	8710
IV	645114	645166	36	52
IV	651486	652336	36	851
IV	652336	652394	36	58
IV	652394	661121	36	8736
IV	661121	667986	36	6867
IV	668361	668425	36	64
IV	668425	679174	36	11239
IV	679174	757375	36	78566
IV	757375	757425	36	50
IV	759765	802740	36	43312
IV	802740	802822	36	82
IV	802822	802903	36	81
IV	803211	803237	36	26
IV	803237	803343	36	106
IV	803343	803569	36	226
IV	803569	803754	36	185
IV	803754	803817	36	63
IV	803817	803943	36	126
IV	803943	803964	36	21
IV	803964	804024	36	60
IV	804024	804093	36	69
IV	804093	804151	36	58
IV	804151	804193	36	42
IV	804345	804411	36	66
IV	804411	804463	36	52
IV	804463	804533	36	70
IV	804533	804608	36	75
IV	805586	828651	36	23289
IV	828651	828713	36	62
IV	828713	864796	36	36120
IV	864988	871820	36	6868
IV	877784	877823	36	39
IV	877984	878226	36	243
IV	878226	878302	36	76
IV	884225	884340	36	116
IV	884586	912695	36	28256
IV	912695	945954	36	33353
IV	945954	945988	36	34
IV	946233	946280	36	47
IV	946407	962120	36	15726
IV	962120	966520	36	4429
IV	966520	980994	36	14809
IV	980994	981024	36	30
IV	992839	993128	36	289
IV	993128	993869	36	741
IV	993869	1010910	36	17070
IV	1010910	1016893	36	6058
IV	1016893	1017379	36	486
IV	1017379	1017442	36	63
IV	1017442	1023136	36	5700
IV	1023476	1045803	36	22368
IV	1045803	1045888	36	85
IV	1045888	1045952	36	64
IV	1045952	1075531	36	29770
IV	1075531	1095766	36	20435
IV	1101697	1102498	36	824
IV	1102498	1150879	36	48442
IV	1150879	1151036	36	158
IV	1151036	1151098	36	62
IV	1151098	1151141	36	43
IV	1151141	1151215	36	131
IV	1151308	1151318	36	60
IV	1151349	1154147	36	2806
IV	1156106	1156160	36	54
IV	1156160	1159584	36	3554
IV	1160811	1163272	36	2464
IV	1164117	1164286	36	169
IV	1164286	1164366	36	80
IV	1164366	1164489	36	123
IV	1164489	1175149	36	10663
IV	1175584	1176063	36	479
IV	1176097	1176121	36	24
IV	1176121	1201279	36	25162
IV	1201279	1206706	36	5437
IV	1212629	1243229	36	30637
IV	1243229	1257091	36	13863
IV	1257091	1305462	36	48587
IV	1305462	1305518	36	56
IV	1305518	1307607	36	2195
IV	1308176	1308278	36	102
IV	1308570	1308616	36	46
IV	1308616	1352629	36	44489
IV	1352966	1357479	36	4681
IV	1357479	1357499	36	144
IV	1357499	1447386	36	90175
IV	1447386	1458176	36	10871
IV	1458176	1460818	36	2644
IV	1460818	1460876	36	58
IV	1460876	1461884	36	1055
IV	1461959	1504154	36	42616
IV	1504582	1523277	36	18771
XVI	2979	3019	36	40
XVI	3019	3049	36	30
XVI	3049	3083	36	34
XVI	3083	3104	36	21
XVI	3196	3235	36	39
XVI	3235	3258	36	23
XVI	3258	3347	36	89
XVI	5612	5714	36	102
XVI	8376	9519	36	1159
XVI	9519	10759	36	1352
XVI	10759	10809	36	50
XVI	10809	10889	36	80
XVI	10889	10926	36	37
XVI	11004	11175	36	171
XVI	11175	11227	36	52
XVI	11227	11263	36	36
XVI	11263	12144	36	1233
XVI	12519	12578	36	59
XVI	12578	12648	36	70
XVI	12648	12721	36	73
XVI	12766	12829	36	63
XVI	12999	13066	36	67
XVI	13066	13174	36	111
XVI	13174	13270	36	97
XVI	13270	13304	36	34
XVI	13304	13334	36	30
XVI	13334	14677	36	1355
XVI	14677	14738	36	61
XVI	14738	14764	36	26
XVI	14764	14834	36	119
XVI	14834	14863	36	29
XVI	14863	15437	36	574
XVI	15494	15525	36	31
XVI	15525	15557	36	32
XVI	15557	15605	36	48
XVI	15605	15669	36	79
XVI	15669	16098	36	429
XVI	16098	16332	36	234
XVI	16332	16390	36	83
XVI	16422	16454	36	32
XVI	16454	16521	36	67
XVI	16521	16598	36	77
XVI	16657	16668	36	11
XVI	18315	18382	36	67
XVI	18422	19403	36	981
XVI	26149	56145	36	30074
XVI	56218	56372	36	154
XVI	62736	62810	36	75
XVI	62904	62943	36	39
XVI	63976	75777	36	11894
XVI	75777	96760	36	20999
XVI	98316	135804	36	37645
XVI	136380	174093	36	37825
XVI	174632	210249	36	36216
XVI	210429	210450	36	26
XVI	210450	212901	36	2578
XVI	212901	299139	36	86512
XVI	299201	339306	36	40265
XVI	339306	373349	36	34333
XVI	373349	373560	36	211
XVI	373560	373640	36	80
XVI	373640	373693	36	53
XVI	373693	373753	36	60
XVI	373753	377290	36	3539
XVI	377939	377998	36	59
XVI	377998	412035	36	34192
XVI	412035	436251	36	24278
XVI	436251	436337	36	86
XVI	436337	436359	36	22
XVI	436359	436438	36	80
XVI	436438	436488	36	50
XVI	443138	560227	36	117580
XVI	560227	560242	36	15
XVI	560242	560257	36	15
XVI	560353	560409	36	300
XVI	560409	560434	36	25
XVI	560434	560478	36	44
XVI	560953	571669	36	10727
XVI	571669	572258	36	648
XVI	572258	572279	36	21
XVI	572279	572394	36	148
XVI	572394	619286	36	47025
XVI	619286	619344	36	58
XVI	619344	645499	36	26293
XVI	645499	695553	36	50573
XVI	695553	700593	36	5123
XVI	701934	731371	36	29447
XVI	731571	744204	36	12643
XVI	744204	769256	36	25096
XVI	769256	769381	36	125
XVI	769661	776903	36	7536
XVI	776903	795560	36	18795
XVI	795635	804489	36	8862
XVI	804489	804645	36	211
XVI	810454	810568	36	114
XVI	810568	810590	36	22
XVI	810590	837966	36	27726
XVI	837966	844405	36	6440
XVI	850339	850375	36	36
XVI	856416	856554	36	239
XVI	856915	927194	36	70604
XVI	927194	932586	36	5397
XVI	932621	932649	36	28
XVI	932700	932791	36	91
XVI	932791	932831	36	40
XVI	932831	932886	36	57
XVI	932886	942313	36	9516
XVI	942313	942337	36	24
XVI	942337	942375	36	38
XVI	945007	945092	36	86
XVI	945166	945196	36	30
XVI	945196	945218	36	22
XVI	946878	946906	36	28
VIII	12680	12717	36	37
VIII	14864	14930	36	66
VIII	14930	35294	36	20374
VIII	35853	58925	36	23205
VIII	58925	71541	36	12831
VIII	71541	85524	36	14245
VIII	92127	102690	36	10821
VIII	102690	102754	36	64
VIII	102754	102818	36	64
VIII	102818	116419	36	13801
VIII	116419	116564	36	145
VIII	116693	133048	36	16457
VIII	133929	133956	36	27
VIII	133956	146194	36	12251
VIII	146673	176648	36	30141
VIII	176648	192913	36	16575
VIII	193182	193262	36	80
VIII	193262	193553	36	291
VIII	194816	212101	36	17348
VIII	212101	212225	36	124
VIII	212338	212430	36	92
VIII	212430	212747	36	353
VIII	212747	212825	36	78
VIII	212825	213213	36	482
VIII	213213	213869	36	657
VIII	213869	214262	36	393
VIII	216251	233546	36	17451
VIII	233546	237828	36	4407
VIII	237828	237888	36	61
VIII	237888	238072	36	261
VIII	238072	238144	36	72
VIII	238144	288184	36	50164
VIII	288184	291311	36	3136
VIII	291311	340072	36	48800
VIII	340118	358746	36	18760
VIII	358746	358847	36	342
VIII	358847	388955	36	30487
VIII	389171	389259	36	89
VIII	389676	389748	36	86
VIII	389748	451325	36	61814
VIII	452522	465838	36	13357
VIII	465838	465956	36	118
VIII	465956	466014	36	58
VIII	466014	466819	36	874
VIII	466819	475924	36	9489
VIII	475942	475999	36	57
VIII	475999	504479	36	28488
VIII	505147	524965	36	20183
VIII	524965	525544	36	640
VIII	525544	525607	36	63
VIII	525607	525820	36	216
VIII	525820	525885	36	65
VIII	539697	539743	36	46
VIII	539743	539835	36	92
VIII	539835	539917	36	82
VIII	539917	539938	36	21
VIII	539938	539962	36	24
VIII	539962	540002	36	40
VIII	540002	540562	36	591
VIII	540625	540680	36	55
VIII	540680	540713	36	33
VIII	540713	540784	36	71
VIII	540784	540828	36	44
VIII	540828	540892	36	64
VIII	540892	540974	36	82
VIII	540974	540998	36	24
VIII	540998	541047	36	49
VIII	541047	541197	36	150
VIII	541197	541299	36	118
VIII	541299	541343	36	44
VIII	541491	541584	36	93
VIII	541686	542120	36	434
VIII	542120	542196	36	76
VIII	549627	549646	36	22
VIII	549646	549685	36	40
VIII	549685	549757	36	72
VIII	549798	550357	36	744
VIII	550357	550412	36	55
VIII	550412	551347	36	1103
VIII	551347	551474	36	127
VIII	551474	553387	36	2025
VIII	553429	553580	36	151
VIII	553803	553836	36	33
VIII	554361	554386	36	25
VIII	554386	554454	36	68
VIII	554517	554711	36	194
XIII	8423	34573	36	26402
XIII	34573	34674	36	101
XIII	34674	87010	36	52734
XIII	87058	95748	36	8698
XIII	95772	132270	36	36909
XIII	132270	162721	36	30626
XIII	162976	168358	36	5864
XIII	168686	168756	36	70
XIII	168756	168856	36	153
XIII	168856	179697	36	10961
XIII	179697	183895	36	4201
XIII	183978	184164	36	206
XIII	190083	196331	36	6437
XIII	202195	238235	36	36192
XIII	238235	238787	36	664
XIII	238787	259210	36	20824
XIII	259210	259494	36	285
XIII	259494	266877	36	7400
XIII	266877	266989	36	112
XIII	266989	271751	36	4762
XIII	271751	290663	36	18963
XIII	290663	290858	36	195
XIII	290858	321138	36	30303
XIII	321138	321205	36	67
XIII	321293	321660	36	373
XIII	321660	346593	36	25070
XIII	346593	357005	36	10657
XIII	362698	362903	36	539
XIII	362924	362955	36	31
XIII	362955	363032	36	77
XIII	363032	363115	36	83
XIII	363115	372500	36	9447
XIII	378621	378678	36	57
XIII	378678	378800	36	459
XIII	378800	378825	36	25
XIII	378825	378848	36	23
XIII	378848	378905	36	57
XIII	378905	379076	36	171
XIII	379134	387114	36	8120
XIII	387114	420769	36	33747
XIII	420769	420785	36	17
XIII	420785	420836	36	51
XIII	420836	421194	36	682
XIII	421194	463287	36	42111
XIII	463287	463350	36	63
XIII	463350	463382	36	32
XIII	463382	463543	36	161
XIII	463543	481027	36	17955
XIII	481027	504883	36	23875
XIII	505021	505074	36	53
XIII	505074	561903	36	57069
XIII	561903	573524	36	11672
XIII	573524	599552	36	26106
XIII	600677	601763	36	1151
XIII	602224	602587	36	420
XIII	602587	602837	36	340
XIII	602887	608934	36	6047
XIII	609605	609666	36	195
XIII	609666	609678	36	61
XIII	609693	609737	36	47
XIII	609737	609794	36	205
XIII	609818	622129	36	12382
XIII	622129	632663	36	10735
XIII	632663	632726	36	63
XIII	634207	726278	36	92285
XIII	726278	748048	36	21870
XIII	748079	768380	36	20508
XIII	768875	789093	36	20381
XIII	789093	808421	36	19339
XIII	808421	808478	36	57
XIII	808478	808553	36	75
XIII	808906	837563	36	28858
XIII	837563	837620	36	57
XIII	837620	837762	36	142
XIII	837762	851724	36	14089
XIII	851724	873840	36	22195
XIII	874287	917492	36	43617
XII	16488	41234	36	24797
XII	41345	47898	36	6559
XII	48457	48855	36	398
XII	48855	64304	36	15755
XII	64575	92077	36	27701
XII	92221	92544	36	380
XII	92596	95821	36	3493
XII	97083	97239	36	156
XII	97239	167997	36	71707
XII	168103	168174	36	73
XII	168307	170703	36	2397
XII	170703	215073	36	44655
XII	221004	221054	36	50
XII	221054	365735	36	145348
XII	365735	366106	36	372
XII	366106	366142	36	36
XII	366142	373456	36	7331
XII	373456	374062	36	606
XII	374372	426774	36	52472
XII	426774	426830	36	56
XII	426830	426888	36	58
XII	426888	448647	36	21780
XII	448647	448707	36	70
XII	448707	448898	36	192
XII	448898	451430	36	2545
XII	468618	468669	36	51
XII	490479	513153	36	22800
XII	513160	556468	36	43466
XII	556485	593144	36	37010
XII	599055	605574	36	6566
XII	605574	641311	36	35859
XII	641311	641366	36	55
XII	641366	641481	36	115
XII	641481	650818	36	9363
XII	656743	687522	36	30977
XII	687608	687776	36	168
XII	687776	687853	36	77
XII	687979	688112	36	383
XII	688156	688223	36	67
XII	688223	731667	36	43636
XII	732000	733962	36	2017
XII	733962	734454	36	1082
XII	734454	734476	36	26
XII	734476	734516	36	40
XII	734516	734544	36	35
XII	734544	734605	36	61
XII	734605	734704	36	99
XII	734830	783880	36	49190
XII	783880	784136	36	490
XII	784136	793269	36	9214
XII	793269	793717	36	695
XII	793776	793894	36	118
XII	793894	793927	36	33
XII	793927	794008	36	117
XII	794008	818148	36	24289
XII	818148	818206	36	58
XII	818206	818425	36	219
XII	818484	877959	36	59655
XII	877959	878020	36	61
XII	878020	941186	36	63273
XII	947150	963022	36	15904
XII	963064	963180	36	116
XII	963180	963229	36	49
XII	963229	976257	36	13371
XII	981350	981368	36	18
XII	981697	981812	36	228
XII	981812	981864	36	163
XII	981864	1003345	36	21564
XII	1003345	1003706	36	361
XII	1003869	1052266	36	48783
XII	1052316	1052346	36	155
XII	1052346	1059360	36	7189
XII	1059360	1059428	36	68
XI	4073	7663	36	3592
XI	7663	30763	36	23187
XI	30763	30861	36	98
XI	30861	36605	36	5745
XI	36655	47000	36	10354
XI	47000	78715	36	32413
XI	78715	78815	36	106
XI	78815	83684	36	4879
XI	83684	84060	36	378
XI	84060	84120	36	60
XI	84120	84421	36	302
XI	84421	114792	36	30391
XI	114792	141254	36	26527
XI	141254	141934	36	680
XI	141934	144771	36	2933
XI	144866	145188	36	322
XI	145188	163318	36	18241
XI	163318	164870	36	1555
XI	164870	179413	36	15048
XI	179413	202638	36	23269
XI	202983	219422	36	16463
XI	219422	219724	36	639
XI	219724	219881	36	157
XI	219881	219986	36	113
XI	219986	302512	36	82777
XI	302553	302824	36	272
XI	302824	313602	36	11223
XI	313918	314004	36	86
XI	314004	335218	36	21293
XI	335218	379626	36	44535
XI	379733	379822	36	89
XI	379822	380939	36	1117
XI	380939	390081	36	9516
XI	390081	390144	36	63
XI	390144	432525	36	42499
XI	432659	432722	36	63
XI	432722	458042	36	25323
XI	458042	458100	36	58
XI	458100	458143	36	43
XI	458546	458604	36	59
XI	458604	513794	36	55909
XI	513794	513851	36	57
XI	513851	517423	36	3574
XI	517423	517562	36	152
XI	517562	517820	36	373
XI	517820	517902	36	82
XI	517902	518048	36	146
XI	518120	525311	36	7372
XI	525388	555046	36	29663
XI	555046	578869	36	23916
XI	578869	580883	36	2176
XI	580923	645198	36	64694
XIV	9850	9884	36	34
XIV	9884	10017	36	133
XIV	10017	10609	36	594
XIV	10609	12953	36	2346
XIV	12953	12985	36	34
XIV	13147	14527	36	1387
XIV	14527	14587	36	60
XIV	16805	16828	36	23
XIV	16828	26732	36	9979
XIV	26732	26789	36	96
XIV	26846	96489	36	69998
XIV	102571	102619	36	48
XIV	102619	102641	36	22
XIV	102735	104679	36	1945
XIV	104679	104737	36	59
XIV	104818	252523	36	147925
XIV	252523	359352	36	107571
XIV	359352	383755	36	24414
XIV	383755	383819	36	64
XIV	383819	398524	36	14709
XIV	398524	398553	36	41
XIV	398553	429776	36	31539
XIV	429776	519110	36	90229
XIV	519110	519180	36	120
XIV	560689	560846	36	169
XIV	560846	560904	36	58
XIV	560904	561058	36	293
XIV	561058	561298	36	527
XIV	561298	561411	36	113
XIV	561498	561662	36	361
XIV	568003	569880	36	1974
XIV	574090	576879	36	2790
XIV	576929	577068	36	139
XIV	577068	598159	36	21112
XIV	602418	602453	36	35
XIV	602453	605705	36	3334
XIV	605776	626171	36	20532
XIV	626171	626229	36	58
XIV	626229	632047	36	5851
XIV	632047	632065	36	271
XIV	632065	632112	36	47
XIV	632448	632489	36	41
XIV	632489	694259	36	62293
XIV	694259	704247	36	10012
XIV	704247	721929	36	17861
XIV	721929	726074	36	4153
XIV	726251	726305	36	64
XIV	726550	726582	36	32
XIV	726582	726613	36	31
XIV	726945	741208	36	14342
XIV	741208	748932	36	7727
XIV	748932	751781	36	2849
XIV	779385	781174	36	1897
XIV	783509	783551	36	42
VI	13746	13791	36	45
VI	13834	13895	36	61
VI	13895	13985	36	90
VI	13985	14047	36	64
VI	30088	30536	36	448
VI	30536	99153	36	69065
VI	99153	99234	36	81
VI	99234	99297	36	63
VI	99297	99362	36	104
VI	99362	101242	36	1901
VI	101242	101325	36	83
VI	101542	101556	36	77
VI	101556	117424	36	16071
VI	117424	117488	36	64
VI	118008	137497	36	19495
VI	137497	137519	36	22
VI	137519	137541	36	22
VI	144849	161768	36	17353
VI	161768	162244	36	550
VI	162244	167705	36	5621
VI	167705	167863	36	236
VI	167863	180982	36	13510
VI	181130	181306	36	427
VI	181306	204935	36	23707
VI	204983	204992	36	64
VI	204992	205135	36	143
VI	205945	210344	36	4411
VI	210344	220600	36	10303
VI	220600	220663	36	63
VI	220932	270090	36	49569
I	27795	27820	36	25
I	27820	45367	36	17803
I	45367	139561	36	94672
I	141030	160152	36	19219
I	160152	160238	36	86
I	166168	166262	36	94
I	166262	166277	36	15
I	166349	166416	36	67
I	166416	176720	36	10470
I	176847	180282	36	3452
I	180282	180844	36	663
I	181200	181583	36	399
I	181583	182432	36	1035
I	182511	182544	36	33
I	182638	182686	36	51
I	183527	183579	36	53
I	183579	185930	36	2424
I	186901	187408	36	609
I	187439	187461	36	39
I	187495	187530	36	35
I	187661	187677	36	44
I	187677	187713	36	37
I	187713	187739	36	27
I	187739	187812	36	90
I	187812	188104	36	367
I	188528	188909	36	700
I	189219	189246	36	29
I	189808	196906	36	7140
I	196906	198045	36	1144
I	203833	203923	36	90
I	204171	204222	36	52
I	221802	222140	36	338
I	222198	222254	36	73
I	222254	222948	36	694
I	222948	222989	36	41
X	24212	26026	36	1827
X	26417	28529	36	2182
X	28529	59070	36	30554
X	59113	59511	36	398
X	59511	59532	36	21
X	59532	59658	36	133
X	59658	116216	36	56792
X	116216	116327	36	111
X	116327	116412	36	87
X	116412	120629	36	4441
X	120629	153522	36	33476
X	153522	197307	36	43908
X	197307	197373	36	66
X	204108	204174	36	67
X	204174	204230	36	306
X	204652	204731	36	79
X	204753	233891	36	29165
X	233891	265888	36	32050
X	265888	338550	36	73083
X	338960	342621	36	3966
X	342621	353849	36	11229
X	353849	354017	36	168
X	354017	354609	36	678
X	355174	355205	36	31
X	355205	355237	36	32
X	355237	355304	36	67
X	355304	355371	36	67
X	355474	366755	36	11310
X	367197	367262	36	149
X	367262	367296	36	34
X	367296	367353	36	57
X	367353	367422	36	379
X	367422	374098	36	6676
X	374098	374155	36	57
X	374155	374349	36	194
X	374349	374415	36	66
X	374528	374717	36	193
X	374717	378213	36	3552
X	378213	396657	36	18801
X	396738	396885	36	147
X	396885	400052	36	3168
X	400052	400140	36	88
X	400140	400203	36	72
X	400278	400322	36	44
X	400322	400331	36	93
X	400331	400364	36	64
X	400364	402007	36	1643
X	402007	402046	36	39
X	402067	415018	36	12982
X	415071	415141	36	70
X	415141	415594	36	453
X	415594	415713	36	119
X	415713	415926	36	213
X	415982	416068	36	86
X	416068	416131	36	63
X	416131	416297	36	512
X	416297	416377	36	80
X	416377	416781	36	736
X	416781	417149	36	705
X	417149	417206	36	58
X	417206	422764	36	5560
X	422764	424696	36	2037
X	424696	424756	36	60
X	424756	424845	36	89
X	424845	424885	36	40
X	424911	453991	36	29135
X	454303	472457	36	18279
X	483972	497117	36	13173
X	497312	531621	36	34501
X	531657	537927	36	6464
X	538299	538365	36	89
X	538365	541183	36	2909
X	541183	542982	36	1901
X	542982	543094	36	240
X	543094	543153	36	59
X	543153	543177	36	24
X	543177	577030	36	33989
X	577030	639213	36	62775
X	639213	639365	36	183
X	639365	702030	36	63057
X	702698	714168	36	11706
X	714176	714282	36	106
X	714599	714669	36	70
X	714669	714897	36	292
X	714936	714999	36	63
X	715032	715194	36	198
X	715305	722775	36	7535
X	724376	727227	36	2851
X	727495	727773	36	278
X	729730	729784	36	55
X	733678	734010	36	374
X	742955	743020	36	65
III	1393	1429	36	36
III	4153	4223	36	71
III	4322	5349	36	1027
III	5349	6004	36	678
III	6004	6077	36	74
III	6077	6141	36	65
III	6141	6189	36	48
III	6189	6211	36	22
III	6211	6274	36	189
III	6291	6314	36	23
III	6314	6400	36	86
III	6400	6464	36	65
III	6464	7720	36	1265
III	7778	8352	36	574
III	8352	8434	36	143
III	8434	8464	36	30
III	10332	11508	36	1176
III	12228	12301	36	73
III	14017	14059	36	42
III	14059	57070	36	43377
III	57070	57229	36	295
III	57239	82738	36	26037
III	82738	82786	36	48
III	82786	84365	36	1806
III	90920	107677	36	16789
III	107677	120874	36	13198
III	120874	122627	36	1768
III	122627	123586	36	962
III	123586	123650	36	64
III	123650	124133	36	483
III	124396	124470	36	74
III	124470	127800	36	3339
III	127800	127857	36	57
III	127857	142762	36	15051
III	142762	142975	36	315
III	143006	151297	36	8694
III	151297	151360	36	63
III	151360	151469	36	109
III	151469	151499	36	48
III	151499	151520	36	219
III	151860	168281	36	16439
III	168281	168337	36	56
III	169036	169070	36	34
III	169070	169201	36	131
III	169544	198670	36	29618
III	200103	200177	36	74
III	200177	200241	36	64
III	200241	200913	36	672
III	201081	201092	36	11
III	201177	201219	36	42
III	201219	201248	36	29
III	201248	227795	36	26815
III	227795	227853	36	60
III	227853	234882	36	7160
III	234882	234991	36	180
III	234991	268671	36	33699
III	268702	268849	36	148
III	268983	269063	36	80
III	269113	291244	36	22637
III	291244	291302	36	58
III	291302	293031	36	1807
III	293736	293826	36	90
III	293826	293856	36	30
III	293856	293918	36	62
III	293918	294385	36	467
III	294529	294975	36	446
III	295033	295192	36	297
III	295192	295259	36	298
III	295259	295282	36	23
III	295282	295315	36	34
III	295362	296059	36	872
III	296059	296119	36	76
III	296155	296218	36	63
III	296218	303766	36	7697
III	303766	303859	36	93
III	303859	303928	36	69
III	303928	303992	36	64
Mito	4639	4688	36	59
Mito	5340	5420	36	88
Mito	6100	6191	36	101
Mito	8180	8223	36	69
Mito	11596	11618	36	43
Mito	11618	11682	36	219
Mito	12939	12970	36	31
Mito	13019	13065	36	50
Mito	13065	13116	36	51
Mito	13223	13304	36	95
Mito	13304	13390	36	113
Mito	16434	16470	36	37
Mito	18953	18997	36	48
Mito	19388	19400	36	53
Mito	20382	20435	36	61
Mito	33647	33667	36	27
Mito	42393	42578	36	369
Mito	42819	43009	36	217
Mito	43599	43752	36	356
Mito	43867	43910	36	64
Mito	44022	44026	36	153
Mito	44026	44153	36	285
Mito	44306	44411	36	153
Mito	44608	44651	36	56
Mito	44651	44692	36	59
Mito	45318	45336	36	34
Mito	45652	45775	36	151
Mito	46706	46742	36	41
Mito	46778	46814	36	36
Mito	47451	47467	36	56
Mito	47552	47587	36	35
Mito	47659	47708	36	65
Mito	47708	47746	36	49
Mito	48736	48758	36	37
Mito	57586	57853	36	383
Mito	57853	57938	36	478
Mito	57938	57984	36	65
Mito	58017	58131	36	371
Mito	58223	58268	36	49
Mito	58268	58323	36	60
Mito	58323	58477	36	156
Mito	58539	59145	36	665
Mito	59268	59552	36	403
Mito	59552	60349	36	893
Mito	60349	60464	36	127
Mito	60623	60662	36	39
Mito	60662	60723	36	61
Mito	60723	60766	36	125
Mito	60766	60845	36	222
Mito	60845	61104	36	387
Mito	61104	61174	36	141
Mito	61174	61217	36	92
Mito	61272	61629	36	660
Mito	61629	61643	36	18
Mito	61643	61759	36	484
Mito	61759	61779	36	139
Mito	61779	61819	36	125
Mito	61819	61896	36	195
Mito	62105	62118	36	18
Mito	62118	62368	36	725
Mito	62368	62455	36	268
Mito	62455	62461	36	22
Mito	62461	62520	36	71
Mito	62545	62568	36	44
Mito	63068	63198	36	188
Mito	63356	63461	36	137
Mito	63461	63490	36	36
Mito	63539	63593	36	55
Mito	63813	64000	36	606
Mito	64300	64355	36	85
Mito	64355	64510	36	196
Mito	64510	64592	36	83
Mito	64592	64658	36	83
Mito	64669	65138	36	620
Mito	65138	65248	36	116
Mito	65361	65434	36	104
Mito	65573	65826	36	298
Mito	65826	65843	36	35
Mito	68530	68582	36	164
Mito	69067	69353	36	326
Mito	69513	69752	36	781
Mito	70131	70160	36	96
Mito	70890	70925	36	47
Mito	71216	71277	36	140
Mito	71543	71581	36	38
Mito	71616	71715	36	187
Mito	72215	72240	36	79
Mito	72240	72251	36	69
Mito	72251	72311	36	163
Mito	72311	72390	36	127
Mito	72390	72443	36	147
Mito	72443	72497	36	90
Mito	72497	72642	36	163
Mito	72642	72783	36	226
Mito	73150	73202	36	77
Mito	74741	74943	36	239
Mito	75097	75169	36	85
Mito	75216	75616	36	451
Mito	75616	75664	36	56
Mito	75664	76113	36	776
Mito	76471	76487	36	74
Mito	76487	76494	36	162
Mito	76499	76511	36	33
Mito	76511	76541	36	98
Mito	77425	77517	36	96
Mito	77517	77590	36	161
Mito	77720	77962	36	449
Mito	78100	78584	36	797
Mito	78607	78631	36	49
