time_index	left_time_boundary	right_time_boundary	lambda
0	0	3.5938e-05	818.166
1	3.5938e-05	7.84182e-05	818.166
2	7.84182e-05	0.000128632	818.166
3	0.000128632	0.000187986	818.166
4	0.000187986	0.000258145	818.166
5	0.000258145	0.000341076	5.54468
6	0.000341076	0.000439104	20.4947
7	0.000439104	0.000554976	53.0861
8	0.000554976	0.000691943	84.8764
9	0.000691943	0.000853843	122.308
10	0.000853843	0.00104522	186.766
11	0.00104522	0.00127143	283.82
12	0.00127143	0.00153882	399.599
13	0.00153882	0.00185488	513.795
14	0.00185488	0.00222848	600.761
15	0.00222848	0.0026701	635.748
16	0.0026701	0.0031921	588.433
17	0.0031921	0.00380913	471.327
18	0.00380913	0.00453849	358.087
19	0.00453849	0.00540062	281.125
20	0.00540062	0.00641969	225.231
21	0.00641969	0.00762428	171.374
22	0.00762428	0.00904815	133.131
23	0.00904815	0.0107312	144.904
24	0.0107312	0.0127207	765.842
25	0.0127207	0.0150723	1.64617
26	0.0150723	0.017852	1.64617
27	0.017852	0.0211378	1.64617
28	0.0211378	0.0250216	1.64617
29	0.0250216	inf	1.64617
