time_index	left_time_boundary	right_time_boundary	lambda
0	0	7.49816e-08	2293.06
1	7.49816e-08	1.81851e-07	2293.06
2	1.81851e-07	3.34171e-07	2293.06
3	3.34171e-07	5.51269e-07	2293.06
4	5.51269e-07	8.60694e-07	2293.06
5	8.60694e-07	1.30171e-06	7778.02
6	1.30171e-06	1.93029e-06	2711.07
7	1.93029e-06	2.82618e-06	397.588
8	2.82618e-06	4.10308e-06	97.5215
9	4.10308e-06	5.92303e-06	89.4451
10	5.92303e-06	8.51696e-06	167.41
11	8.51696e-06	1.2214e-05	301.244
12	1.2214e-05	1.74834e-05	502.949
13	1.74834e-05	2.49937e-05	526.942
14	2.49937e-05	3.56981e-05	357.834
15	3.56981e-05	5.09548e-05	222.088
16	5.09548e-05	7.26998e-05	198.2
17	7.26998e-05	0.000103693	336.55
18	0.000103693	0.000147866	917.741
19	0.000147866	0.000210826	2384.53
20	0.000210826	0.000300561	4699.84
21	0.000300561	0.000428458	4386.24
22	0.000428458	0.000610748	1915.2
23	0.000610748	0.000870562	810.921
24	0.000870562	0.00124087	8277.79
25	0.00124087	0.00176866	2.055
26	0.00176866	0.00252092	2.055
27	0.00252092	0.00359309	2.055
28	0.00359309	0.00512123	2.055
29	0.00512123	inf	2.055
