time_index	left_time_boundary	right_time_boundary	lambda
0	0	9.29159e-06	19.5152
1	9.29159e-06	2.02746e-05	19.5152
2	2.02746e-05	3.3257e-05	19.5152
3	3.3257e-05	4.86028e-05	19.5152
4	4.86028e-05	6.6742e-05	19.5152
5	6.6742e-05	8.81834e-05	94.2007
6	8.81834e-05	0.000113528	301.729
7	0.000113528	0.000143486	652.539
8	0.000143486	0.000178898	1226.19
9	0.000178898	0.000220757	2156.5
10	0.000220757	0.000270235	3394.59
11	0.000270235	0.000328721	4366.71
12	0.000328721	0.000397853	4430.63
13	0.000397853	0.00047957	3929.77
14	0.00047957	0.000576163	3357.78
15	0.000576163	0.00069034	2889.94
16	0.00069034	0.000825302	2556.22
17	0.000825302	0.000984832	2238.91
18	0.000984832	0.0011734	1707.89
19	0.0011734	0.0013963	1020.49
20	0.0013963	0.00165978	517.709
21	0.00165978	0.00197122	285.241
22	0.00197122	0.00233935	230.12
23	0.00233935	0.0027745	414.51
24	0.0027745	0.00328887	35652.3
25	0.00328887	0.00389687	1.9592
26	0.00389687	0.00461555	1.9592
27	0.00461555	0.00546506	1.9592
28	0.00546506	0.00646922	1.9592
29	0.00646922	inf	1.9592
