time_index	left_time_boundary	right_time_boundary	lambda
0	0	4.74378e-07	701081
1	4.74378e-07	1.03511e-06	701081
2	1.03511e-06	1.69792e-06	701081
3	1.69792e-06	2.4814e-06	701081
4	2.4814e-06	3.40749e-06	701081
5	3.40749e-06	4.50217e-06	102398
6	4.50217e-06	5.79613e-06	114108
7	5.79613e-06	7.32564e-06	109966
8	7.32564e-06	9.13359e-06	98376
9	9.13359e-06	1.12707e-05	82995.1
10	1.12707e-05	1.37968e-05	67142.7
11	1.37968e-05	1.67827e-05	53007.7
12	1.67827e-05	2.03122e-05	41305
13	2.03122e-05	2.44843e-05	31835.3
14	2.44843e-05	2.94158e-05	24143.5
15	2.94158e-05	3.5245e-05	17885.5
16	3.5245e-05	4.21355e-05	12910.3
17	4.21355e-05	5.02802e-05	9159.19
18	5.02802e-05	5.99077e-05	6532.44
19	5.99077e-05	7.12877e-05	4843.35
20	7.12877e-05	8.47394e-05	3878.55
21	8.47394e-05	0.00010064	3491.99
22	0.00010064	0.000119435	3718.74
23	0.000119435	0.000141651	5228.99
24	0.000141651	0.000167912	40352.4
25	0.000167912	0.000198953	38.3747
26	0.000198953	0.000235645	38.3747
27	0.000235645	0.000279017	38.3747
28	0.000279017	0.000330284	38.3747
29	0.000330284	inf	38.3747
