time_index	left_time_boundary	right_time_boundary	lambda
0	0	3.08974e-05	1808.58
1	3.08974e-05	6.74195e-05	1808.58
2	6.74195e-05	0.00011059	1808.58
3	0.00011059	0.000161619	1808.58
4	0.000161619	0.000221938	1808.58
5	0.000221938	0.000293237	456.068
6	0.000293237	0.000377516	836.277
7	0.000377516	0.000477137	1009.09
8	0.000477137	0.000594893	874.095
9	0.000594893	0.000734085	653.305
10	0.000734085	0.000898616	485.062
11	0.000898616	0.0010931	378.869
12	0.0010931	0.00132299	339.179
13	0.00132299	0.00159472	357.907
14	0.00159472	0.00191592	415.707
15	0.00191592	0.0022956	501.548
16	0.0022956	0.00274439	599.056
17	0.00274439	0.00327488	650.016
18	0.00327488	0.00390193	599.299
19	0.00390193	0.00464314	475.958
20	0.00464314	0.00551928	341.596
21	0.00551928	0.00655492	241.231
22	0.00655492	0.00777908	194.896
23	0.00777908	0.00922609	225.628
24	0.00922609	0.0109365	1370.64
25	0.0109365	0.0129583	0.589179
26	0.0129583	0.0153481	0.589179
27	0.0153481	0.018173	0.589179
28	0.018173	0.0215122	0.589179
29	0.0215122	inf	0.589179
