time_index	left_time_boundary	right_time_boundary	lambda
0	0	3.6243e-05	1382.4
1	3.6243e-05	7.90837e-05	1382.4
2	7.90837e-05	0.000129723	1382.4
3	0.000129723	0.000189581	1382.4
4	0.000189581	0.000260336	1382.4
5	0.000260336	0.00034397	634.196
6	0.00034397	0.00044283	681.959
7	0.00044283	0.000559686	629.567
8	0.000559686	0.000697815	480.169
9	0.000697815	0.000861089	360.616
10	0.000861089	0.00105409	310.054
11	0.00105409	0.00128222	310.226
12	0.00128222	0.00155187	347.616
13	0.00155187	0.00187062	417.785
14	0.00187062	0.0022474	504.218
15	0.0022474	0.00269276	564.611
16	0.00269276	0.00321919	570.275
17	0.00321919	0.00384146	534.309
18	0.00384146	0.00457701	476.573
19	0.00457701	0.00544645	405.052
20	0.00544645	0.00647417	317.539
21	0.00647417	0.00768898	236.999
22	0.00768898	0.00912494	200.238
23	0.00912494	0.0108223	253.63
24	0.0108223	0.0128286	1235.24
25	0.0128286	0.0152002	0.502279
26	0.0152002	0.0180035	0.502279
27	0.0180035	0.0213171	0.502279
28	0.0213171	0.025234	0.502279
29	0.025234	inf	0.502279
