time_index	left_time_boundary	right_time_boundary	lambda
0	0	3.38696e-05	1740.12
1	3.38696e-05	7.39048e-05	1740.12
2	7.39048e-05	0.000121228	1740.12
3	0.000121228	0.000177166	1740.12
4	0.000177166	0.000243287	1740.12
5	0.000243287	0.000321445	789.139
6	0.000321445	0.000413831	746.946
7	0.000413831	0.000523035	590.218
8	0.000523035	0.000652118	488.936
9	0.000652118	0.0008047	432.183
10	0.0008047	0.000985058	384.25
11	0.000985058	0.00119825	351.673
12	0.00119825	0.00145025	354.972
13	0.00145025	0.00174812	392.365
14	0.00174812	0.00210022	449.986
15	0.00210022	0.00251642	506.032
16	0.00251642	0.00300838	539.059
17	0.00300838	0.0035899	534.886
18	0.0035899	0.00427728	485.993
19	0.00427728	0.00508979	413.323
20	0.00508979	0.00605021	352.669
21	0.00605021	0.00718546	316.358
22	0.00718546	0.00852738	297.682
23	0.00852738	0.0101136	325.904
24	0.0101136	0.0119885	1192.91
25	0.0119885	0.0142048	6.34072
26	0.0142048	0.0168246	6.34072
27	0.0168246	0.0199212	6.34072
28	0.0199212	0.0235815	6.34072
29	0.0235815	inf	6.34072
