time_index	left_time_boundary	right_time_boundary	lambda
0	0	6.52878e-06	5438.95
1	6.52878e-06	1.42461e-05	5438.95
2	1.42461e-05	2.33682e-05	5438.95
3	2.33682e-05	3.4151e-05	5438.95
4	3.4151e-05	4.68966e-05	5438.95
5	4.68966e-05	6.19625e-05	2308.76
6	6.19625e-05	7.9771e-05	2661.24
7	7.9771e-05	0.000100821	3112.57
8	0.000100821	0.000125704	3490.5
9	0.000125704	0.000155116	3742.49
10	0.000155116	0.000189882	3882.25
11	0.000189882	0.000230977	3871.21
12	0.000230977	0.000279553	3671.47
13	0.000279553	0.000336972	3330.68
14	0.000336972	0.000404844	2909.27
15	0.000404844	0.000485071	2448.59
16	0.000485071	0.000579902	1990.66
17	0.000579902	0.000691997	1568.28
18	0.000691997	0.000824498	1203.41
19	0.000824498	0.000981119	908.236
20	0.000981119	0.00116625	679.291
21	0.00116625	0.00138509	506.01
22	0.00138509	0.00164376	383.943
23	0.00164376	0.00194952	313.217
24	0.00194952	0.00231094	284.632
25	0.00231094	0.00273815	1084.08
26	0.00273815	0.00324314	1084.08
27	0.00324314	0.00384005	1084.08
28	0.00384005	0.00454563	1084.08
29	0.00454563	inf	1084.08
