time_index	left_time_boundary	right_time_boundary	lambda
0	0	6.40144e-06	6947.11
1	6.40144e-06	1.39682e-05	6947.11
2	1.39682e-05	2.29124e-05	6947.11
3	2.29124e-05	3.34849e-05	6947.11
4	3.34849e-05	4.5982e-05	6947.11
5	4.5982e-05	6.0754e-05	3658.53
6	6.0754e-05	7.82152e-05	3444.16
7	7.82152e-05	9.8855e-05	3118.33
8	9.8855e-05	0.000123252	2940.62
9	0.000123252	0.000152091	2981.13
10	0.000152091	0.000186179	3186.09
11	0.000186179	0.000226472	3409.09
12	0.000226472	0.000274101	3504.67
13	0.000274101	0.0003304	3423.98
14	0.0003304	0.000396948	3192.1
15	0.000396948	0.00047561	2816.3
16	0.00047561	0.000568592	2302.75
17	0.000568592	0.000678501	1754.12
18	0.000678501	0.000808417	1291.5
19	0.000808417	0.000961984	946.176
20	0.000961984	0.00114351	701.662
21	0.00114351	0.00135807	537.382
22	0.00135807	0.0016117	434.12
23	0.0016117	0.0019115	376.851
24	0.0019115	0.00226587	352.74
25	0.00226587	0.00268475	767.316
26	0.00268475	0.00317989	767.316
27	0.00317989	0.00376516	767.316
28	0.00376516	0.00445697	767.316
29	0.00445697	inf	767.316
