time_index	left_time_boundary	right_time_boundary	lambda
0	0	6.93063e-06	4599.96
1	6.93063e-06	1.51229e-05	4599.96
2	1.51229e-05	2.48065e-05	4599.96
3	2.48065e-05	3.6253e-05	4599.96
4	3.6253e-05	4.97831e-05	4599.96
5	4.97831e-05	6.57763e-05	950.024
6	6.57763e-05	8.46809e-05	1435.54
7	8.46809e-05	0.000107027	1966.44
8	0.000107027	0.000133441	2517.54
9	0.000133441	0.000164663	2939.08
10	0.000164663	0.000201569	3149.28
11	0.000201569	0.000245194	3204.44
12	0.000245194	0.00029676	3133.38
13	0.00029676	0.000357713	2922.87
14	0.000357713	0.000429762	2640.26
15	0.000429762	0.000514927	2364.94
16	0.000514927	0.000615595	2085.6
17	0.000615595	0.00073459	1754.12
18	0.00073459	0.000875246	1375.2
19	0.000875246	0.00104151	1012.74
20	0.00104151	0.00123803	726.524
21	0.00123803	0.00147034	534.338
22	0.00147034	0.00174493	420.514
23	0.00174493	0.00206951	360.805
24	0.00206951	0.00245318	336.367
25	0.00245318	0.00290669	1008.78
26	0.00290669	0.00344275	1008.78
27	0.00344275	0.00407641	1008.78
28	0.00407641	0.00482541	1008.78
29	0.00482541	inf	1008.78
