Chr	Start	Stop	BlockSize	BlockLength
VIII	5313	5558	14	246
VIII	5953	6313	14	361
VIII	6330	6528	14	198
VIII	6528	6615	14	87
VIII	6615	6834	14	219
VIII	7070	7190	14	120
VIII	7245	7325	14	80
VIII	7372	11964	14	4593
VIII	11980	11981	14	1
VIII	12542	35860	14	23345
VIII	35860	39522	14	3664
VIII	39538	48229	14	8692
VIII	48252	71914	14	23801
VIII	71930	81852	14	9932
VIII	81872	85433	14	3561
VIII	85452	85524	14	72
VIII	92127	93339	14	1212
VIII	93363	104895	14	11778
VIII	105031	111524	14	6493
VIII	111542	116412	14	4870
VIII	116749	119659	14	2935
VIII	119670	125826	14	6160
VIII	125843	133083	14	7240
VIII	133117	133118	14	1
VIII	133118	134206	14	1088
VIII	134206	146325	14	12121
VIII	146671	148235	14	1564
VIII	148277	167621	14	19356
VIII	167639	169190	14	1551
VIII	169208	184013	14	14860
VIII	184034	187024	14	2990
VIII	187041	192841	14	5803
VIII	192841	194104	14	1265
VIII	194104	195363	14	1259
VIII	195380	212265	14	16887
VIII	214262	214721	14	459
VIII	214737	229544	14	14810
VIII	229544	236951	14	7408
VIII	236977	237992	14	1015
VIII	237992	252923	14	14939
VIII	252941	293266	14	40332
VIII	293288	336190	14	42911
VIII	336206	365400	14	29198
VIII	365418	378114	14	12700
VIII	378150	382135	14	3985
VIII	382237	386089	14	3853
VIII	386113	388926	14	2816
VIII	388938	389187	14	329
VIII	389447	389503	14	56
VIII	389606	390054	14	448
VIII	390076	392114	14	2069
VIII	392137	420551	14	28424
VIII	420578	451325	14	30764
VIII	451325	452863	14	1538
VIII	452892	465796	14	12929
VIII	465822	504479	14	38669
VIII	504479	508794	14	4315
VIII	508815	514823	14	6008
VIII	514845	523589	14	8751
VIII	523665	524840	14	1175
VIII	524859	526227	14	1374
VIII	526227	526291	14	64
VIII	526299	526372	14	73
VIII	526372	526440	14	68
VIII	527288	527503	14	233
VIII	527514	527670	14	165
VIII	527670	527704	14	69
VIII	528279	528287	14	8
VIII	528304	528305	14	1
VIII	528577	528705	14	130
VIII	555823	555896	14	73
VIII	555908	555961	14	54
VIII	556159	556198	14	39
VIII	556198	556238	14	40
VIII	556238	556282	14	44
VIII	556318	556347	14	29
VIII	556347	556383	14	36
VIII	556383	556405	14	23
VIII	556405	556465	14	67
VIII	556465	556504	14	44
VIII	556504	556507	14	3
VIII	556532	556539	14	7
VIII	556539	556584	14	45
VIII	556655	556842	14	201
VIII	556848	556869	14	21
VIII	556880	556909	14	30
VIII	556936	556937	14	1
XII	13699	22805	14	9109
XII	22825	41217	14	18757
XII	41237	47541	14	6307
XII	47557	47898	14	341
XII	47898	48849	14	952
XII	48872	91509	14	42699
XII	91538	94929	14	3391
XII	94940	95818	14	878
XII	95818	122003	14	26433
XII	122022	132228	14	10221
XII	132235	132235	14	1
XII	132235	132276	14	41
XII	132276	132316	14	40
XII	132316	151135	14	19052
XII	151151	167959	14	16808
XII	167971	169768	14	1797
XII	169787	170695	14	910
XII	170711	172012	14	1308
XII	172032	215073	14	43050
XII	221004	222858	14	1854
XII	222870	243821	14	20955
XII	243837	245250	14	1413
XII	245266	264070	14	18810
XII	264093	329723	14	65646
XII	329741	339670	14	9929
XII	339686	373998	14	34338
XII	374343	375337	14	994
XII	375394	421484	14	46103
XII	421503	424612	14	3109
XII	424633	448840	14	24218
XII	448840	448899	14	59
XII	448899	451243	14	2347
XII	451243	451291	14	48
XII	451303	451381	14	79
XII	451381	451416	14	35
XII	451416	451480	14	64
XII	451676	451714	14	38
XII	451714	451738	14	24
XII	451831	451852	14	21
XII	451859	451916	14	57
XII	451931	451970	14	39
XII	459947	459996	14	49
XII	460038	460039	14	1
XII	460251	460265	14	14
XII	463360	463415	14	55
XII	463835	463847	14	12
XII	463925	463989	14	64
XII	464149	464188	14	39
XII	464453	464514	14	61
XII	465048	465091	14	43
XII	465091	465128	14	37
XII	465128	465175	14	47
XII	465175	465198	14	23
XII	465198	465237	14	39
XII	465237	465262	14	25
XII	465262	465298	14	36
XII	465298	465343	14	45
XII	465558	465597	14	39
XII	465966	466030	14	64
XII	466490	466514	14	24
XII	466514	466537	14	23
XII	466537	466570	14	33
XII	466570	466594	14	24
XII	466612	466613	14	1
XII	466613	466651	14	38
XII	466771	466805	14	34
XII	466805	466842	14	37
XII	467472	467480	14	8
XII	467553	467618	14	65
XII	467646	467675	14	29
XII	467715	467729	14	14
XII	467899	467934	14	35
XII	468400	468458	14	58
XII	468479	468480	14	1
XII	468574	468598	14	24
XII	490448	490512	14	64
XII	490512	511539	14	21052
XII	511557	555320	14	43861
XII	555338	555552	14	214
XII	555570	563488	14	7918
XII	563506	566356	14	2853
XII	566372	592742	14	26451
XII	592837	593132	14	397
XII	599055	605381	14	6346
XII	605444	605676	14	232
XII	605692	650818	14	45131
XII	656743	669839	14	13113
XII	669861	687466	14	17610
XII	687477	687578	14	103
XII	687596	688475	14	879
XII	688475	699943	14	11469
XII	699963	701117	14	1154
XII	701150	731656	14	30528
XII	732006	732130	14	124
XII	732142	734324	14	2183
XII	734324	734855	14	531
XII	734868	734882	14	14
XII	734914	734916	14	2
XII	734929	766497	14	31588
XII	766515	784385	14	17877
XII	784397	789104	14	4710
XII	789159	823436	14	34292
XII	823470	829392	14	5924
XII	829416	856765	14	27357
XII	856786	875416	14	18632
XII	875428	877693	14	2265
XII	877736	932243	14	54509
XII	932273	941186	14	8915
XII	947150	976249	14	29117
XII	976275	976276	14	1
XII	976276	976327	14	51
XII	981697	1000197	14	18500
XII	1000219	1003674	14	3456
XII	1003845	1011943	14	8104
XII	1011961	1024987	14	13037
XII	1025004	1038940	14	13939
XII	1038957	1053285	14	14329
XII	1053299	1053317	14	18
XII	1053333	1059524	14	6196
XII	1062645	1062667	14	22
XII	1062713	1062787	14	75
XII	1062804	1062805	14	1
XII	1063790	1063858	14	73
XII	1063858	1063902	14	44
VII	3	49	14	69
VII	63	64	14	1
VII	616	6285	14	5702
VII	7745	8620	14	884
VII	8782	10386	14	1606
VII	10386	18286	14	7903
VII	18432	35306	14	16889
VII	35322	43260	14	7938
VII	43276	75468	14	32226
VII	75486	75680	14	194
VII	75696	78996	14	3301
VII	79014	80597	14	1583
VII	80625	110854	14	30250
VII	111230	140307	14	29106
VII	140327	156119	14	15800
VII	156151	204591	14	48573
VII	204611	204669	14	58
VII	204694	204927	14	233
VII	204945	205567	14	623
VII	205580	241201	14	35661
VII	241238	245635	14	4397
VII	245659	254655	14	8998
VII	254655	272308	14	17659
VII	272326	278773	14	6453
VII	278795	280075	14	1280
VII	280137	280158	14	21
VII	280182	281599	14	1418
VII	281615	307195	14	25584
VII	307227	319415	14	12191
VII	319760	321481	14	1725
VII	321497	324200	14	2725
VII	324234	324538	14	304
VII	324557	364404	14	39889
VII	364404	366193	14	1796
VII	366212	366772	14	560
VII	366788	378020	14	11233
VII	378038	379156	14	1118
VII	379174	386775	14	7601
VII	386924	397844	14	10920
VII	397860	400544	14	2685
VII	400563	401618	14	1056
VII	401692	401699	14	7
VII	401762	401765	14	3
VII	401809	401815	14	6
VII	401841	401958	14	117
VII	401958	401961	14	3
VII	401973	402219	14	246
VII	402219	403622	14	1490
VII	403658	403935	14	277
VII	403987	404196	14	209
VII	404220	404340	14	120
VII	404364	404410	14	47
VII	404410	404442	14	32
VII	404442	404521	14	80
VII	404521	404739	14	220
VII	404739	404913	14	174
VII	404996	405059	14	63
VII	405059	405228	14	444
VII	405228	405401	14	222
VII	405413	405450	14	37
VII	405487	431415	14	25938
VII	431445	434514	14	3071
VII	434572	440446	14	5876
VII	440463	440742	14	279
VII	440754	498002	14	57281
VII	498020	508594	14	10574
VII	508610	519114	14	10530
VII	519128	531500	14	12440
VII	531522	531838	14	316
VII	531862	535219	14	3361
VII	535759	535798	14	39
VII	535798	535820	14	22
VII	536034	536728	14	694
VII	536748	536749	14	1
VII	536900	538387	14	1487
VII	541624	541681	14	57
VII	541681	555975	14	14296
VII	556001	561678	14	5678
VII	561690	561852	14	162
VII	567775	568241	14	466
VII	568241	568741	14	500
VII	574706	593363	14	18660
VII	593386	611734	14	18368
VII	611750	627180	14	15432
VII	627208	640611	14	13408
VII	640634	644766	14	4133
VII	644798	648530	14	3732
VII	648727	661139	14	12430
VII	661156	661240	14	84
VII	661250	696359	14	35116
VII	696383	699994	14	3612
VII	700013	702501	14	2490
VII	702513	707189	14	4679
VII	712545	712747	14	202
VII	712747	724958	14	12219
VII	724994	735981	14	11011
VII	736327	746569	14	10248
VII	746592	753290	14	6698
VII	753308	763822	14	10517
VII	763822	766992	14	3170
VII	767016	778930	14	11946
VII	778948	778966	14	18
VII	779117	808380	14	29283
VII	808396	811446	14	3051
VII	823329	828776	14	5448
VII	828776	845874	14	17109
VII	845891	850857	14	4970
VII	850873	855042	14	4171
VII	855058	876159	14	21103
VII	876159	878768	14	2611
VII	878768	878915	14	272
VII	878915	882874	14	4156
VII	883393	910106	14	26716
VII	910129	931169	14	21052
VII	931544	931690	14	146
VII	932027	959773	14	27763
VII	959789	995203	14	35463
VII	995251	1000925	14	5677
VII	1000925	1043760	14	42851
VII	1043784	1068281	14	24543
VII	1068767	1076129	14	7363
VII	1077764	1077837	14	88
VII	1077865	1077877	14	14
VII	1077904	1077942	14	39
VII	1077942	1080290	14	2349
VII	1080724	1081055	14	331
VII	1081062	1081142	14	80
VII	1081148	1081149	14	1
VII	1081149	1081212	14	64
VII	1086058	1086121	14	63
VII	1086121	1086580	14	459
VII	1086580	1086662	14	82
VII	1086726	1087336	14	610
XVI	7410	8034	14	624
XVI	8055	8056	14	1
XVI	8293	9527	14	1236
XVI	17569	22957	14	5413
XVI	22957	46588	14	23647
XVI	46606	56209	14	9623
XVI	56221	56350	14	129
XVI	56414	56445	14	31
XVI	56500	56596	14	96
XVI	56614	56788	14	174
XVI	63068	63962	14	906
XVI	63975	63976	14	1
XVI	63976	64167	14	194
XVI	64187	64347	14	161
XVI	64376	85395	14	21032
XVI	85412	96415	14	11004
XVI	96431	96760	14	329
XVI	96760	126532	14	29812
XVI	126550	135804	14	9259
XVI	135804	144683	14	8882
XVI	144704	162368	14	17668
XVI	162384	167757	14	5380
XVI	167777	174144	14	6368
XVI	174144	185383	14	11241
XVI	185407	192960	14	7557
XVI	192979	211563	14	18586
XVI	211912	239112	14	27218
XVI	239132	252285	14	13163
XVI	252309	377330	14	125046
XVI	377330	393879	14	16566
XVI	393897	436884	14	42995
XVI	443112	453571	14	10462
XVI	453588	453631	14	43
XVI	453639	453816	14	177
XVI	453840	455688	14	1848
XVI	455706	460659	14	4956
XVI	460675	462238	14	1563
XVI	462255	462401	14	146
XVI	462427	502673	14	40280
XVI	502699	503379	14	680
XVI	503398	521072	14	17675
XVI	521090	536686	14	15694
XVI	536728	560221	14	23500
XVI	560233	560469	14	236
XVI	560818	565207	14	4398
XVI	565226	569001	14	3776
XVI	569036	571943	14	2907
XVI	571943	572279	14	336
XVI	572279	581332	14	9070
XVI	581354	591716	14	10411
XVI	591721	606371	14	14656
XVI	606392	607461	14	1069
XVI	607477	619933	14	12472
XVI	619962	622592	14	2634
XVI	622647	630419	14	7775
XVI	630437	650496	14	20111
XVI	650523	655073	14	4556
XVI	655083	700593	14	45540
XVI	700593	728627	14	28034
XVI	728649	731371	14	2722
XVI	731565	753239	14	21675
XVI	753256	769249	14	15994
XVI	769262	769319	14	57
XVI	769665	776928	14	7267
XVI	776944	800314	14	23545
XVI	800332	804645	14	4316
XVI	810454	810535	14	81
XVI	810567	810568	14	1
XVI	810568	830686	14	20158
XVI	830704	830969	14	265
XVI	830987	832885	14	1898
XVI	832909	837806	14	4897
XVI	837828	837966	14	139
XVI	837966	840621	14	2655
XVI	840647	844446	14	3801
XVI	856416	856548	14	132
XVI	856589	856595	14	6
XVI	856718	856760	14	42
XVI	856825	856835	14	10
XVI	856888	880573	14	23692
XVI	880585	912583	14	32011
XVI	912599	929283	14	16695
XVI	929305	929725	14	420
XVI	929741	930085	14	345
XVI	930105	937337	14	7233
XVI	937354	942450	14	5099
XVI	944338	945979	14	1641
XVI	946049	946153	14	104
XVI	946153	946255	14	102
XVI	946386	946465	14	79
XVI	946465	948033	14	1570
XVI	948049	948061	14	12
IV	38	47	14	9
IV	86	87	14	1
IV	18035	20519	14	2507
IV	20543	29106	14	8564
IV	29124	33322	14	4198
IV	33338	44529	14	11195
IV	44529	46353	14	1825
IV	47920	56979	14	9060
IV	56999	73910	14	16914
IV	73929	92676	14	18750
IV	92699	118262	14	25568
IV	118450	126531	14	8081
IV	126552	127635	14	1083
IV	128997	133634	14	4637
IV	133634	135450	14	1816
IV	135466	137790	14	2324
IV	137871	149107	14	11237
IV	149139	169887	14	20753
IV	169901	181915	14	12015
IV	181933	218112	14	36199
IV	218296	220369	14	2073
IV	220517	226821	14	6304
IV	226857	227632	14	778
IV	227632	273623	14	46013
IV	273642	315169	14	41544
IV	315196	323690	14	8497
IV	323714	336208	14	12511
IV	336225	340279	14	4054
IV	340296	343998	14	3708
IV	344020	359609	14	15606
IV	359621	369253	14	9637
IV	369274	383321	14	14051
IV	384437	384441	14	4
IV	384459	384503	14	44
IV	384533	384880	14	350
IV	384985	392140	14	7224
IV	392162	432131	14	39995
IV	432147	434425	14	2285
IV	434902	435922	14	1033
IV	435938	436192	14	254
IV	436208	437168	14	960
IV	437192	437210	14	18
IV	437231	437256	14	25
IV	437273	437327	14	54
IV	437629	441305	14	3697
IV	441323	471851	14	30567
IV	471851	489435	14	17630
IV	489455	492047	14	2592
IV	492059	505227	14	13168
IV	505249	512987	14	7738
IV	519317	519905	14	621
IV	519929	520464	14	535
IV	520810	522981	14	2200
IV	522997	527249	14	4315
IV	535010	538727	14	3725
IV	538753	544674	14	5921
IV	544807	553136	14	8336
IV	553171	587833	14	34683
IV	587857	592539	14	4685
IV	592569	600993	14	8427
IV	601047	607050	14	6015
IV	607066	617270	14	10206
IV	617287	621873	14	4599
IV	621892	630660	14	8771
IV	630677	645227	14	14551
IV	651497	654805	14	3311
IV	654822	668084	14	13262
IV	668442	668506	14	64
IV	668506	678007	14	9505
IV	678039	694521	14	16499
IV	694531	718484	14	23957
IV	718501	757432	14	38973
IV	759694	778802	14	19114
IV	778834	801674	14	22842
IV	801701	802843	14	1148
IV	802865	802969	14	122
IV	802991	803029	14	38
IV	805524	812956	14	7451
IV	812974	840416	14	27462
IV	840438	843509	14	3071
IV	843527	851065	14	7543
IV	851083	864861	14	13797
IV	864877	871785	14	6920
IV	877981	878302	14	321
IV	884225	884348	14	123
IV	884348	884415	14	67
IV	884415	884583	14	168
IV	884583	892692	14	8113
IV	892722	930958	14	38243
IV	930980	945954	14	14975
IV	946300	946338	14	38
IV	946350	955777	14	9428
IV	955794	955980	14	186
IV	955996	957622	14	1627
IV	957638	981161	14	23559
IV	981200	981320	14	121
IV	981338	981492	14	159
IV	991101	991502	14	401
IV	991670	991671	14	1
IV	991671	992337	14	668
IV	992567	992574	14	7
IV	992648	1023136	14	30579
IV	1023482	1038643	14	15163
IV	1038661	1056076	14	17423
IV	1056103	1080938	14	24866
IV	1080975	1088722	14	7748
IV	1088722	1095479	14	6758
IV	1101872	1111974	14	10105
IV	1112004	1151362	14	39378
IV	1151629	1154326	14	2697
IV	1155506	1159718	14	4247
IV	1160496	1160618	14	122
IV	1160827	1162488	14	1670
IV	1162507	1163229	14	744
IV	1163229	1164148	14	919
IV	1164286	1175197	14	10920
IV	1175214	1175315	14	101
IV	1175652	1206699	14	31051
IV	1212622	1217723	14	5103
IV	1217741	1233612	14	15878
IV	1233628	1245761	14	12144
IV	1245761	1307544	14	61807
IV	1308117	1308191	14	143
IV	1308194	1329656	14	21464
IV	1329668	1341633	14	12000
IV	1341655	1346531	14	4878
IV	1346549	1352629	14	6080
IV	1352966	1357469	14	4504
IV	1357500	1385022	14	27524
IV	1385048	1385465	14	419
IV	1385483	1418463	14	33002
IV	1418479	1492667	14	74266
IV	1492683	1504141	14	11497
IV	1504153	1504355	14	202
IV	1504369	1504576	14	207
IV	1504588	1519609	14	15034
IV	1519625	1522312	14	2687
IV	1522328	1523209	14	882
IV	1523797	1523990	14	193
V	4989	6635	14	1859
V	6706	14610	14	7904
V	14633	14718	14	85
V	14734	19538	14	4806
V	21741	21816	14	75
V	21829	21830	14	1
V	23054	31454	14	8400
V	31474	62141	14	30677
V	62415	62467	14	52
V	62487	63765	14	1278
V	63981	81206	14	17230
V	81224	86386	14	5162
V	86402	86483	14	81
V	86504	100567	14	14073
V	100583	122722	14	22141
V	122738	133001	14	10271
V	133017	135547	14	2531
V	135563	135596	14	33
V	135945	138539	14	2595
V	138684	142935	14	4251
V	142956	175671	14	32718
V	175701	187914	14	12223
V	187938	198586	14	10654
V	198602	241861	14	43280
V	241887	243658	14	1772
V	243685	249924	14	6269
V	249979	250025	14	67
V	250270	256297	14	6032
V	256319	261458	14	5150
V	261476	275898	14	14427
V	275912	277765	14	1853
V	277775	277776	14	1
V	277931	284378	14	6447
V	284400	289835	14	5436
V	289835	298051	14	8217
V	298069	306968	14	8906
V	307084	311718	14	4637
V	311735	351601	14	39873
V	351622	354360	14	2738
V	354736	363243	14	8514
V	363243	382308	14	19072
V	382326	397457	14	15133
V	397469	420738	14	23278
V	420792	431496	14	10707
V	431516	431531	14	15
V	431861	434529	14	2670
V	434909	435542	14	633
V	435562	435937	14	375
V	435958	435972	14	14
V	435998	436026	14	33
V	436091	436097	14	7
V	436113	436144	14	31
V	436306	438505	14	2392
V	438535	443378	14	4957
V	443401	443457	14	56
V	449684	449701	14	62
V	449701	462955	14	13277
V	462963	469184	14	6225
V	469206	469563	14	357
V	469579	469601	14	22
V	469618	487603	14	17990
V	487630	487833	14	204
V	488170	490217	14	2048
V	490223	492438	14	2216
V	498515	545187	14	46678
V	545209	553266	14	8058
V	553282	568525	14	15250
V	568547	569566	14	1019
V	569878	569910	14	34
V	569922	569926	14	4
II	8216	9016	14	800
II	9033	9081	14	48
II	9430	9608	14	179
II	9620	29638	14	20030
II	35602	35839	14	237
II	35855	35856	14	1
II	36221	40576	14	4355
II	40596	43098	14	2502
II	43120	59977	14	16859
II	59989	62996	14	3012
II	63013	68276	14	5265
II	68330	88478	14	20149
II	88495	88521	14	26
II	88521	133882	14	45397
II	133900	136461	14	2562
II	136477	137648	14	1171
II	137672	145893	14	8227
II	145910	165896	14	19989
II	165919	169282	14	3366
II	169294	169954	14	660
II	169985	174493	14	4508
II	174511	205742	14	31238
II	205766	221098	14	15334
II	221709	221816	14	116
II	221837	222117	14	280
II	222199	224182	14	1983
II	224221	224414	14	193
II	226888	227097	14	209
II	227109	259578	14	32476
II	265500	266365	14	865
II	266396	274303	14	7910
II	274323	296131	14	21811
II	296146	300037	14	3903
II	300048	300049	14	1
II	300164	333535	14	33398
II	333547	351444	14	17905
II	351475	353608	14	2146
II	353650	372345	14	18699
II	372375	381531	14	9159
II	381561	417265	14	35722
II	417302	417304	14	2
II	417478	428735	14	11257
II	428747	430585	14	1839
II	430597	453714	14	23123
II	453732	455750	14	2052
II	455768	477083	14	21343
II	477105	477670	14	566
II	477670	499531	14	21897
II	499546	499594	14	48
II	499627	504349	14	4722
II	504367	541452	14	37126
II	541485	559756	14	18273
II	559772	561216	14	1445
II	561239	591751	14	30513
II	591751	623057	14	31308
II	623081	643563	14	20483
II	643563	643593	14	30
II	643694	643695	14	1
II	643744	644971	14	1227
II	644971	646085	14	1114
II	646119	660516	14	14404
II	660667	702005	14	41351
II	702033	712777	14	10748
II	712801	746356	14	33556
II	746375	780431	14	34097
II	780449	801929	14	21495
II	801929	801940	14	11
II	801940	802013	14	101
II	802053	802142	14	93
II	802170	802178	14	8
II	802199	802233	14	34
II	802259	802456	14	243
II	802478	802494	14	16
II	802510	802535	14	25
II	802551	802569	14	18
II	802589	802590	14	1
II	802608	803762	14	1157
II	803762	809103	14	5343
I	2046	2220	14	177
I	2237	2498	14	266
I	2558	2650	14	104
I	2688	11806	14	9127
I	11914	11937	14	23
I	11944	12044	14	100
I	12051	12051	14	1
I	12051	12117	14	66
I	12893	12947	14	57
I	12971	13011	14	40
I	13058	13131	14	82
I	13160	13161	14	1
I	26268	26329	14	61
I	26367	26432	14	65
I	26981	27016	14	35
I	27016	27076	14	60
I	27076	27139	14	63
I	27139	31110	14	3992
I	31140	69813	14	38683
I	69833	70901	14	1072
I	70919	71524	14	607
I	71540	77496	14	5956
I	77517	99931	14	22418
I	99957	101275	14	1318
I	101296	110705	14	9409
I	110722	138885	14	28176
I	138917	139398	14	484
I	139414	139764	14	350
I	139764	160238	14	20480
I	166168	176740	14	10573
I	176754	180129	14	3377
I	180145	180421	14	276
I	180433	180434	14	1
I	180434	182544	14	2114
I	182544	182608	14	64
I	182965	183141	14	177
I	183559	183609	14	50
I	183626	183634	14	8
I	183676	184119	14	446
I	184137	186417	14	2280
I	186417	187560	14	1147
I	187596	188862	14	1275
I	189292	189481	14	189
I	189622	189778	14	156
I	189805	197520	14	7716
I	197654	198707	14	1054
I	198707	199085	14	393
I	199109	199498	14	438
I	199648	199698	14	51
I	199737	199844	14	139
I	199877	199887	14	10
I	199911	200200	14	315
I	200263	200276	14	13
I	200325	200868	14	559
I	200897	201019	14	309
I	201043	201163	14	125
I	201190	201725	14	557
I	201741	201751	14	10
I	201767	202534	14	781
I	202550	202890	14	344
I	202906	204329	14	1426
I	206721	206839	14	118
I	207616	207702	14	86
I	207777	207974	14	197
I	207974	208272	14	299
I	208280	209452	14	1178
I	209472	216239	14	6816
I	216279	216377	14	98
I	216394	219379	14	2986
I	219379	223121	14	3745
I	223153	225089	14	1937
I	225121	225388	14	267
I	225406	226904	14	1501
I	226922	227360	14	444
I	227377	227421	14	44
I	227429	228085	14	657
I	228086	229034	14	948
XV	1817	1890	14	73
XV	1973	2021	14	48
XV	2021	2254	14	233
XV	2422	2423	14	1
XV	2893	11060	14	8169
XV	11609	11654	14	45
XV	11654	11725	14	71
XV	11857	13992	14	2137
XV	14010	23641	14	9662
XV	23654	23655	14	1
XV	24235	24298	14	63
XV	24576	24699	14	123
XV	24714	24741	14	27
XV	24753	24895	14	144
XV	24908	24952	14	44
XV	25275	25601	14	326
XV	25677	25678	14	1
XV	25688	25753	14	65
XV	25753	25823	14	70
XV	25823	25902	14	79
XV	26367	43006	14	16777
XV	43062	45686	14	2624
XV	45710	55096	14	9386
XV	55128	60208	14	5080
XV	60227	81632	14	21409
XV	81648	93439	14	11803
XV	93451	94809	14	1359
XV	94826	117689	14	22893
XV	123615	123618	14	3
XV	123635	200333	14	76725
XV	200352	218457	14	18140
XV	218474	227325	14	8855
XV	227343	227931	14	588
XV	227943	228193	14	250
XV	228193	236280	14	8115
XV	236298	238194	14	1902
XV	238215	246436	14	8222
XV	246436	277869	14	31491
XV	277887	296593	14	18710
XV	296609	298828	14	2219
XV	298850	300678	14	1828
XV	300694	301298	14	609
XV	301314	307235	14	5922
XV	307259	316399	14	9144
XV	316424	323101	14	6677
XV	323117	326189	14	3072
XV	326209	326428	14	219
XV	326448	344894	14	18451
XV	344942	344996	14	54
XV	345047	427965	14	83070
XV	427986	430153	14	2168
XV	430178	448664	14	18489
XV	448685	489772	14	41112
XV	489788	491007	14	1219
XV	491023	522805	14	31791
XV	522830	537050	14	14229
XV	537066	571678	14	34679
XV	571678	571859	14	202
XV	571879	575097	14	3219
XV	575097	594636	14	19547
XV	594671	594672	14	1
XV	600672	609376	14	8850
XV	609397	619640	14	10249
XV	619662	657098	14	37450
XV	657106	663938	14	6834
XV	663955	664808	14	919
XV	665146	670760	14	5647
XV	670777	675319	14	4543
XV	675334	682465	14	7139
XV	682487	700706	14	18219
XV	700730	701729	14	999
XV	701751	703772	14	2021
XV	710113	720196	14	10085
XV	720212	815961	14	95774
XV	815979	854264	14	38290
XV	854621	882620	14	28006
XV	882632	888843	14	6211
XV	888861	889742	14	881
XV	889756	907913	14	18171
XV	907937	944466	14	36551
XV	944490	954135	14	9646
XV	954156	959709	14	5555
XV	959709	970285	14	10593
XV	976257	980259	14	4015
XV	980596	981533	14	938
XV	981549	998339	14	16796
XV	998355	1000968	14	2613
XV	1000980	1013019	14	12055
XV	1013037	1031376	14	18362
XV	1031394	1036130	14	4736
XV	1036148	1045533	14	9409
XV	1045609	1053898	14	8292
XV	1053915	1060757	14	6854
XV	1060787	1064853	14	4068
XV	1064853	1065915	14	1063
XV	1065929	1066045	14	116
XV	1066051	1070376	14	4333
XV	1070376	1070901	14	526
XV	1070901	1071022	14	121
XV	1071038	1071489	14	451
XV	1071512	1073306	14	1795
VI	15350	30088	14	14771
VI	30088	57999	14	27914
VI	58021	68942	14	10925
VI	68960	92405	14	23506
VI	92468	92566	14	98
VI	92566	96695	14	4163
VI	96713	104571	14	7864
VI	104591	106875	14	2287
VI	106893	110293	14	3432
VI	110309	111727	14	1419
VI	111744	115145	14	3405
VI	115187	117415	14	2228
VI	117415	137625	14	20211
VI	143440	143498	14	67
VI	143516	143575	14	68
VI	143596	143645	14	50
VI	143659	143689	14	30
VI	143707	143709	14	2
VI	143726	143794	14	68
VI	143875	161945	14	18085
VI	161976	168313	14	6337
VI	168350	169653	14	1303
VI	169673	178134	14	8461
VI	178197	178244	14	47
VI	178307	186218	14	7927
VI	186251	205445	14	19278
VI	205445	210338	14	4959
VI	210400	220600	14	10204
VI	221001	222190	14	1192
VI	222208	227472	14	5273
VI	227490	258729	14	31243
VI	258757	267551	14	8965
VI	267572	267698	14	126
VI	267724	268129	14	469
VI	268149	268193	14	44
VI	268211	268608	14	436
VI	268645	269266	14	626
VI	269786	269825	14	39
IX	20611	22006	14	1399
IX	22029	22038	14	9
IX	22104	22416	14	390
IX	22435	22516	14	99
IX	22574	22591	14	17
IX	22610	22626	14	16
IX	22644	22738	14	162
IX	22754	22879	14	142
IX	22900	22922	14	22
IX	22952	23068	14	116
IX	23135	23171	14	36
IX	23191	23218	14	27
IX	23395	23440	14	48
IX	23497	25418	14	1924
IX	25687	69289	14	43666
IX	69462	102530	14	33071
IX	102547	105761	14	3220
IX	105770	128711	14	22998
IX	128729	138423	14	9715
IX	138442	144111	14	5686
IX	144135	157162	14	13185
IX	157181	169468	14	12290
IX	169489	175140	14	5652
IX	175181	177458	14	2277
IX	177474	183241	14	5768
IX	183256	187816	14	4560
IX	187838	196647	14	8809
IX	197023	205222	14	8203
IX	210655	231666	14	21016
IX	231778	241028	14	9250
IX	241042	241184	14	142
IX	241201	245959	14	4759
IX	245972	246219	14	247
IX	246557	248833	14	2276
IX	248870	254822	14	5955
IX	254843	284743	14	29905
IX	284767	300727	14	15997
IX	300751	300776	14	25
IX	301452	317437	14	15988
IX	317437	339219	14	21814
IX	339241	366543	14	27306
IX	366591	368424	14	1833
IX	368457	370189	14	1732
IX	370207	385635	14	15454
IX	385649	385915	14	266
IX	385940	387137	14	1206
IX	387164	389977	14	2814
IX	390004	390967	14	963
IX	391039	391096	14	57
IX	391096	391106	14	10
IX	391165	391279	14	114
IX	391345	391421	14	76
IX	392677	392934	14	257
IX	392972	428564	14	35619
IX	428597	429158	14	561
IX	429188	430794	14	1610
IX	430794	432834	14	2042
IX	433660	434146	14	486
IX	434254	437603	14	3349
IX	437634	437635	14	1
IX	437714	437715	14	1
IX	437715	438794	14	1079
IX	438794	439013	14	219
IX	439100	439122	14	22
IX	439122	439151	14	29
IX	439151	439202	14	51
IX	439202	439241	14	39
IX	439241	439328	14	87
IX	439392	439432	14	40
XIV	4903	4985	14	82
XIV	6561	6607	14	46
XIV	6625	6626	14	1
XIV	9743	10227	14	484
XIV	10237	10333	14	96
XIV	10333	13139	14	2808
XIV	13150	14761	14	1612
XIV	14990	15014	14	24
XIV	15014	15031	14	17
XIV	15031	15095	14	64
XIV	16783	16819	14	36
XIV	16819	26711	14	9947
XIV	26714	43272	14	16588
XIV	43292	51862	14	8570
XIV	51878	96545	14	44695
XIV	102558	104628	14	2076
XIV	104628	110748	14	6120
XIV	110771	118981	14	8211
XIV	118999	135883	14	16910
XIV	135905	136830	14	925
XIV	136830	139463	14	2660
XIV	139469	144076	14	4608
XIV	144148	196152	14	52008
XIV	196152	196159	14	7
XIV	196171	196307	14	137
XIV	196307	252523	14	56229
XIV	252523	290001	14	37491
XIV	290037	300923	14	10895
XIV	300948	306433	14	5489
XIV	306454	331908	14	25462
XIV	332006	354439	14	22460
XIV	354460	357006	14	2547
XIV	357034	357428	14	394
XIV	357445	359339	14	1895
XIV	359379	359577	14	198
XIV	359594	413442	14	53855
XIV	413465	415041	14	1576
XIV	415091	429222	14	14143
XIV	429246	429770	14	524
XIV	429788	438477	14	8694
XIV	438500	441268	14	2772
XIV	441303	442487	14	1185
XIV	442503	493047	14	50571
XIV	493063	512454	14	19411
XIV	512474	515979	14	3505
XIV	515997	519180	14	3184
XIV	525086	546799	14	21748
XIV	547055	547133	14	78
XIV	547133	547373	14	240
XIV	547383	561449	14	14083
XIV	561449	561449	14	1
XIV	561449	561457	14	8
XIV	561492	561503	14	11
XIV	561525	561667	14	266
XIV	568154	569895	14	1743
XIV	569907	571714	14	1810
XIV	571878	572465	14	588
XIV	572575	576876	14	4302
XIV	576961	577021	14	60
XIV	577048	579942	14	2894
XIV	579960	599590	14	19640
XIV	599590	599723	14	133
XIV	602104	602317	14	213
XIV	602329	605715	14	3418
XIV	605731	622514	14	16805
XIV	622532	627311	14	4779
XIV	627327	632065	14	4787
XIV	632427	652048	14	19640
XIV	652071	662243	14	10196
XIV	662261	667319	14	5061
XIV	667339	668106	14	767
XIV	668122	678597	14	10476
XIV	678613	692514	14	13903
XIV	692530	692954	14	424
XIV	692971	694234	14	1263
XIV	694252	703100	14	8856
XIV	703117	704224	14	1110
XIV	704251	704318	14	67
XIV	704332	704333	14	1
XIV	704538	720270	14	15739
XIV	720297	721910	14	1646
XIV	721922	725337	14	3416
XIV	725354	726255	14	905
XIV	726940	751090	14	24162
XIV	751090	755175	14	4086
XIV	755284	772606	14	17333
XIV	772622	772833	14	211
XIV	774219	774276	14	57
XIV	774553	774977	14	424
XIV	776299	776340	14	43
XIV	776362	781246	14	4887
XIV	781246	781592	14	348
XIV	781605	781606	14	1
XIV	783235	783264	14	29
XI	1615	1706	14	91
XI	1720	1721	14	1
XI	2436	2499	14	63
XI	2849	22034	14	19202
XI	22060	26585	14	4525
XI	26609	42329	14	15750
XI	42347	46692	14	4346
XI	46712	68337	14	21712
XI	68358	74619	14	6265
XI	74682	78827	14	4150
XI	78844	94456	14	15627
XI	94472	136097	14	41628
XI	136119	141983	14	5868
XI	141983	144744	14	2832
XI	144744	144744	14	19
XI	144750	144888	14	138
XI	144889	144889	14	33
XI	144889	145237	14	366
XI	145237	163548	14	18314
XI	163564	164838	14	1274
XI	164862	193255	14	28429
XI	193280	196842	14	3562
XI	196860	202434	14	5585
XI	202457	202643	14	186
XI	202988	220752	14	17775
XI	220818	240676	14	19862
XI	240706	280934	14	40253
XI	280950	308780	14	27856
XI	308797	313590	14	4913
XI	313924	314181	14	258
XI	314530	321759	14	7235
XI	321791	335169	14	13389
XI	335186	337551	14	2365
XI	337569	337583	14	14
XI	337601	364323	14	26757
XI	364341	379507	14	15171
XI	379507	385098	14	5604
XI	385116	405109	14	20000
XI	405126	431302	14	26178
XI	431329	451562	14	20236
XI	451580	457492	14	5914
XI	457519	458134	14	615
XI	458471	458598	14	127
XI	458611	463255	14	4646
XI	463274	466827	14	3599
XI	466827	489980	14	23156
XI	490009	513850	14	23867
XI	513870	514537	14	667
XI	514586	517455	14	2870
XI	517792	518044	14	252
XI	518130	524030	14	5910
XI	524049	525212	14	1163
XI	525230	555046	14	29822
XI	555046	576486	14	21441
XI	576510	578736	14	2226
XI	578736	580891	14	2155
XI	580907	613307	14	32408
XI	613331	613763	14	432
XI	613781	618064	14	4284
XI	618230	643865	14	25648
XI	643888	647404	14	3516
XI	647688	647715	14	27
XI	648037	649936	14	1899
XI	649952	658689	14	8745
XI	658689	661351	14	2688
XI	661403	665327	14	3958
XI	665331	665508	14	193
XI	665538	665611	14	80
XI	665633	665651	14	18
XI	665679	665685	14	6
XI	665716	665721	14	5
XI	666034	666090	14	71
XI	666107	666231	14	141
XI	666247	666271	14	24
X	79	106	14	27
X	7681	7694	14	13
X	7722	7860	14	175
X	10504	10596	14	92
X	14681	16894	14	2218
X	18068	18152	14	84
X	21049	24532	14	3483
X	27051	59069	14	32026
X	59114	74385	14	15273
X	74397	76556	14	2159
X	76572	99486	14	22916
X	99511	134106	14	34611
X	134123	136905	14	2785
X	136921	153522	14	16604
X	153522	177904	14	24399
X	177920	197507	14	19598
X	204108	204197	14	90
X	204336	207446	14	3110
X	207463	245291	14	37841
X	245315	251750	14	6436
X	251770	285360	14	33594
X	285389	317074	14	31859
X	317092	338728	14	21638
X	338751	338752	14	1
X	338948	342342	14	3394
X	342360	354272	14	11914
X	354284	354608	14	325
X	355117	355168	14	51
X	355215	356117	14	902
X	356135	374741	14	18608
X	374781	393830	14	19056
X	393837	400268	14	6477
X	400272	404060	14	3858
X	404078	415974	14	11898
X	415986	424901	14	8916
X	424918	453745	14	28865
X	454057	454264	14	207
X	454264	456060	14	1796
X	456086	457897	14	1811
X	457918	464349	14	6433
X	464365	472457	14	8095
X	483972	519249	14	35281
X	519273	537691	14	18425
X	537691	538097	14	406
X	538434	539484	14	1050
X	539519	541083	14	1564
X	541433	620156	14	78735
X	620172	620335	14	163
X	620351	639192	14	18856
X	639210	639702	14	493
X	639727	639984	14	257
X	640016	658655	14	18651
X	658671	677398	14	18731
X	677414	701740	14	24326
X	701770	702030	14	260
X	702030	711693	14	9665
X	711734	713019	14	1285
X	713141	714232	14	1091
X	714246	714417	14	171
X	714573	715175	14	791
X	715180	727221	14	12050
X	729374	729539	14	165
X	729666	729729	14	63
X	729967	733324	14	3357
X	733458	742898	14	9442
X	743148	743339	14	191
III	11218	12301	14	1084
III	14000	14150	14	153
III	14177	27652	14	13486
III	27669	29473	14	1804
III	29504	30531	14	1029
III	30558	40879	14	10348
III	40886	42000	14	1116
III	42019	44535	14	2518
III	44551	50314	14	5788
III	50330	52430	14	2101
III	52446	82688	14	30253
III	83042	84070	14	1030
III	84094	84270	14	178
III	84300	84355	14	55
III	90712	90914	14	399
III	90927	101870	14	10945
III	101887	124101	14	22225
III	124132	124133	14	1
III	124450	151617	14	27291
III	151778	168427	14	16657
III	168500	168517	14	17
III	168517	168561	14	54
III	168611	168648	14	42
III	168663	168678	14	15
III	168713	168764	14	54
III	168782	168933	14	151
III	169544	177679	14	8136
III	177691	190267	14	12579
III	190283	198670	14	8404
III	198670	199400	14	730
III	199497	200913	14	1416
III	201001	201097	14	96
III	201160	204412	14	3252
III	204430	208080	14	3653
III	208097	247974	14	39973
III	247994	249308	14	1314
III	249344	264216	14	14875
III	264240	268671	14	4431
III	268830	268894	14	64
III	268894	268998	14	104
III	269101	269122	14	21
III	269122	270005	14	883
III	270015	270019	14	4
III	270025	291575	14	21639
III	291611	292566	14	956
III	292582	293031	14	452
III	293128	294378	14	1250
III	294378	294529	14	151
III	294529	295062	14	533
III	295062	296110	14	1155
III	296110	299927	14	3817
III	299954	303164	14	3211
III	303177	303916	14	739
III	306660	306797	14	158
III	306797	306846	14	49
III	306846	307064	14	218
III	308253	310626	14	2378
III	310645	311211	14	568
III	311516	314303	14	2923
III	314316	314606	14	290
III	315403	315473	14	70
III	315473	315515	14	42
III	315526	315527	14	1
III	315527	315577	14	50
III	315577	315977	14	400
III	315989	316154	14	170
III	316169	316511	14	348
III	316542	316556	14	14
III	316567	316580	14	13
III	316584	316584	14	1
XIII	6784	7155	14	373
XIII	7173	13779	14	6616
XIII	13799	21935	14	8137
XIII	21967	26810	14	4850
XIII	26827	44368	14	17544
XIII	44386	65921	14	21561
XIII	65942	86944	14	21007
XIII	87010	99593	14	12606
XIII	99609	122953	14	23386
XIII	122980	146081	14	23114
XIII	146100	158392	14	12292
XIII	158406	159846	14	1441
XIII	159866	164387	14	4522
XIII	164404	165369	14	965
XIII	165385	165394	14	9
XIII	165410	165418	14	8
XIII	165432	167648	14	2217
XIII	167648	168348	14	702
XIII	168686	184169	14	15510
XIII	190088	191984	14	1896
XIII	191994	196225	14	4237
XIII	196242	196331	14	89
XIII	202119	202160	14	55
XIII	202178	206406	14	4228
XIII	206422	238314	14	31896
XIII	238332	238757	14	425
XIII	238778	239347	14	569
XIII	239365	267966	14	28620
XIII	267991	290814	14	22830
XIII	290826	321229	14	30410
XIII	321229	321322	14	93
XIII	321346	342603	14	21263
XIII	342627	357005	14	14388
XIII	362924	367517	14	4593
XIII	367538	372102	14	4565
XIII	372102	372549	14	447
XIII	372573	372690	14	117
XIII	378621	388678	14	10057
XIII	388706	409188	14	20483
XIII	409215	433346	14	24413
XIII	433367	480418	14	47067
XIII	480418	480718	14	300
XIII	481285	503832	14	22548
XIII	504084	504141	14	57
XIII	504141	510075	14	5936
XIII	510087	515567	14	5487
XIII	515570	538609	14	23057
XIII	538639	552258	14	13640
XIII	552279	561871	14	9593
XIII	561895	588615	14	26770
XIII	588617	599553	14	10936
XIII	599553	600624	14	1071
XIII	600812	601763	14	952
XIII	602530	602832	14	302
XIII	603024	608929	14	5930
XIII	608929	608929	14	27
XIII	608929	609157	14	244
XIII	609285	609456	14	171
XIII	609645	609683	14	38
XIII	609701	625414	14	15728
XIII	625445	625703	14	260
XIII	625719	632663	14	6947
XIII	632663	646849	14	14201
XIII	646867	654910	14	8054
XIII	654930	667196	14	12267
XIII	667213	668261	14	1048
XIII	668282	703554	14	35277
XIII	703579	756954	14	53380
XIII	757002	768536	14	11541
XIII	768885	769244	14	359
XIII	769261	772658	14	3399
XIII	772674	800870	14	28210
XIII	800891	807685	14	6795
XIII	807701	808528	14	829
XIII	808903	811630	14	2728
XIII	811660	822584	14	10926
XIII	822615	828317	14	5703
XIII	828341	837948	14	9613
XIII	837960	851707	14	13749
XIII	851724	874553	14	22836
XIII	874570	908200	14	33655
XIII	908200	908210	14	163
XIII	908224	908319	14	95
XIII	908324	908324	14	17
XIII	908324	908373	14	132
XIII	908383	909690	14	1343
XIII	909720	910334	14	685
XIII	910334	917896	14	7740
Mito	4030	4148	14	119
Mito	4189	4305	14	117
Mito	4354	4382	14	28
Mito	4400	4418	14	18
Mito	4441	4528	14	102
Mito	4603	4625	14	22
Mito	4644	4658	14	14
Mito	4682	4742	14	60
Mito	4758	4758	14	1
Mito	4758	4789	14	31
Mito	4805	5054	14	300
Mito	5054	5084	14	30
Mito	5103	5141	14	38
Mito	5188	5204	14	16
Mito	5294	5300	14	6
Mito	5318	5458	14	146
Mito	5471	5472	14	1
Mito	5482	5508	14	45
Mito	5511	5524	14	13
Mito	5890	5924	14	35
Mito	6050	6075	14	27
Mito	6114	6127	14	13
Mito	6192	6193	14	1
Mito	6218	6222	14	4
Mito	6244	6245	14	1
Mito	6245	6284	14	40
Mito	6474	6520	14	61
Mito	6555	6573	14	29
Mito	6822	7013	14	191
Mito	7026	7516	14	506
Mito	8072	8088	14	16
Mito	8105	8183	14	78
Mito	8204	8212	14	12
Mito	8736	8770	14	34
Mito	8783	8792	14	9
Mito	8808	8859	14	62
Mito	9210	9221	14	11
Mito	9243	9260	14	27
Mito	9260	9260	14	1
Mito	9312	9312	14	1
Mito	9376	9436	14	88
Mito	9969	10014	14	60
Mito	10017	10017	14	49
Mito	10027	10049	14	22
Mito	10072	10082	14	10
Mito	10103	10131	14	32
Mito	10436	10449	14	33
Mito	10542	10582	14	80
Mito	10593	10606	14	13
Mito	10618	10626	14	8
Mito	10634	10634	14	1
Mito	10935	10956	14	27
Mito	11023	11088	14	67
Mito	11088	11091	14	3
Mito	11108	11121	14	20
Mito	11809	11827	14	22
Mito	11945	11970	14	26
Mito	11970	12011	14	44
Mito	12031	12052	14	33
Mito	12104	12148	14	64
Mito	12148	12190	14	59
Mito	12190	12230	14	40
Mito	12230	12232	14	2
Mito	12248	12252	14	9
Mito	12252	12260	14	8
Mito	12326	12345	14	19
Mito	12405	12421	14	16
Mito	12433	12454	14	22
Mito	12476	12492	14	16
Mito	12506	12524	14	84
Mito	12524	12524	14	1
Mito	12530	12612	14	83
Mito	12612	12650	14	38
Mito	12650	12701	14	51
Mito	12701	12760	14	59
Mito	12909	13130	14	263
Mito	13250	13254	14	4
Mito	13271	13388	14	127
Mito	13448	13456	14	8
Mito	13476	13515	14	39
Mito	13541	13614	14	73
Mito	13621	13664	14	106
Mito	13693	13793	14	145
Mito	16434	16560	14	126
Mito	16694	16735	14	41
Mito	16745	16746	14	1
Mito	17002	17170	14	168
Mito	17183	17764	14	581
Mito	17777	17968	14	191
Mito	18452	18877	14	425
Mito	18940	18988	14	48
Mito	20504	20558	14	54
Mito	20558	20581	14	23
Mito	20581	20655	14	74
Mito	20655	20706	14	51
Mito	20706	20978	14	274
Mito	22000	22917	14	917
Mito	22930	23128	14	410
Mito	23128	23128	14	456
Mito	23218	23237	14	19
Mito	23258	23263	14	5
Mito	23323	23339	14	18
Mito	23353	23379	14	26
Mito	23396	23406	14	10
Mito	23427	23433	14	6
Mito	23469	23471	14	2
Mito	23491	23494	14	3
Mito	23537	23539	14	2
Mito	24138	24566	14	451
Mito	24571	24603	14	32
Mito	24625	25308	14	722
Mito	25323	26059	14	736
Mito	26076	26715	14	639
Mito	26883	27312	14	436
Mito	27341	27529	14	188
Mito	27545	27897	14	357
Mito	27904	28013	14	109
Mito	28030	28228	14	201
Mito	28241	28243	14	2
Mito	28250	29329	14	1108
Mito	29357	29406	14	49
Mito	29427	29476	14	70
Mito	29542	29582	14	40
Mito	29600	29702	14	116
Mito	29718	29791	14	90
Mito	29811	29833	14	22
Mito	29882	30175	14	375
Mito	30245	30259	14	14
Mito	30281	30382	14	140
Mito	30401	30475	14	81
Mito	30481	30527	14	49
Mito	30544	30571	14	34
Mito	30596	30791	14	240
Mito	30809	30836	14	27
Mito	30852	30858	14	6
Mito	31322	31353	14	39
Mito	31386	31391	14	5
Mito	31408	31455	14	47
Mito	31947	31947	14	7
Mito	31947	32003	14	100
Mito	32031	32036	14	5
Mito	32081	32090	14	9
Mito	32124	32166	14	45
Mito	32167	32174	14	7
Mito	32185	32185	14	1
Mito	32185	32230	14	58
Mito	32361	32429	14	69
Mito	32496	32496	14	15
Mito	32496	32514	14	25
Mito	33456	33488	14	40
Mito	33524	33618	14	113
Mito	33709	33729	14	22
Mito	33949	33975	14	45
Mito	34000	34064	14	70
Mito	34064	34070	14	6
Mito	34094	34116	14	28
Mito	34693	34737	14	52
Mito	34737	34737	14	1
Mito	34892	34915	14	35
Mito	35196	35352	14	161
Mito	35362	35424	14	102
Mito	35424	35492	14	94
Mito	36157	36205	14	60
Mito	37410	37928	14	536
Mito	38136	38208	14	86
Mito	39135	39242	14	158
Mito	39242	39262	14	28
Mito	39281	39297	14	16
Mito	39588	39604	14	16
Mito	39625	39632	14	19
Mito	39679	39702	14	23
Mito	39707	39707	14	49
Mito	39899	40392	14	498
Mito	40405	40437	14	79
Mito	40449	40468	14	22
Mito	41135	41152	14	58
Mito	41199	41569	14	439
Mito	41569	41604	14	35
Mito	41616	41617	14	1
Mito	41617	41631	14	14
Mito	41648	41674	14	37
Mito	41687	41688	14	1
Mito	41709	41728	14	19
Mito	41728	41755	14	32
Mito	41755	41768	14	13
Mito	41785	41824	14	39
Mito	41824	41849	14	31
Mito	41849	41875	14	40
Mito	41875	41905	14	56
Mito	41905	41951	14	56
Mito	41969	41972	14	3
Mito	41972	41984	14	12
Mito	42008	42038	14	37
Mito	42138	42454	14	344
Mito	42488	42534	14	57
Mito	42551	42604	14	58
Mito	42617	42652	14	57
Mito	42680	42711	14	52
Mito	42738	42764	14	36
Mito	42780	42829	14	67
Mito	42852	42994	14	180
Mito	43062	43101	14	52
Mito	43120	43121	14	1
Mito	43236	43520	14	284
Mito	43533	43795	14	268
Mito	43808	43972	14	164
Mito	44024	44099	14	137
Mito	44099	44133	14	36
Mito	44165	44173	14	8
Mito	44188	44193	14	5
Mito	44193	44259	14	79
Mito	44278	44318	14	52
Mito	44451	44738	14	290
Mito	44748	44801	14	57
Mito	44931	45049	14	120
Mito	45090	45148	14	58
Mito	45160	45179	14	25
Mito	45191	45211	14	21
Mito	45223	45241	14	21
Mito	45432	45457	14	27
Mito	45460	45570	14	113
Mito	45582	45589	14	7
Mito	45595	45595	14	34
Mito	45643	45660	14	20
Mito	45673	45677	14	4
Mito	45690	45703	14	13
Mito	45711	45711	14	1
Mito	45823	45832	14	26
Mito	45958	45976	14	18
Mito	46062	46067	14	5
Mito	46098	46117	14	19
Mito	46158	46192	14	36
Mito	46206	46227	14	21
Mito	46240	46247	14	7
Mito	46259	46298	14	39
Mito	46310	46352	14	42
Mito	46365	46368	14	3
Mito	46371	46371	14	1
Mito	47373	47382	14	9
Mito	47392	47436	14	44
Mito	47437	47438	14	15
Mito	47521	47598	14	77
Mito	47610	47622	14	12
Mito	47643	47711	14	68
Mito	47770	47805	14	35
Mito	47817	47831	14	14
Mito	47843	47874	14	32
Mito	47886	47892	14	6
Mito	47904	47915	14	11
Mito	47928	47961	14	33
Mito	47980	47981	14	1
Mito	48025	48087	14	63
Mito	48098	48142	14	45
Mito	48142	48273	14	131
Mito	48286	48331	14	47
Mito	48342	48364	14	23
Mito	48376	48393	14	17
Mito	48406	48422	14	16
Mito	48435	48454	14	19
Mito	48456	48473	14	33
Mito	48487	48488	14	1
Mito	48494	48494	14	1
Mito	48590	48591	14	1
Mito	48634	48655	14	21
Mito	48668	48691	14	23
Mito	48706	48756	14	50
Mito	48760	48760	14	1
Mito	48896	48927	14	31
Mito	48939	48948	14	9
Mito	48961	48971	14	10
Mito	48985	49079	14	95
Mito	49141	49212	14	73
Mito	49226	49253	14	29
Mito	49265	49334	14	71
Mito	49343	49343	14	2
Mito	49948	49997	14	49
Mito	50009	50044	14	35
Mito	50047	50047	14	15
Mito	50047	50050	14	7
Mito	50058	50067	14	13
Mito	50219	50219	14	3
Mito	50247	50277	14	47
Mito	50680	50699	14	19
Mito	50703	50703	14	1
Mito	50703	50707	14	6
Mito	50729	50741	14	12
Mito	50761	50763	14	20
Mito	50855	50856	14	1
Mito	50869	50874	14	5
Mito	50887	50900	14	13
Mito	50902	50904	14	15
Mito	51054	51081	14	27
Mito	51107	51117	14	10
Mito	51130	51166	14	42
Mito	51177	51191	14	14
Mito	51203	51280	14	81
Mito	51294	51311	14	17
Mito	51323	51342	14	19
Mito	51354	51366	14	12
Mito	51378	51380	14	2
Mito	51393	51416	14	35
Mito	51440	51456	14	37
Mito	56612	56629	14	24
Mito	56640	56641	14	1
Mito	56652	56672	14	21
Mito	56701	56720	14	20
Mito	56731	56742	14	15
Mito	56742	56742	14	2
Mito	66722	66784	14	63
Mito	66801	66884	14	94
Mito	66910	66985	14	86
Mito	67009	67019	14	10
Mito	67068	67080	14	12
Mito	67137	67143	14	6
Mito	67168	67216	14	49
Mito	67245	67271	14	26
Mito	67287	67315	14	28
Mito	67337	67392	14	56
Mito	67411	67420	14	9
Mito	67437	67466	14	91
Mito	67472	67474	14	2
Mito	67499	67702	14	223
Mito	67708	67894	14	249
Mito	67914	67917	14	3
Mito	67937	67949	14	12
Mito	67988	68010	14	28
Mito	68057	68089	14	32
Mito	68115	68185	14	73
Mito	68210	68240	14	30
Mito	68284	68406	14	158
Mito	68406	68497	14	130
Mito	68529	68577	14	51
Mito	68620	68623	14	3
Mito	68643	68764	14	141
Mito	68781	68783	14	2
Mito	68803	68953	14	153
Mito	68985	69037	14	54
Mito	69069	69080	14	11
Mito	69098	69123	14	25
Mito	69157	69301	14	145
Mito	69378	69391	14	13
Mito	69421	69432	14	11
Mito	69450	69453	14	3
Mito	69470	69535	14	67
Mito	69560	69571	14	11
Mito	69614	69888	14	371
Mito	82388	82412	14	24
Mito	82653	82719	14	66
Mito	82744	82767	14	23
Mito	82785	82792	14	7
Mito	82887	82941	14	54
Mito	82960	82987	14	27
Mito	83048	83187	14	146
Mito	83203	83210	14	7
Mito	83271	83305	14	34
Mito	83399	83556	14	233
Mito	83576	83646	14	92
Mito	83666	83709	14	43
Mito	83739	83810	14	75
Mito	83832	83891	14	70
Mito	83935	83944	14	15
Mito	83990	83999	14	9
Mito	84023	84028	14	5
Mito	84065	84088	14	23
Mito	84127	84131	14	4
Mito	84142	84164	14	22
Mito	84270	84301	14	31
Mito	84391	84394	14	3
Mito	84409	84410	14	1
Mito	84527	84551	14	24
Mito	84568	84742	14	194
Mito	84768	84870	14	102
Mito	84887	84914	14	27
Mito	84943	84948	14	5
Mito	84968	85117	14	166
Mito	85143	85146	14	3
Mito	85180	85191	14	11
Mito	85213	85250	14	51
Mito	85278	85305	14	28
Mito	85326	85337	14	11
Mito	85355	85403	14	49
