Chr	Start	Stop	BlockSize	BlockLength
VIII	0	36	1	36
VIII	36	51	13	17
VIII	51	3768	1	3717
VIII	3768	4952	8	1194
VIII	4952	5018	1	66
VIII	5018	5049	9	31
VIII	5049	5081	9	43
VIII	5081	5140	7	59
VIII	5140	5225	8	86
VIII	5225	5268	6	43
VIII	5268	5313	11	45
VIII	5313	5558	14	246
VIII	5558	5953	13	495
VIII	5953	6528	14	576
VIII	6528	6615	14	87
VIII	6615	6834	14	219
VIII	6834	7070	13	236
VIII	7070	7190	14	120
VIII	7190	7245	13	55
VIII	7245	7325	14	80
VIII	7325	7372	12	47
VIII	7372	11981	14	4610
VIII	11981	12028	9	47
VIII	12028	12097	11	69
VIII	12097	12142	11	45
VIII	12142	12184	11	42
VIII	12184	12205	10	21
VIII	12205	12228	10	23
VIII	12228	12293	9	65
VIII	12293	12352	2	59
VIII	12352	12430	3	78
VIII	12430	12499	4	70
VIII	12499	12542	13	44
VIII	12542	35860	14	23345
VIII	35860	85524	14	49816
VIII	85524	92127	1	6603
VIII	92127	116412	14	24531
VIII	116412	116749	1	337
VIII	116749	133118	14	16405
VIII	133118	134206	14	1088
VIII	134206	146325	14	12121
VIII	146325	146671	1	346
VIII	146671	192841	14	46240
VIII	192841	194104	14	1265
VIII	194104	212265	14	18163
VIII	212265	214262	1	1997
VIII	214262	229544	14	15285
VIII	229544	237992	14	8449
VIII	237992	389187	14	151384
VIII	389187	389246	9	60
VIII	389246	389447	8	201
VIII	389447	451325	14	61936
VIII	451325	504479	14	53191
VIII	504479	526227	14	21761
VIII	526227	526291	14	64
VIII	526291	526299	13	99
VIII	526299	526372	14	73
VIII	526372	526440	14	68
VIII	526440	526551	13	111
VIII	526551	526575	7	24
VIII	526575	526597	3	22
VIII	526597	526608	5	11
VIII	526608	526624	5	16
VIII	526624	526696	3	72
VIII	526696	526753	2	57
VIII	526753	526828	3	75
VIII	526828	526857	3	29
VIII	526857	526896	3	39
VIII	526896	526921	3	25
VIII	526921	527056	1	135
VIII	527056	527125	12	69
VIII	527125	527162	13	37
VIII	527162	527288	12	126
VIII	527288	527670	14	506
VIII	527670	527704	14	69
VIII	527704	527766	13	63
VIII	527766	527947	13	181
VIII	527947	527991	12	44
VIII	527991	528082	7	91
VIII	528082	528100	4	18
VIII	528100	528163	4	63
VIII	528163	528207	4	44
VIII	528207	528279	3	72
VIII	528279	528305	14	26
VIII	528305	528432	6	127
VIII	528432	528577	1	145
VIII	528577	528705	14	130
VIII	528705	539533	1	10828
VIII	539533	539546	12	18
VIII	539546	539606	8	60
VIII	539606	539680	8	74
VIII	539680	539714	6	34
VIII	539714	543183	1	3469
VIII	543183	543237	2	54
VIII	543237	543353	2	116
VIII	543353	554739	1	11390
VIII	554739	554740	2	50
VIII	554740	555684	1	944
VIII	555684	555745	2	61
VIII	555745	555760	9	15
VIII	555760	555823	13	63
VIII	555823	555961	14	147
VIII	555961	556024	13	63
VIII	556024	556072	11	50
VIII	556072	556159	13	111
VIII	556159	556198	14	39
VIII	556198	556238	14	40
VIII	556238	556282	14	44
VIII	556282	556318	13	36
VIII	556318	556347	14	29
VIII	556347	556383	14	36
VIII	556383	556405	14	23
VIII	556405	556465	14	67
VIII	556465	556504	14	44
VIII	556504	556539	14	38
VIII	556539	556584	14	45
VIII	556584	556655	13	71
VIII	556655	556842	14	201
VIII	556842	556937	14	110
VIII	556937	556966	10	34
VIII	556966	556988	8	22
VIII	556988	557167	7	181
VIII	557167	557285	5	118
VIII	557285	558594	4	1337
VIII	558594	562407	1	3813
VIII	562407	562439	4	32
VIII	562439	562512	3	76
VIII	562512	562542	3	35
VIII	562542	562599	8	67
VIII	562599	562643	1	44
XII	0	5600	1	5600
XII	5600	5711	2	118
XII	5711	5765	7	67
XII	5765	11144	1	5379
XII	11144	11197	10	53
XII	11197	11250	4	57
XII	11250	11290	9	43
XII	11290	11308	9	34
XII	11308	11347	13	49
XII	11347	11495	13	166
XII	11495	11562	13	76
XII	11562	11598	13	42
XII	11598	11642	13	45
XII	11642	11706	13	80
XII	11706	11888	12	294
XII	11888	11920	11	32
XII	11920	11983	12	65
XII	11983	12030	11	47
XII	12030	12069	12	39
XII	12069	12413	11	344
XII	12413	12450	12	38
XII	12450	12505	8	55
XII	12505	12543	8	38
XII	12543	13006	1	464
XII	13006	13079	2	73
XII	13079	13113	8	34
XII	13113	13139	10	26
XII	13139	13184	11	45
XII	13184	13239	10	55
XII	13239	13280	10	41
XII	13280	13334	10	54
XII	13334	13404	8	70
XII	13404	13629	12	225
XII	13629	13693	12	98
XII	13693	47898	14	34660
XII	47898	95818	14	48040
XII	95818	132235	14	36686
XII	132235	132276	14	41
XII	132276	132316	14	40
XII	132316	215073	14	83090
XII	215073	221004	1	5931
XII	221004	373998	14	153103
XII	373998	374343	1	345
XII	374343	448840	14	74521
XII	448840	448899	14	59
XII	448899	451243	14	2347
XII	451243	451381	14	145
XII	451381	451416	14	35
XII	451416	451480	14	64
XII	451480	451487	10	30
XII	451487	451516	10	29
XII	451516	451553	9	37
XII	451553	451584	7	31
XII	451584	451635	12	61
XII	451635	451676	12	41
XII	451676	451714	14	38
XII	451714	451738	14	24
XII	451738	451767	12	29
XII	451767	451791	11	24
XII	451791	451816	12	25
XII	451816	451852	14	36
XII	451852	451916	14	113
XII	451916	451970	14	54
XII	451970	452014	13	44
XII	452014	452040	11	26
XII	452040	452072	12	32
XII	452072	452078	3	138
XII	452078	452106	13	28
XII	452106	452287	12	181
XII	452287	452319	13	32
XII	452319	452367	6	48
XII	452367	459673	1	7306
XII	459673	459689	5	16
XII	459689	459701	12	12
XII	459701	459828	13	127
XII	459828	459845	13	17
XII	459845	459870	10	25
XII	459870	459925	12	55
XII	459925	459947	8	22
XII	459947	460039	14	92
XII	460039	460103	4	64
XII	460103	460127	6	24
XII	460127	460138	11	11
XII	460138	460207	9	69
XII	460207	460251	3	44
XII	460251	460265	14	14
XII	460265	460330	5	65
XII	460330	460421	12	91
XII	460421	460465	10	44
XII	460465	460541	12	76
XII	460541	460568	8	27
XII	460568	460617	8	49
XII	460617	462638	1	2021
XII	462638	462660	10	22
XII	462660	462722	10	62
XII	462722	462740	10	18
XII	462740	462769	9	29
XII	462769	462802	10	33
XII	462802	462864	10	62
XII	462864	462876	11	12
XII	462876	462962	2	86
XII	462962	462990	13	28
XII	462990	463104	11	114
XII	463104	463117	13	13
XII	463117	463145	9	28
XII	463145	463241	9	96
XII	463241	463265	7	24
XII	463265	463288	12	23
XII	463288	463360	13	72
XII	463360	463415	14	55
XII	463415	463474	2	59
XII	463474	463514	9	40
XII	463514	463586	10	72
XII	463586	463649	10	63
XII	463649	463684	10	35
XII	463684	463732	10	48
XII	463732	463786	8	54
XII	463786	463835	8	49
XII	463835	463847	14	12
XII	463847	463899	9	52
XII	463899	463925	8	26
XII	463925	463989	14	64
XII	463989	464016	12	27
XII	464016	464091	2	75
XII	464091	464149	12	58
XII	464149	464188	14	39
XII	464188	464222	8	34
XII	464222	464236	13	14
XII	464236	464249	11	13
XII	464249	464324	12	75
XII	464324	464382	9	58
XII	464382	464453	4	71
XII	464453	464514	14	61
XII	464514	464578	5	64
XII	464578	464614	10	36
XII	464614	464678	10	64
XII	464678	464705	12	27
XII	464705	464727	6	22
XII	464727	464769	5	42
XII	464769	464782	11	13
XII	464782	464846	11	64
XII	464846	464905	9	60
XII	464905	464921	12	16
XII	464921	464988	8	67
XII	464988	465019	6	31
XII	465019	465032	11	13
XII	465032	465048	11	16
XII	465048	465091	14	43
XII	465091	465128	14	37
XII	465128	465175	14	47
XII	465175	465198	14	23
XII	465198	465237	14	39
XII	465237	465262	14	25
XII	465262	465298	14	36
XII	465298	465343	14	45
XII	465343	465408	13	65
XII	465408	465425	10	17
XII	465425	465448	11	23
XII	465448	465485	10	37
XII	465485	465558	11	73
XII	465558	465597	14	39
XII	465597	465635	13	38
XII	465635	465667	11	32
XII	465667	465701	9	34
XII	465701	465786	2	85
XII	465786	465895	13	109
XII	465895	465928	13	33
XII	465928	465966	12	38
XII	465966	466030	14	64
XII	466030	466063	11	33
XII	466063	466086	13	23
XII	466086	466105	13	19
XII	466105	466169	13	64
XII	466169	466202	13	33
XII	466202	466214	10	12
XII	466214	466276	11	62
XII	466276	466293	11	17
XII	466293	466340	12	47
XII	466340	466429	2	89
XII	466429	466490	13	61
XII	466490	466514	14	24
XII	466514	466537	14	23
XII	466537	466570	14	33
XII	466570	466613	14	43
XII	466613	466651	14	38
XII	466651	466662	11	11
XII	466662	466726	11	64
XII	466726	466771	11	45
XII	466771	466805	14	34
XII	466805	466842	14	37
XII	466842	466855	5	13
XII	466855	466867	9	12
XII	466867	466927	13	60
XII	466927	466968	10	41
XII	466968	466990	8	22
XII	466990	467005	12	15
XII	467005	467068	6	63
XII	467068	467132	13	64
XII	467132	467145	11	13
XII	467145	467209	12	64
XII	467209	467236	10	27
XII	467236	467256	10	20
XII	467256	467302	9	46
XII	467302	467340	7	38
XII	467340	467366	11	26
XII	467366	467416	10	50
XII	467416	467453	6	37
XII	467453	467480	14	27
XII	467480	467511	10	31
XII	467511	467540	7	29
XII	467540	467553	8	13
XII	467553	467618	14	65
XII	467618	467646	13	28
XII	467646	467675	14	29
XII	467675	467715	10	40
XII	467715	467729	14	14
XII	467729	467764	9	35
XII	467764	467779	12	15
XII	467779	467801	6	22
XII	467801	467865	13	64
XII	467865	467899	12	34
XII	467899	467934	14	35
XII	467934	468014	13	80
XII	468014	468048	10	34
XII	468048	468062	8	14
XII	468062	468126	5	64
XII	468126	468143	11	17
XII	468143	468170	6	27
XII	468170	468236	7	66
XII	468236	468273	4	37
XII	468273	468304	10	31
XII	468304	468322	8	18
XII	468322	468400	10	78
XII	468400	468480	14	80
XII	468480	468535	5	55
XII	468535	468556	7	21
XII	468556	468574	13	18
XII	468574	468598	14	24
XII	468598	468618	10	20
XII	468618	468691	3	73
XII	468691	468729	11	38
XII	468729	468793	5	64
XII	468793	468902	13	109
XII	468902	479105	1	10203
XII	479105	489308	1	10203
XII	489308	489354	5	46
XII	489354	489374	11	20
XII	489374	489458	9	84
XII	489458	489480	9	22
XII	489480	489821	1	341
XII	489821	489855	10	34
XII	489855	489894	11	39
XII	489894	489938	1	44
XII	489938	489971	11	33
XII	489971	490005	11	34
XII	490005	490026	11	21
XII	490026	490090	11	64
XII	490090	490112	12	22
XII	490112	490128	7	16
XII	490128	490192	12	64
XII	490192	490224	4	61
XII	490224	490287	9	63
XII	490287	490334	11	47
XII	490334	490400	12	66
XII	490400	490448	13	48
XII	490448	490512	14	64
XII	490512	592742	14	102437
XII	592742	592774	10	56
XII	592774	592793	8	72
XII	592793	592831	8	131
XII	592831	592837	8	45
XII	592837	593132	14	408
XII	593132	599055	1	5923
XII	599055	605381	14	6346
XII	605381	605444	13	63
XII	605444	650818	14	45379
XII	650818	656743	1	5925
XII	656743	688475	14	31767
XII	688475	734324	14	45928
XII	734324	941186	14	207058
XII	941186	947150	1	5964
XII	947150	976276	14	29144
XII	976276	976327	14	51
XII	976327	976392	7	66
XII	976392	976561	3	169
XII	976561	981697	1	5136
XII	981697	1003674	14	21978
XII	1003674	1003845	8	198
XII	1003845	1059524	14	55730
XII	1059524	1060318	13	795
XII	1060318	1060480	9	162
XII	1060480	1060513	8	33
XII	1060513	1060572	10	59
XII	1060572	1060704	9	132
XII	1060704	1060768	11	64
XII	1060768	1060867	8	99
XII	1060867	1060990	8	123
XII	1060990	1061164	12	174
XII	1061164	1061224	13	60
XII	1061224	1061267	10	43
XII	1061267	1061328	10	61
XII	1061328	1061369	12	41
XII	1061369	1061457	11	88
XII	1061457	1061485	12	28
XII	1061485	1061523	12	38
XII	1061523	1061586	11	63
XII	1061586	1061633	13	47
XII	1061633	1061695	12	62
XII	1061695	1061741	8	46
XII	1061741	1061776	6	35
XII	1061776	1062053	4	277
XII	1062053	1062079	5	26
XII	1062079	1062172	3	93
XII	1062172	1062248	4	76
XII	1062248	1062295	5	47
XII	1062295	1062337	9	42
XII	1062337	1062382	5	46
XII	1062382	1062413	10	31
XII	1062413	1062463	12	50
XII	1062463	1062487	12	26
XII	1062487	1062531	11	44
XII	1062531	1062638	12	109
XII	1062638	1062667	14	58
XII	1062667	1062713	13	46
XII	1062713	1062805	14	93
XII	1062805	1062881	5	77
XII	1062881	1062966	2	85
XII	1062966	1063019	1	53
XII	1063019	1063020	3	50
XII	1063020	1063349	1	329
XII	1063349	1063422	4	73
XII	1063422	1063722	1	300
XII	1063722	1063790	12	69
XII	1063790	1063858	14	73
XII	1063858	1063902	14	44
XII	1063902	1064070	13	168
XII	1064070	1064167	9	97
XII	1064167	1064238	12	72
XII	1064238	1064282	12	48
XII	1064282	1064489	12	208
XII	1064489	1064554	10	65
XII	1064554	1064664	11	113
XII	1064664	1064724	11	61
XII	1064724	1064750	12	26
XII	1064750	1064933	13	184
XII	1064933	1065068	12	165
XII	1065068	1065087	11	31
XII	1065087	1065116	8	40
XII	1065116	1065150	8	36
XII	1065150	1065220	8	70
XII	1065220	1065447	2	227
XII	1065447	1071644	1	6197
XII	1071644	1071948	3	306
XII	1071948	1073280	6	1342
XII	1073280	1078177	1	4897
VII	0	3	14	3
VII	3	64	14	84
VII	64	112	2	50
VII	112	168	3	58
VII	168	235	7	70
VII	235	334	6	99
VII	334	364	9	30
VII	364	421	8	60
VII	421	460	8	45
VII	460	499	8	39
VII	499	570	9	71
VII	570	616	8	46
VII	616	6285	14	5702
VII	6285	6333	13	48
VII	6333	6391	1	58
VII	6391	6445	11	54
VII	6445	6509	6	64
VII	6509	6907	1	398
VII	6907	6932	8	25
VII	6932	7073	10	142
VII	7073	7100	10	27
VII	7100	7136	10	36
VII	7136	7219	8	86
VII	7219	7279	10	60
VII	7279	7400	11	121
VII	7400	7745	13	345
VII	7745	10386	14	2652
VII	10386	110854	14	100542
VII	110854	111230	1	376
VII	111230	254655	14	143780
VII	254655	319415	14	64780
VII	319415	319760	1	345
VII	319760	364404	14	44712
VII	364404	401958	14	37653
VII	401958	402219	14	365
VII	402219	404410	14	2279
VII	404410	404442	14	32
VII	404442	404521	14	80
VII	404521	404739	14	220
VII	404739	404913	14	174
VII	404913	404963	12	51
VII	404963	404996	13	35
VII	404996	405059	14	63
VII	405059	405228	14	444
VII	405228	405450	14	276
VII	405450	405487	13	37
VII	405487	535219	14	129959
VII	535219	535759	1	540
VII	535759	535798	14	39
VII	535798	535820	14	22
VII	535820	535870	13	50
VII	535870	536034	12	164
VII	536034	536749	14	715
VII	536749	536853	2	104
VII	536853	536900	1	47
VII	536900	538387	14	1487
VII	538387	541356	5	2969
VII	541356	541392	8	36
VII	541392	541426	7	34
VII	541426	541489	8	63
VII	541489	541559	7	70
VII	541559	541624	10	65
VII	541624	541681	14	57
VII	541681	561852	14	20256
VII	561852	567775	1	5923
VII	567775	568241	14	466
VII	568241	568741	14	500
VII	568741	574706	1	5965
VII	574706	648530	14	73855
VII	648530	648560	2	30
VII	648560	648614	3	54
VII	648614	648710	1	96
VII	648710	648724	3	14
VII	648724	707189	14	58731
VII	707189	712545	1	5356
VII	712545	712747	14	202
VII	712747	735981	14	23266
VII	735981	736327	1	346
VII	736327	763822	14	27504
VII	763822	811446	14	47677
VII	811446	822995	1	11549
VII	822995	823043	2	48
VII	823043	823261	3	224
VII	823261	823329	12	68
VII	823329	828776	14	5448
VII	828776	876159	14	47402
VII	876159	878768	14	2611
VII	878768	882874	14	4453
VII	882874	883033	10	159
VII	883033	883123	12	90
VII	883123	883160	12	37
VII	883160	883201	11	41
VII	883201	883250	10	49
VII	883250	883346	4	96
VII	883346	883393	5	47
VII	883393	931169	14	47791
VII	931169	931544	1	375
VII	931544	931690	14	146
VII	931690	931956	1	266
VII	931956	932027	12	71
VII	932027	1000925	14	68967
VII	1000925	1068281	14	67418
VII	1068281	1068422	11	141
VII	1068422	1068525	9	103
VII	1068525	1068767	10	242
VII	1068767	1076129	14	7363
VII	1076129	1077764	1	1635
VII	1077764	1077942	14	196
VII	1077942	1080290	14	2349
VII	1080290	1080358	7	68
VII	1080358	1080404	6	46
VII	1080404	1080503	8	99
VII	1080503	1080568	6	65
VII	1080568	1080607	8	39
VII	1080607	1080717	10	114
VII	1080717	1081055	14	346
VII	1081055	1081149	14	234
VII	1081149	1081212	14	64
VII	1081212	1081378	12	210
VII	1081378	1081811	1	433
VII	1081811	1081893	10	82
VII	1081893	1081937	7	44
VII	1081937	1082000	4	63
VII	1082000	1082064	10	64
VII	1082064	1082132	3	68
VII	1082132	1082804	1	672
VII	1082804	1082878	2	74
VII	1082878	1083129	1	251
VII	1083129	1083172	7	43
VII	1083172	1083215	8	43
VII	1083215	1083261	9	46
VII	1083261	1083577	1	316
VII	1083577	1083642	2	66
VII	1083642	1083725	4	84
VII	1083725	1083796	2	73
VII	1083796	1083842	4	46
VII	1083842	1083882	3	40
VII	1083882	1083948	4	68
VII	1083948	1083984	3	42
VII	1083984	1084173	2	205
VII	1084173	1084340	4	171
VII	1084340	1086058	1	1718
VII	1086058	1086121	14	63
VII	1086121	1086580	14	459
VII	1086580	1086662	14	82
VII	1086662	1086726	13	64
VII	1086726	1087336	14	610
VII	1087336	1090940	1	3604
XVI	0	1558	1	1558
XVI	1558	4894	2	3336
XVI	4894	6466	2	1574
XVI	6466	6524	6	59
XVI	6524	6528	7	68
XVI	6528	6567	8	39
XVI	6567	6587	9	22
XVI	6587	6627	7	40
XVI	6627	6686	5	60
XVI	6686	6825	8	153
XVI	6825	6848	9	23
XVI	6848	6903	8	58
XVI	6903	6942	8	39
XVI	6942	6986	5	45
XVI	6986	7076	7	90
XVI	7076	7111	7	35
XVI	7111	7169	6	60
XVI	7169	7202	4	33
XVI	7202	7213	6	11
XVI	7213	7270	2	57
XVI	7270	7282	7	12
XVI	7282	7326	2	44
XVI	7326	7363	3	37
XVI	7363	7410	4	47
XVI	7410	8056	14	646
XVI	8056	8122	2	66
XVI	8122	8155	2	33
XVI	8155	8211	9	56
XVI	8211	8241	11	30
XVI	8241	8293	10	55
XVI	8293	9527	14	1236
XVI	9527	12982	9	3456
XVI	12982	13186	3	204
XVI	13186	13253	3	67
XVI	13253	16607	2	3416
XVI	16607	17569	6	962
XVI	17569	22957	14	5413
XVI	22957	56788	14	33930
XVI	56788	63068	1	6280
XVI	63068	63976	14	920
XVI	63976	96760	14	32802
XVI	96760	135804	14	39089
XVI	135804	174144	14	38355
XVI	174144	377330	14	203247
XVI	377330	436884	14	59579
XVI	436884	443112	1	6228
XVI	443112	571943	14	129077
XVI	571943	572279	14	336
XVI	572279	622592	14	50415
XVI	622592	622647	7	55
XVI	622647	700593	14	78121
XVI	700593	731371	14	30778
XVI	731371	731565	11	195
XVI	731565	769319	14	37795
XVI	769319	769665	1	346
XVI	769665	804645	14	35162
XVI	804645	810454	1	5809
XVI	810454	810568	14	114
XVI	810568	837966	14	27439
XVI	837966	844446	14	6482
XVI	844446	856416	1	11970
XVI	856416	942450	14	86121
XVI	942450	942584	2	163
XVI	942584	942705	2	121
XVI	942705	942780	4	78
XVI	942780	942809	5	29
XVI	942809	944338	1	1529
XVI	944338	945979	14	1641
XVI	945979	946049	12	70
XVI	946049	946153	14	104
XVI	946153	946255	14	102
XVI	946255	946350	12	95
XVI	946350	946386	13	36
XVI	946386	946465	14	79
XVI	946465	948061	14	1598
XVI	948061	948066	14	5
IV	0	31	3	31
IV	31	87	14	63
IV	87	279	9	194
IV	279	408	3	133
IV	408	495	4	88
IV	495	564	1	69
IV	564	588	4	24
IV	588	756	3	168
IV	756	788	9	32
IV	788	836	7	48
IV	836	915	7	79
IV	915	960	8	46
IV	960	1164	1	204
IV	1164	1454	2	298
IV	1454	1724	2	270
IV	1724	2252	1	528
IV	2252	2297	3	45
IV	2297	16527	1	14230
IV	16527	17909	5	1382
IV	17909	18035	4	126
IV	18035	44529	14	26522
IV	44529	46353	14	1825
IV	46353	47920	13	1567
IV	47920	127635	14	79881
IV	127635	128997	1	1362
IV	128997	133634	14	4637
IV	133634	227632	14	94151
IV	227632	383321	14	155840
IV	383321	383384	12	63
IV	383384	383431	3	47
IV	383431	383483	9	52
IV	383483	383533	9	61
IV	383533	383566	5	35
IV	383566	383575	7	16
IV	383575	383657	6	82
IV	383657	383702	6	45
IV	383702	383725	4	23
IV	383725	383977	13	270
IV	383977	383994	13	22
IV	383994	384046	13	73
IV	384046	384124	13	102
IV	384124	384196	13	72
IV	384196	384309	13	167
IV	384309	384351	13	50
IV	384351	384437	11	199
IV	384437	434425	14	50093
IV	434425	434902	1	477
IV	434902	437327	14	2440
IV	437327	437370	10	43
IV	437370	437410	10	43
IV	437410	437569	9	171
IV	437569	437629	9	67
IV	437629	471851	14	34282
IV	471851	512987	14	41260
IV	512987	519317	1	6330
IV	519317	527249	14	8057
IV	527249	535010	1	7761
IV	535010	645227	14	110311
IV	645227	651497	1	6270
IV	651497	668506	14	17012
IV	668506	757432	14	89009
IV	757432	757474	11	42
IV	757474	757498	9	24
IV	757498	757514	7	16
IV	757514	757625	8	111
IV	757625	757763	12	138
IV	757763	759312	1	1550
IV	759312	759449	10	137
IV	759449	759494	10	45
IV	759494	759557	8	84
IV	759557	759694	6	137
IV	759694	803029	14	43367
IV	803029	805524	1	2495
IV	805524	871785	14	66336
IV	871785	871835	12	50
IV	871835	877799	1	5964
IV	877799	877981	12	183
IV	877981	878302	14	321
IV	878302	884225	1	5923
IV	884225	884348	14	123
IV	884348	884415	14	67
IV	884415	884583	14	168
IV	884583	945954	14	61487
IV	945954	946300	1	346
IV	946300	981492	14	35313
IV	981492	991101	1	9609
IV	991101	991671	14	712
IV	991671	1023136	14	31558
IV	1023136	1023482	1	346
IV	1023482	1088722	14	65282
IV	1088722	1095479	14	6758
IV	1095479	1095657	10	180
IV	1095657	1095765	10	128
IV	1095765	1095835	11	70
IV	1095835	1095899	10	75
IV	1095899	1095922	11	23
IV	1095922	1095972	11	56
IV	1095972	1096043	11	71
IV	1096043	1096104	9	61
IV	1096104	1096215	6	111
IV	1096215	1099386	1	3171
IV	1099386	1101415	3	2029
IV	1101415	1101655	5	240
IV	1101655	1101692	3	37
IV	1101692	1101872	1	180
IV	1101872	1154326	14	52477
IV	1154326	1154366	1	40
IV	1154366	1154396	2	30
IV	1154396	1154693	1	297
IV	1154693	1154711	2	18
IV	1154711	1155130	8	437
IV	1155130	1155226	7	96
IV	1155226	1155376	10	150
IV	1155376	1155435	6	59
IV	1155435	1155506	9	71
IV	1155506	1159718	14	4247
IV	1159718	1159898	13	367
IV	1159898	1160103	7	245
IV	1160103	1160213	9	110
IV	1160213	1160351	7	138
IV	1160351	1160456	5	171
IV	1160456	1160496	11	40
IV	1160496	1160618	14	122
IV	1160618	1160663	12	45
IV	1160663	1160726	12	63
IV	1160726	1160756	12	30
IV	1160756	1160799	13	43
IV	1160799	1160827	13	28
IV	1160827	1163229	14	2433
IV	1163229	1164148	14	919
IV	1164148	1164286	13	138
IV	1164286	1175315	14	11045
IV	1175315	1175652	1	337
IV	1175652	1206699	14	31051
IV	1206699	1212622	1	5923
IV	1212622	1245761	14	33159
IV	1245761	1307544	14	61807
IV	1307544	1308117	1	573
IV	1308117	1352629	14	44757
IV	1352629	1352966	1	337
IV	1352966	1523209	14	170560
IV	1523209	1523296	10	87
IV	1523296	1523349	7	53
IV	1523349	1523391	8	42
IV	1523391	1523413	9	22
IV	1523413	1523448	4	35
IV	1523448	1523488	6	40
IV	1523488	1523797	1	309
IV	1523797	1523990	14	193
IV	1523990	1524031	7	41
IV	1524031	1524062	6	31
IV	1524062	1524189	4	127
IV	1524189	1524268	8	79
IV	1524268	1524335	7	67
IV	1524335	1524413	7	78
IV	1524413	1524477	7	64
IV	1524477	1524833	2	357
IV	1524833	1524864	2	31
IV	1524864	1524898	7	34
IV	1524898	1524939	2	41
IV	1524939	1525007	2	68
IV	1525007	1525062	3	55
IV	1525062	1525161	5	108
IV	1525161	1525328	4	172
IV	1525328	1525411	5	92
IV	1525411	1525422	10	12
IV	1525422	1525443	9	22
IV	1525443	1525458	9	15
IV	1525458	1525909	8	453
IV	1525909	1527175	1	1266
IV	1527175	1527202	13	27
IV	1527202	1527238	12	36
IV	1527238	1527697	1	459
IV	1527697	1527760	2	63
IV	1527760	1531933	1	4173
V	0	1670	1	1670
V	1670	1823	3	153
V	1823	1859	4	36
V	1859	1886	5	27
V	1886	1985	3	99
V	1985	2058	5	73
V	2058	4255	3	2197
V	4255	4316	4	61
V	4316	4401	4	85
V	4401	4844	4	522
V	4844	4989	3	145
V	4989	6635	14	1859
V	6635	6706	13	71
V	6706	19538	14	12834
V	19538	20712	13	1174
V	20712	20858	1	146
V	20858	20921	10	63
V	20921	21548	13	629
V	21548	21605	3	57
V	21605	21641	3	36
V	21641	21695	6	54
V	21695	21741	11	46
V	21741	21830	14	89
V	21830	21887	4	57
V	21887	21950	13	63
V	21950	22020	13	70
V	22020	22079	11	59
V	22079	22146	9	67
V	22146	22208	8	62
V	22208	22248	9	40
V	22248	22721	8	516
V	22721	22764	5	75
V	22764	22880	6	116
V	22880	23054	12	174
V	23054	62141	14	39097
V	62141	62184	11	43
V	62184	62415	12	421
V	62415	63765	14	1350
V	63765	63981	12	216
V	63981	249924	14	186057
V	249924	249979	1	55
V	249979	250025	14	67
V	250025	250076	1	51
V	250076	250078	2	89
V	250078	250117	4	46
V	250117	250148	3	31
V	250148	250270	1	122
V	250270	277776	14	27561
V	277776	277931	8	155
V	277931	289835	14	11905
V	289835	354360	14	64543
V	354360	354736	1	376
V	354736	363243	14	8514
V	363243	431531	14	68439
V	431531	431861	1	330
V	431861	434529	14	2670
V	434529	434852	10	324
V	434852	434909	9	57
V	434909	436026	14	1122
V	436026	436073	13	48
V	436073	436144	14	72
V	436144	436306	13	176
V	436306	438505	14	2392
V	438505	438535	11	70
V	438535	443457	14	5214
V	443457	443523	3	66
V	443523	443582	11	59
V	443582	443599	9	36
V	443599	443673	11	111
V	443673	443733	4	60
V	443733	445301	2	1568
V	445301	449366	1	4065
V	449366	449468	3	102
V	449468	449571	10	104
V	449571	449631	12	60
V	449631	449684	11	88
V	449684	449701	14	62
V	449701	487833	14	38205
V	487833	488170	1	337
V	488170	492438	14	4276
V	492438	498515	1	6077
V	498515	569566	14	71065
V	569566	569878	13	312
V	569878	569926	14	55
V	569926	570046	12	120
V	570046	570131	4	86
V	570131	570141	12	10
V	570141	570164	12	24
V	570164	570198	12	34
V	570198	570239	10	41
V	570239	570258	10	19
V	570258	570329	9	71
V	570329	570384	9	55
V	570384	570502	8	118
V	570502	570565	10	63
V	570565	570619	8	54
V	570619	571910	7	1332
V	571910	576874	1	4964
II	0	5845	1	5845
II	5845	5885	10	41
II	5885	5913	8	86
II	5913	6007	10	97
II	6007	6079	10	74
II	6079	6135	11	56
II	6135	6203	4	86
II	6203	6271	4	68
II	6271	6348	4	77
II	6348	6417	4	69
II	6417	6445	5	28
II	6445	6580	6	137
II	6580	6601	6	21
II	6601	6931	1	330
II	6931	7067	4	136
II	7067	7099	8	32
II	7099	7945	1	846
II	7945	7963	6	18
II	7963	8115	8	152
II	8115	8174	9	60
II	8174	8216	9	42
II	8216	29638	14	21519
II	29638	35602	1	5964
II	35602	35856	14	254
II	35856	35934	11	78
II	35934	36023	11	89
II	36023	36097	12	78
II	36097	36154	13	68
II	36154	36221	12	67
II	36221	88521	14	52388
II	88521	221098	14	132695
II	221098	221297	6	205
II	221297	221359	7	62
II	221359	221370	5	11
II	221370	221481	7	113
II	221481	221709	13	228
II	221709	224414	14	2714
II	224414	226628	1	2214
II	226628	226659	8	31
II	226659	226815	2	162
II	226815	226888	6	73
II	226888	259578	14	32779
II	259578	265500	1	5922
II	265500	266365	14	865
II	266365	300049	14	33809
II	300049	300164	13	115
II	300164	477670	14	177883
II	477670	591751	14	114268
II	591751	643563	14	51815
II	643563	643695	14	132
II	643695	643744	11	49
II	643744	644971	14	1227
II	644971	801929	14	157039
II	801929	801940	14	11
II	801940	803762	14	1903
II	803762	809103	14	5343
II	809103	809155	8	52
II	809155	809364	1	209
II	809364	809497	2	133
II	809497	809796	1	299
II	809796	809906	2	110
II	809906	813184	1	3278
I	0	1	5	1
I	1	32	10	57
I	32	745	1	713
I	745	980	11	273
I	980	1112	1	132
I	1112	1178	2	66
I	1178	1234	1	56
I	1234	1238	3	34
I	1238	1314	3	76
I	1314	1359	3	45
I	1359	1445	4	86
I	1445	1469	5	24
I	1469	1739	1	270
I	1739	1803	5	64
I	1803	1845	3	42
I	1845	2046	4	201
I	2046	2650	14	624
I	2650	2688	13	38
I	2688	11806	14	9127
I	11806	11856	9	50
I	11856	11914	12	58
I	11914	11937	14	23
I	11937	12051	14	297
I	12051	12117	14	66
I	12117	12203	10	87
I	12203	12268	11	65
I	12268	12326	12	58
I	12326	12366	11	119
I	12366	12425	11	59
I	12425	12513	4	88
I	12513	12587	3	74
I	12587	12605	9	18
I	12605	12664	13	61
I	12664	12728	10	64
I	12728	12772	1	44
I	12772	12808	10	36
I	12808	12838	12	30
I	12838	12893	11	55
I	12893	13161	14	292
I	13161	13235	1	74
I	13235	13317	2	82
I	13317	24203	1	10886
I	24203	24261	6	58
I	24261	24324	6	63
I	24324	24348	7	24
I	24348	24409	6	61
I	24409	24635	1	226
I	24635	24654	12	19
I	24654	24910	1	256
I	24910	24975	2	65
I	24975	25098	1	123
I	25098	25273	2	175
I	25273	26052	1	779
I	26052	26076	4	24
I	26076	26150	5	74
I	26150	26268	13	118
I	26268	26329	14	61
I	26329	26367	13	38
I	26367	26432	14	65
I	26432	26666	13	234
I	26666	26690	13	24
I	26690	26726	13	36
I	26726	26762	10	36
I	26762	26836	10	74
I	26836	26889	10	53
I	26889	26941	9	52
I	26941	26981	10	40
I	26981	27016	14	35
I	27016	27076	14	60
I	27076	27139	14	63
I	27139	139764	14	112682
I	139764	160238	14	20480
I	160238	166054	1	5816
I	166054	166070	13	70
I	166070	166102	1	32
I	166102	166125	12	23
I	166125	166168	11	43
I	166168	180434	14	14282
I	180434	182544	14	2114
I	182544	183141	14	598
I	183141	183403	1	262
I	183403	183466	12	63
I	183466	183559	13	93
I	183559	186417	14	2861
I	186417	188862	14	2458
I	188862	188942	7	80
I	188942	189161	3	219
I	189161	189292	1	131
I	189292	189481	14	189
I	189481	189557	10	76
I	189557	189622	9	65
I	189622	198707	14	9087
I	198707	204329	14	5996
I	204329	204361	9	32
I	204361	204427	10	66
I	204427	204545	9	118
I	204545	204581	8	36
I	204581	204637	9	56
I	204637	204689	9	52
I	204689	206721	1	2032
I	206721	206839	14	118
I	206839	207505	1	666
I	207505	207566	5	61
I	207566	207616	4	50
I	207616	207702	14	86
I	207702	207777	10	75
I	207777	207974	14	197
I	207974	219379	14	11472
I	219379	228085	14	8802
I	228085	228086	3	50
I	228086	229034	14	948
I	229034	229095	13	61
I	229095	229110	4	50
I	229110	229173	7	63
I	229173	230197	1	1024
I	230197	230218	4	21
XV	0	12	5	12
XV	12	40	7	28
XV	40	138	8	100
XV	138	202	9	64
XV	202	351	8	156
XV	351	404	10	53
XV	404	433	11	31
XV	433	499	9	66
XV	499	557	10	82
XV	557	616	4	76
XV	616	637	2	21
XV	637	683	6	61
XV	683	753	7	71
XV	753	792	6	41
XV	792	840	6	48
XV	840	879	5	45
XV	879	896	8	17
XV	896	989	2	93
XV	989	1041	12	52
XV	1041	1087	11	46
XV	1087	1161	13	74
XV	1161	1817	13	656
XV	1817	1890	14	73
XV	1890	1910	12	65
XV	1910	1973	10	63
XV	1973	2021	14	48
XV	2021	2423	14	402
XV	2423	2893	13	470
XV	2893	11060	14	8169
XV	11060	11079	8	19
XV	11079	11108	6	29
XV	11108	11183	8	75
XV	11183	11235	9	52
XV	11235	11609	13	379
XV	11609	11654	14	45
XV	11654	11725	14	71
XV	11725	11798	12	73
XV	11798	11821	12	26
XV	11821	11857	13	36
XV	11857	23655	14	11834
XV	23655	23688	2	33
XV	23688	23710	3	22
XV	23710	24046	9	336
XV	24046	24133	10	87
XV	24133	24235	12	102
XV	24235	24298	14	63
XV	24298	24549	12	251
XV	24549	24576	11	28
XV	24576	24952	14	481
XV	24952	25275	13	331
XV	25275	25678	14	409
XV	25678	25753	14	75
XV	25753	25823	14	70
XV	25823	25902	14	79
XV	25902	25932	11	30
XV	25932	26024	12	113
XV	26024	26087	13	63
XV	26087	26174	12	87
XV	26174	26225	6	51
XV	26225	26236	12	11
XV	26236	26367	8	131
XV	26367	117689	14	91569
XV	117689	123615	1	5926
XV	123615	218457	14	94904
XV	218457	218474	12	52
XV	218474	228193	14	9780
XV	228193	246436	14	18278
XV	246436	571678	14	325608
XV	571678	575097	14	3711
XV	575097	594672	14	19583
XV	594672	600379	1	5707
XV	600379	600412	11	33
XV	600412	600464	8	52
XV	600464	600500	3	36
XV	600500	600624	10	127
XV	600624	600672	9	48
XV	600672	664808	14	64377
XV	664808	665146	1	338
XV	665146	703772	14	38683
XV	703772	710113	1	6341
XV	710113	959709	14	249682
XV	959709	970285	14	10593
XV	970285	976257	1	5972
XV	976257	980259	14	4015
XV	980259	980596	1	337
XV	980596	1064853	14	84417
XV	1064853	1070376	14	5541
XV	1070376	1070901	14	526
XV	1070901	1073306	14	2406
XV	1073306	1084456	1	11150
XV	1084456	1084520	3	66
XV	1084520	1091223	1	6705
XV	1091223	1091257	2	34
XV	1091257	1091291	3	34
VI	0	4698	1	4698
VI	4698	4716	7	20
VI	4716	4730	9	19
VI	4730	4787	10	57
VI	4787	4830	1	43
VI	4830	4894	9	64
VI	4894	5587	1	693
VI	5587	5657	7	70
VI	5657	5803	2	146
VI	5803	5895	1	92
VI	5895	6024	3	130
VI	6024	6371	2	347
VI	6371	13252	1	6881
VI	13252	14029	5	777
VI	14029	14648	6	619
VI	14648	14706	11	58
VI	14706	14769	13	63
VI	14769	14798	13	29
VI	14798	14981	12	184
VI	14981	15350	13	369
VI	15350	30088	14	14771
VI	30088	92405	14	62385
VI	92405	92468	11	237
VI	92468	92566	14	98
VI	92566	117415	14	24929
VI	117415	137625	14	20211
VI	137625	143440	1	5815
VI	143440	178134	14	34810
VI	178134	178197	11	63
VI	178197	178244	14	47
VI	178244	178307	13	63
VI	178307	205445	14	27238
VI	205445	220600	14	15225
VI	220600	221001	13	401
VI	221001	269266	14	48560
VI	269266	269786	1	520
VI	269786	269825	14	39
VI	269825	269865	8	41
VI	269865	269945	7	80
VI	269945	269985	8	41
VI	269985	270022	7	37
VI	270022	270057	8	42
VI	270057	270161	3	104
IX	0	13	4	13
IX	13	128	2	131
IX	128	10369	1	10241
IX	10369	20611	1	10242
IX	20611	196647	14	176785
IX	196647	197023	1	376
IX	197023	205222	14	8203
IX	205222	210655	1	5433
IX	210655	246219	14	35571
IX	246219	246557	1	338
IX	246557	248833	14	2276
IX	248833	248870	12	37
IX	248870	300776	14	51951
IX	300776	301452	1	676
IX	301452	317437	14	15988
IX	317437	391096	14	73735
IX	391096	391421	14	325
IX	391421	391453	13	32
IX	391453	391495	12	42
IX	391495	391511	10	16
IX	391511	391543	7	32
IX	391543	391633	4	90
IX	391633	391674	3	41
IX	391674	391701	4	27
IX	391701	391782	3	81
IX	391782	391917	3	135
IX	391917	392002	3	85
IX	392002	392043	4	41
IX	392043	392097	6	54
IX	392097	392128	10	31
IX	392128	392142	11	14
IX	392142	392173	8	31
IX	392173	392206	9	42
IX	392206	392254	7	48
IX	392254	392321	10	67
IX	392321	392325	3	45
IX	392325	392367	3	42
IX	392367	392464	6	97
IX	392464	392476	10	12
IX	392476	392524	1	48
IX	392524	392569	8	45
IX	392569	392600	3	31
IX	392600	392633	12	33
IX	392633	392677	11	44
IX	392677	430794	14	38154
IX	430794	432834	14	2042
IX	432834	433116	11	282
IX	433116	433179	13	63
IX	433179	433378	11	199
IX	433378	433457	10	79
IX	433457	433527	11	75
IX	433527	433549	12	28
IX	433549	433619	11	71
IX	433619	433660	11	41
IX	433660	434146	14	486
IX	434146	434254	13	108
IX	434254	437635	14	3381
IX	437635	437715	14	80
IX	437715	438794	14	1079
IX	438794	439013	14	219
IX	439013	439100	13	87
IX	439100	439122	14	22
IX	439122	439151	14	29
IX	439151	439202	14	51
IX	439202	439241	14	39
IX	439241	439328	14	87
IX	439328	439380	13	53
IX	439380	439432	14	52
IX	439432	439517	13	89
IX	439517	439722	13	208
IX	439722	439828	13	126
IX	439828	439844	13	25
IX	439844	439879	13	42
IX	439879	439888	13	9
XIV	0	1595	1	1595
XIV	1595	1649	4	54
XIV	1649	4318	1	2669
XIV	4318	4840	4	522
XIV	4840	4903	1	63
XIV	4903	4985	14	82
XIV	4985	5048	10	63
XIV	5048	6561	11	1515
XIV	6561	6626	14	65
XIV	6626	6671	10	50
XIV	6671	6824	10	164
XIV	6824	7013	9	308
XIV	7013	7045	9	32
XIV	7045	7128	9	86
XIV	7128	7236	9	108
XIV	7236	7373	8	137
XIV	7373	7421	7	48
XIV	7421	7459	9	38
XIV	7459	7484	10	26
XIV	7484	7554	7	70
XIV	7554	7588	4	34
XIV	7588	8230	3	647
XIV	8230	8727	2	497
XIV	8727	8806	3	79
XIV	8806	8877	2	71
XIV	8877	8936	9	59
XIV	8936	8966	6	30
XIV	8966	8994	11	28
XIV	8994	9120	10	126
XIV	9120	9192	11	72
XIV	9192	9276	12	189
XIV	9276	9312	11	36
XIV	9312	9430	11	118
XIV	9430	9465	12	35
XIV	9465	9502	12	37
XIV	9502	9534	9	32
XIV	9534	9680	10	146
XIV	9680	9743	9	63
XIV	9743	10227	14	484
XIV	10227	10333	14	106
XIV	10333	14761	14	4439
XIV	14761	14824	12	63
XIV	14824	14857	2	33
XIV	14857	14887	7	30
XIV	14887	14990	11	103
XIV	14990	15014	14	24
XIV	15014	15031	14	17
XIV	15031	15095	14	64
XIV	15095	15155	1	60
XIV	15155	15932	13	777
XIV	15932	16783	13	929
XIV	16783	16819	14	36
XIV	16819	96545	14	79923
XIV	96545	96571	9	26
XIV	96571	96593	9	22
XIV	96593	96614	8	21
XIV	96614	102558	1	5944
XIV	102558	104628	14	2076
XIV	104628	136830	14	32229
XIV	136830	139463	14	2660
XIV	139463	196152	14	56778
XIV	196152	196307	14	162
XIV	196307	252523	14	56229
XIV	252523	331908	14	79560
XIV	331908	332006	13	98
XIV	332006	519180	14	187292
XIV	519180	525086	1	5906
XIV	525086	546799	14	21748
XIV	546799	546866	10	67
XIV	546866	546928	10	63
XIV	546928	547015	10	87
XIV	547015	547055	13	40
XIV	547055	547133	14	78
XIV	547133	561449	14	14359
XIV	561449	561503	14	81
XIV	561503	561514	8	24
XIV	561514	561525	9	86
XIV	561525	561667	14	266
XIV	561667	561736	10	69
XIV	561736	561775	9	39
XIV	561775	561878	9	103
XIV	561878	561907	11	29
XIV	561907	561977	13	70
XIV	561977	562035	13	78
XIV	562035	568000	1	5965
XIV	568000	568154	13	154
XIV	568154	571714	14	3641
XIV	571714	571878	13	164
XIV	571878	572465	14	588
XIV	572465	572575	2	110
XIV	572575	599590	14	27026
XIV	599590	599723	14	133
XIV	599723	600536	13	813
XIV	600536	602104	13	1570
XIV	602104	632065	14	30141
XIV	632065	632110	5	89
XIV	632110	632118	7	59
XIV	632118	632163	6	45
XIV	632163	632286	6	131
XIV	632286	632427	11	141
XIV	632427	704333	14	72361
XIV	704333	704486	13	219
XIV	704486	726255	14	21880
XIV	726255	726940	1	685
XIV	726940	751090	14	24162
XIV	751090	755175	14	4086
XIV	755175	755284	12	111
XIV	755284	772833	14	17560
XIV	772833	772980	8	147
XIV	772980	773007	9	27
XIV	773007	773057	2	50
XIV	773057	773091	8	34
XIV	773091	773135	7	44
XIV	773135	773205	3	70
XIV	773205	773274	5	69
XIV	773274	773624	2	350
XIV	773624	773666	4	42
XIV	773666	773745	3	79
XIV	773745	773804	3	59
XIV	773804	773867	4	63
XIV	773867	773909	2	42
XIV	773909	773930	2	21
XIV	773930	774000	10	70
XIV	774000	774083	4	83
XIV	774083	774155	10	72
XIV	774155	774219	2	64
XIV	774219	774276	14	57
XIV	774276	774553	13	277
XIV	774553	774977	14	424
XIV	774977	775112	6	135
XIV	775112	775176	7	64
XIV	775176	776299	13	1123
XIV	776299	781246	14	4952
XIV	781246	781606	14	362
XIV	781606	781648	5	42
XIV	781648	781722	11	74
XIV	781722	781901	4	179
XIV	781901	781922	5	21
XIV	781922	781965	6	43
XIV	781965	782016	2	51
XIV	782016	782096	2	80
XIV	782096	782117	9	21
XIV	782117	782180	9	63
XIV	782180	782223	9	43
XIV	782223	782401	7	185
XIV	782401	782470	10	69
XIV	782470	782513	9	43
XIV	782513	782579	10	66
XIV	782579	782612	10	51
XIV	782612	782666	4	54
XIV	782666	782748	6	83
XIV	782748	782770	2	22
XIV	782770	782801	10	65
XIV	782801	782857	11	56
XIV	782857	782882	9	25
XIV	782882	782982	11	102
XIV	782982	783040	12	59
XIV	783040	783137	11	97
XIV	783137	783235	13	98
XIV	783235	783264	14	29
XIV	783264	783332	13	68
XIV	783332	783441	12	111
XIV	783441	783531	12	90
XIV	783531	783657	10	127
XIV	783657	783845	11	191
XIV	783845	783943	10	105
XIV	783943	784106	11	171
XIV	784106	784128	8	22
XIV	784128	784175	9	48
XIV	784175	784222	11	52
XIV	784222	784238	6	57
XIV	784238	784333	6	114
XI	0	18	9	22
XI	18	38	8	24
XI	38	164	8	140
XI	164	248	8	150
XI	248	276	9	28
XI	276	329	8	53
XI	329	373	9	44
XI	373	412	3	39
XI	412	473	9	64
XI	473	526	1	53
XI	526	617	6	92
XI	617	673	7	56
XI	673	717	7	44
XI	717	759	6	42
XI	759	870	6	112
XI	870	908	11	149
XI	908	932	12	25
XI	932	1007	2	75
XI	1007	1092	12	86
XI	1092	1132	12	40
XI	1132	1305	1	173
XI	1305	1351	4	46
XI	1351	1452	3	101
XI	1452	1615	3	164
XI	1615	1721	14	106
XI	1721	1848	2	127
XI	1848	1870	3	22
XI	1870	1915	1	45
XI	1915	1977	2	62
XI	1977	2029	11	52
XI	2029	2167	1	138
XI	2167	2212	10	45
XI	2212	2278	10	66
XI	2278	2306	12	28
XI	2306	2386	11	81
XI	2386	2436	11	50
XI	2436	2499	14	63
XI	2499	2849	1	354
XI	2849	74619	14	71909
XI	74619	74682	13	63
XI	74682	141983	14	67328
XI	141983	145237	14	3891
XI	145237	202643	14	57456
XI	202643	202988	1	345
XI	202988	379507	14	176763
XI	379507	458134	14	78654
XI	458134	458471	1	337
XI	458471	466827	14	8450
XI	466827	517455	14	50658
XI	517455	517512	1	57
XI	517512	517567	9	55
XI	517567	517601	1	34
XI	517601	517629	2	30
XI	517629	517691	1	63
XI	517691	517724	5	33
XI	517724	517792	1	68
XI	517792	555046	14	37310
XI	555046	578736	14	23691
XI	578736	647404	14	68690
XI	647404	647465	10	61
XI	647465	647497	9	32
XI	647497	647544	12	47
XI	647544	647688	13	255
XI	647688	647715	14	27
XI	647715	647848	13	133
XI	647848	648037	12	312
XI	648037	658689	14	10660
XI	658689	661351	14	2688
XI	661351	661403	7	52
XI	661403	665721	14	4630
XI	665721	665973	2	310
XI	665973	666034	11	169
XI	666034	666271	14	269
XI	666271	666678	2	445
XI	666678	666699	6	21
XI	666699	666816	1	117
X	0	2	4	2
X	2	33	3	34
X	33	79	2	46
X	79	106	14	27
X	106	1780	1	1674
X	1780	1797	4	50
X	1797	1816	10	19
X	1816	5275	1	3459
X	5275	6806	2	1531
X	6806	7224	1	418
X	7224	7320	4	96
X	7320	7486	3	177
X	7486	7513	4	27
X	7513	7554	2	41
X	7554	7575	4	21
X	7575	7619	2	44
X	7619	7681	9	62
X	7681	7860	14	395
X	7860	7890	9	66
X	7890	7970	4	80
X	7970	8021	8	51
X	8021	8216	12	195
X	8216	8263	11	47
X	8263	8280	4	22
X	8280	8376	6	118
X	8376	10333	1	1957
X	10333	10504	11	186
X	10504	10596	14	92
X	10596	10659	11	63
X	10659	13570	9	2913
X	13570	13633	10	63
X	13633	13647	2	14
X	13647	13810	7	163
X	13810	13937	4	127
X	13937	14681	7	744
X	14681	16894	14	2218
X	16894	18068	1	1174
X	18068	18152	14	84
X	18152	18351	6	199
X	18351	20591	1	2240
X	20591	21049	11	458
X	21049	24532	14	3483
X	24532	27051	13	2640
X	27051	153522	14	126620
X	153522	197507	14	44013
X	197507	204108	1	6601
X	204108	204197	14	90
X	204197	204336	13	145
X	204336	338752	14	134610
X	338752	338920	4	168
X	338920	338948	11	28
X	338948	354608	14	15740
X	354608	354729	8	121
X	354729	355034	1	305
X	355034	355117	6	84
X	355117	453745	14	98882
X	453745	453968	10	223
X	453968	453994	5	26
X	453994	454057	12	63
X	454057	454264	14	207
X	454264	472457	14	18198
X	472457	483972	1	11515
X	483972	537691	14	53730
X	537691	538097	14	406
X	538097	538434	1	337
X	538434	702030	14	163640
X	702030	727221	14	25446
X	727221	727307	10	86
X	727307	727924	11	617
X	727924	728121	12	197
X	728121	728495	11	434
X	728495	729272	10	777
X	729272	729374	1	102
X	729374	729539	14	165
X	729539	729603	13	64
X	729603	729666	11	63
X	729666	729729	14	63
X	729729	729967	12	239
X	729967	733324	14	3357
X	733324	733458	13	134
X	733458	742898	14	9442
X	742898	742944	13	46
X	742944	743016	9	73
X	743016	743052	8	36
X	743052	743085	13	42
X	743085	743148	13	63
X	743148	743339	14	191
X	743339	743423	11	84
X	743423	743486	9	63
X	743486	743531	10	45
X	743531	743564	11	33
X	743564	743719	11	155
X	743719	743769	9	50
X	743769	743821	9	58
X	743821	743871	12	50
X	743871	743975	11	104
X	743975	744038	10	63
X	744038	744069	3	31
X	744069	744109	4	40
X	744109	744218	6	109
X	744218	744288	5	71
X	744288	744723	4	443
X	744723	744801	11	78
X	744801	744845	11	44
X	744845	744908	6	64
X	744908	744961	7	53
X	744961	744985	10	25
X	744985	745017	8	32
X	745017	745064	3	49
X	745064	745114	3	50
X	745114	745182	4	68
X	745182	745201	4	21
X	745201	745226	5	30
X	745226	745279	4	54
X	745279	745313	5	37
X	745313	745344	5	31
X	745344	745377	1	33
X	745377	745458	3	91
X	745458	745509	7	52
X	745509	745584	4	77
X	745584	745687	3	107
X	745687	745751	2	85
III	0	228	1	228
III	228	291	4	63
III	291	324	6	42
III	324	545	8	259
III	545	682	7	153
III	682	744	8	73
III	744	887	7	152
III	887	901	5	14
III	901	933	7	32
III	933	1004	8	73
III	1004	1045	8	42
III	1045	1155	8	111
III	1155	1177	6	61
III	1177	1399	6	314
III	1399	9219	1	7820
III	9219	11108	2	1889
III	11108	11218	1	110
III	11218	12301	14	1084
III	12301	13753	1	1452
III	13753	13807	8	54
III	13807	13841	6	34
III	13841	13937	5	96
III	13937	14000	13	63
III	14000	84355	14	70566
III	84355	84449	11	94
III	84449	84491	11	42
III	84491	84564	11	74
III	84564	84627	11	63
III	84627	88481	1	3854
III	88481	88869	6	388
III	88869	90445	8	1576
III	90445	90482	10	37
III	90482	90612	11	131
III	90612	90712	10	101
III	90712	124133	14	33679
III	124133	124170	7	37
III	124170	124193	8	23
III	124193	124259	4	66
III	124259	124450	1	191
III	124450	151617	14	27291
III	151617	151647	2	30
III	151647	151723	12	76
III	151723	151778	2	55
III	151778	168427	14	16657
III	168427	168500	1	73
III	168500	168517	14	17
III	168517	168561	14	54
III	168561	168611	13	57
III	168611	168678	14	72
III	168678	168713	9	35
III	168713	168933	14	223
III	168933	169544	1	611
III	169544	198670	14	29231
III	198670	199400	14	730
III	199400	199497	13	97
III	199497	200913	14	1416
III	200913	201001	7	88
III	201001	201097	14	96
III	201097	201160	13	63
III	201160	268671	14	67613
III	268671	268695	3	24
III	268695	268716	4	21
III	268716	268774	10	58
III	268774	268795	8	21
III	268795	268830	13	35
III	268830	268894	14	64
III	268894	268998	14	104
III	268998	269022	9	24
III	269022	269101	13	79
III	269101	269122	14	21
III	269122	293031	14	24224
III	293031	293128	13	97
III	293128	294378	14	1250
III	294378	294529	14	151
III	294529	295062	14	533
III	295062	296110	14	1155
III	296110	303916	14	7848
III	303916	304180	5	279
III	304180	304349	5	169
III	304349	304890	4	541
III	304890	305932	1	1042
III	305932	305973	2	41
III	305973	306064	5	91
III	306064	306127	9	63
III	306127	306157	13	30
III	306157	306218	12	61
III	306218	306239	4	21
III	306239	306282	5	43
III	306282	306660	8	378
III	306660	306797	14	158
III	306797	306846	14	49
III	306846	307064	14	218
III	307064	307507	1	443
III	307507	307519	7	30
III	307519	307544	3	25
III	307544	307594	5	50
III	307594	307686	1	92
III	307686	307708	9	22
III	307708	307719	2	11
III	307719	307761	9	42
III	307761	307814	6	53
III	307814	307962	7	163
III	307962	308067	10	105
III	308067	308126	13	59
III	308126	308172	12	46
III	308172	308253	13	81
III	308253	311211	14	2965
III	311211	311272	1	61
III	311272	311329	7	60
III	311329	311357	2	28
III	311357	311379	7	50
III	311379	311516	1	137
III	311516	314606	14	3264
III	314606	314667	4	61
III	314667	314697	2	30
III	314697	314737	4	40
III	314737	314810	4	73
III	314810	314929	4	119
III	314929	315403	13	474
III	315403	315473	14	70
III	315473	315527	14	54
III	315527	315577	14	50
III	315577	316584	14	1122
III	316584	316620	7	36
XIII	0	3911	1	3911
XIII	3911	5495	3	1597
XIII	5495	5554	4	81
XIII	5554	5579	3	43
XIII	5579	5808	4	287
XIII	5808	5919	4	111
XIII	5919	6030	3	115
XIII	6030	6152	2	128
XIII	6152	6181	3	29
XIII	6181	6312	2	133
XIII	6312	6400	7	263
XIII	6400	6445	5	45
XIII	6445	6545	6	103
XIII	6545	6721	4	176
XIII	6721	6774	3	53
XIII	6774	6795	14	23
XIII	6795	6846	13	51
XIII	6846	167648	14	160938
XIII	167648	168348	14	702
XIII	168348	168686	1	338
XIII	168686	184169	14	15510
XIII	184169	190088	1	5919
XIII	190088	196331	14	6256
XIII	196331	202119	1	5788
XIII	202119	321229	14	119250
XIII	321229	357005	14	35792
XIII	357005	362924	1	5919
XIII	362924	372102	14	9179
XIII	372102	372690	14	588
XIII	372690	372714	12	24
XIII	372714	372756	6	45
XIII	372756	372835	4	79
XIII	372835	372863	5	34
XIII	372863	372991	5	128
XIII	372991	375002	3	2011
XIII	375002	378621	1	3619
XIII	378621	480418	14	102096
XIII	480418	480718	14	300
XIII	480718	481285	1	567
XIII	481285	503832	14	22548
XIII	503832	503888	12	56
XIII	503888	504015	11	127
XIII	504015	504071	11	56
XIII	504071	504141	14	70
XIII	504141	599553	14	95698
XIII	599553	601763	14	2211
XIII	601763	602530	12	767
XIII	602530	609456	14	7157
XIII	609456	609519	13	63
XIII	609519	609629	9	137
XIII	609629	609645	2	50
XIII	609645	632663	14	23040
XIII	632663	808528	14	175934
XIII	808528	808903	1	375
XIII	808903	908200	14	99425
XIII	908200	917896	14	10910
XIII	917896	917989	9	93
XIII	917989	918139	11	151
XIII	918139	923525	1	5390
XIII	923525	923594	6	75
XIII	923594	923631	4	37
XIII	923631	923675	4	47
XIII	923675	923751	2	76
XIII	923751	923852	3	165
XIII	923852	923877	4	26
XIII	923877	923955	3	78
XIII	923955	923967	9	20
XIII	923967	924002	8	36
XIII	924002	924296	9	321
XIII	924296	924324	10	43
XIII	924324	924370	8	53
XIII	924370	924424	8	54
XIII	924424	924431	2	7
Mito	0	33	2	33
Mito	33	86	1	53
Mito	86	141	3	66
Mito	141	362	5	234
Mito	362	767	1	407
Mito	767	873	2	106
Mito	873	2196	1	1502
Mito	2196	2319	3	182
Mito	2319	2813	1	494
Mito	2813	2945	3	179
Mito	2945	3339	1	394
Mito	3339	3842	2	556
Mito	3842	3915	3	73
Mito	3915	4010	1	95
Mito	4010	4758	14	926
Mito	4758	5472	14	889
Mito	5472	5508	14	55
Mito	5508	5511	2	50
Mito	5511	5524	14	13
Mito	5524	5867	13	356
Mito	5867	5924	14	58
Mito	5924	6050	13	126
Mito	6050	6245	14	227
Mito	6245	6284	14	40
Mito	6284	6474	13	207
Mito	6474	6573	14	125
Mito	6573	6777	13	423
Mito	6777	7516	14	803
Mito	7516	7812	1	296
Mito	7812	8072	13	266
Mito	8072	8212	14	144
Mito	8212	8736	13	540
Mito	8736	8859	14	194
Mito	8859	9210	13	382
Mito	9210	9260	14	74
Mito	9260	9312	14	82
Mito	9312	9376	13	147
Mito	9376	9436	14	88
Mito	9436	9605	13	186
Mito	9605	9715	13	180
Mito	9715	9962	13	274
Mito	9962	10131	14	265
Mito	10131	10210	13	198
Mito	10210	10284	12	176
Mito	10284	10436	13	220
Mito	10436	10449	14	33
Mito	10449	10542	13	168
Mito	10542	10634	14	168
Mito	10634	10935	13	354
Mito	10935	10956	14	27
Mito	10956	11023	13	67
Mito	11023	11088	14	67
Mito	11088	11121	14	40
Mito	11121	11809	13	932
Mito	11809	11827	14	22
Mito	11827	11945	13	189
Mito	11945	11970	14	26
Mito	11970	12052	14	97
Mito	12052	12104	13	67
Mito	12104	12148	14	64
Mito	12148	12190	14	59
Mito	12190	12230	14	40
Mito	12230	12252	14	27
Mito	12252	12524	14	604
Mito	12524	12612	14	190
Mito	12612	12650	14	38
Mito	12650	12701	14	51
Mito	12701	12760	14	59
Mito	12760	12829	13	114
Mito	12829	12909	13	98
Mito	12909	13130	14	263
Mito	13130	13250	13	221
Mito	13250	13793	14	725
Mito	13793	13866	3	73
Mito	13866	13986	3	120
Mito	13986	16434	1	2448
Mito	16434	16560	14	126
Mito	16560	16633	2	73
Mito	16633	16694	2	61
Mito	16694	16746	14	52
Mito	16746	16810	2	64
Mito	16810	16875	2	65
Mito	16875	16939	2	64
Mito	16939	17002	2	63
Mito	17002	17968	14	1006
Mito	17968	18064	2	96
Mito	18064	18088	2	24
Mito	18088	18152	2	64
Mito	18152	18213	2	61
Mito	18213	18277	2	64
Mito	18277	18325	2	48
Mito	18325	18389	2	64
Mito	18389	18452	2	63
Mito	18452	18877	14	425
Mito	18877	18940	2	63
Mito	18940	18988	14	48
Mito	18988	20504	1	1516
Mito	20504	20558	14	54
Mito	20558	20581	14	23
Mito	20581	20655	14	74
Mito	20655	20706	14	51
Mito	20706	23128	14	3211
Mito	23128	23218	13	179
Mito	23218	23339	14	123
Mito	23339	23539	14	200
Mito	23539	30858	14	8178
Mito	30858	30968	12	116
Mito	30968	31041	13	73
Mito	31041	31322	12	446
Mito	31322	31455	14	141
Mito	31455	31947	13	669
Mito	31947	32166	14	475
Mito	32166	32185	14	268
Mito	32185	32230	14	58
Mito	32230	32361	13	133
Mito	32361	32429	14	69
Mito	32429	32496	13	74
Mito	32496	32514	14	57
Mito	32514	33456	13	1019
Mito	33456	33488	14	40
Mito	33488	33618	14	149
Mito	33618	33709	13	178
Mito	33709	33729	14	22
Mito	33729	33926	13	214
Mito	33926	33975	14	68
Mito	33975	34064	14	95
Mito	34064	34116	14	58
Mito	34116	34441	13	332
Mito	34441	34543	12	103
Mito	34543	34674	13	171
Mito	34674	34737	14	129
Mito	34737	34806	13	73
Mito	34806	34875	13	80
Mito	34875	34915	14	52
Mito	34915	35062	13	161
Mito	35062	35168	12	258
Mito	35168	35176	13	202
Mito	35176	35352	14	181
Mito	35352	35424	14	112
Mito	35424	35492	14	94
Mito	35492	36126	13	635
Mito	36126	36157	13	34
Mito	36157	36205	14	60
Mito	36205	36267	13	75
Mito	36267	36484	13	338
Mito	36484	36639	13	195
Mito	36639	36708	13	104
Mito	36708	36763	13	85
Mito	36763	36825	13	94
Mito	36825	36896	13	77
Mito	36896	36947	13	57
Mito	36947	37391	13	469
Mito	37391	37928	14	555
Mito	37928	38109	13	202
Mito	38109	38208	14	113
Mito	38208	38643	13	463
Mito	38643	38761	12	204
Mito	38761	39135	13	377
Mito	39135	39242	14	158
Mito	39242	39297	14	63
Mito	39297	39326	13	31
Mito	39326	39418	12	198
Mito	39418	39588	13	209
Mito	39588	39632	14	58
Mito	39632	39707	14	142
Mito	39707	39827	13	186
Mito	39827	40468	14	708
Mito	40468	40628	13	167
Mito	40628	40733	12	177
Mito	40733	41065	13	396
Mito	41065	41152	14	128
Mito	41152	41569	14	486
Mito	41569	41617	14	48
Mito	41617	41688	14	82
Mito	41688	41728	14	40
Mito	41728	41755	14	32
Mito	41755	41824	14	69
Mito	41824	41849	14	31
Mito	41849	41875	14	40
Mito	41875	41905	14	56
Mito	41905	41972	14	77
Mito	41972	42038	14	73
Mito	42038	42454	14	444
Mito	42454	42534	14	91
Mito	42534	42604	14	75
Mito	42604	42652	14	123
Mito	42652	42711	14	80
Mito	42711	42764	14	63
Mito	42764	42829	14	83
Mito	42829	42994	14	250
Mito	42994	43062	13	100
Mito	43062	43121	14	72
Mito	43121	44099	14	1122
Mito	44099	44193	14	149
Mito	44193	44259	14	79
Mito	44259	44318	14	71
Mito	44318	44383	12	66
Mito	44383	44435	13	122
Mito	44435	44738	14	306
Mito	44738	44801	14	67
Mito	44801	45179	14	409
Mito	45179	45211	14	33
Mito	45211	45241	14	33
Mito	45241	45432	13	254
Mito	45432	45595	14	250
Mito	45595	45711	14	155
Mito	45711	45817	11	234
Mito	45817	45832	14	45
Mito	45832	45945	13	167
Mito	45945	46371	14	624
Mito	46371	46418	13	50
Mito	46418	46565	10	237
Mito	46565	47325	13	985
Mito	47325	47438	14	201
Mito	47438	47981	14	804
Mito	47981	48142	14	186
Mito	48142	48494	14	552
Mito	48494	48590	12	199
Mito	48590	48760	14	234
Mito	48760	48878	11	239
Mito	48878	49343	14	623
Mito	49343	49410	11	229
Mito	49410	49427	10	33
Mito	49427	49920	13	716
Mito	49920	50047	14	189
Mito	50047	50067	14	37
Mito	50067	50219	10	257
Mito	50219	50277	14	99
Mito	50277	50312	13	105
Mito	50312	50602	13	500
Mito	50602	50634	13	52
Mito	50634	50662	12	42
Mito	50662	50703	14	70
Mito	50703	50763	14	80
Mito	50763	50838	13	89
Mito	50838	50904	14	159
Mito	50904	51040	12	249
Mito	51040	51416	14	757
Mito	51416	51456	14	61
Mito	51456	51525	13	142
Mito	51525	51806	13	476
Mito	51806	51859	12	125
Mito	51859	51920	11	65
Mito	51920	52152	12	320
Mito	52152	52168	13	34
Mito	52168	52191	12	31
Mito	52191	52264	12	109
Mito	52264	52282	11	18
Mito	52282	52327	12	78
Mito	52327	52371	11	44
Mito	52371	52399	13	45
Mito	52399	52762	13	724
Mito	52762	52814	11	55
Mito	52814	52898	10	218
Mito	52898	53225	12	505
Mito	53225	53270	13	84
Mito	53270	53352	13	106
Mito	53352	53580	12	482
Mito	53580	53750	13	193
Mito	53750	53806	13	85
Mito	53806	54575	12	1119
Mito	54575	54634	13	81
Mito	54634	54750	12	181
Mito	54750	54797	10	50
Mito	54797	54833	10	43
Mito	54833	54889	13	72
Mito	54889	54909	11	33
Mito	54909	55018	12	225
Mito	55018	55067	11	122
Mito	55067	55370	12	604
Mito	55370	55507	13	152
Mito	55507	55567	13	178
Mito	55567	55597	13	63
Mito	55597	55641	12	57
Mito	55641	55659	12	18
Mito	55659	55879	11	404
Mito	55879	55948	12	172
Mito	55948	56071	12	201
Mito	56071	56163	12	110
Mito	56163	56200	13	160
Mito	56200	56227	13	30
Mito	56227	56256	12	33
Mito	56256	56335	13	89
Mito	56335	56439	12	155
Mito	56439	56519	13	107
Mito	56519	56602	13	203
Mito	56602	56629	14	43
Mito	56629	56742	14	210
Mito	56742	56765	13	53
Mito	56765	56778	13	39
Mito	56778	56783	8	51
Mito	56783	56901	13	144
Mito	56901	56955	12	95
Mito	56955	57012	12	66
Mito	57012	57395	12	663
Mito	57395	57521	11	241
Mito	57521	57555	12	37
Mito	57555	57584	13	31
Mito	57584	57724	12	167
Mito	57724	57802	11	98
Mito	57802	57937	12	264
Mito	57937	58000	11	83
Mito	58000	58059	9	72
Mito	58059	58101	10	56
Mito	58101	58227	9	142
Mito	58227	58458	10	307
Mito	58458	58569	9	192
Mito	58569	58968	11	576
Mito	58968	59105	10	242
Mito	59105	59211	10	260
Mito	59211	59242	10	31
Mito	59242	59261	10	37
Mito	59261	59316	10	79
Mito	59316	59379	10	63
Mito	59379	59537	10	319
Mito	59537	59616	10	155
Mito	59616	59642	10	41
Mito	59642	59724	10	147
Mito	59724	59760	10	43
Mito	59760	59794	10	60
Mito	59794	59976	10	261
Mito	59976	60130	10	203
Mito	60130	60235	10	139
Mito	60235	60364	10	227
Mito	60364	60433	10	106
Mito	60433	60452	9	27
Mito	60452	60494	10	44
Mito	60494	60559	10	74
Mito	60559	60641	10	138
Mito	60641	60671	9	54
Mito	60671	60686	10	53
Mito	60686	60726	9	64
Mito	60726	60752	10	78
Mito	60752	60807	10	92
Mito	60807	61139	10	601
Mito	61139	61234	10	202
Mito	61234	61818	10	1235
Mito	61818	61821	10	26
Mito	61821	61850	9	91
Mito	61850	63386	10	2800
Mito	63386	64187	11	1719
Mito	64187	64272	13	234
Mito	64272	64817	11	1151
Mito	64817	64924	10	155
Mito	64924	65012	12	234
Mito	65012	65036	10	59
Mito	65036	66681	11	2780
Mito	66681	69888	14	3997
Mito	69888	69965	11	143
Mito	69965	70724	12	1319
Mito	70724	71452	11	1251
Mito	71452	73325	12	3128
Mito	73325	73454	12	182
Mito	73454	73533	12	129
Mito	73533	73720	11	193
Mito	73720	73750	12	54
Mito	73750	73798	13	75
Mito	73798	73925	13	197
Mito	73925	74200	12	409
Mito	74200	74264	13	94
Mito	74264	74291	13	27
Mito	74291	74338	12	56
Mito	74338	74465	13	153
Mito	74465	74505	12	51
Mito	74505	74663	13	233
Mito	74663	74998	13	569
Mito	74998	75084	13	123
Mito	75084	75791	13	1194
Mito	75791	76046	12	468
Mito	76046	76200	13	192
Mito	76200	76309	13	144
Mito	76309	76468	13	230
Mito	76468	76503	12	44
Mito	76503	76548	13	63
Mito	76548	76677	13	206
Mito	76677	76979	12	512
Mito	76979	77139	12	201
Mito	77139	77216	13	250
Mito	77216	78460	13	2353
Mito	78460	78923	12	846
Mito	78923	79012	13	132
Mito	79012	79044	13	36
Mito	79044	79067	12	32
Mito	79067	79106	13	39
Mito	79106	79951	11	1207
Mito	79951	80071	12	174
Mito	80071	80252	11	277
Mito	80252	80648	12	554
Mito	80648	80735	11	154
Mito	80735	80859	12	192
Mito	80859	80908	13	74
Mito	80908	80927	12	98
Mito	80927	80945	13	44
Mito	80945	80975	12	56
Mito	80975	82078	12	1555
Mito	82078	82106	11	92
Mito	82106	82293	12	234
Mito	82293	82332	12	50
Mito	82332	82388	10	102
Mito	82388	82412	14	24
Mito	82412	82532	13	120
Mito	82532	82597	12	168
Mito	82597	82653	13	56
Mito	82653	82792	14	139
Mito	82792	82887	2	95
Mito	82887	84410	14	1668
Mito	84410	84527	2	122
Mito	84527	85403	14	929
Mito	85403	85547	1	144
Mito	85547	85614	2	67
Mito	85614	85708	1	94
Mito	85708	85710	2	20
Mito	85710	85779	1	69
