time_index	left_time_boundary	right_time_boundary	lambda
0	0	1.53553e-06	368.629
1	1.53553e-06	3.5957e-06	368.629
2	3.5957e-06	6.35976e-06	368.629
3	6.35976e-06	1.00682e-05	368.629
4	1.00682e-05	1.50438e-05	368.629
5	1.50438e-05	2.17193e-05	415.049
6	2.17193e-05	3.06756e-05	206.057
7	3.06756e-05	4.26921e-05	113.463
8	4.26921e-05	5.88142e-05	128.693
9	5.88142e-05	8.04448e-05	211.024
10	8.04448e-05	0.000109466	279.687
11	0.000109466	0.000148403	294.049
12	0.000148403	0.000200643	272.086
13	0.000200643	0.000270732	296.147
14	0.000270732	0.000364768	327.313
15	0.000364768	0.000490934	354.719
16	0.000490934	0.000660207	400.73
17	0.000660207	0.000887315	457.599
18	0.000887315	0.00119202	502.795
19	0.00119202	0.00160083	536.269
20	0.00160083	0.00214932	568.155
21	0.00214932	0.00288522	622.998
22	0.00288522	0.00387254	636.983
23	0.00387254	0.00519721	562.92
24	0.00519721	0.00697447	489.973
25	0.00697447	0.00935897	486.157
26	0.00935897	0.0125582	486.157
27	0.0125582	0.0168505	486.157
28	0.0168505	0.0226093	486.157
29	0.0226093	inf	486.157
