0.000940775	-20113435.40	0,2.62148e-06,6.13864e-06,1.08575e-05,1.71887e-05,2.5683e-05,3.70796e-05,5.237e-05,7.28848e-05,0.000100409,0.000137337,0.000186882,0.000253356,0.000342541,0.000462199,0.000622739,0.000838132,0.00112712,0.00151484,0.00203504,0.00273297,0.00366936,0.0049257,0.00661128,0.00887277,0.011907,0.0159778,0.0214396,0.0287675,0.038599,inf	275.331,275.331,275.331,275.331,275.331,260.456,263.907,275.489,284.334,285.814,284.057,282.75,282.591,283.906,284.799,284.367,284.406,286.056,288.549,291.198,293.716,294.664,291.583,287.053,283.021,278.479,278.479,278.479,278.479,278.479
0.00101154	-20109788.19	0,2.62148e-06,6.13864e-06,1.08575e-05,1.71887e-05,2.5683e-05,3.70796e-05,5.237e-05,7.28848e-05,0.000100409,0.000137337,0.000186882,0.000253356,0.000342541,0.000462199,0.000622739,0.000838132,0.00112712,0.00151484,0.00203504,0.00273297,0.00366936,0.0049257,0.00661128,0.00887277,0.011907,0.0159778,0.0214396,0.0287675,0.038599,inf	274.807,274.807,274.807,274.807,274.807,244.009,249.105,269.806,285.678,287.555,283.708,281.063,280.732,283.143,284.469,283.039,282.359,284.473,288.031,292.046,296.234,298.008,292.682,284.859,277.971,270.229,270.229,270.229,270.229,270.229
0.00107613	-20107022.33	0,2.62148e-06,6.13864e-06,1.08575e-05,1.71887e-05,2.5683e-05,3.70796e-05,5.237e-05,7.28848e-05,0.000100409,0.000137337,0.000186882,0.000253356,0.000342541,0.000462199,0.000622739,0.000838132,0.00112712,0.00151484,0.00203504,0.00273297,0.00366936,0.0049257,0.00661128,0.00887277,0.011907,0.0159778,0.0214396,0.0287675,0.038599,inf	280.611,280.611,280.611,280.611,280.611,231.687,237.895,266.415,288.277,290.006,284.14,280.438,280.224,283.88,285.621,283.134,281.56,283.664,287.626,292.369,297.761,300.283,293.288,283.009,274.06,263.975,263.975,263.975,263.975,263.975
0.00113523	-20104884.95	0,2.62148e-06,6.13864e-06,1.08575e-05,1.71887e-05,2.5683e-05,3.70796e-05,5.237e-05,7.28848e-05,0.000100409,0.000137337,0.000186882,0.000253356,0.000342541,0.000462199,0.000622739,0.000838132,0.00112712,0.00151484,0.00203504,0.00273297,0.00366936,0.0049257,0.00661128,0.00887277,0.011907,0.0159778,0.0214396,0.0287675,0.038599,inf	287.166,287.166,287.166,287.166,287.166,221.087,228.431,263.917,290.976,292.154,284.381,279.879,280.036,285.083,287.298,283.823,281.357,283.24,287.259,292.372,298.67,301.872,293.6,281.448,270.99,259.133,259.133,259.133,259.133,259.133
0.00118942	-20103215.32	0,2.62148e-06,6.13864e-06,1.08575e-05,1.71887e-05,2.5683e-05,3.70796e-05,5.237e-05,7.28848e-05,0.000100409,0.000137337,0.000186882,0.000253356,0.000342541,0.000462199,0.000622739,0.000838132,0.00112712,0.00151484,0.00203504,0.00273297,0.00366936,0.0049257,0.00661128,0.00887277,0.011907,0.0159778,0.0214396,0.0287675,0.038599,inf	294.46,294.46,294.46,294.46,294.46,211.695,220.286,262.068,293.65,293.922,284.321,279.193,279.885,286.411,289.148,284.772,281.471,283.037,286.92,292.19,299.19,303.002,293.73,280.12,268.548,255.314,255.314,255.314,255.314,255.314
0.00123922	-20101894.22	0,2.62148e-06,6.13864e-06,1.08575e-05,1.71887e-05,2.5683e-05,3.70796e-05,5.237e-05,7.28848e-05,0.000100409,0.000137337,0.000186882,0.000253356,0.000342541,0.000462199,0.000622739,0.000838132,0.00112712,0.00151484,0.00203504,0.00273297,0.00366936,0.0049257,0.00661128,0.00887277,0.011907,0.0159778,0.0214396,0.0287675,0.038599,inf	301.453,301.453,301.453,301.453,301.453,203.192,213.2,260.788,296.337,295.399,284.025,278.384,279.704,287.74,291.021,285.827,281.764,282.971,286.608,291.902,299.457,303.819,293.741,278.975,266.58,252.253,252.253,252.253,252.253,252.253
0.00128507	-20100839.89	0,2.62148e-06,6.13864e-06,1.08575e-05,1.71887e-05,2.5683e-05,3.70796e-05,5.237e-05,7.28848e-05,0.000100409,0.000137337,0.000186882,0.000253356,0.000342541,0.000462199,0.000622739,0.000838132,0.00112712,0.00151484,0.00203504,0.00273297,0.00366936,0.0049257,0.00661128,0.00887277,0.011907,0.0159778,0.0214396,0.0287675,0.038599,inf	309.203,309.203,309.203,309.203,309.203,195.437,207.03,260.034,299.085,296.682,283.581,277.496,279.485,289.023,292.849,286.91,282.155,282.99,286.321,291.556,299.56,304.413,293.672,277.976,264.973,249.763,249.763,249.763,249.763,249.763
0.00132735	-20099989.05	0,2.62148e-06,6.13864e-06,1.08575e-05,1.71887e-05,2.5683e-05,3.70796e-05,5.237e-05,7.28848e-05,0.000100409,0.000137337,0.000186882,0.000253356,0.000342541,0.000462199,0.000622739,0.000838132,0.00112712,0.00151484,0.00203504,0.00273297,0.00366936,0.0049257,0.00661128,0.00887277,0.011907,0.0159778,0.0214396,0.0287675,0.038599,inf	316.127,316.127,316.127,316.127,316.127,188.192,201.57,259.71,301.893,297.826,283.048,276.566,279.236,290.244,294.601,287.976,282.597,283.065,286.058,291.182,299.554,304.848,293.549,277.092,263.646,247.711,247.711,247.711,247.711,247.711
0.00136641	-20099300.30	0,2.62148e-06,6.13864e-06,1.08575e-05,1.71887e-05,2.5683e-05,3.70796e-05,5.237e-05,7.28848e-05,0.000100409,0.000137337,0.000186882,0.000253356,0.000342541,0.000462199,0.000622739,0.000838132,0.00112712,0.00151484,0.00203504,0.00273297,0.00366936,0.0049257,0.00661128,0.00887277,0.011907,0.0159778,0.0214396,0.0287675,0.038599,inf	323.05,323.05,323.05,323.05,323.05,181.421,196.72,259.767,304.772,298.876,282.475,275.627,278.97,291.4,296.264,289.003,283.062,283.175,285.816,290.797,299.476,305.166,293.388,276.301,262.538,245.999,245.999,245.999,245.999,245.999
0.00140253	-20098738.08	0,2.62148e-06,6.13864e-06,1.08575e-05,1.71887e-05,2.5683e-05,3.70796e-05,5.237e-05,7.28848e-05,0.000100409,0.000137337,0.000186882,0.000253356,0.000342541,0.000462199,0.000622739,0.000838132,0.00112712,0.00151484,0.00203504,0.00273297,0.00366936,0.0049257,0.00661128,0.00887277,0.011907,0.0159778,0.0214396,0.0287675,0.038599,inf	328.169,328.169,328.169,328.169,328.169,175.02,192.351,260.123,307.692,299.853,281.885,274.698,278.695,292.492,297.832,289.977,283.531,283.306,285.593,290.414,299.351,305.397,293.2,275.586,261.604,244.557,244.557,244.557,244.557,244.557
0.00143598	-20098280.43	0,2.62148e-06,6.13864e-06,1.08575e-05,1.71887e-05,2.5683e-05,3.70796e-05,5.237e-05,7.28848e-05,0.000100409,0.000137337,0.000186882,0.000253356,0.000342541,0.000462199,0.000622739,0.000838132,0.00112712,0.00151484,0.00203504,0.00273297,0.00366936,0.0049257,0.00661128,0.00887277,0.011907,0.0159778,0.0214396,0.0287675,0.038599,inf	333.04,333.04,333.04,333.04,333.04,169.048,188.446,260.755,310.657,300.778,281.302,273.794,278.422,293.524,299.307,290.892,283.992,283.448,285.388,290.038,299.197,305.564,292.995,274.934,260.81,243.329,243.329,243.329,243.329,243.329
0.001467	-20097904.17	0,2.62148e-06,6.13864e-06,1.08575e-05,1.71887e-05,2.5683e-05,3.70796e-05,5.237e-05,7.28848e-05,0.000100409,0.000137337,0.000186882,0.000253356,0.000342541,0.000462199,0.000622739,0.000838132,0.00112712,0.00151484,0.00203504,0.00273297,0.00366936,0.0049257,0.00661128,0.00887277,0.011907,0.0159778,0.0214396,0.0287675,0.038599,inf	338.129,338.129,338.129,338.129,338.129,163.435,184.911,261.599,313.631,301.647,280.734,272.923,278.153,294.499,300.691,291.748,284.438,283.597,285.198,289.676,299.025,305.683,292.779,274.334,260.13,242.276,242.276,242.276,242.276,242.276
0.00149578	-20097592.91	0,2.62148e-06,6.13864e-06,1.08575e-05,1.71887e-05,2.5683e-05,3.70796e-05,5.237e-05,7.28848e-05,0.000100409,0.000137337,0.000186882,0.000253356,0.000342541,0.000462199,0.000622739,0.000838132,0.00112712,0.00151484,0.00203504,0.00273297,0.00366936,0.0049257,0.00661128,0.00887277,0.011907,0.0159778,0.0214396,0.0287675,0.038599,inf	342.531,342.531,342.531,342.531,342.531,158.078,181.656,262.586,316.584,302.461,280.18,272.086,277.892,295.423,301.988,292.543,284.864,283.746,285.023,289.328,298.845,305.768,292.556,273.779,259.543,241.365,241.365,241.365,241.365,241.365
0.00152253	-20097336.29	0,2.62148e-06,6.13864e-06,1.08575e-05,1.71887e-05,2.5683e-05,3.70796e-05,5.237e-05,7.28848e-05,0.000100409,0.000137337,0.000186882,0.000253356,0.000342541,0.000462199,0.000622739,0.000838132,0.00112712,0.00151484,0.00203504,0.00273297,0.00366936,0.0049257,0.00661128,0.00887277,0.011907,0.0159778,0.0214396,0.0287675,0.038599,inf	345.806,345.806,345.806,345.806,345.806,152.983,178.646,263.688,319.502,303.219,279.649,271.289,277.641,296.298,303.204,293.279,285.269,283.895,284.86,288.996,298.663,305.826,292.329,273.263,259.034,240.571,240.571,240.571,240.571,240.571
0.00154739	-20097125.44	0,2.62148e-06,6.13864e-06,1.08575e-05,1.71887e-05,2.5683e-05,3.70796e-05,5.237e-05,7.28848e-05,0.000100409,0.000137337,0.000186882,0.000253356,0.000342541,0.000462199,0.000622739,0.000838132,0.00112712,0.00151484,0.00203504,0.00273297,0.00366936,0.0049257,0.00661128,0.00887277,0.011907,0.0159778,0.0214396,0.0287675,0.038599,inf	349.849,349.849,349.849,349.849,349.849,148.183,175.87,264.9,322.385,303.928,279.143,270.532,277.404,297.13,304.343,293.96,285.65,284.041,284.71,288.681,298.482,305.866,292.103,272.78,258.591,239.875,239.875,239.875,239.875,239.875
0.00157053	-20096948.86	0,2.62148e-06,6.13864e-06,1.08575e-05,1.71887e-05,2.5683e-05,3.70796e-05,5.237e-05,7.28848e-05,0.000100409,0.000137337,0.000186882,0.000253356,0.000342541,0.000462199,0.000622739,0.000838132,0.00112712,0.00151484,0.00203504,0.00273297,0.00366936,0.0049257,0.00661128,0.00887277,0.011907,0.0159778,0.0214396,0.0287675,0.038599,inf	353.228,353.228,353.228,353.228,353.228,143.577,173.259,266.157,325.197,304.583,278.657,269.813,277.179,297.922,305.409,294.586,286.008,284.182,284.569,288.383,298.305,305.892,291.878,272.327,258.203,239.261,239.261,239.261,239.261,239.261
0.00159209	-20096803.08	0,2.62148e-06,6.13864e-06,1.08575e-05,1.71887e-05,2.5683e-05,3.70796e-05,5.237e-05,7.28848e-05,0.000100409,0.000137337,0.000186882,0.000253356,0.000342541,0.000462199,0.000622739,0.000838132,0.00112712,0.00151484,0.00203504,0.00273297,0.00366936,0.0049257,0.00661128,0.00887277,0.011907,0.0159778,0.0214396,0.0287675,0.038599,inf	356.489,356.489,356.489,356.489,356.489,139.178,170.803,267.46,327.941,305.187,278.192,269.133,276.967,298.678,306.41,295.162,286.343,284.317,284.439,288.101,298.134,305.908,291.656,271.9,257.862,238.717,238.717,238.717,238.717,238.717
0.00161217	-20096681.97	0,2.62148e-06,6.13864e-06,1.08575e-05,1.71887e-05,2.5683e-05,3.70796e-05,5.237e-05,7.28848e-05,0.000100409,0.000137337,0.000186882,0.000253356,0.000342541,0.000462199,0.000622739,0.000838132,0.00112712,0.00151484,0.00203504,0.00273297,0.00366936,0.0049257,0.00661128,0.00887277,0.011907,0.0159778,0.0214396,0.0287675,0.038599,inf	359.072,359.072,359.072,359.072,359.072,134.963,168.474,268.785,330.609,305.736,277.749,268.489,276.769,299.399,307.348,295.69,286.656,284.447,284.318,287.834,297.971,305.918,291.438,271.497,257.562,238.233,238.233,238.233,238.233,238.233
0.0016309	-20096582.42	0,2.62148e-06,6.13864e-06,1.08575e-05,1.71887e-05,2.5683e-05,3.70796e-05,5.237e-05,7.28848e-05,0.000100409,0.000137337,0.000186882,0.000253356,0.000342541,0.000462199,0.000622739,0.000838132,0.00112712,0.00151484,0.00203504,0.00273297,0.00366936,0.0049257,0.00661128,0.00887277,0.011907,0.0159778,0.0214396,0.0287675,0.038599,inf	362.206,362.206,362.206,362.206,362.206,130.955,166.285,270.133,333.205,306.238,277.328,267.882,276.584,300.089,308.229,296.175,286.948,284.572,284.204,287.583,297.817,305.924,291.226,271.116,257.298,237.799,237.799,237.799,237.799,237.799
0.00164838	-20096498.71	0,2.62148e-06,6.13864e-06,1.08575e-05,1.71887e-05,2.5683e-05,3.70796e-05,5.237e-05,7.28848e-05,0.000100409,0.000137337,0.000186882,0.000253356,0.000342541,0.000462199,0.000622739,0.000838132,0.00112712,0.00151484,0.00203504,0.00273297,0.00366936,0.0049257,0.00661128,0.00887277,0.011907,0.0159778,0.0214396,0.0287675,0.038599,inf	364.559,364.559,364.559,364.559,364.559,127.09,164.184,271.47,335.708,306.688,276.925,267.307,276.41,300.751,309.056,296.617,287.219,284.69,284.098,287.346,297.671,305.929,291.019,270.755,257.065,237.409,237.409,237.409,237.409,237.409
