time_index	left_time_boundary	right_time_boundary	lambda
0	0	1.52155e-06	259.96
1	1.52155e-06	3.56298e-06	259.96
2	3.56298e-06	6.30189e-06	259.96
3	6.30189e-06	9.97661e-06	259.96
4	9.97661e-06	1.49069e-05	259.96
5	1.49069e-05	2.15216e-05	328.013
6	2.15216e-05	3.03965e-05	116.817
7	3.03965e-05	4.23036e-05	147.163
8	4.23036e-05	5.8279e-05	201.029
9	5.8279e-05	7.97127e-05	265.189
10	7.97127e-05	0.00010847	240.171
11	0.00010847	0.000147052	235.483
12	0.000147052	0.000198817	250.849
13	0.000198817	0.000268268	297.878
14	0.000268268	0.000361449	340.531
15	0.000361449	0.000486466	356.437
16	0.000486466	0.000654199	384.057
17	0.000654199	0.00087924	432.996
18	0.00087924	0.00118117	490.278
19	0.00118117	0.00158626	536.797
20	0.00158626	0.00212976	566.036
21	0.00212976	0.00285896	611.716
22	0.00285896	0.0038373	619.245
23	0.0038373	0.00514991	562.301
24	0.00514991	0.006911	665.446
25	0.006911	0.00927381	577.127
26	0.00927381	0.0124439	577.127
27	0.0124439	0.0166971	577.127
28	0.0166971	0.0224036	577.127
29	0.0224036	inf	577.127
