1.43186e-05	-546030.08	0,4.15904e-08,9.7391e-08,1.72257e-07,2.72702e-07,4.07467e-07,5.88276e-07,8.30863e-07,1.15633e-06,1.59301e-06,2.17888e-06,2.96493e-06,4.01955e-06,5.4345e-06,7.33289e-06,9.87991e-06,1.32972e-05,1.7882e-05,2.40333e-05,3.22864e-05,4.33592e-05,5.82153e-05,7.81473e-05,0.000104889,0.000140769,0.000188907,0.000253492,0.000340144,0.000456402,0.000612383,inf	12259,12259,12259,12259,12259,10285.1,10141.8,10649.6,11596,12902.1,14484.8,16156,17724.9,18991.2,19786.8,19863.5,19013.5,17889.2,16994,16360.5,16199.8,15953.2,15461.9,15045.2,15153.7,13698.1,13698.1,13698.1,13698.1,13698.1
1.50451e-05	-546237.57	0,4.15904e-08,9.7391e-08,1.72257e-07,2.72702e-07,4.07467e-07,5.88276e-07,8.30863e-07,1.15633e-06,1.59301e-06,2.17888e-06,2.96493e-06,4.01955e-06,5.4345e-06,7.33289e-06,9.87991e-06,1.32972e-05,1.7882e-05,2.40333e-05,3.22864e-05,4.33592e-05,5.82153e-05,7.81473e-05,0.000104889,0.000140769,0.000188907,0.000253492,0.000340144,0.000456402,0.000612383,inf	10102.6,10102.6,10102.6,10102.6,10102.6,6893.37,6658.94,7219.59,8346.38,10046,12324.6,14948,17586.4,19855.8,21385.6,21602.8,20069.4,18174.2,16773.2,15872,15788.6,15417.7,14539.1,13775.1,13873.4,11434.9,11434.9,11434.9,11434.9,11434.9
1.57413e-05	-546365.40	0,4.15904e-08,9.7391e-08,1.72257e-07,2.72702e-07,4.07467e-07,5.88276e-07,8.30863e-07,1.15633e-06,1.59301e-06,2.17888e-06,2.96493e-06,4.01955e-06,5.4345e-06,7.33289e-06,9.87991e-06,1.32972e-05,1.7882e-05,2.40333e-05,3.22864e-05,4.33592e-05,5.82153e-05,7.81473e-05,0.000104889,0.000140769,0.000188907,0.000253492,0.000340144,0.000456402,0.000612383,inf	9357.12,9357.12,9357.12,9357.12,9357.12,5274.3,4968.57,5476.37,6563.59,8336.67,10913.9,14089.7,17445.6,20461.9,22599,22946.7,20851.7,18423.7,16727.7,15736.1,15837.1,15434.1,14281.8,13268.3,13410.9,10088.5,10088.5,10088.5,10088.5,10088.5
1.63751e-05	-546422.13	0,4.15904e-08,9.7391e-08,1.72257e-07,2.72702e-07,4.07467e-07,5.88276e-07,8.30863e-07,1.15633e-06,1.59301e-06,2.17888e-06,2.96493e-06,4.01955e-06,5.4345e-06,7.33289e-06,9.87991e-06,1.32972e-05,1.7882e-05,2.40333e-05,3.22864e-05,4.33592e-05,5.82153e-05,7.81473e-05,0.000104889,0.000140769,0.000188907,0.000253492,0.000340144,0.000456402,0.000612383,inf	9357.12,9357.12,9357.12,9357.12,9357.12,4436.18,4071.14,4518.4,5524.63,7257.58,9960.79,13470,17311.6,20870.9,23483.8,23922.5,21353.8,18548.4,16670.3,15670.8,15987,15605,14271.9,13095.6,13368.2,9170.93,9170.93,9170.93,9170.93,9170.93
1.69422e-05	-546429.04	0,4.15904e-08,9.7391e-08,1.72257e-07,2.72702e-07,4.07467e-07,5.88276e-07,8.30863e-07,1.15633e-06,1.59301e-06,2.17888e-06,2.96493e-06,4.01955e-06,5.4345e-06,7.33289e-06,9.87991e-06,1.32972e-05,1.7882e-05,2.40333e-05,3.22864e-05,4.33592e-05,5.82153e-05,7.81473e-05,0.000104889,0.000140769,0.000188907,0.000253492,0.000340144,0.000456402,0.000612383,inf	9712.71,9712.71,9712.71,9712.71,9712.71,3934.15,3550.16,3957.47,4878.32,6547.31,9311.01,13038.4,17218.3,21174.4,24158.1,24646.2,21670.7,18587.7,16586,15611.3,16131.6,15791,14344.1,13073.8,13564.6,8475.55,8475.55,8475.55,8475.55,8475.55
1.7446e-05	-546411.46	0,4.15904e-08,9.7391e-08,1.72257e-07,2.72702e-07,4.07467e-07,5.88276e-07,8.30863e-07,1.15633e-06,1.59301e-06,2.17888e-06,2.96493e-06,4.01955e-06,5.4345e-06,7.33289e-06,9.87991e-06,1.32972e-05,1.7882e-05,2.40333e-05,3.22864e-05,4.33592e-05,5.82153e-05,7.81473e-05,0.000104889,0.000140769,0.000188907,0.000253492,0.000340144,0.000456402,0.000612383,inf	10135.5,10135.5,10135.5,10135.5,10135.5,3609.25,3228.2,3606.64,4454.87,6064.9,8861.55,12747.3,17171.8,21422,24699,25205.3,21877.9,18584.6,16489.8,15549.6,16246.8,15947.5,14430.3,13117.9,13910.5,7900.94,7900.94,7900.94,7900.94,7900.94
1.78909e-05	-546390.00	0,4.15904e-08,9.7391e-08,1.72257e-07,2.72702e-07,4.07467e-07,5.88276e-07,8.30863e-07,1.15633e-06,1.59301e-06,2.17888e-06,2.96493e-06,4.01955e-06,5.4345e-06,7.33289e-06,9.87991e-06,1.32972e-05,1.7882e-05,2.40333e-05,3.22864e-05,4.33592e-05,5.82153e-05,7.81473e-05,0.000104889,0.000140769,0.000188907,0.000253492,0.000340144,0.000456402,0.000612383,inf	10690.9,10690.9,10690.9,10690.9,10690.9,3390.06,3017.66,3375.6,4165.44,5724.4,8548.52,12556,17162.2,21633.5,25148.5,25653.3,22019.3,18564,16394.4,15489.7,16332.7,16065.2,14504.4,13186.8,14359.9,7389.78,7389.78,7389.78,7389.78,7389.78
1.82815e-05	-546363.04	0,4.15904e-08,9.7391e-08,1.72257e-07,2.72702e-07,4.07467e-07,5.88276e-07,8.30863e-07,1.15633e-06,1.59301e-06,2.17888e-06,2.96493e-06,4.01955e-06,5.4345e-06,7.33289e-06,9.87991e-06,1.32972e-05,1.7882e-05,2.40333e-05,3.22864e-05,4.33592e-05,5.82153e-05,7.81473e-05,0.000104889,0.000140769,0.000188907,0.000253492,0.000340144,0.000456402,0.000612383,inf	11092.5,11092.5,11092.5,11092.5,11092.5,3227.64,2867.81,3218.92,3957.9,5476.46,8327.52,12436.1,17177.9,21817.9,25529.5,26019,22120.2,18539.5,16307.4,15435.9,16396.3,16147.5,14558,13261,14891.3,6903.99,6903.99,6903.99,6903.99,6903.99
1.86204e-05	-546347.75	0,4.15904e-08,9.7391e-08,1.72257e-07,2.72702e-07,4.07467e-07,5.88276e-07,8.30863e-07,1.15633e-06,1.59301e-06,2.17888e-06,2.96493e-06,4.01955e-06,5.4345e-06,7.33289e-06,9.87991e-06,1.32972e-05,1.7882e-05,2.40333e-05,3.22864e-05,4.33592e-05,5.82153e-05,7.81473e-05,0.000104889,0.000140769,0.000188907,0.000253492,0.000340144,0.000456402,0.000612383,inf	11668.4,11668.4,11668.4,11668.4,11668.4,3105.86,2768.04,3111.8,3806.82,5294.29,8172.78,12366.3,17209.6,21976.3,25852.5,26320.2,22193.6,18516.5,16230.9,15389.9,16444.1,16200.9,14590.6,13332.5,15499.7,6411.91,6411.91,6411.91,6411.91,6411.91
1.89091e-05	-546327.66	0,4.15904e-08,9.7391e-08,1.72257e-07,2.72702e-07,4.07467e-07,5.88276e-07,8.30863e-07,1.15633e-06,1.59301e-06,2.17888e-06,2.96493e-06,4.01955e-06,5.4345e-06,7.33289e-06,9.87991e-06,1.32972e-05,1.7882e-05,2.40333e-05,3.22864e-05,4.33592e-05,5.82153e-05,7.81473e-05,0.000104889,0.000140769,0.000188907,0.000253492,0.000340144,0.000456402,0.000612383,inf	12108.6,12108.6,12108.6,12108.6,12108.6,2992.63,2686.39,3031.64,3692.08,5152.33,8062.01,12329.4,17249.2,22108.2,26126.1,26568.4,22247.8,18496.8,16165.4,15352.8,16481.1,16232.1,14604.8,13399.5,16196.2,5878.56,5878.56,5878.56,5878.56,5878.56
1.91428e-05	-546321.28	0,4.15904e-08,9.7391e-08,1.72257e-07,2.72702e-07,4.07467e-07,5.88276e-07,8.30863e-07,1.15633e-06,1.59301e-06,2.17888e-06,2.96493e-06,4.01955e-06,5.4345e-06,7.33289e-06,9.87991e-06,1.32972e-05,1.7882e-05,2.40333e-05,3.22864e-05,4.33592e-05,5.82153e-05,7.81473e-05,0.000104889,0.000140769,0.000188907,0.000253492,0.000340144,0.000456402,0.000612383,inf	12449.3,12449.3,12449.3,12449.3,12449.3,2897.11,2615.83,2968.79,3600.93,5040.05,7980.28,12310,17280.3,22205.5,26343.3,26758.8,22275.5,18472.6,16104.7,15320.2,16507.3,16243.8,14603,13467.4,17011.7,5250.19,5250.19,5250.19,5250.19,5250.19
1.93075e-05	-546331.17	0,4.15904e-08,9.7391e-08,1.72257e-07,2.72702e-07,4.07467e-07,5.88276e-07,8.30863e-07,1.15633e-06,1.59301e-06,2.17888e-06,2.96493e-06,4.01955e-06,5.4345e-06,7.33289e-06,9.87991e-06,1.32972e-05,1.7882e-05,2.40333e-05,3.22864e-05,4.33592e-05,5.82153e-05,7.81473e-05,0.000104889,0.000140769,0.000188907,0.000253492,0.000340144,0.000456402,0.000612383,inf	12761.8,12761.8,12761.8,12761.8,12761.8,2817.36,2561.77,2919.46,3529.31,4951.99,7924.08,12309.6,17314.3,22285.9,26528,26917.6,22295.8,18454.2,16053.9,15294.9,16527.1,16242.3,14591.3,13543.5,18028.9,4416.8,4416.8,4416.8,4416.8,4416.8
1.93372e-05	-546368.05	0,4.15904e-08,9.7391e-08,1.72257e-07,2.72702e-07,4.07467e-07,5.88276e-07,8.30863e-07,1.15633e-06,1.59301e-06,2.17888e-06,2.96493e-06,4.01955e-06,5.4345e-06,7.33289e-06,9.87991e-06,1.32972e-05,1.7882e-05,2.40333e-05,3.22864e-05,4.33592e-05,5.82153e-05,7.81473e-05,0.000104889,0.000140769,0.000188907,0.000253492,0.000340144,0.000456402,0.000612383,inf	13051.6,13051.6,13051.6,13051.6,13051.6,2739.96,2517.45,2880.18,3467.22,4874.37,7878.13,12311.9,17333.6,22331.4,26662.4,27025.8,22290.7,18426,16000.3,15265.3,16531.2,16223.8,14573.8,13650.3,19466.9,3012.49,3012.49,3012.49,3012.49,3012.49
1.90798e-05	-546511.88	0,4.15904e-08,9.7391e-08,1.72257e-07,2.72702e-07,4.07467e-07,5.88276e-07,8.30863e-07,1.15633e-06,1.59301e-06,2.17888e-06,2.96493e-06,4.01955e-06,5.4345e-06,7.33289e-06,9.87991e-06,1.32972e-05,1.7882e-05,2.40333e-05,3.22864e-05,4.33592e-05,5.82153e-05,7.81473e-05,0.000104889,0.000140769,0.000188907,0.000253492,0.000340144,0.000456402,0.000612383,inf	13172.1,13172.1,13172.1,13172.1,13172.1,2659.57,2471.29,2844.17,3406.26,4796.53,7824.06,12290.3,17306.9,22307.7,26707.5,27048,22235.9,18370.7,15932.6,15217.3,16514.6,16201,14592.2,13893.4,22307.6,820.226,820.226,820.226,820.226,820.226
1.84494e-05	-547204.74	0,4.15904e-08,9.7391e-08,1.72257e-07,2.72702e-07,4.07467e-07,5.88276e-07,8.30863e-07,1.15633e-06,1.59301e-06,2.17888e-06,2.96493e-06,4.01955e-06,5.4345e-06,7.33289e-06,9.87991e-06,1.32972e-05,1.7882e-05,2.40333e-05,3.22864e-05,4.33592e-05,5.82153e-05,7.81473e-05,0.000104889,0.000140769,0.000188907,0.000253492,0.000340144,0.000456402,0.000612383,inf	13172.1,13172.1,13172.1,13172.1,13172.1,2571.99,2415.47,2799.58,3338.38,4711.86,7757.48,12251.2,17261.9,22271.5,26753.5,27101.3,22240.3,18392.2,15950.6,15261.2,16595.1,16303.4,14816,14621.4,32684.1,150.396,150.396,150.396,150.396,150.396
1.79406e-05	-547267.55	0,4.15904e-08,9.7391e-08,1.72257e-07,2.72702e-07,4.07467e-07,5.88276e-07,8.30863e-07,1.15633e-06,1.59301e-06,2.17888e-06,2.96493e-06,4.01955e-06,5.4345e-06,7.33289e-06,9.87991e-06,1.32972e-05,1.7882e-05,2.40333e-05,3.22864e-05,4.33592e-05,5.82153e-05,7.81473e-05,0.000104889,0.000140769,0.000188907,0.000253492,0.000340144,0.000456402,0.000612383,inf	12844.1,12844.1,12844.1,12844.1,12844.1,2446.5,2334.31,2727.38,3242.09,4581.77,7613.55,12094.4,17066.8,22061.7,26611.5,26980.1,22105.9,18289.7,15836.1,15110.5,16327.3,15834,14193.4,14057.5,44416.9,18.2558,18.2558,18.2558,18.2558,18.2558
1.78335e-05	-547112.68	0,4.15904e-08,9.7391e-08,1.72257e-07,2.72702e-07,4.07467e-07,5.88276e-07,8.30863e-07,1.15633e-06,1.59301e-06,2.17888e-06,2.96493e-06,4.01955e-06,5.4345e-06,7.33289e-06,9.87991e-06,1.32972e-05,1.7882e-05,2.40333e-05,3.22864e-05,4.33592e-05,5.82153e-05,7.81473e-05,0.000104889,0.000140769,0.000188907,0.000253492,0.000340144,0.000456402,0.000612383,inf	12425,12425,12425,12425,12425,2323.32,2255.23,2659.27,3146.74,4451.36,7459.09,11920.7,16852.5,21830.6,26445.8,26842.3,21959.1,18176.7,15708,14919.1,15952.5,15104.4,13078.2,12606.5,41470.9,18.2558,18.2558,18.2558,18.2558,18.2558
1.77342e-05	-547209.86	0,4.15904e-08,9.7391e-08,1.72257e-07,2.72702e-07,4.07467e-07,5.88276e-07,8.30863e-07,1.15633e-06,1.59301e-06,2.17888e-06,2.96493e-06,4.01955e-06,5.4345e-06,7.33289e-06,9.87991e-06,1.32972e-05,1.7882e-05,2.40333e-05,3.22864e-05,4.33592e-05,5.82153e-05,7.81473e-05,0.000104889,0.000140769,0.000188907,0.000253492,0.000340144,0.000456402,0.000612383,inf	12092.5,12092.5,12092.5,12092.5,12092.5,2234.84,2205.79,2620.91,3086.07,4361.5,7361.83,11823.8,16732.5,21713.2,26416.7,26862.1,21974.1,18240.5,15789.2,14996.2,15969.8,14857.1,12466.6,11695.1,40453.8,18.2558,18.2558,18.2558,18.2558,18.2558
1.76358e-05	-547261.25	0,4.15904e-08,9.7391e-08,1.72257e-07,2.72702e-07,4.07467e-07,5.88276e-07,8.30863e-07,1.15633e-06,1.59301e-06,2.17888e-06,2.96493e-06,4.01955e-06,5.4345e-06,7.33289e-06,9.87991e-06,1.32972e-05,1.7882e-05,2.40333e-05,3.22864e-05,4.33592e-05,5.82153e-05,7.81473e-05,0.000104889,0.000140769,0.000188907,0.000253492,0.000340144,0.000456402,0.000612383,inf	11989,11989,11989,11989,11989,2166.97,2175.02,2605.57,3045.19,4290.94,7286.09,11747.6,16626.4,21595.9,26366.7,26846.3,21956.8,18285.2,15878.4,15121.2,16106.9,14805.7,12088.3,11046.9,40054.8,18.2558,18.2558,18.2558,18.2558,18.2558
1.75407e-05	-547282.91	0,4.15904e-08,9.7391e-08,1.72257e-07,2.72702e-07,4.07467e-07,5.88276e-07,8.30863e-07,1.15633e-06,1.59301e-06,2.17888e-06,2.96493e-06,4.01955e-06,5.4345e-06,7.33289e-06,9.87991e-06,1.32972e-05,1.7882e-05,2.40333e-05,3.22864e-05,4.33592e-05,5.82153e-05,7.81473e-05,0.000104889,0.000140769,0.000188907,0.000253492,0.000340144,0.000456402,0.000612383,inf	11989,11989,11989,11989,11989,2112.82,2154,2598.7,3016.39,4233.58,7226.64,11690,16538.2,21486.6,26306.8,26801.1,21901.4,18286.8,15933,15230,16267.3,14839.9,11835.9,10549.9,39875.7,18.2558,18.2558,18.2558,18.2558,18.2558
