time_index	left_time_boundary	right_time_boundary	lambda
0	0	2.55366e-06	359.918
1	2.55366e-06	5.97982e-06	359.918
2	5.97982e-06	1.05766e-05	359.918
3	1.05766e-05	1.6744e-05	359.918
4	1.6744e-05	2.50185e-05	359.918
5	2.50185e-05	3.61202e-05	304.74
6	3.61202e-05	5.10151e-05	302.214
7	5.10151e-05	7.09991e-05	291.396
8	7.09991e-05	9.78109e-05	295.608
9	9.78109e-05	0.000133784	283.341
10	0.000133784	0.000182047	291.26
11	0.000182047	0.000246801	311.551
12	0.000246801	0.000333679	323.893
13	0.000333679	0.00045024	318.49
14	0.00045024	0.000606627	293.416
15	0.000606627	0.000816447	279.306
16	0.000816447	0.00109796	286.451
17	0.00109796	0.00147565	300.067
18	0.00147565	0.00198239	308.698
19	0.00198239	0.00266226	306.664
20	0.00266226	0.00357443	299.206
21	0.00357443	0.00479826	294.216
22	0.00479826	0.00644023	288.896
23	0.00644023	0.00864321	289.629
24	0.00864321	0.0115989	296.057
25	0.0115989	0.0155644	238.263
26	0.0155644	0.0208849	238.263
27	0.0208849	0.0280232	238.263
28	0.0280232	0.0376004	238.263
29	0.0376004	inf	238.263
