time_index	left_time_boundary	right_time_boundary	lambda
0	0	5.01361e-08	3448.19
1	5.01361e-08	1.17402e-07	3448.19
2	1.17402e-07	2.07651e-07	3448.19
3	2.07651e-07	3.28736e-07	3448.19
4	3.28736e-07	4.91191e-07	3448.19
5	4.91191e-07	7.09152e-07	33.4865
6	7.09152e-07	1.00158e-06	19.0573
7	1.00158e-06	1.39393e-06	34.0385
8	1.39393e-06	1.92033e-06	126.879
9	1.92033e-06	2.62659e-06	956.467
10	2.62659e-06	3.57415e-06	6005.46
11	3.57415e-06	4.84546e-06	14578.9
12	4.84546e-06	6.55114e-06	15027.7
13	6.55114e-06	8.8396e-06	9772.32
14	8.8396e-06	1.191e-05	7350.65
15	1.191e-05	1.60294e-05	8418.66
16	1.60294e-05	2.15563e-05	12363.4
17	2.15563e-05	2.89715e-05	14988.4
18	2.89715e-05	3.89203e-05	15961.3
19	3.89203e-05	5.22684e-05	15630.8
20	5.22684e-05	7.0177e-05	13387
21	7.0177e-05	9.42045e-05	10832.7
22	9.42045e-05	0.000126442	9656.8
23	0.000126442	0.000169693	10630.4
24	0.000169693	0.000227722	18019
25	0.000227722	0.000305578	15.1441
26	0.000305578	0.000410035	15.1441
27	0.000410035	0.000550181	15.1441
28	0.000550181	0.000738211	15.1441
29	0.000738211	inf	15.1441
