0.000526234	-12978779.64	0,1.5296e-06,3.58183e-06,6.33523e-06,1.00294e-05,1.49857e-05,2.16355e-05,3.05573e-05,4.25274e-05,5.85873e-05,8.01345e-05,0.000109044,0.00014783,0.000199869,0.000269687,0.000363361,0.00048904,0.00065766,0.000883892,0.00118742,0.00159466,0.00214103,0.00287409,0.0038576,0.00517716,0.00694757,0.00932287,0.0125097,0.0167855,0.0225221,inf	318.421,318.421,318.421,318.421,318.421,319.225,290.226,289.113,291.697,298.494,310.642,328.25,347.961,366.949,388.119,413.411,443.417,475.875,507.342,532.021,545.235,549.181,550.152,550.65,545.307,536.787,536.787,536.787,536.787,536.787
0.00054547	-12976534.37	0,1.5296e-06,3.58183e-06,6.33523e-06,1.00294e-05,1.49857e-05,2.16355e-05,3.05573e-05,4.25274e-05,5.85873e-05,8.01345e-05,0.000109044,0.00014783,0.000199869,0.000269687,0.000363361,0.00048904,0.00065766,0.000883892,0.00118742,0.00159466,0.00214103,0.00287409,0.0038576,0.00517716,0.00694757,0.00932287,0.0125097,0.0167855,0.0225221,inf	310.259,310.259,310.259,310.259,310.259,315.675,260.414,255.074,251.842,253.849,263.789,282.866,305.074,325.003,348.424,379.265,419.017,464.28,510.011,547.123,567.679,575.264,580.846,587.101,580.683,566.607,566.607,566.607,566.607,566.607
0.000561608	-12975743.20	0,1.5296e-06,3.58183e-06,6.33523e-06,1.00294e-05,1.49857e-05,2.16355e-05,3.05573e-05,4.25274e-05,5.85873e-05,8.01345e-05,0.000109044,0.00014783,0.000199869,0.000269687,0.000363361,0.00048904,0.00065766,0.000883892,0.00118742,0.00159466,0.00214103,0.00287409,0.0038576,0.00517716,0.00694757,0.00932287,0.0125097,0.0167855,0.0225221,inf	315.865,315.865,315.865,315.865,315.865,335.383,257.824,252.562,245.212,243.01,250.318,269.781,292.435,310.195,331.821,363.096,406.363,457.374,510.133,553.425,577.301,587.052,597.873,611.841,606.52,588.225,588.225,588.225,588.225,588.225
0.000575417	-12975386.76	0,1.5296e-06,3.58183e-06,6.33523e-06,1.00294e-05,1.49857e-05,2.16355e-05,3.05573e-05,4.25274e-05,5.85873e-05,8.01345e-05,0.000109044,0.00014783,0.000199869,0.000269687,0.000363361,0.00048904,0.00065766,0.000883892,0.00118742,0.00159466,0.00214103,0.00287409,0.0038576,0.00517716,0.00694757,0.00932287,0.0125097,0.0167855,0.0225221,inf	317.149,317.149,317.149,317.149,317.149,353.651,257.59,255.556,245.92,240.836,246.381,266.92,290.274,305.566,324.625,354.911,399.495,453.37,509.854,556.117,580.89,591.449,607.032,629.079,625.836,603.768,603.768,603.768,603.768,603.768
0.000587469	-12975193.42	0,1.5296e-06,3.58183e-06,6.33523e-06,1.00294e-05,1.49857e-05,2.16355e-05,3.05573e-05,4.25274e-05,5.85873e-05,8.01345e-05,0.000109044,0.00014783,0.000199869,0.000269687,0.000363361,0.00048904,0.00065766,0.000883892,0.00118742,0.00159466,0.00214103,0.00287409,0.0038576,0.00517716,0.00694757,0.00932287,0.0125097,0.0167855,0.0225221,inf	317.149,317.149,317.149,317.149,317.149,367.164,255.338,258.16,247.394,240.396,244.904,267.209,291.804,304.958,321.561,350.575,395.693,451.186,509.826,557.408,581.695,592.062,611.647,641.467,640.665,614.854,614.854,614.854,614.854,614.854
0.00059815	-12975065.79	0,1.5296e-06,3.58183e-06,6.33523e-06,1.00294e-05,1.49857e-05,2.16355e-05,3.05573e-05,4.25274e-05,5.85873e-05,8.01345e-05,0.000109044,0.00014783,0.000199869,0.000269687,0.000363361,0.00048904,0.00065766,0.000883892,0.00118742,0.00159466,0.00214103,0.00287409,0.0038576,0.00517716,0.00694757,0.00932287,0.0125097,0.0167855,0.0225221,inf	312.7,312.7,312.7,312.7,312.7,376.627,251.105,259.512,248.185,239.828,243.711,268.187,294.452,305.881,320.354,348.173,393.567,450.13,510.17,558.226,581.268,590.77,613.606,650.65,652.35,622.66,622.66,622.66,622.66,622.66
0.000607719	-12974979.60	0,1.5296e-06,3.58183e-06,6.33523e-06,1.00294e-05,1.49857e-05,2.16355e-05,3.05573e-05,4.25274e-05,5.85873e-05,8.01345e-05,0.000109044,0.00014783,0.000199869,0.000269687,0.000363361,0.00048904,0.00065766,0.000883892,0.00118742,0.00159466,0.00214103,0.00287409,0.0038576,0.00517716,0.00694757,0.00932287,0.0125097,0.0167855,0.0225221,inf	312.689,312.689,312.689,312.689,312.689,384.367,246.018,260.099,248.341,238.844,242.255,269.06,297.249,307.297,319.97,346.76,392.369,449.756,510.832,558.946,580.35,588.556,613.996,657.665,661.789,628.033,628.033,628.033,628.033,628.033
0.000616355	-12974903.48	0,1.5296e-06,3.58183e-06,6.33523e-06,1.00294e-05,1.49857e-05,2.16355e-05,3.05573e-05,4.25274e-05,5.85873e-05,8.01345e-05,0.000109044,0.00014783,0.000199869,0.000269687,0.000363361,0.00048904,0.00065766,0.000883892,0.00118742,0.00159466,0.00214103,0.00287409,0.0038576,0.00517716,0.00694757,0.00932287,0.0125097,0.0167855,0.0225221,inf	308.857,308.857,308.857,308.857,308.857,390.263,240.418,260.262,248.106,237.537,240.487,269.624,299.851,308.776,319.93,345.854,391.682,449.779,511.72,559.707,579.294,585.942,613.453,663.177,669.586,631.588,631.588,631.588,631.588,631.588
0.000624192	-12974849.21	0,1.5296e-06,3.58183e-06,6.33523e-06,1.00294e-05,1.49857e-05,2.16355e-05,3.05573e-05,4.25274e-05,5.85873e-05,8.01345e-05,0.000109044,0.00014783,0.000199869,0.000269687,0.000363361,0.00048904,0.00065766,0.000883892,0.00118742,0.00159466,0.00214103,0.00287409,0.0038576,0.00517716,0.00694757,0.00932287,0.0125097,0.0167855,0.0225221,inf	305.877,305.877,305.877,305.877,305.877,395.981,234.996,260.457,247.785,236.115,238.527,269.899,302.183,310.161,320.014,345.209,391.27,450.016,512.746,560.546,578.263,583.204,612.36,667.62,676.162,633.773,633.773,633.773,633.773,633.773
0.00063133	-12974803.50	0,1.5296e-06,3.58183e-06,6.33523e-06,1.00294e-05,1.49857e-05,2.16355e-05,3.05573e-05,4.25274e-05,5.85873e-05,8.01345e-05,0.000109044,0.00014783,0.000199869,0.000269687,0.000363361,0.00048904,0.00065766,0.000883892,0.00118742,0.00159466,0.00214103,0.00287409,0.0038576,0.00517716,0.00694757,0.00932287,0.0125097,0.0167855,0.0225221,inf	305.877,305.877,305.877,305.877,305.877,401.502,229.794,260.799,247.512,234.692,236.467,269.948,304.256,311.406,320.127,344.696,390.998,450.356,513.843,561.458,577.329,580.489,610.946,671.289,681.811,634.92,634.92,634.92,634.92,634.92
0.000637849	-12974759.48	0,1.5296e-06,3.58183e-06,6.33523e-06,1.00294e-05,1.49857e-05,2.16355e-05,3.05573e-05,4.25274e-05,5.85873e-05,8.01345e-05,0.000109044,0.00014783,0.000199869,0.000269687,0.000363361,0.00048904,0.00065766,0.000883892,0.00118742,0.00159466,0.00214103,0.00287409,0.0038576,0.00517716,0.00694757,0.00932287,0.0125097,0.0167855,0.0225221,inf	305.877,305.877,305.877,305.877,305.877,406.253,224.715,261.288,247.341,233.34,234.386,269.84,306.111,312.513,320.23,344.25,390.792,450.727,514.96,562.428,576.515,577.872,609.357,674.385,686.747,635.275,635.275,635.275,635.275,635.275
0.000643816	-12974722.13	0,1.5296e-06,3.58183e-06,6.33523e-06,1.00294e-05,1.49857e-05,2.16355e-05,3.05573e-05,4.25274e-05,5.85873e-05,8.01345e-05,0.000109044,0.00014783,0.000199869,0.000269687,0.000363361,0.00048904,0.00065766,0.000883892,0.00118742,0.00159466,0.00214103,0.00287409,0.0038576,0.00517716,0.00694757,0.00932287,0.0125097,0.0167855,0.0225221,inf	305.877,305.877,305.877,305.877,305.877,410.425,219.803,261.965,247.323,232.107,232.337,269.63,307.794,313.5,320.314,343.841,390.61,451.089,516.062,563.437,575.826,575.387,607.679,677.05,691.125,635.026,635.026,635.026,635.026,635.026
0.000649286	-12974690.32	0,1.5296e-06,3.58183e-06,6.33523e-06,1.00294e-05,1.49857e-05,2.16355e-05,3.05573e-05,4.25274e-05,5.85873e-05,8.01345e-05,0.000109044,0.00014783,0.000199869,0.000269687,0.000363361,0.00048904,0.00065766,0.000883892,0.00118742,0.00159466,0.00214103,0.00287409,0.0038576,0.00517716,0.00694757,0.00932287,0.0125097,0.0167855,0.0225221,inf	305.877,305.877,305.877,305.877,305.877,414.128,215.077,262.824,247.458,231.009,230.353,269.362,309.339,314.389,320.38,343.454,390.433,451.417,517.127,564.466,575.254,573.048,605.97,679.384,695.06,634.315,634.315,634.315,634.315,634.315
0.000654307	-12974663.14	0,1.5296e-06,3.58183e-06,6.33523e-06,1.00294e-05,1.49857e-05,2.16355e-05,3.05573e-05,4.25274e-05,5.85873e-05,8.01345e-05,0.000109044,0.00014783,0.000199869,0.000269687,0.000363361,0.00048904,0.00065766,0.000883892,0.00118742,0.00159466,0.00214103,0.00287409,0.0038576,0.00517716,0.00694757,0.00932287,0.0125097,0.0167855,0.0225221,inf	305.877,305.877,305.877,305.877,305.877,417.428,210.518,263.841,247.728,230.047,228.447,269.059,310.777,315.198,320.433,343.085,390.248,451.7,518.139,565.502,574.789,570.858,604.264,681.46,698.641,633.249,633.249,633.249,633.249,633.249
0.000658921	-12974639.85	0,1.5296e-06,3.58183e-06,6.33523e-06,1.00294e-05,1.49857e-05,2.16355e-05,3.05573e-05,4.25274e-05,5.85873e-05,8.01345e-05,0.000109044,0.00014783,0.000199869,0.000269687,0.000363361,0.00048904,0.00065766,0.000883892,0.00118742,0.00159466,0.00214103,0.00287409,0.0038576,0.00517716,0.00694757,0.00932287,0.0125097,0.0167855,0.0225221,inf	305.877,305.877,305.877,305.877,305.877,420.364,206.113,264.983,248.11,229.207,226.615,268.735,312.125,315.943,320.478,342.731,390.052,451.932,519.09,566.533,574.419,568.812,602.582,683.332,701.933,631.913,631.913,631.913,631.913,631.913
0.000663152	-12974619.85	0,1.5296e-06,3.58183e-06,6.33523e-06,1.00294e-05,1.49857e-05,2.16355e-05,3.05573e-05,4.25274e-05,5.85873e-05,8.01345e-05,0.000109044,0.00014783,0.000199869,0.000269687,0.000363361,0.00048904,0.00065766,0.000883892,0.00118742,0.00159466,0.00214103,0.00287409,0.0038576,0.00517716,0.00694757,0.00932287,0.0125097,0.0167855,0.0225221,inf	305.877,305.877,305.877,305.877,305.877,422.853,201.774,266.121,248.498,228.391,224.771,268.302,313.289,316.523,320.416,342.292,389.744,452.017,519.899,567.497,574.102,566.889,600.927,685.015,704.959,630.347,630.347,630.347,630.347,630.347
0.000667053	-12974602.60	0,1.5296e-06,3.58183e-06,6.33523e-06,1.00294e-05,1.49857e-05,2.16355e-05,3.05573e-05,4.25274e-05,5.85873e-05,8.01345e-05,0.000109044,0.00014783,0.000199869,0.000269687,0.000363361,0.00048904,0.00065766,0.000883892,0.00118742,0.00159466,0.00214103,0.00287409,0.0038576,0.00517716,0.00694757,0.00932287,0.0125097,0.0167855,0.0225221,inf	305.877,305.877,305.877,305.877,305.877,425.22,197.62,267.435,249.053,227.754,223.078,267.952,314.483,317.148,320.436,341.944,389.495,452.113,520.696,568.482,573.884,565.109,599.326,686.575,707.799,628.638,628.638,628.638,628.638,628.638
0.000670647	-12974587.75	0,1.5296e-06,3.58183e-06,6.33523e-06,1.00294e-05,1.49857e-05,2.16355e-05,3.05573e-05,4.25274e-05,5.85873e-05,8.01345e-05,0.000109044,0.00014783,0.000199869,0.000269687,0.000363361,0.00048904,0.00065766,0.000883892,0.00118742,0.00159466,0.00214103,0.00287409,0.0038576,0.00517716,0.00694757,0.00932287,0.0125097,0.0167855,0.0225221,inf	305.877,305.877,305.877,305.877,305.877,427.38,193.593,268.809,249.686,227.215,221.469,267.619,315.647,317.762,320.486,341.641,389.263,452.185,521.447,569.456,573.737,563.451,597.776,688.03,710.482,626.821,626.821,626.821,626.821,626.821
0.00067396	-12974574.92	0,1.5296e-06,3.58183e-06,6.33523e-06,1.00294e-05,1.49857e-05,2.16355e-05,3.05573e-05,4.25274e-05,5.85873e-05,8.01345e-05,0.000109044,0.00014783,0.000199869,0.000269687,0.000363361,0.00048904,0.00065766,0.000883892,0.00118742,0.00159466,0.00214103,0.00287409,0.0038576,0.00517716,0.00694757,0.00932287,0.0125097,0.0167855,0.0225221,inf	305.877,305.877,305.877,305.877,305.877,429.34,189.673,270.216,250.359,226.75,219.923,267.29,316.768,318.349,320.554,341.369,389.039,452.221,522.142,570.408,573.647,561.904,596.277,689.398,713.029,624.927,624.927,624.927,624.927,624.927
0.000677014	-12974563.83	0,1.5296e-06,3.58183e-06,6.33523e-06,1.00294e-05,1.49857e-05,2.16355e-05,3.05573e-05,4.25274e-05,5.85873e-05,8.01345e-05,0.000109044,0.00014783,0.000199869,0.000269687,0.000363361,0.00048904,0.00065766,0.000883892,0.00118742,0.00159466,0.00214103,0.00287409,0.0038576,0.00517716,0.00694757,0.00932287,0.0125097,0.0167855,0.0225221,inf	305.877,305.877,305.877,305.877,305.877,431.13,185.846,271.64,251.058,226.346,218.429,266.959,317.839,318.906,320.631,341.122,388.816,452.222,522.78,571.332,573.604,560.456,594.827,690.69,715.461,622.979,622.979,622.979,622.979,622.979
