0.000927868	-21330518.33	0,2.58924e-06,6.06315e-06,1.0724e-05,1.69773e-05,2.53672e-05,3.66236e-05,5.1726e-05,7.19885e-05,9.9174e-05,0.000135648,0.000184584,0.00025024,0.000338329,0.000456515,0.000615081,0.000827825,0.00111326,0.00149621,0.00201001,0.00269936,0.00362424,0.00486512,0.00652998,0.00876366,0.0117605,0.0157813,0.0211759,0.0284137,0.0381244,inf	310.728,310.728,310.728,310.728,310.728,331.504,342.769,331.28,317.465,311.295,304.293,295.655,289.748,286.611,285.797,285.534,285.254,286.826,290.413,294.548,296.648,294.924,290.209,283.697,277.97,286.109,286.109,286.109,286.109,286.109
0.000997112	-21326610.75	0,2.58924e-06,6.06315e-06,1.0724e-05,1.69773e-05,2.53672e-05,3.66236e-05,5.1726e-05,7.19885e-05,9.9174e-05,0.000135648,0.000184584,0.00025024,0.000338329,0.000456515,0.000615081,0.000827825,0.00111326,0.00149621,0.00201001,0.00269936,0.00362424,0.00486512,0.00652998,0.00876366,0.0117605,0.0157813,0.0211759,0.0284137,0.0381244,inf	303.865,303.865,303.865,303.865,303.865,343.901,369.392,350.034,328.075,321.052,311.251,297.841,289.024,284.634,283.859,283.337,282.26,284.325,289.942,296.756,300.271,297.165,288.848,277.442,267.374,281.187,281.187,281.187,281.187,281.187
0.00106038	-21323751.41	0,2.58924e-06,6.06315e-06,1.0724e-05,1.69773e-05,2.53672e-05,3.66236e-05,5.1726e-05,7.19885e-05,9.9174e-05,0.000135648,0.000184584,0.00025024,0.000338329,0.000456515,0.000615081,0.000827825,0.00111326,0.00149621,0.00201001,0.00269936,0.00362424,0.00486512,0.00652998,0.00876366,0.0117605,0.0157813,0.0211759,0.0284137,0.0381244,inf	290.761,290.761,290.761,290.761,290.761,344.606,383.488,357.724,330.759,325.48,315.003,298.92,288.776,284.12,283.83,283.06,280.978,283.032,289.889,298.64,303.306,299.231,288.209,273.066,259.582,277.604,277.604,277.604,277.604,277.604
0.00111812	-21321588.83	0,2.58924e-06,6.06315e-06,1.0724e-05,1.69773e-05,2.53672e-05,3.66236e-05,5.1726e-05,7.19885e-05,9.9174e-05,0.000135648,0.000184584,0.00025024,0.000338329,0.000456515,0.000615081,0.000827825,0.00111326,0.00149621,0.00201001,0.00269936,0.00362424,0.00486512,0.00652998,0.00876366,0.0117605,0.0157813,0.0211759,0.0284137,0.0381244,inf	279.88,279.88,279.88,279.88,279.88,341.437,391.834,359.897,329.518,327.095,316.916,299.278,288.641,284.232,284.646,283.618,280.432,282.202,289.822,300.04,305.699,300.973,287.91,269.861,253.609,274.889,274.889,274.889,274.889,274.889
0.00117087	-21319914.02	0,2.58924e-06,6.06315e-06,1.0724e-05,1.69773e-05,2.53672e-05,3.66236e-05,5.1726e-05,7.19885e-05,9.9174e-05,0.000135648,0.000184584,0.00025024,0.000338329,0.000456515,0.000615081,0.000827825,0.00111326,0.00149621,0.00201001,0.00269936,0.00362424,0.00486512,0.00652998,0.00876366,0.0117605,0.0157813,0.0211759,0.0284137,0.0381244,inf	271.223,271.223,271.223,271.223,271.223,337.512,397.697,359.405,326.463,327.314,317.836,299.242,288.553,284.661,285.888,284.587,280.263,281.593,289.668,301.026,307.555,302.399,287.78,267.434,248.882,272.761,272.761,272.761,272.761,272.761
0.00121912	-21318598.84	0,2.58924e-06,6.06315e-06,1.0724e-05,1.69773e-05,2.53672e-05,3.66236e-05,5.1726e-05,7.19885e-05,9.9174e-05,0.000135648,0.000184584,0.00025024,0.000338329,0.000456515,0.000615081,0.000827825,0.00111326,0.00149621,0.00201001,0.00269936,0.00362424,0.00486512,0.00652998,0.00876366,0.0117605,0.0157813,0.0211759,0.0284137,0.0381244,inf	264.655,264.655,264.655,264.655,264.655,334.056,402.635,357.687,322.677,326.894,318.233,299.001,288.491,285.259,287.349,285.768,280.306,281.114,289.439,301.697,308.991,303.555,287.735,265.545,245.045,271.046,271.046,271.046,271.046,271.046
0.0012633	-21317554.08	0,2.58924e-06,6.06315e-06,1.0724e-05,1.69773e-05,2.53672e-05,3.66236e-05,5.1726e-05,7.19885e-05,9.9174e-05,0.000135648,0.000184584,0.00025024,0.000338329,0.000456515,0.000615081,0.000827825,0.00111326,0.00149621,0.00201001,0.00269936,0.00362424,0.00486512,0.00652998,0.00876366,0.0117605,0.0157813,0.0211759,0.0284137,0.0381244,inf	260.906,260.906,260.906,260.906,260.906,331.397,407.309,355.435,318.686,326.227,318.358,298.652,288.435,285.935,288.911,287.047,280.476,280.722,289.159,302.141,310.108,304.491,287.734,264.043,241.866,269.63,269.63,269.63,269.63,269.63
0.00130383	-21316713.50	0,2.58924e-06,6.06315e-06,1.0724e-05,1.69773e-05,2.53672e-05,3.66236e-05,5.1726e-05,7.19885e-05,9.9174e-05,0.000135648,0.000184584,0.00025024,0.000338329,0.000456515,0.000615081,0.000827825,0.00111326,0.00149621,0.00201001,0.00269936,0.00362424,0.00486512,0.00652998,0.00876366,0.0117605,0.0157813,0.0211759,0.0284137,0.0381244,inf	258.551,258.551,258.551,258.551,258.551,329.374,411.877,352.93,314.727,325.504,318.347,298.247,288.372,286.634,290.502,288.362,280.721,280.395,288.85,302.421,310.982,305.249,287.753,262.828,239.187,268.437,268.437,268.437,268.437,268.437
0.00134105	-21316033.54	0,2.58924e-06,6.06315e-06,1.0724e-05,1.69773e-05,2.53672e-05,3.66236e-05,5.1726e-05,7.19885e-05,9.9174e-05,0.000135648,0.000184584,0.00025024,0.000338329,0.000456515,0.000615081,0.000827825,0.00111326,0.00149621,0.00201001,0.00269936,0.00362424,0.00486512,0.00652998,0.00876366,0.0117605,0.0157813,0.0211759,0.0284137,0.0381244,inf	257.469,257.469,257.469,257.469,257.469,327.898,416.428,350.338,310.93,324.835,318.282,297.818,288.294,287.323,292.078,289.67,281.008,280.117,288.528,302.585,311.672,305.866,287.781,261.83,236.897,267.413,267.413,267.413,267.413,267.413
0.00137527	-21315479.32	0,2.58924e-06,6.06315e-06,1.0724e-05,1.69773e-05,2.53672e-05,3.66236e-05,5.1726e-05,7.19885e-05,9.9174e-05,0.000135648,0.000184584,0.00025024,0.000338329,0.000456515,0.000615081,0.000827825,0.00111326,0.00149621,0.00201001,0.00269936,0.00362424,0.00486512,0.00652998,0.00876366,0.0117605,0.0157813,0.0211759,0.0284137,0.0381244,inf	257.469,257.469,257.469,257.469,257.469,326.788,420.95,347.732,307.344,324.271,318.21,297.384,288.196,287.983,293.613,290.949,281.317,279.878,288.203,302.667,312.22,306.369,287.81,261.001,234.915,266.522,266.522,266.522,266.522,266.522
0.00140677	-21315024.69	0,2.58924e-06,6.06315e-06,1.0724e-05,1.69773e-05,2.53672e-05,3.66236e-05,5.1726e-05,7.19885e-05,9.9174e-05,0.000135648,0.000184584,0.00025024,0.000338329,0.000456515,0.000615081,0.000827825,0.00111326,0.00149621,0.00201001,0.00269936,0.00362424,0.00486512,0.00652998,0.00876366,0.0117605,0.0157813,0.0211759,0.0284137,0.0381244,inf	257.868,257.868,257.868,257.868,257.868,325.889,425.399,345.14,303.99,323.837,318.157,296.955,288.076,288.601,295.092,292.184,281.633,279.669,287.883,302.69,312.66,306.78,287.838,260.306,233.184,265.737,265.737,265.737,265.737,265.737
0.0014358	-21314650.96	0,2.58924e-06,6.06315e-06,1.0724e-05,1.69773e-05,2.53672e-05,3.66236e-05,5.1726e-05,7.19885e-05,9.9174e-05,0.000135648,0.000184584,0.00025024,0.000338329,0.000456515,0.000615081,0.000827825,0.00111326,0.00149621,0.00201001,0.00269936,0.00362424,0.00486512,0.00652998,0.00876366,0.0117605,0.0157813,0.0211759,0.0284137,0.0381244,inf	257.868,257.868,257.868,257.868,257.868,325.127,429.769,342.577,300.862,323.543,318.139,296.54,287.935,289.171,296.504,293.365,281.949,279.486,287.571,302.673,313.015,307.116,287.864,259.718,231.658,265.038,265.038,265.038,265.038,265.038
0.00146257	-21314344.31	0,2.58924e-06,6.06315e-06,1.0724e-05,1.69773e-05,2.53672e-05,3.66236e-05,5.1726e-05,7.19885e-05,9.9174e-05,0.000135648,0.000184584,0.00025024,0.000338329,0.000456515,0.000615081,0.000827825,0.00111326,0.00149621,0.00201001,0.00269936,0.00362424,0.00486512,0.00652998,0.00876366,0.0117605,0.0157813,0.0211759,0.0284137,0.0381244,inf	258.993,258.993,258.993,258.993,258.993,324.539,434.116,340.087,297.966,323.394,318.169,296.142,287.775,289.693,297.847,294.49,282.257,279.324,287.27,302.628,313.304,307.392,287.886,259.218,230.303,264.409,264.409,264.409,264.409,264.409
0.00148729	-21314088.27	0,2.58924e-06,6.06315e-06,1.0724e-05,1.69773e-05,2.53672e-05,3.66236e-05,5.1726e-05,7.19885e-05,9.9174e-05,0.000135648,0.000184584,0.00025024,0.000338329,0.000456515,0.000615081,0.000827825,0.00111326,0.00149621,0.00201001,0.00269936,0.00362424,0.00486512,0.00652998,0.00876366,0.0117605,0.0157813,0.0211759,0.0284137,0.0381244,inf	260.586,260.586,260.586,260.586,260.586,323.947,438.329,337.624,295.269,323.376,318.243,295.765,287.595,290.165,299.119,295.557,282.554,279.18,286.982,302.564,313.542,307.619,287.905,258.791,229.092,263.84,263.84,263.84,263.84,263.84
0.00151014	-21313874.67	0,2.58924e-06,6.06315e-06,1.0724e-05,1.69773e-05,2.53672e-05,3.66236e-05,5.1726e-05,7.19885e-05,9.9174e-05,0.000135648,0.000184584,0.00025024,0.000338329,0.000456515,0.000615081,0.000827825,0.00111326,0.00149621,0.00201001,0.00269936,0.00362424,0.00486512,0.00652998,0.00876366,0.0117605,0.0157813,0.0211759,0.0284137,0.0381244,inf	260.585,260.585,260.585,260.585,260.585,323.266,442.368,335.183,292.752,323.477,318.361,295.405,287.397,290.588,300.322,296.565,282.837,279.049,286.707,302.488,313.739,307.805,287.92,258.425,228.004,263.321,263.321,263.321,263.321,263.321
0.00153126	-21313700.97	0,2.58924e-06,6.06315e-06,1.0724e-05,1.69773e-05,2.53672e-05,3.66236e-05,5.1726e-05,7.19885e-05,9.9174e-05,0.000135648,0.000184584,0.00025024,0.000338329,0.000456515,0.000615081,0.000827825,0.00111326,0.00149621,0.00201001,0.00269936,0.00362424,0.00486512,0.00652998,0.00876366,0.0117605,0.0157813,0.0211759,0.0284137,0.0381244,inf	261.41,261.41,261.41,261.41,261.41,322.705,446.406,332.829,290.423,323.701,318.529,295.07,287.185,290.966,301.457,297.516,283.106,278.931,286.446,302.404,313.903,307.958,287.932,258.11,227.021,262.846,262.846,262.846,262.846,262.846
0.0015508	-21313554.54	0,2.58924e-06,6.06315e-06,1.0724e-05,1.69773e-05,2.53672e-05,3.66236e-05,5.1726e-05,7.19885e-05,9.9174e-05,0.000135648,0.000184584,0.00025024,0.000338329,0.000456515,0.000615081,0.000827825,0.00111326,0.00149621,0.00201001,0.00269936,0.00362424,0.00486512,0.00652998,0.00876366,0.0117605,0.0157813,0.0211759,0.0284137,0.0381244,inf	261.443,261.443,261.443,261.443,261.443,322.113,450.325,330.509,288.243,324.023,318.734,294.752,286.959,291.3,302.528,298.413,283.358,278.822,286.198,302.317,314.042,308.082,287.942,257.84,226.131,262.409,262.409,262.409,262.409,262.409
0.0015689	-21313434.45	0,2.58924e-06,6.06315e-06,1.0724e-05,1.69773e-05,2.53672e-05,3.66236e-05,5.1726e-05,7.19885e-05,9.9174e-05,0.000135648,0.000184584,0.00025024,0.000338329,0.000456515,0.000615081,0.000827825,0.00111326,0.00149621,0.00201001,0.00269936,0.00362424,0.00486512,0.00652998,0.00876366,0.0117605,0.0157813,0.0211759,0.0284137,0.0381244,inf	262.268,262.268,262.268,262.268,262.268,321.595,454.216,328.243,286.21,324.44,318.978,294.452,286.721,291.594,303.538,299.257,283.595,278.722,285.963,302.228,314.16,308.182,287.95,257.607,225.32,262.006,262.006,262.006,262.006,262.006
0.00158567	-21313332.41	0,2.58924e-06,6.06315e-06,1.0724e-05,1.69773e-05,2.53672e-05,3.66236e-05,5.1726e-05,7.19885e-05,9.9174e-05,0.000135648,0.000184584,0.00025024,0.000338329,0.000456515,0.000615081,0.000827825,0.00111326,0.00149621,0.00201001,0.00269936,0.00362424,0.00486512,0.00652998,0.00876366,0.0117605,0.0157813,0.0211759,0.0284137,0.0381244,inf	263.037,263.037,263.037,263.037,263.037,321.005,457.958,325.999,284.289,324.932,319.251,294.169,286.472,291.851,304.49,300.053,283.817,278.63,285.74,302.14,314.261,308.263,287.955,257.408,224.58,261.633,261.633,261.633,261.633,261.633
0.00160122	-21313247.21	0,2.58924e-06,6.06315e-06,1.0724e-05,1.69773e-05,2.53672e-05,3.66236e-05,5.1726e-05,7.19885e-05,9.9174e-05,0.000135648,0.000184584,0.00025024,0.000338329,0.000456515,0.000615081,0.000827825,0.00111326,0.00149621,0.00201001,0.00269936,0.00362424,0.00486512,0.00652998,0.00876366,0.0117605,0.0157813,0.0211759,0.0284137,0.0381244,inf	263.386,263.386,263.386,263.386,263.386,320.356,461.592,323.773,282.474,325.494,319.554,293.903,286.214,292.073,305.388,300.802,284.024,278.544,285.529,302.054,314.349,308.327,287.959,257.237,223.902,261.286,261.286,261.286,261.286,261.286
