time_index	left_time_boundary	right_time_boundary	lambda
0	0	2.60177e-06	366.565
1	2.60177e-06	6.09249e-06	366.565
2	6.09249e-06	1.07759e-05	366.565
3	1.07759e-05	1.70594e-05	366.565
4	1.70594e-05	2.54899e-05	366.565
5	2.54899e-05	3.68008e-05	261.905
6	3.68008e-05	5.19763e-05	308.734
7	5.19763e-05	7.23368e-05	287.361
8	7.23368e-05	9.96538e-05	290.402
9	9.96538e-05	0.000136304	292.819
10	0.000136304	0.000185477	287.181
11	0.000185477	0.000251451	291.202
12	0.000251451	0.000339966	287.074
13	0.000339966	0.000458723	278.433
14	0.000458723	0.000618057	287.633
15	0.000618057	0.00083183	298.899
16	0.00083183	0.00111864	302.243
17	0.00111864	0.00150345	303.647
18	0.00150345	0.00201974	300.665
19	0.00201974	0.00271242	295.76
20	0.00271242	0.00364177	292.531
21	0.00364177	0.00488866	289.093
22	0.00488866	0.00656157	276.507
23	0.00656157	0.00880606	267.097
24	0.00880606	0.0118174	272.805
25	0.0118174	0.0158577	213.994
26	0.0158577	0.0212784	213.994
27	0.0212784	0.0285511	213.994
28	0.0285511	0.0383088	213.994
29	0.0383088	inf	213.994
