time_index	left_time_boundary	right_time_boundary	lambda
0	0	2.55305e-06	362.91
1	2.55305e-06	5.9784e-06	362.91
2	5.9784e-06	1.05741e-05	362.91
3	1.05741e-05	1.674e-05	362.91
4	1.674e-05	2.50126e-05	362.91
5	2.50126e-05	3.61117e-05	129.502
6	3.61117e-05	5.1003e-05	291.012
7	5.1003e-05	7.09822e-05	336.982
8	7.09822e-05	9.77877e-05	270.81
9	9.77877e-05	0.000133752	254.402
10	0.000133752	0.000182004	268.252
11	0.000182004	0.000246742	293.612
12	0.000246742	0.0003336	314.158
13	0.0003336	0.000450133	311.1
14	0.000450133	0.000606483	293.945
15	0.000606483	0.000816253	287.275
16	0.000816253	0.0010977	289.345
17	0.0010977	0.0014753	295.84
18	0.0014753	0.00198192	304.127
19	0.00198192	0.00266163	307.211
20	0.00266163	0.00357358	299.08
21	0.00357358	0.00479712	287.046
22	0.00479712	0.0064387	293.999
23	0.0064387	0.00864116	316.494
24	0.00864116	0.0115961	331.765
25	0.0115961	0.0155607	148.636
26	0.0155607	0.0208799	148.636
27	0.0208799	0.0280165	148.636
28	0.0280165	0.0375915	148.636
29	0.0375915	inf	148.636
