0.000526645	-13073207.89	0,1.54447e-06,3.61665e-06,6.39682e-06,1.01269e-05,1.51314e-05,2.18458e-05,3.08544e-05,4.29408e-05,5.91569e-05,8.09135e-05,0.000110104,0.000149267,0.000201812,0.000272309,0.000366893,0.000493794,0.000664053,0.000892484,0.00119896,0.00161016,0.00216184,0.00290203,0.0038951,0.00522749,0.00701511,0.0094135,0.0126314,0.0169486,0.022741,inf	125.608,125.608,125.608,125.608,125.608,168.428,194.957,217.853,242.121,269.024,294.304,316.863,341.91,368.24,396.36,422.294,446.285,469.201,491.442,512.73,528.613,534.1,530.98,525.778,518.871,503.459,503.459,503.459,503.459,503.459
0.000542642	-13072190.36	0,1.54447e-06,3.61665e-06,6.39682e-06,1.01269e-05,1.51314e-05,2.18458e-05,3.08544e-05,4.29408e-05,5.91569e-05,8.09135e-05,0.000110104,0.000149267,0.000201812,0.000272309,0.000366893,0.000493794,0.000664053,0.000892484,0.00119896,0.00161016,0.00216184,0.00290203,0.0038951,0.00522749,0.00701511,0.0094135,0.0126314,0.0169486,0.022741,inf	57.6594,57.6594,57.6594,57.6594,57.6594,110.512,139.131,161.267,185.863,215.656,243.724,267.22,295.929,327.782,364.264,397.837,428.788,458.8,489.365,521.143,546.936,557.095,553.548,547.039,536.586,509.061,509.061,509.061,509.061,509.061
0.000556387	-13072017.93	0,1.54447e-06,3.61665e-06,6.39682e-06,1.01269e-05,1.51314e-05,2.18458e-05,3.08544e-05,4.29408e-05,5.91569e-05,8.09135e-05,0.000110104,0.000149267,0.000201812,0.000272309,0.000366893,0.000493794,0.000664053,0.000892484,0.00119896,0.00161016,0.00216184,0.00290203,0.0038951,0.00522749,0.00701511,0.0094135,0.0126314,0.0169486,0.022741,inf	34.9645,34.9645,34.9645,34.9645,34.9645,95.5579,126.298,146.586,170.051,200.906,229.315,250.655,279.342,312.412,352.527,388.704,421.363,453.028,486.488,523.722,555.781,569.347,566.268,560.323,548.247,510.968,510.968,510.968,510.968,510.968
0.000568371	-13071999.72	0,1.54447e-06,3.61665e-06,6.39682e-06,1.01269e-05,1.51314e-05,2.18458e-05,3.08544e-05,4.29408e-05,5.91569e-05,8.09135e-05,0.000110104,0.000149267,0.000201812,0.000272309,0.000366893,0.000493794,0.000664053,0.000892484,0.00119896,0.00161016,0.00216184,0.00290203,0.0038951,0.00522749,0.00701511,0.0094135,0.0126314,0.0169486,0.022741,inf	25.1466,25.1466,25.1466,25.1466,25.1466,91.3153,124.593,142.953,165.341,197.457,226.107,244.935,272.96,306.248,348.701,385.898,418.439,449.675,483.714,523.902,560.026,575.871,573.384,568.823,556.206,510.834,510.834,510.834,510.834,510.834
0.000578983	-13071995.41	0,1.54447e-06,3.61665e-06,6.39682e-06,1.01269e-05,1.51314e-05,2.18458e-05,3.08544e-05,4.29408e-05,5.91569e-05,8.09135e-05,0.000110104,0.000149267,0.000201812,0.000272309,0.000366893,0.000493794,0.000664053,0.000892484,0.00119896,0.00161016,0.00216184,0.00290203,0.0038951,0.00522749,0.00701511,0.0094135,0.0126314,0.0169486,0.022741,inf	21.3225,21.3225,21.3225,21.3225,21.3225,90.0761,125.901,142.246,163.678,197.351,226.442,242.938,270.316,303.654,348.123,385.875,417.701,447.731,481.353,523.218,562.072,579.334,577.293,574.43,561.896,509.628,509.628,509.628,509.628,509.628
0.000588491	-13071943.28	0,1.54447e-06,3.61665e-06,6.39682e-06,1.01269e-05,1.51314e-05,2.18458e-05,3.08544e-05,4.29408e-05,5.91569e-05,8.09135e-05,0.000110104,0.000149267,0.000201812,0.000272309,0.000366893,0.000493794,0.000664053,0.000892484,0.00119896,0.00161016,0.00216184,0.00290203,0.0038951,0.00522749,0.00701511,0.0094135,0.0126314,0.0169486,0.022741,inf	19.3508,19.3508,19.3508,19.3508,19.3508,89.5541,127.765,142.09,162.642,198.057,227.741,242.16,269.012,302.417,348.847,387.067,418.05,446.641,479.439,522.316,563.082,581.142,579.337,578.252,566.171,507.901,507.901,507.901,507.901,507.901
0.000597074	-13071882.92	0,1.54447e-06,3.61665e-06,6.39682e-06,1.01269e-05,1.51314e-05,2.18458e-05,3.08544e-05,4.29408e-05,5.91569e-05,8.09135e-05,0.000110104,0.000149267,0.000201812,0.000272309,0.000366893,0.000493794,0.000664053,0.000892484,0.00119896,0.00161016,0.00216184,0.00290203,0.0038951,0.00522749,0.00701511,0.0094135,0.0126314,0.0169486,0.022741,inf	16.1931,16.1931,16.1931,16.1931,16.1931,89.1786,129.603,141.88,161.59,198.817,229.179,241.728,268.148,301.646,350.029,388.742,418.925,446.069,477.91,521.453,563.621,582.04,580.272,580.939,569.546,505.963,505.963,505.963,505.963,505.963
0.000604861	-13071902.61	0,1.54447e-06,3.61665e-06,6.39682e-06,1.01269e-05,1.51314e-05,2.18458e-05,3.08544e-05,4.29408e-05,5.91569e-05,8.09135e-05,0.000110104,0.000149267,0.000201812,0.000272309,0.000366893,0.000493794,0.000664053,0.000892484,0.00119896,0.00161016,0.00216184,0.00290203,0.0038951,0.00522749,0.00701511,0.0094135,0.0126314,0.0169486,0.022741,inf	16.1931,16.1931,16.1931,16.1931,16.1931,89.0321,131.446,141.602,160.441,199.487,230.544,241.373,267.408,300.995,351.304,390.555,420.035,445.809,476.685,520.715,563.957,582.432,580.534,582.886,572.329,503.986,503.986,503.986,503.986,503.986
0.000611951	-13071820.53	0,1.54447e-06,3.61665e-06,6.39682e-06,1.01269e-05,1.51314e-05,2.18458e-05,3.08544e-05,4.29408e-05,5.91569e-05,8.09135e-05,0.000110104,0.000149267,0.000201812,0.000272309,0.000366893,0.000493794,0.000664053,0.000892484,0.00119896,0.00161016,0.00216184,0.00290203,0.0038951,0.00522749,0.00701511,0.0094135,0.0126314,0.0169486,0.022741,inf	14.0652,14.0652,14.0652,14.0652,14.0652,88.7987,133.09,141.2,159.185,200.046,231.795,241.022,266.69,300.336,352.52,392.342,421.219,445.73,475.688,520.116,564.222,582.54,580.381,584.333,574.713,502.06,502.06,502.06,502.06,502.06
0.000618421	-13071847.49	0,1.54447e-06,3.61665e-06,6.39682e-06,1.01269e-05,1.51314e-05,2.18458e-05,3.08544e-05,4.29408e-05,5.91569e-05,8.09135e-05,0.000110104,0.000149267,0.000201812,0.000272309,0.000366893,0.000493794,0.000664053,0.000892484,0.00119896,0.00161016,0.00216184,0.00290203,0.0038951,0.00522749,0.00701511,0.0094135,0.0126314,0.0169486,0.022741,inf	14.0652,14.0652,14.0652,14.0652,14.0652,88.7398,134.773,140.793,157.914,200.55,232.971,240.687,265.982,299.638,353.627,394.03,422.396,445.754,474.859,519.645,564.474,582.487,579.967,585.432,576.816,500.232,500.232,500.232,500.232,500.232
0.000624335	-13071790.43	0,1.54447e-06,3.61665e-06,6.39682e-06,1.01269e-05,1.51314e-05,2.18458e-05,3.08544e-05,4.29408e-05,5.91569e-05,8.09135e-05,0.000110104,0.000149267,0.000201812,0.000272309,0.000366893,0.000493794,0.000664053,0.000892484,0.00119896,0.00161016,0.00216184,0.00290203,0.0038951,0.00522749,0.00701511,0.0094135,0.0126314,0.0169486,0.022741,inf	14.0652,14.0652,14.0652,14.0652,14.0652,88.6364,136.349,140.349,156.618,201.013,234.096,240.378,265.291,298.9,354.612,395.595,423.524,445.828,474.153,519.283,564.738,582.346,579.39,586.283,578.715,498.525,498.525,498.525,498.525,498.525
0.000629746	-13071742.22	0,1.54447e-06,3.61665e-06,6.39682e-06,1.01269e-05,1.51314e-05,2.18458e-05,3.08544e-05,4.29408e-05,5.91569e-05,8.09135e-05,0.000110104,0.000149267,0.000201812,0.000272309,0.000366893,0.000493794,0.000664053,0.000892484,0.00119896,0.00161016,0.00216184,0.00290203,0.0038951,0.00522749,0.00701511,0.0094135,0.0126314,0.0169486,0.022741,inf	14.0652,14.0652,14.0652,14.0652,14.0652,88.5017,137.852,139.903,155.334,201.459,235.195,240.109,264.63,298.134,355.484,397.031,424.582,445.923,473.538,519.009,565.026,582.158,578.711,586.95,580.459,496.945,496.945,496.945,496.945,496.945
0.000634703	-13071701.20	0,1.54447e-06,3.61665e-06,6.39682e-06,1.01269e-05,1.51314e-05,2.18458e-05,3.08544e-05,4.29408e-05,5.91569e-05,8.09135e-05,0.000110104,0.000149267,0.000201812,0.000272309,0.000366893,0.000493794,0.000664053,0.000892484,0.00119896,0.00161016,0.00216184,0.00290203,0.0038951,0.00522749,0.00701511,0.0094135,0.0126314,0.0169486,0.022741,inf	14.0652,14.0652,14.0652,14.0652,14.0652,88.3524,139.299,139.465,154.063,201.9,236.274,239.89,264.01,297.356,356.256,398.344,425.565,446.021,472.988,518.807,565.337,581.947,577.97,587.48,582.083,495.489,495.489,495.489,495.489,495.489
0.000639235	-13071666.11	0,1.54447e-06,3.61665e-06,6.39682e-06,1.01269e-05,1.51314e-05,2.18458e-05,3.08544e-05,4.29408e-05,5.91569e-05,8.09135e-05,0.000110104,0.000149267,0.000201812,0.000272309,0.000366893,0.000493794,0.000664053,0.000892484,0.00119896,0.00161016,0.00216184,0.00290203,0.0038951,0.00522749,0.00701511,0.0094135,0.0126314,0.0169486,0.022741,inf	14.0652,14.0652,14.0652,14.0652,14.0652,88.1499,140.647,138.982,152.749,202.245,237.235,239.62,263.326,296.457,356.811,399.411,426.351,446.008,472.412,518.615,565.648,581.711,577.177,587.881,583.578,494.128,494.128,494.128,494.128,494.128
0.000643399	-13071636.19	0,1.54447e-06,3.61665e-06,6.39682e-06,1.01269e-05,1.51314e-05,2.18458e-05,3.08544e-05,4.29408e-05,5.91569e-05,8.09135e-05,0.000110104,0.000149267,0.000201812,0.000272309,0.000366893,0.000493794,0.000664053,0.000892484,0.00119896,0.00161016,0.00216184,0.00290203,0.0038951,0.00522749,0.00701511,0.0094135,0.0126314,0.0169486,0.022741,inf	14.0652,14.0652,14.0652,14.0652,14.0652,87.9564,142.012,138.574,151.519,202.661,238.272,239.485,262.781,295.656,357.393,400.471,427.148,446.049,471.924,518.506,566.003,581.493,576.38,588.209,585.003,492.888,492.888,492.888,492.888,492.888
0.000647222	-13071610.24	0,1.54447e-06,3.61665e-06,6.39682e-06,1.01269e-05,1.51314e-05,2.18458e-05,3.08544e-05,4.29408e-05,5.91569e-05,8.09135e-05,0.000110104,0.000149267,0.000201812,0.000272309,0.000366893,0.000493794,0.000664053,0.000892484,0.00119896,0.00161016,0.00216184,0.00290203,0.0038951,0.00522749,0.00701511,0.0094135,0.0126314,0.0169486,0.022741,inf	14.0652,14.0652,14.0652,14.0652,14.0652,87.7612,143.351,138.187,150.318,203.082,239.315,239.416,262.311,294.895,357.948,401.474,427.909,446.099,471.481,518.443,566.381,581.287,575.581,588.475,586.362,491.755,491.755,491.755,491.755,491.755
0.000650733	-13071587.71	0,1.54447e-06,3.61665e-06,6.39682e-06,1.01269e-05,1.51314e-05,2.18458e-05,3.08544e-05,4.29408e-05,5.91569e-05,8.09135e-05,0.000110104,0.000149267,0.000201812,0.000272309,0.000366893,0.000493794,0.000664053,0.000892484,0.00119896,0.00161016,0.00216184,0.00290203,0.0038951,0.00522749,0.00701511,0.0094135,0.0126314,0.0169486,0.022741,inf	14.0652,14.0652,14.0652,14.0652,14.0652,87.5361,144.649,137.813,149.133,203.487,240.337,239.393,261.893,294.161,358.466,402.41,428.622,446.142,471.066,518.411,566.771,581.09,574.789,588.689,587.659,490.719,490.719,490.719,490.719,490.719
0.000653958	-13071568.11	0,1.54447e-06,3.61665e-06,6.39682e-06,1.01269e-05,1.51314e-05,2.18458e-05,3.08544e-05,4.29408e-05,5.91569e-05,8.09135e-05,0.000110104,0.000149267,0.000201812,0.000272309,0.000366893,0.000493794,0.000664053,0.000892484,0.00119896,0.00161016,0.00216184,0.00290203,0.0038951,0.00522749,0.00701511,0.0094135,0.0126314,0.0169486,0.022741,inf	14.0652,14.0652,14.0652,14.0652,14.0652,87.3028,145.916,137.457,147.965,203.87,241.336,239.402,261.52,293.446,358.944,403.28,429.285,446.172,470.67,518.4,567.171,580.904,574.007,588.858,588.902,489.771,489.771,489.771,489.771,489.771
0.000656921	-13071551.01	0,1.54447e-06,3.61665e-06,6.39682e-06,1.01269e-05,1.51314e-05,2.18458e-05,3.08544e-05,4.29408e-05,5.91569e-05,8.09135e-05,0.000110104,0.000149267,0.000201812,0.000272309,0.000366893,0.000493794,0.000664053,0.000892484,0.00119896,0.00161016,0.00216184,0.00290203,0.0038951,0.00522749,0.00701511,0.0094135,0.0126314,0.0169486,0.022741,inf	14.0652,14.0652,14.0652,14.0652,14.0652,87.0449,147.159,137.119,146.812,204.229,242.3,239.437,261.186,292.751,359.388,404.089,429.901,446.188,470.286,518.405,567.575,580.73,573.238,588.992,590.092,488.9,488.9,488.9,488.9,488.9
0.000659644	-13071536.05	0,1.54447e-06,3.61665e-06,6.39682e-06,1.01269e-05,1.51314e-05,2.18458e-05,3.08544e-05,4.29408e-05,5.91569e-05,8.09135e-05,0.000110104,0.000149267,0.000201812,0.000272309,0.000366893,0.000493794,0.000664053,0.000892484,0.00119896,0.00161016,0.00216184,0.00290203,0.0038951,0.00522749,0.00701511,0.0094135,0.0126314,0.0169486,0.022741,inf	14.0652,14.0652,14.0652,14.0652,14.0652,86.7873,148.376,136.797,145.668,204.563,243.232,239.493,260.886,292.073,359.8,404.841,430.473,446.189,469.914,518.422,567.982,580.567,572.487,589.094,591.234,488.101,488.101,488.101,488.101,488.101
