time_index	left_time_boundary	right_time_boundary	lambda
0	0	2.60098e-06	323.363
1	2.60098e-06	6.09064e-06	323.363
2	6.09064e-06	1.07726e-05	323.363
3	1.07726e-05	1.70543e-05	323.363
4	1.70543e-05	2.54822e-05	323.363
5	2.54822e-05	3.67896e-05	366.397
6	3.67896e-05	5.19605e-05	279.645
7	5.19605e-05	7.23148e-05	263.43
8	7.23148e-05	9.96236e-05	274.898
9	9.96236e-05	0.000136263	302.398
10	0.000136263	0.000185421	293.919
11	0.000185421	0.000251375	280.562
12	0.000251375	0.000339863	298.905
13	0.000339863	0.000458584	311.247
14	0.000458584	0.00061787	293.868
15	0.00061787	0.000831578	278.101
16	0.000831578	0.0011183	283.058
17	0.0011183	0.001503	289.665
18	0.001503	0.00201912	290.152
19	0.00201912	0.0027116	299.107
20	0.0027116	0.00364067	312.781
21	0.00364067	0.00488718	309.637
22	0.00488718	0.00655958	295.013
23	0.00655958	0.00880339	275.898
24	0.00880339	0.0118138	250.477
25	0.0118138	0.0158529	342.33
26	0.0158529	0.0212719	342.33
27	0.0212719	0.0285425	342.33
28	0.0285425	0.0382972	342.33
29	0.0382972	inf	342.33
