0.00051616	-12798256.40	0,1.50381e-06,3.52144e-06,6.22842e-06,9.8603e-06,1.47331e-05,2.12707e-05,3.00421e-05,4.18104e-05,5.75996e-05,7.87834e-05,0.000107205,0.000145338,0.000196499,0.000265141,0.000357235,0.000480795,0.000646572,0.00086899,0.0011674,0.00156777,0.00210493,0.00282563,0.00379257,0.00508987,0.00683043,0.00916569,0.0122988,0.0165025,0.0221424,inf	146.596,146.596,146.596,146.596,146.596,195.265,228.285,234.383,243.474,262.128,284.552,309.037,334.148,362.089,393.048,424.818,455.663,485.496,512.49,533.93,546.316,550.121,546.711,536.943,523.978,512.837,512.837,512.837,512.837,512.837
0.000534895	-12796981.58	0,1.50381e-06,3.52144e-06,6.22842e-06,9.8603e-06,1.47331e-05,2.12707e-05,3.00421e-05,4.18104e-05,5.75996e-05,7.87834e-05,0.000107205,0.000145338,0.000196499,0.000265141,0.000357235,0.000480795,0.000646572,0.00086899,0.0011674,0.00156777,0.00210493,0.00282563,0.00379257,0.00508987,0.00683043,0.00916569,0.0122988,0.0165025,0.0221424,inf	78.9453,78.9453,78.9453,78.9453,78.9453,142.967,188.177,185.327,187.242,204.576,227.933,254.562,281.736,314.409,353.471,395.018,435.975,476.852,515.18,547.001,566.594,574.543,571.414,556.299,534.09,515.747,515.747,515.747,515.747,515.747
0.000551184	-12796650.02	0,1.50381e-06,3.52144e-06,6.22842e-06,9.8603e-06,1.47331e-05,2.12707e-05,3.00421e-05,4.18104e-05,5.75996e-05,7.87834e-05,0.000107205,0.000145338,0.000196499,0.000265141,0.000357235,0.000480795,0.000646572,0.00086899,0.0011674,0.00156777,0.00210493,0.00282563,0.00379257,0.00508987,0.00683043,0.00916569,0.0122988,0.0165025,0.0221424,inf	52.5501,52.5501,52.5501,52.5501,52.5501,131.837,191.281,177.68,172.207,187.693,210.616,236.976,262.634,295.533,337.316,382.526,427.008,472.201,515.485,552.362,575.944,587.455,586.116,568.058,538.956,515.846,515.846,515.846,515.846,515.846
0.000565555	-12796552.18	0,1.50381e-06,3.52144e-06,6.22842e-06,9.8603e-06,1.47331e-05,2.12707e-05,3.00421e-05,4.18104e-05,5.75996e-05,7.87834e-05,0.000107205,0.000145338,0.000196499,0.000265141,0.000357235,0.000480795,0.000646572,0.00086899,0.0011674,0.00156777,0.00210493,0.00282563,0.00379257,0.00508987,0.00683043,0.00916569,0.0122988,0.0165025,0.0221424,inf	39.6898,39.6898,39.6898,39.6898,39.6898,129.485,204.643,179.644,167.871,182.451,205.539,231.736,255.403,287.592,330.601,377.417,422.942,469.68,515.038,554.259,579.878,594.213,595.159,575.438,540.929,514.518,514.518,514.518,514.518,514.518
0.000578427	-12796511.86	0,1.50381e-06,3.52144e-06,6.22842e-06,9.8603e-06,1.47331e-05,2.12707e-05,3.00421e-05,4.18104e-05,5.75996e-05,7.87834e-05,0.000107205,0.000145338,0.000196499,0.000265141,0.000357235,0.000480795,0.000646572,0.00086899,0.0011674,0.00156777,0.00210493,0.00282563,0.00379257,0.00508987,0.00683043,0.00916569,0.0122988,0.0165025,0.0221424,inf	31.3788,31.3788,31.3788,31.3788,31.3788,128.132,219.001,182.768,166.033,180.582,204.491,230.934,252.764,284.177,328.031,375.734,421.332,468.431,514.516,554.663,581.145,597.67,600.971,580.286,541.35,512.531,512.531,512.531,512.531,512.531
0.000590085	-12796510.80	0,1.50381e-06,3.52144e-06,6.22842e-06,9.8603e-06,1.47331e-05,2.12707e-05,3.00421e-05,4.18104e-05,5.75996e-05,7.87834e-05,0.000107205,0.000145338,0.000196499,0.000265141,0.000357235,0.000480795,0.000646572,0.00086899,0.0011674,0.00156777,0.00210493,0.00282563,0.00379257,0.00508987,0.00683043,0.00916569,0.0122988,0.0165025,0.0221424,inf	27.952,27.952,27.952,27.952,27.952,126.224,231.88,184.9,164.408,179.502,204.68,231.69,251.915,282.687,327.334,375.69,420.996,467.959,514.146,554.469,581.105,599.329,604.897,583.646,540.963,510.296,510.296,510.296,510.296,510.296
0.00060072	-12796470.79	0,1.50381e-06,3.52144e-06,6.22842e-06,9.8603e-06,1.47331e-05,2.12707e-05,3.00421e-05,4.18104e-05,5.75996e-05,7.87834e-05,0.000107205,0.000145338,0.000196499,0.000265141,0.000357235,0.000480795,0.000646572,0.00086899,0.0011674,0.00156777,0.00210493,0.00282563,0.00379257,0.00508987,0.00683043,0.00916569,0.0122988,0.0165025,0.0221424,inf	25.3398,25.3398,25.3398,25.3398,25.3398,123.457,242.805,185.744,162.472,178.462,205.146,232.917,251.727,282.003,327.474,376.418,421.317,467.962,513.971,554.071,580.432,599.987,607.686,586.107,540.175,508.026,508.026,508.026,508.026,508.026
0.000610469	-12796446.70	0,1.50381e-06,3.52144e-06,6.22842e-06,9.8603e-06,1.47331e-05,2.12707e-05,3.00421e-05,4.18104e-05,5.75996e-05,7.87834e-05,0.000107205,0.000145338,0.000196499,0.000265141,0.000357235,0.000480795,0.000646572,0.00086899,0.0011674,0.00156777,0.00210493,0.00282563,0.00379257,0.00508987,0.00683043,0.00916569,0.0122988,0.0165025,0.0221424,inf	25.3392,25.3392,25.3392,25.3392,25.3392,120.306,252.27,185.622,160.28,177.332,205.617,234.229,251.75,281.635,327.966,377.484,421.966,468.247,513.971,553.642,579.464,600.077,609.764,588.01,539.211,505.83,505.83,505.83,505.83,505.83
0.000619436	-12796376.34	0,1.50381e-06,3.52144e-06,6.22842e-06,9.8603e-06,1.47331e-05,2.12707e-05,3.00421e-05,4.18104e-05,5.75996e-05,7.87834e-05,0.000107205,0.000145338,0.000196499,0.000265141,0.000357235,0.000480795,0.000646572,0.00086899,0.0011674,0.00156777,0.00210493,0.00282563,0.00379257,0.00508987,0.00683043,0.00916569,0.0122988,0.0165025,0.0221424,inf	24.7048,24.7048,24.7048,24.7048,24.7048,116.838,260.556,184.817,157.946,176.13,206.025,235.5,251.807,281.37,328.577,378.669,422.756,468.692,514.111,553.251,578.372,599.839,611.38,589.553,538.192,503.756,503.756,503.756,503.756,503.756
0.000627701	-12796337.98	0,1.50381e-06,3.52144e-06,6.22842e-06,9.8603e-06,1.47331e-05,2.12707e-05,3.00421e-05,4.18104e-05,5.75996e-05,7.87834e-05,0.000107205,0.000145338,0.000196499,0.000265141,0.000357235,0.000480795,0.000646572,0.00086899,0.0011674,0.00156777,0.00210493,0.00282563,0.00379257,0.00508987,0.00683043,0.00916569,0.0122988,0.0165025,0.0221424,inf	24.7048,24.7048,24.7048,24.7048,24.7048,113.393,268.134,183.631,155.607,174.927,206.4,236.708,251.841,281.124,329.203,379.863,423.587,469.219,514.355,552.922,577.243,599.41,612.685,590.854,537.182,501.825,501.825,501.825,501.825,501.825
0.000635332	-12796293.99	0,1.50381e-06,3.52144e-06,6.22842e-06,9.8603e-06,1.47331e-05,2.12707e-05,3.00421e-05,4.18104e-05,5.75996e-05,7.87834e-05,0.000107205,0.000145338,0.000196499,0.000265141,0.000357235,0.000480795,0.000646572,0.00086899,0.0011674,0.00156777,0.00210493,0.00282563,0.00379257,0.00508987,0.00683043,0.00916569,0.0122988,0.0165025,0.0221424,inf	23.6828,23.6828,23.6828,23.6828,23.6828,110.041,275.176,182.208,153.33,173.761,206.755,237.854,251.838,280.863,329.798,381.012,424.404,469.781,514.674,552.658,576.121,598.87,613.769,591.988,536.216,500.039,500.039,500.039,500.039,500.039
0.000642387	-12796287.53	0,1.50381e-06,3.52144e-06,6.22842e-06,9.8603e-06,1.47331e-05,2.12707e-05,3.00421e-05,4.18104e-05,5.75996e-05,7.87834e-05,0.000107205,0.000145338,0.000196499,0.000265141,0.000357235,0.000480795,0.000646572,0.00086899,0.0011674,0.00156777,0.00210493,0.00282563,0.00379257,0.00508987,0.00683043,0.00916569,0.0122988,0.0165025,0.0221424,inf	23.6828,23.6828,23.6828,23.6828,23.6828,106.937,281.956,180.674,151.168,172.665,207.118,238.96,251.801,280.578,330.346,382.092,425.177,470.347,515.044,552.457,575.03,598.266,614.694,592.999,535.309,498.396,498.396,498.396,498.396,498.396
0.000648915	-12796259.73	0,1.50381e-06,3.52144e-06,6.22842e-06,9.8603e-06,1.47331e-05,2.12707e-05,3.00421e-05,4.18104e-05,5.75996e-05,7.87834e-05,0.000107205,0.000145338,0.000196499,0.000265141,0.000357235,0.000480795,0.000646572,0.00086899,0.0011674,0.00156777,0.00210493,0.00282563,0.00379257,0.00508987,0.00683043,0.00916569,0.0122988,0.0165025,0.0221424,inf	23.6828,23.6828,23.6828,23.6828,23.6828,103.958,288.387,179.044,149.114,171.638,207.488,240.029,251.74,280.273,330.843,383.096,425.891,470.899,515.449,552.311,573.979,597.627,615.498,593.917,534.466,496.884,496.884,496.884,496.884,496.884
0.00065496	-12796237.70	0,1.50381e-06,3.52144e-06,6.22842e-06,9.8603e-06,1.47331e-05,2.12707e-05,3.00421e-05,4.18104e-05,5.75996e-05,7.87834e-05,0.000107205,0.000145338,0.000196499,0.000265141,0.000357235,0.000480795,0.000646572,0.00086899,0.0011674,0.00156777,0.00210493,0.00282563,0.00379257,0.00508987,0.00683043,0.00916569,0.0122988,0.0165025,0.0221424,inf	23.6828,23.6828,23.6828,23.6828,23.6828,101.104,294.532,177.359,147.179,170.692,207.875,241.073,251.661,279.953,331.292,384.022,426.541,471.426,515.876,552.213,572.972,596.973,616.207,594.761,533.689,495.496,495.496,495.496,495.496,495.496
0.000660562	-12796220.31	0,1.50381e-06,3.52144e-06,6.22842e-06,9.8603e-06,1.47331e-05,2.12707e-05,3.00421e-05,4.18104e-05,5.75996e-05,7.87834e-05,0.000107205,0.000145338,0.000196499,0.000265141,0.000357235,0.000480795,0.000646572,0.00086899,0.0011674,0.00156777,0.00210493,0.00282563,0.00379257,0.00508987,0.00683043,0.00916569,0.0122988,0.0165025,0.0221424,inf	23.6828,23.6828,23.6828,23.6828,23.6828,98.3827,300.428,175.646,145.355,169.819,208.283,242.095,251.57,279.623,331.7,384.876,427.126,471.921,516.317,552.158,572.011,596.315,616.842,595.545,532.974,494.219,494.219,494.219,494.219,494.219
0.000665755	-12796206.70	0,1.50381e-06,3.52144e-06,6.22842e-06,9.8603e-06,1.47331e-05,2.12707e-05,3.00421e-05,4.18104e-05,5.75996e-05,7.87834e-05,0.000107205,0.000145338,0.000196499,0.000265141,0.000357235,0.000480795,0.000646572,0.00086899,0.0011674,0.00156777,0.00210493,0.00282563,0.00379257,0.00508987,0.00683043,0.00916569,0.0122988,0.0165025,0.0221424,inf	22.7509,22.7509,22.7509,22.7509,22.7509,95.7907,306.1,173.907,143.638,169.009,208.703,243.101,251.472,279.288,332.073,385.662,427.648,472.382,516.766,552.139,571.094,595.66,617.415,596.278,532.318,493.046,493.046,493.046,493.046,493.046
0.000670574	-12796223.23	0,1.50381e-06,3.52144e-06,6.22842e-06,9.8603e-06,1.47331e-05,2.12707e-05,3.00421e-05,4.18104e-05,5.75996e-05,7.87834e-05,0.000107205,0.000145338,0.000196499,0.000265141,0.000357235,0.000480795,0.000646572,0.00086899,0.0011674,0.00156777,0.00210493,0.00282563,0.00379257,0.00508987,0.00683043,0.00916569,0.0122988,0.0165025,0.0221424,inf	22.7515,22.7515,22.7515,22.7515,22.7515,93.4121,311.657,172.174,142.029,168.263,209.14,244.093,251.372,278.951,332.415,386.388,428.109,472.807,517.215,552.152,570.221,595.014,617.937,596.966,531.715,491.965,491.965,491.965,491.965,491.965
0.000675033	-12796215.16	0,1.50381e-06,3.52144e-06,6.22842e-06,9.8603e-06,1.47331e-05,2.12707e-05,3.00421e-05,4.18104e-05,5.75996e-05,7.87834e-05,0.000107205,0.000145338,0.000196499,0.000265141,0.000357235,0.000480795,0.000646572,0.00086899,0.0011674,0.00156777,0.00210493,0.00282563,0.00379257,0.00508987,0.00683043,0.00916569,0.0122988,0.0165025,0.0221424,inf	22.1214,22.1214,22.1214,22.1214,22.1214,91.0764,316.846,170.356,140.449,167.5,209.497,244.967,251.169,278.513,332.615,386.935,428.396,473.091,517.582,552.142,569.367,594.37,618.399,597.591,531.139,490.945,490.945,490.945,490.945,490.945
0.00067918	-12796228.46	0,1.50381e-06,3.52144e-06,6.22842e-06,9.8603e-06,1.47331e-05,2.12707e-05,3.00421e-05,4.18104e-05,5.75996e-05,7.87834e-05,0.000107205,0.000145338,0.000196499,0.000265141,0.000357235,0.000480795,0.000646572,0.00086899,0.0011674,0.00156777,0.00210493,0.00282563,0.00379257,0.00508987,0.00683043,0.00916569,0.0122988,0.0165025,0.0221424,inf	22.1214,22.1214,22.1214,22.1214,22.1214,88.9293,321.99,168.619,139.013,166.854,209.935,245.907,251.045,278.158,332.88,387.516,428.707,473.407,517.999,552.195,568.577,593.756,618.835,598.192,530.617,490.01,490.01,490.01,490.01,490.01
0.000683034	-12796224.23	0,1.50381e-06,3.52144e-06,6.22842e-06,9.8603e-06,1.47331e-05,2.12707e-05,3.00421e-05,4.18104e-05,5.75996e-05,7.87834e-05,0.000107205,0.000145338,0.000196499,0.000265141,0.000357235,0.000480795,0.000646572,0.00086899,0.0011674,0.00156777,0.00210493,0.00282563,0.00379257,0.00508987,0.00683043,0.00916569,0.0122988,0.0165025,0.0221424,inf	22.1214,22.1214,22.1214,22.1214,22.1214,86.8558,326.925,166.888,137.663,166.258,210.39,246.85,250.943,277.836,333.159,388.085,428.998,473.714,518.429,552.282,567.832,593.162,619.244,598.765,530.142,489.15,489.15,489.15,489.15,489.15
