0.00092255	-19971811.08	0,2.59647e-06,6.08008e-06,1.07539e-05,1.70247e-05,2.5438e-05,3.67258e-05,5.18704e-05,7.21894e-05,9.94509e-05,0.000136027,0.000185099,0.000250939,0.000339273,0.000457789,0.000616798,0.000830136,0.00111636,0.00150039,0.00201562,0.0027069,0.00363436,0.0048787,0.00654821,0.00878812,0.0117934,0.0158254,0.021235,0.028493,0.0382308,inf	344.173,344.173,344.173,344.173,344.173,334.901,304.023,284.409,277.716,274.001,268.913,266.919,268.256,269.86,271.453,273.89,277.658,281.731,285.983,290.848,294.37,293.987,291.828,290.231,289.718,292.917,292.917,292.917,292.917,292.917
0.000985185	-19968426.68	0,2.59647e-06,6.08008e-06,1.07539e-05,1.70247e-05,2.5438e-05,3.67258e-05,5.18704e-05,7.21894e-05,9.94509e-05,0.000136027,0.000185099,0.000250939,0.000339273,0.000457789,0.000616798,0.000830136,0.00111636,0.00150039,0.00201562,0.0027069,0.00363436,0.0048787,0.00654821,0.00878812,0.0117934,0.0158254,0.021235,0.028493,0.0382308,inf	379.104,379.104,379.104,379.104,379.104,370.616,315.748,284.97,277.089,272.36,263.567,260.117,262.243,264.219,265.737,268.555,273.594,278.956,284.63,291.727,296.85,295.319,291.075,288.214,287.366,293.747,293.747,293.747,293.747,293.747
0.0010425	-19965882.49	0,2.59647e-06,6.08008e-06,1.07539e-05,1.70247e-05,2.5438e-05,3.67258e-05,5.18704e-05,7.21894e-05,9.94509e-05,0.000136027,0.000185099,0.000250939,0.000339273,0.000457789,0.000616798,0.000830136,0.00111636,0.00150039,0.00201562,0.0027069,0.00363436,0.0048787,0.00654821,0.00878812,0.0117934,0.0158254,0.021235,0.028493,0.0382308,inf	397.233,397.233,397.233,397.233,397.233,393.552,320.194,283.534,277.5,273.388,261.982,257.863,261.006,263.243,264.378,267.091,272.653,278.371,284.479,292.851,298.899,296.125,290.077,286.261,285.205,294.732,294.732,294.732,294.732,294.732
0.00109488	-19963908.28	0,2.59647e-06,6.08008e-06,1.07539e-05,1.70247e-05,2.5438e-05,3.67258e-05,5.18704e-05,7.21894e-05,9.94509e-05,0.000136027,0.000185099,0.000250939,0.000339273,0.000457789,0.000616798,0.000830136,0.00111636,0.00150039,0.00201562,0.0027069,0.00363436,0.0048787,0.00654821,0.00878812,0.0117934,0.0158254,0.021235,0.028493,0.0382308,inf	403.791,403.791,403.791,403.791,403.791,407.673,319.542,280.022,277.26,274.493,261.092,256.825,261.182,263.725,264.454,266.964,272.784,278.479,284.602,293.812,300.489,296.532,288.939,284.393,283.201,295.806,295.806,295.806,295.806,295.806
0.0011428	-19962353.99	0,2.59647e-06,6.08008e-06,1.07539e-05,1.70247e-05,2.5438e-05,3.67258e-05,5.18704e-05,7.21894e-05,9.94509e-05,0.000136027,0.000185099,0.000250939,0.000339273,0.000457789,0.000616798,0.000830136,0.00111636,0.00150039,0.00201562,0.0027069,0.00363436,0.0048787,0.00654821,0.00878812,0.0117934,0.0158254,0.021235,0.028493,0.0382308,inf	406.657,406.657,406.657,406.657,406.657,417.235,316.377,275.572,276.602,275.376,260.273,256.146,261.804,264.687,265.043,267.356,273.328,278.822,284.761,294.581,301.733,296.68,287.754,282.634,281.336,296.932,296.932,296.932,296.932,296.932
0.00118673	-19961110.13	0,2.59647e-06,6.08008e-06,1.07539e-05,1.70247e-05,2.5438e-05,3.67258e-05,5.18704e-05,7.21894e-05,9.94509e-05,0.000136027,0.000185099,0.000250939,0.000339273,0.000457789,0.000616798,0.000830136,0.00111636,0.00150039,0.00201562,0.0027069,0.00363436,0.0048787,0.00654821,0.00878812,0.0117934,0.0158254,0.021235,0.028493,0.0382308,inf	409.602,409.602,409.602,409.602,409.602,424.362,312.092,270.875,275.835,276.125,259.426,255.589,262.561,265.791,265.809,267.958,274.038,279.243,284.898,295.195,302.734,296.673,286.576,280.992,279.597,298.086,298.086,298.086,298.086,298.086
0.00122707	-19960101.15	0,2.59647e-06,6.08008e-06,1.07539e-05,1.70247e-05,2.5438e-05,3.67258e-05,5.18704e-05,7.21894e-05,9.94509e-05,0.000136027,0.000185099,0.000250939,0.000339273,0.000457789,0.000616798,0.000830136,0.00111636,0.00150039,0.00201562,0.0027069,0.00363436,0.0048787,0.00654821,0.00878812,0.0117934,0.0158254,0.021235,0.028493,0.0382308,inf	409.992,409.992,409.992,409.992,409.992,429.909,307.294,266.26,275.144,276.82,258.557,255.086,263.344,266.906,266.615,268.64,274.809,279.68,285.001,295.692,303.564,296.574,285.438,279.467,277.968,299.253,299.253,299.253,299.253,299.253
0.00126418	-19959280.26	0,2.59647e-06,6.08008e-06,1.07539e-05,1.70247e-05,2.5438e-05,3.67258e-05,5.18704e-05,7.21894e-05,9.94509e-05,0.000136027,0.000185099,0.000250939,0.000339273,0.000457789,0.000616798,0.000830136,0.00111636,0.00150039,0.00201562,0.0027069,0.00363436,0.0048787,0.00654821,0.00878812,0.0117934,0.0158254,0.021235,0.028493,0.0382308,inf	411.427,411.427,411.427,411.427,411.427,434.857,302.497,261.969,274.665,277.542,257.702,254.626,264.12,267.986,267.406,269.342,275.592,280.108,285.068,296.103,304.273,296.425,284.354,278.052,276.438,300.418,300.418,300.418,300.418,300.418
0.00129836	-19958603.14	0,2.59647e-06,6.08008e-06,1.07539e-05,1.70247e-05,2.5438e-05,3.67258e-05,5.18704e-05,7.21894e-05,9.94509e-05,0.000136027,0.000185099,0.000250939,0.000339273,0.000457789,0.000616798,0.000830136,0.00111636,0.00150039,0.00201562,0.0027069,0.00363436,0.0048787,0.00654821,0.00878812,0.0117934,0.0158254,0.021235,0.028493,0.0382308,inf	412.355,412.355,412.355,412.355,412.355,439.218,297.756,257.986,274.396,278.305,256.865,254.2,264.87,269.008,268.153,270.031,276.361,280.511,285.103,296.447,304.894,296.25,283.332,276.741,274.993,301.575,301.575,301.575,301.575,301.575
0.00132988	-19958043.11	0,2.59647e-06,6.08008e-06,1.07539e-05,1.70247e-05,2.5438e-05,3.67258e-05,5.18704e-05,7.21894e-05,9.94509e-05,0.000136027,0.000185099,0.000250939,0.000339273,0.000457789,0.000616798,0.000830136,0.00111636,0.00150039,0.00201562,0.0027069,0.00363436,0.0048787,0.00654821,0.00878812,0.0117934,0.0158254,0.021235,0.028493,0.0382308,inf	413.961,413.961,413.961,413.961,413.961,443.219,293.165,254.34,274.352,279.124,256.057,253.807,265.595,269.969,268.848,270.694,277.105,280.887,285.109,296.74,305.45,296.066,282.371,275.524,273.624,302.716,302.716,302.716,302.716,302.716
0.00135899	-19957575.72	0,2.59647e-06,6.08008e-06,1.07539e-05,1.70247e-05,2.5438e-05,3.67258e-05,5.18704e-05,7.21894e-05,9.94509e-05,0.000136027,0.000185099,0.000250939,0.000339273,0.000457789,0.000616798,0.000830136,0.00111636,0.00150039,0.00201562,0.0027069,0.00363436,0.0048787,0.00654821,0.00878812,0.0117934,0.0158254,0.021235,0.028493,0.0382308,inf	415.189,415.189,415.189,415.189,415.189,446.821,288.716,250.987,274.504,279.992,255.28,253.444,266.291,270.867,269.487,271.324,277.817,281.232,285.09,296.992,305.956,295.882,281.473,274.394,272.323,303.838,303.838,303.838,303.838,303.838
0.0013859	-19957185.09	0,2.59647e-06,6.08008e-06,1.07539e-05,1.70247e-05,2.5438e-05,3.67258e-05,5.18704e-05,7.21894e-05,9.94509e-05,0.000136027,0.000185099,0.000250939,0.000339273,0.000457789,0.000616798,0.000830136,0.00111636,0.00150039,0.00201562,0.0027069,0.00363436,0.0048787,0.00654821,0.00878812,0.0117934,0.0158254,0.021235,0.028493,0.0382308,inf	417.726,417.726,417.726,417.726,417.726,450.18,284.425,247.917,274.839,280.907,254.533,253.11,266.962,271.706,270.071,271.918,278.495,281.548,285.048,297.211,306.424,295.704,280.634,273.343,271.081,304.938,304.938,304.938,304.938,304.938
0.00141079	-19956854.65	0,2.59647e-06,6.08008e-06,1.07539e-05,1.70247e-05,2.5438e-05,3.67258e-05,5.18704e-05,7.21894e-05,9.94509e-05,0.000136027,0.000185099,0.000250939,0.000339273,0.000457789,0.000616798,0.000830136,0.00111636,0.00150039,0.00201562,0.0027069,0.00363436,0.0048787,0.00654821,0.00878812,0.0117934,0.0158254,0.021235,0.028493,0.0382308,inf	418.994,418.994,418.994,418.994,418.994,453.044,280.231,245.058,275.314,281.849,253.809,252.8,267.608,272.489,270.603,272.476,279.138,281.834,284.985,297.402,306.861,295.536,279.851,272.364,269.894,306.014,306.014,306.014,306.014,306.014
0.00143385	-19956577.53	0,2.59647e-06,6.08008e-06,1.07539e-05,1.70247e-05,2.5438e-05,3.67258e-05,5.18704e-05,7.21894e-05,9.94509e-05,0.000136027,0.000185099,0.000250939,0.000339273,0.000457789,0.000616798,0.000830136,0.00111636,0.00150039,0.00201562,0.0027069,0.00363436,0.0048787,0.00654821,0.00878812,0.0117934,0.0158254,0.021235,0.028493,0.0382308,inf	420.746,420.746,420.746,420.746,420.746,455.745,276.207,242.435,275.937,282.822,253.111,252.515,268.232,273.221,271.086,272.999,279.749,282.093,284.904,297.57,307.273,295.379,279.121,271.451,268.757,307.065,307.065,307.065,307.065,307.065
0.00145523	-19956342.07	0,2.59647e-06,6.08008e-06,1.07539e-05,1.70247e-05,2.5438e-05,3.67258e-05,5.18704e-05,7.21894e-05,9.94509e-05,0.000136027,0.000185099,0.000250939,0.000339273,0.000457789,0.000616798,0.000830136,0.00111636,0.00150039,0.00201562,0.0027069,0.00363436,0.0048787,0.00654821,0.00878812,0.0117934,0.0158254,0.021235,0.028493,0.0382308,inf	422.499,422.499,422.499,422.499,422.499,458.19,272.319,240.001,276.678,283.813,252.433,252.253,268.834,273.904,271.522,273.487,280.328,282.327,284.807,297.717,307.666,295.236,278.44,270.599,267.664,308.091,308.091,308.091,308.091,308.091
0.00147506	-19956141.89	0,2.59647e-06,6.08008e-06,1.07539e-05,1.70247e-05,2.5438e-05,3.67258e-05,5.18704e-05,7.21894e-05,9.94509e-05,0.000136027,0.000185099,0.000250939,0.000339273,0.000457789,0.000616798,0.000830136,0.00111636,0.00150039,0.00201562,0.0027069,0.00363436,0.0048787,0.00654821,0.00878812,0.0117934,0.0158254,0.021235,0.028493,0.0382308,inf	424.695,424.695,424.695,424.695,424.695,460.406,268.548,237.727,277.514,284.813,251.77,252.006,269.417,274.543,271.915,273.944,280.877,282.537,284.696,297.847,308.041,295.106,277.806,269.802,266.612,309.092,309.092,309.092,309.092,309.092
0.00149346	-19955970.51	0,2.59647e-06,6.08008e-06,1.07539e-05,1.70247e-05,2.5438e-05,3.67258e-05,5.18704e-05,7.21894e-05,9.94509e-05,0.000136027,0.000185099,0.000250939,0.000339273,0.000457789,0.000616798,0.000830136,0.00111636,0.00150039,0.00201562,0.0027069,0.00363436,0.0048787,0.00654821,0.00878812,0.0117934,0.0158254,0.021235,0.028493,0.0382308,inf	427.121,427.121,427.121,427.121,427.121,462.343,264.879,235.598,278.418,285.813,251.119,251.773,269.981,275.141,272.269,274.372,281.399,282.725,284.572,297.962,308.402,294.99,277.215,269.057,265.598,310.067,310.067,310.067,310.067,310.067
0.00151056	-19955823.50	0,2.59647e-06,6.08008e-06,1.07539e-05,1.70247e-05,2.5438e-05,3.67258e-05,5.18704e-05,7.21894e-05,9.94509e-05,0.000136027,0.000185099,0.000250939,0.000339273,0.000457789,0.000616798,0.000830136,0.00111636,0.00150039,0.00201562,0.0027069,0.00363436,0.0048787,0.00654821,0.00878812,0.0117934,0.0158254,0.021235,0.028493,0.0382308,inf	428.183,428.183,428.183,428.183,428.183,463.999,261.292,233.588,279.387,286.803,250.476,251.553,270.527,275.7,272.586,274.772,281.894,282.894,284.435,298.063,308.75,294.886,276.665,268.36,264.618,311.017,311.017,311.017,311.017,311.017
0.00152645	-19955699.47	0,2.59647e-06,6.08008e-06,1.07539e-05,1.70247e-05,2.5438e-05,3.67258e-05,5.18704e-05,7.21894e-05,9.94509e-05,0.000136027,0.000185099,0.000250939,0.000339273,0.000457789,0.000616798,0.000830136,0.00111636,0.00150039,0.00201562,0.0027069,0.00363436,0.0048787,0.00654821,0.00878812,0.0117934,0.0158254,0.021235,0.028493,0.0382308,inf	429.285,429.285,429.285,429.285,429.285,465.643,257.869,231.716,280.425,287.794,249.844,251.347,271.057,276.226,272.871,275.146,282.366,283.044,284.289,298.151,309.087,294.795,276.152,267.707,263.672,311.942,311.942,311.942,311.942,311.942
0.00154122	-19955592.97	0,2.59647e-06,6.08008e-06,1.07539e-05,1.70247e-05,2.5438e-05,3.67258e-05,5.18704e-05,7.21894e-05,9.94509e-05,0.000136027,0.000185099,0.000250939,0.000339273,0.000457789,0.000616798,0.000830136,0.00111636,0.00150039,0.00201562,0.0027069,0.00363436,0.0048787,0.00654821,0.00878812,0.0117934,0.0158254,0.021235,0.028493,0.0382308,inf	431.112,431.112,431.112,431.112,431.112,467.259,254.581,229.963,281.518,288.775,249.219,251.151,271.572,276.719,273.124,275.497,282.817,283.179,284.134,298.228,309.415,294.717,275.674,267.095,262.755,312.843,312.843,312.843,312.843,312.843
