0.000937288	-21488223.34	0,2.42374e-06,5.6164e-06,9.82194e-06,1.53617e-05,2.26589e-05,3.22711e-05,4.49328e-05,6.16114e-05,8.35813e-05,0.000112521,0.000150642,0.000200857,0.000267002,0.000354132,0.000468903,0.000620086,0.000819231,0.00108155,0.0014271,0.00188227,0.00248184,0.00327163,0.00431197,0.00568236,0.0074875,0.00986532,0.0129975,0.0171234,0.0225582,0.0297171,0.0391473,inf	811958,811958,660.629,449.605,356.219,296.344,277.493,285.506,291.838,296.882,297.583,294.152,290.508,287.489,284.965,283.753,283.86,284.194,284.925,286.853,289.277,291.528,292.87,292.966,291.589,288.463,286.029,285.605,285.605,318.74,318.74,318.74
0.00100734	-21478883.84	0,2.42374e-06,5.6164e-06,9.82194e-06,1.53617e-05,2.26589e-05,3.22711e-05,4.49328e-05,6.16114e-05,8.35813e-05,0.000112521,0.000150642,0.000200857,0.000267002,0.000354132,0.000468903,0.000620086,0.000819231,0.00108155,0.0014271,0.00188227,0.00248184,0.00327163,0.00431197,0.00568236,0.0074875,0.00986532,0.0129975,0.0171234,0.0225582,0.0297171,0.0391473,inf	775310,775310,166.55,275.06,283.487,240.561,231.268,257.204,276.406,291.522,297.042,293.789,289.53,285.85,282.56,281.27,281.875,282.293,283.024,285.677,289.133,292.395,294.301,294.357,291.967,286.369,281.935,281.031,281.031,347.025,347.025,347.025
0.00107134	-21475779.15	0,2.42374e-06,5.6164e-06,9.82194e-06,1.53617e-05,2.26589e-05,3.22711e-05,4.49328e-05,6.16114e-05,8.35813e-05,0.000112521,0.000150642,0.000200857,0.000267002,0.000354132,0.000468903,0.000620086,0.000819231,0.00108155,0.0014271,0.00188227,0.00248184,0.00327163,0.00431197,0.00568236,0.0074875,0.00986532,0.0129975,0.0171234,0.0225582,0.0297171,0.0391473,inf	782958,782958,47.2578,192.983,256.039,215.171,206.18,242.228,269.049,290.916,299.287,295.433,290.438,286.206,282.368,281.163,282.193,282.412,282.727,285.502,289.337,293.056,295.217,295.273,292.176,284.586,278.456,277.019,277.019,376.326,376.326,376.326
0.00112983	-21473390.85	0,2.42374e-06,5.6164e-06,9.82194e-06,1.53617e-05,2.26589e-05,3.22711e-05,4.49328e-05,6.16114e-05,8.35813e-05,0.000112521,0.000150642,0.000200857,0.000267002,0.000354132,0.000468903,0.000620086,0.000819231,0.00108155,0.0014271,0.00188227,0.00248184,0.00327163,0.00431197,0.00568236,0.0074875,0.00986532,0.0129975,0.0171234,0.0225582,0.0297171,0.0391473,inf	791285,791285,14.5314,146.985,248.082,202.586,190.375,232.935,264.59,291.346,301.484,296.781,291.199,286.671,282.588,281.712,283.237,283.199,282.964,285.602,289.516,293.432,295.72,295.848,292.276,283.053,275.448,273.44,273.44,407.232,407.232,407.232
0.00118336	-21471509.12	0,2.42374e-06,5.6164e-06,9.82194e-06,1.53617e-05,2.26589e-05,3.22711e-05,4.49328e-05,6.16114e-05,8.35813e-05,0.000112521,0.000150642,0.000200857,0.000267002,0.000354132,0.000468903,0.000620086,0.000819231,0.00108155,0.0014271,0.00188227,0.00248184,0.00327163,0.00431197,0.00568236,0.0074875,0.00986532,0.0129975,0.0171234,0.0225582,0.0297171,0.0391473,inf	798618,798618,4.68068,117.044,249.155,195.871,179.379,226.707,261.566,292.032,303.231,297.581,291.564,286.935,282.834,282.469,284.548,284.24,283.41,285.782,289.617,293.588,295.938,296.197,292.32,281.731,272.815,270.206,270.206,440.454,440.454,440.454
0.00123245	-21470007.17	0,2.42374e-06,5.6164e-06,9.82194e-06,1.53617e-05,2.26589e-05,3.22711e-05,4.49328e-05,6.16114e-05,8.35813e-05,0.000112521,0.000150642,0.000200857,0.000267002,0.000354132,0.000468903,0.000620086,0.000819231,0.00108155,0.0014271,0.00188227,0.00248184,0.00327163,0.00431197,0.00568236,0.0074875,0.00986532,0.0129975,0.0171234,0.0225582,0.0297171,0.0391473,inf	805091,805091,1.55016,95.5299,254.756,192.016,171.201,222.406,259.452,292.833,304.601,297.961,291.619,287.009,283.037,283.294,285.955,285.376,283.939,285.978,289.647,293.588,295.965,296.4,292.34,280.589,270.488,267.254,267.254,476.927,476.927,476.927
0.00127757	-21468795.67	0,2.42374e-06,5.6164e-06,9.82194e-06,1.53617e-05,2.26589e-05,3.22711e-05,4.49328e-05,6.16114e-05,8.35813e-05,0.000112521,0.000150642,0.000200857,0.000267002,0.000354132,0.000468903,0.000620086,0.000819231,0.00108155,0.0014271,0.00188227,0.00248184,0.00327163,0.00431197,0.00568236,0.0074875,0.00986532,0.0129975,0.0171234,0.0225582,0.0297171,0.0391473,inf	810807,810807,0.519031,79.0174,262.615,189.569,164.828,219.423,257.995,293.739,305.722,298.073,291.476,286.953,283.194,284.138,287.387,286.535,284.494,286.167,289.621,293.482,295.865,296.508,292.355,279.601,268.411,264.534,264.534,517.976,517.976,517.976
0.00131911	-21467809.68	0,2.42374e-06,5.6164e-06,9.82194e-06,1.53617e-05,2.26589e-05,3.22711e-05,4.49328e-05,6.16114e-05,8.35813e-05,0.000112521,0.000150642,0.000200857,0.000267002,0.000354132,0.000468903,0.000620086,0.000819231,0.00108155,0.0014271,0.00188227,0.00248184,0.00327163,0.00431197,0.00568236,0.0074875,0.00986532,0.0129975,0.0171234,0.0225582,0.0297171,0.0391473,inf	815897,815897,0.290872,65.8197,271.45,187.75,159.669,217.379,257.03,294.744,306.684,298.026,291.22,286.816,283.316,284.974,288.803,287.678,285.046,286.34,289.553,293.304,295.68,296.554,292.377,278.744,266.542,262.009,262.009,565.639,565.639,565.639
0.00135741	-21467001.08	0,2.42374e-06,5.6164e-06,9.82194e-06,1.53617e-05,2.26589e-05,3.22711e-05,4.49328e-05,6.16114e-05,8.35813e-05,0.000112521,0.000150642,0.000200857,0.000267002,0.000354132,0.000468903,0.000620086,0.000819231,0.00108155,0.0014271,0.00188227,0.00248184,0.00327163,0.00431197,0.00568236,0.0074875,0.00986532,0.0129975,0.0171234,0.0225582,0.0297171,0.0391473,inf	820449,820449,0.290872,55.0139,280.512,186.146,155.366,216.025,256.441,295.836,307.544,297.89,290.908,286.631,283.412,285.791,290.182,288.785,285.58,286.493,289.456,293.078,295.44,296.561,292.409,277.998,264.844,259.648,259.648,623.356,623.356,623.356
0.00139278	-21466333.64	0,2.42374e-06,5.6164e-06,9.82194e-06,1.53617e-05,2.26589e-05,3.22711e-05,4.49328e-05,6.16114e-05,8.35813e-05,0.000112521,0.000150642,0.000200857,0.000267002,0.000354132,0.000468903,0.000620086,0.000819231,0.00108155,0.0014271,0.00188227,0.00248184,0.00327163,0.00431197,0.00568236,0.0074875,0.00986532,0.0129975,0.0171234,0.0225582,0.0297171,0.0391473,inf	824512,824512,0.290872,46.046,289.372,184.55,151.687,215.184,256.131,296.996,308.338,297.71,290.575,286.42,283.485,286.579,291.512,289.844,286.087,286.627,289.339,292.821,295.164,296.542,292.454,277.346,263.29,257.423,257.423,697.714,697.714,697.714
0.00142548	-21465779.65	0,2.42374e-06,5.6164e-06,9.82194e-06,1.53617e-05,2.26589e-05,3.22711e-05,4.49328e-05,6.16114e-05,8.35813e-05,0.000112521,0.000150642,0.000200857,0.000267002,0.000354132,0.000468903,0.000620086,0.000819231,0.00108155,0.0014271,0.00188227,0.00248184,0.00327163,0.00431197,0.00568236,0.0074875,0.00986532,0.0129975,0.0171234,0.0225582,0.0297171,0.0391473,inf	828180,828180,0.290872,38.5489,297.783,182.854,148.491,214.723,256.036,298.208,309.083,297.512,290.242,286.197,283.541,287.336,292.786,290.85,286.563,286.743,289.207,292.544,294.865,296.507,292.512,276.772,261.853,255.313,255.313,803.998,803.998,803.998
0.00145575	-21465317.87	0,2.42374e-06,5.6164e-06,9.82194e-06,1.53617e-05,2.26589e-05,3.22711e-05,4.49328e-05,6.16114e-05,8.35813e-05,0.000112521,0.000150642,0.000200857,0.000267002,0.000354132,0.000468903,0.000620086,0.000819231,0.00108155,0.0014271,0.00188227,0.00248184,0.00327163,0.00431197,0.00568236,0.0074875,0.00986532,0.0129975,0.0171234,0.0225582,0.0297171,0.0391473,inf	831490,831490,0.290872,32.2629,305.606,181.029,145.672,214.559,256.097,299.449,309.792,297.313,289.92,285.971,283.582,288.057,294.002,291.801,287.009,286.842,289.066,292.257,294.553,296.461,292.58,276.262,260.511,253.294,253.294,992.287,992.287,992.287
0.00148379	-21464932.20	0,2.42374e-06,5.6164e-06,9.82194e-06,1.53617e-05,2.26589e-05,3.22711e-05,4.49328e-05,6.16114e-05,8.35813e-05,0.000112521,0.000150642,0.000200857,0.000267002,0.000354132,0.000468903,0.000620086,0.000819231,0.00108155,0.0014271,0.00188227,0.00248184,0.00327163,0.00431197,0.00568236,0.0074875,0.00986532,0.0129975,0.0171234,0.0225582,0.0297171,0.0391473,inf	834472,834472,0.290872,26.9959,312.834,179.064,143.156,214.626,256.271,300.7,310.467,297.121,289.618,285.748,283.609,288.742,295.158,292.697,287.422,286.927,288.921,291.964,294.233,296.409,292.656,275.798,259.232,251.34,251.34,1605.69,1605.69,1605.69
0.00150977	-21464612.49	0,2.42374e-06,5.6164e-06,9.82194e-06,1.53617e-05,2.26589e-05,3.22711e-05,4.49328e-05,6.16114e-05,8.35813e-05,0.000112521,0.000150642,0.000200857,0.000267002,0.000354132,0.000468903,0.000620086,0.000819231,0.00108155,0.0014271,0.00188227,0.00248184,0.00327163,0.00431197,0.00568236,0.0074875,0.00986532,0.0129975,0.0171234,0.0225582,0.0297171,0.0391473,inf	837236,837236,0.290872,22.5723,319.444,176.975,140.899,214.869,256.525,301.947,311.11,296.938,289.338,285.526,283.622,289.39,296.255,293.538,287.805,286.998,288.773,291.669,293.909,296.346,292.723,275.345,257.957,249.397,249.397,12826.4,12826.4,12826.4
0.00150977	-21464349.90	0,2.42374e-06,5.6164e-06,9.82194e-06,1.53617e-05,2.26589e-05,3.22711e-05,4.49328e-05,6.16114e-05,8.35813e-05,0.000112521,0.000150642,0.000200857,0.000267002,0.000354132,0.000468903,0.000620086,0.000819231,0.00108155,0.0014271,0.00188227,0.00248184,0.00327163,0.00431197,0.00568236,0.0074875,0.00986532,0.0129975,0.0171234,0.0225582,0.0297171,0.0391473,inf	835262,835262,0.290872,18.7836,323.982,173.96,138.193,214.203,255.565,301.673,310.158,295.275,287.621,283.862,282.172,288.504,295.745,292.802,286.692,285.634,287.248,290.066,292.369,295.162,291.795,274.079,255.977,246.911,246.911,43161.7,43161.7,43161.7
