1.6287e-05	-632019.39	0,4.88039e-08,1.14283e-07,2.02133e-07,3.2e-07,4.78138e-07,6.90307e-07,9.74968e-07,1.35689e-06,1.8693e-06,2.55679e-06,3.47917e-06,4.7167e-06,6.37706e-06,8.60471e-06,1.15935e-05,1.56034e-05,2.09834e-05,2.82017e-05,3.78861e-05,5.08795e-05,6.83122e-05,9.17012e-05,0.000123082,0.000165184,0.000221671,0.000297458,0.000399139,0.000535561,0.000718595,inf	10320.8,10320.8,10320.8,10320.8,10320.8,8685.67,9007.19,9908.3,11044,12199.9,13260.2,14185.1,14975.7,15585,15751.6,15310.1,14684.3,14049,13453.2,13093.2,12803.5,12384.8,12041.6,12276,13436.8,14061.1,14061.1,14061.1,14061.1,14061.1
1.67673e-05	-632367.55	0,4.88039e-08,1.14283e-07,2.02133e-07,3.2e-07,4.78138e-07,6.90307e-07,9.74968e-07,1.35689e-06,1.8693e-06,2.55679e-06,3.47917e-06,4.7167e-06,6.37706e-06,8.60471e-06,1.15935e-05,1.56034e-05,2.09834e-05,2.82017e-05,3.78861e-05,5.08795e-05,6.83122e-05,9.17012e-05,0.000123082,0.000165184,0.000221671,0.000297458,0.000399139,0.000535561,0.000718595,inf	7917.87,7917.87,7917.87,7917.87,7917.87,5516.06,5900.94,7095.85,8732.33,10521.2,12250.8,13803.6,15182.3,16327.9,16706.1,15971.7,14977.2,14000.3,13120.8,12661.9,12247.5,11513.1,10791.1,10825.8,12201.5,12755.8,12755.8,12755.8,12755.8,12755.8
1.72749e-05	-632612.11	0,4.88039e-08,1.14283e-07,2.02133e-07,3.2e-07,4.78138e-07,6.90307e-07,9.74968e-07,1.35689e-06,1.8693e-06,2.55679e-06,3.47917e-06,4.7167e-06,6.37706e-06,8.60471e-06,1.15935e-05,1.56034e-05,2.09834e-05,2.82017e-05,3.78861e-05,5.08795e-05,6.83122e-05,9.17012e-05,0.000123082,0.000165184,0.000221671,0.000297458,0.000399139,0.000535561,0.000718595,inf	7049.2,7049.2,7049.2,7049.2,7049.2,3870.94,4230.67,5484.27,7336.45,9488.85,11647,13604.8,15375.1,16932.4,17490.4,16526,15296.2,14134.3,13135.1,12709.9,12277.1,11326.4,10303.6,10132.4,11542.5,11819.9,11819.9,11819.9,11819.9,11819.9
1.77575e-05	-632729.92	0,4.88039e-08,1.14283e-07,2.02133e-07,3.2e-07,4.78138e-07,6.90307e-07,9.74968e-07,1.35689e-06,1.8693e-06,2.55679e-06,3.47917e-06,4.7167e-06,6.37706e-06,8.60471e-06,1.15935e-05,1.56034e-05,2.09834e-05,2.82017e-05,3.78861e-05,5.08795e-05,6.83122e-05,9.17012e-05,0.000123082,0.000165184,0.000221671,0.000297458,0.000399139,0.000535561,0.000718595,inf	6701.38,6701.38,6701.38,6701.38,6701.38,2917.11,3234.76,4473.54,6433.17,8823.07,11278.7,13493.6,15506,17357.9,18041.6,16872.2,15477.5,14210.5,13174,12839.6,12448.4,11364,10121.1,9790.69,11219.8,11173.7,11173.7,11173.7,11173.7,11173.7
1.82019e-05	-632785.49	0,4.88039e-08,1.14283e-07,2.02133e-07,3.2e-07,4.78138e-07,6.90307e-07,9.74968e-07,1.35689e-06,1.8693e-06,2.55679e-06,3.47917e-06,4.7167e-06,6.37706e-06,8.60471e-06,1.15935e-05,1.56034e-05,2.09834e-05,2.82017e-05,3.78861e-05,5.08795e-05,6.83122e-05,9.17012e-05,0.000123082,0.000165184,0.000221671,0.000297458,0.000399139,0.000535561,0.000718595,inf	6701.38,6701.38,6701.38,6701.38,6701.38,2309.35,2583.4,3802.46,5826.4,8395.94,11075.6,13461,15613.8,17678.3,18443.7,17082.7,15559.6,14225.3,13184.5,12953.6,12625.2,11464,10066.6,9622.69,11089,10724.9,10724.9,10724.9,10724.9,10724.9
1.86072e-05	-632798.47	0,4.88039e-08,1.14283e-07,2.02133e-07,3.2e-07,4.78138e-07,6.90307e-07,9.74968e-07,1.35689e-06,1.8693e-06,2.55679e-06,3.47917e-06,4.7167e-06,6.37706e-06,8.60471e-06,1.15935e-05,1.56034e-05,2.09834e-05,2.82017e-05,3.78861e-05,5.08795e-05,6.83122e-05,9.17012e-05,0.000123082,0.000165184,0.000221671,0.000297458,0.000399139,0.000535561,0.000718595,inf	6886.53,6886.53,6886.53,6886.53,6886.53,1883.08,2134.07,3327.27,5400.01,8125.89,10993.4,13488.5,15718.6,17942.6,18759.9,17218.4,15591.9,14208.1,13174.5,13038.6,12772,11567.9,10064,9542.7,11066.2,10407.3,10407.3,10407.3,10407.3,10407.3
1.89758e-05	-632788.29	0,4.88039e-08,1.14283e-07,2.02133e-07,3.2e-07,4.78138e-07,6.90307e-07,9.74968e-07,1.35689e-06,1.8693e-06,2.55679e-06,3.47917e-06,4.7167e-06,6.37706e-06,8.60471e-06,1.15935e-05,1.56034e-05,2.09834e-05,2.82017e-05,3.78861e-05,5.08795e-05,6.83122e-05,9.17012e-05,0.000123082,0.000165184,0.000221671,0.000297458,0.000399139,0.000535561,0.000718595,inf	7120.09,7120.09,7120.09,7120.09,7120.09,1563.91,1799.75,2968.3,5086.48,7956.86,10989.4,13556.9,15820.4,18171,19023.3,17313.9,15602.9,14179.4,13156.4,13101.1,12885.7,11657.2,10079.7,9507.04,11101.9,10177.8,10177.8,10177.8,10177.8,10177.8
1.9311e-05	-632770.67	0,4.88039e-08,1.14283e-07,2.02133e-07,3.2e-07,4.78138e-07,6.90307e-07,9.74968e-07,1.35689e-06,1.8693e-06,2.55679e-06,3.47917e-06,4.7167e-06,6.37706e-06,8.60471e-06,1.15935e-05,1.56034e-05,2.09834e-05,2.82017e-05,3.78861e-05,5.08795e-05,6.83122e-05,9.17012e-05,0.000123082,0.000165184,0.000221671,0.000297458,0.000399139,0.000535561,0.000718595,inf	7345.12,7345.12,7345.12,7345.12,7345.12,1315.91,1541.18,2687.84,4846.27,7853.42,11039.1,13648.5,15916.6,18370.2,19247.1,17386.5,15606.1,14150.2,13138.3,13149.3,12972.7,11728.5,10099.2,9493.09,11166.9,10008.7,10008.7,10008.7,10008.7,10008.7
1.96148e-05	-632752.31	0,4.88039e-08,1.14283e-07,2.02133e-07,3.2e-07,4.78138e-07,6.90307e-07,9.74968e-07,1.35689e-06,1.8693e-06,2.55679e-06,3.47917e-06,4.7167e-06,6.37706e-06,8.60471e-06,1.15935e-05,1.56034e-05,2.09834e-05,2.82017e-05,3.78861e-05,5.08795e-05,6.83122e-05,9.17012e-05,0.000123082,0.000165184,0.000221671,0.000297458,0.000399139,0.000535561,0.000718595,inf	7534,7534,7534,7534,7534,1116.98,1333.31,2457.56,4654.07,7792.93,11117,13743.4,15991.5,18531.4,19428.1,17432.8,15599.4,14119,13119.9,13186.2,13037.4,11782,10115.9,9489.44,11242.6,9880.2,9880.2,9880.2,9880.2,9880.2
1.98912e-05	-632736.64	0,4.88039e-08,1.14283e-07,2.02133e-07,3.2e-07,4.78138e-07,6.90307e-07,9.74968e-07,1.35689e-06,1.8693e-06,2.55679e-06,3.47917e-06,4.7167e-06,6.37706e-06,8.60471e-06,1.15935e-05,1.56034e-05,2.09834e-05,2.82017e-05,3.78861e-05,5.08795e-05,6.83122e-05,9.17012e-05,0.000123082,0.000165184,0.000221671,0.000297458,0.000399139,0.000535561,0.000718595,inf	7767.53,7767.53,7767.53,7767.53,7767.53,956.119,1165.72,2266.12,4500.01,7769.05,11221.9,13847.8,16061.3,18677.7,19592.3,17475,15598,14097.1,13109.5,13220.6,13089.7,11823.9,10129.6,9489.93,11320.9,9782.06,9782.06,9782.06,9782.06,9782.06
2.0143e-05	-632717.19	0,4.88039e-08,1.14283e-07,2.02133e-07,3.2e-07,4.78138e-07,6.90307e-07,9.74968e-07,1.35689e-06,1.8693e-06,2.55679e-06,3.47917e-06,4.7167e-06,6.37706e-06,8.60471e-06,1.15935e-05,1.56034e-05,2.09834e-05,2.82017e-05,3.78861e-05,5.08795e-05,6.83122e-05,9.17012e-05,0.000123082,0.000165184,0.000221671,0.000297458,0.000399139,0.000535561,0.000718595,inf	7765.92,7765.92,7765.92,7765.92,7765.92,821.345,1025.98,2100.94,4370.87,7769.33,11342.6,13953.1,16120.6,18805.7,19735.7,17510,15598.5,14080.9,13104.8,13252.7,13132.3,11856.4,10139.7,9491.57,11396.3,9706.08,9706.08,9706.08,9706.08,9706.08
2.03716e-05	-632716.01	0,4.88039e-08,1.14283e-07,2.02133e-07,3.2e-07,4.78138e-07,6.90307e-07,9.74968e-07,1.35689e-06,1.8693e-06,2.55679e-06,3.47917e-06,4.7167e-06,6.37706e-06,8.60471e-06,1.15935e-05,1.56034e-05,2.09834e-05,2.82017e-05,3.78861e-05,5.08795e-05,6.83122e-05,9.17012e-05,0.000123082,0.000165184,0.000221671,0.000297458,0.000399139,0.000535561,0.000718595,inf	8023.06,8023.06,8023.06,8023.06,8023.06,713.469,909.773,1960.98,4266.29,7789.86,11475.4,14053.5,16166.4,18916.2,19861.4,17537.4,15599.8,14068.5,13104.1,13282.8,13167.7,11881.7,10146.6,9492.89,11465.7,9646.5,9646.5,9646.5,9646.5,9646.5
2.05803e-05	-632694.97	0,4.88039e-08,1.14283e-07,2.02133e-07,3.2e-07,4.78138e-07,6.90307e-07,9.74968e-07,1.35689e-06,1.8693e-06,2.55679e-06,3.47917e-06,4.7167e-06,6.37706e-06,8.60471e-06,1.15935e-05,1.56034e-05,2.09834e-05,2.82017e-05,3.78861e-05,5.08795e-05,6.83122e-05,9.17012e-05,0.000123082,0.000165184,0.000221671,0.000297458,0.000399139,0.000535561,0.000718595,inf	8183.75,8183.75,8183.75,8183.75,8183.75,619.764,811.579,1837.12,4173.05,7819.99,11612.7,14150,16200.1,19012,19971.2,17559.3,15600.9,14059.4,13106.7,13311.3,13197.5,11901.9,10151.2,9493.58,11528,9599.31,9599.31,9599.31,9599.31,9599.31
2.07705e-05	-632681.67	0,4.88039e-08,1.14283e-07,2.02133e-07,3.2e-07,4.78138e-07,6.90307e-07,9.74968e-07,1.35689e-06,1.8693e-06,2.55679e-06,3.47917e-06,4.7167e-06,6.37706e-06,8.60471e-06,1.15935e-05,1.56034e-05,2.09834e-05,2.82017e-05,3.78861e-05,5.08795e-05,6.83122e-05,9.17012e-05,0.000123082,0.000165184,0.000221671,0.000297458,0.000399139,0.000535561,0.000718595,inf	8183.77,8183.77,8183.77,8183.77,8183.77,538.985,723.244,1726.05,4090.31,7858.54,11751.6,14239.1,16223.5,19093,20066.4,17575.5,15602.4,14052.3,13111.2,13338.3,13223.3,11918.2,10154,9493.57,11582.8,9561.59,9561.59,9561.59,9561.59,9561.59
2.09437e-05	-632680.51	0,4.88039e-08,1.14283e-07,2.02133e-07,3.2e-07,4.78138e-07,6.90307e-07,9.74968e-07,1.35689e-06,1.8693e-06,2.55679e-06,3.47917e-06,4.7167e-06,6.37706e-06,8.60471e-06,1.15935e-05,1.56034e-05,2.09834e-05,2.82017e-05,3.78861e-05,5.08795e-05,6.83122e-05,9.17012e-05,0.000123082,0.000165184,0.000221671,0.000297458,0.000399139,0.000535561,0.000718595,inf	8394.72,8394.72,8394.72,8394.72,8394.72,473.459,649.478,1629.68,4020.44,7907.14,11894.9,14321.8,16238.1,19164.2,20150.8,17587.7,15602.9,14046.5,13117.4,13363.4,13245.7,11931.7,10155.6,9492.92,11630.4,9531.16,9531.16,9531.16,9531.16,9531.16
2.11019e-05	-632663.95	0,4.88039e-08,1.14283e-07,2.02133e-07,3.2e-07,4.78138e-07,6.90307e-07,9.74968e-07,1.35689e-06,1.8693e-06,2.55679e-06,3.47917e-06,4.7167e-06,6.37706e-06,8.60471e-06,1.15935e-05,1.56034e-05,2.09834e-05,2.82017e-05,3.78861e-05,5.08795e-05,6.83122e-05,9.17012e-05,0.000123082,0.000165184,0.000221671,0.000297458,0.000399139,0.000535561,0.000718595,inf	8462.04,8462.04,8462.04,8462.04,8462.04,415.834,582.8,1539.33,3954.32,7958.18,12038.5,14397.5,16244.4,19225.6,20226.3,17597.6,15603.5,14041.4,13124.4,13387.3,13265.4,11943.2,10156.5,9491.9,11671.4,9506.49,9506.49,9506.49,9506.49,9506.49
2.12463e-05	-632658.13	0,4.88039e-08,1.14283e-07,2.02133e-07,3.2e-07,4.78138e-07,6.90307e-07,9.74968e-07,1.35689e-06,1.8693e-06,2.55679e-06,3.47917e-06,4.7167e-06,6.37706e-06,8.60471e-06,1.15935e-05,1.56034e-05,2.09834e-05,2.82017e-05,3.78861e-05,5.08795e-05,6.83122e-05,9.17012e-05,0.000123082,0.000165184,0.000221671,0.000297458,0.000399139,0.000535561,0.000718595,inf	8662.25,8662.25,8662.25,8662.25,8662.25,365.166,524.916,1457.1,3894.9,8013.75,12179.6,14468.6,16243.7,19279.1,20294,17604.7,15604.3,14037.4,13132.2,13409.6,13283,11953.2,10156.9,9490.61,11706.5,9486.36,9486.36,9486.36,9486.36,9486.36
2.13786e-05	-632643.00	0,4.88039e-08,1.14283e-07,2.02133e-07,3.2e-07,4.78138e-07,6.90307e-07,9.74968e-07,1.35689e-06,1.8693e-06,2.55679e-06,3.47917e-06,4.7167e-06,6.37706e-06,8.60471e-06,1.15935e-05,1.56034e-05,2.09834e-05,2.82017e-05,3.78861e-05,5.08795e-05,6.83122e-05,9.17012e-05,0.000123082,0.000165184,0.000221671,0.000297458,0.000399139,0.000535561,0.000718595,inf	8802.4,8802.4,8802.4,8802.4,8802.4,321.969,474.24,1379.51,3836.96,8068.64,12319.1,14531,16237.4,19327.1,20354.9,17610,15604.6,14033.9,13140.3,13430.7,13298.7,11961.8,10157,9489.25,11736.3,9469.9,9469.9,9469.9,9469.9,9469.9
2.14995e-05	-632632.43	0,4.88039e-08,1.14283e-07,2.02133e-07,3.2e-07,4.78138e-07,6.90307e-07,9.74968e-07,1.35689e-06,1.8693e-06,2.55679e-06,3.47917e-06,4.7167e-06,6.37706e-06,8.60471e-06,1.15935e-05,1.56034e-05,2.09834e-05,2.82017e-05,3.78861e-05,5.08795e-05,6.83122e-05,9.17012e-05,0.000123082,0.000165184,0.000221671,0.000297458,0.000399139,0.000535561,0.000718595,inf	8802.4,8802.4,8802.4,8802.4,8802.4,283.211,427.152,1306.23,3781.48,8125.65,12455.6,14588.9,16224.3,19369.4,20409.8,17613.8,15604.6,14030.9,13148.6,13449.9,13312.8,11969.4,10157.1,9487.91,11761.5,9456.36,9456.36,9456.36,9456.36,9456.36
2.16099e-05	-632631.78	0,4.88039e-08,1.14283e-07,2.02133e-07,3.2e-07,4.78138e-07,6.90307e-07,9.74968e-07,1.35689e-06,1.8693e-06,2.55679e-06,3.47917e-06,4.7167e-06,6.37706e-06,8.60471e-06,1.15935e-05,1.56034e-05,2.09834e-05,2.82017e-05,3.78861e-05,5.08795e-05,6.83122e-05,9.17012e-05,0.000123082,0.000165184,0.000221671,0.000297458,0.000399139,0.000535561,0.000718595,inf	8802.36,8802.36,8802.36,8802.36,8802.36,249.183,387.737,1240.48,3731.05,8184.84,12591.8,14641.4,16207.9,19406.2,20460.3,17615.7,15604.4,14028.1,13156.8,13467.5,13325.4,11976.2,10157.1,9486.64,11782.7,9445.18,9445.18,9445.18,9445.18,9445.18
