0.000931837	-21329793.36	0,2.40418e-06,5.57107e-06,9.74266e-06,1.52377e-05,2.2476e-05,3.20106e-05,4.45702e-05,6.11142e-05,8.29067e-05,0.000111613,0.000149426,0.000199236,0.000264847,0.000351273,0.000465119,0.000615081,0.000812619,0.00107283,0.00141558,0.00186708,0.00246181,0.00324522,0.00427716,0.00563649,0.00742707,0.0097857,0.0128926,0.0169852,0.0223761,0.0294773,0.0388313,inf	1.00092e+06,1.00092e+06,574.884,392.707,381.465,386.237,386.761,369.565,344.803,328.769,319.451,308.802,298.98,292.504,288.846,287.509,286.816,286.18,287.154,290.119,293.934,296.764,296.505,293.343,288.222,282.446,279.062,286.833,286.833,328.66,328.66,328.66
0.00100356	-21320597.60	0,2.40418e-06,5.57107e-06,9.74266e-06,1.52377e-05,2.2476e-05,3.20106e-05,4.45702e-05,6.11142e-05,8.29067e-05,0.000111613,0.000149426,0.000199236,0.000264847,0.000351273,0.000465119,0.000615081,0.000812619,0.00107283,0.00141558,0.00186708,0.00246181,0.00324522,0.00427716,0.00563649,0.00742707,0.0097857,0.0128926,0.0169852,0.0223761,0.0294773,0.0388313,inf	953858,953858,135.583,210.234,292.14,355.092,392.598,383.234,351.538,333.459,325.166,311.795,298.49,290.133,285.869,284.932,284.244,282.995,284.333,289.062,295.362,300.14,299.603,294.014,285.049,274.974,268.928,281.849,281.849,362.624,362.624,362.624
0.00106937	-21317444.29	0,2.40418e-06,5.57107e-06,9.74266e-06,1.52377e-05,2.2476e-05,3.20106e-05,4.45702e-05,6.11142e-05,8.29067e-05,0.000111613,0.000149426,0.000199236,0.000264847,0.000351273,0.000465119,0.000615081,0.000812619,0.00107283,0.00141558,0.00186708,0.00246181,0.00324522,0.00427716,0.00563649,0.00742707,0.0097857,0.0128926,0.0169852,0.0223761,0.0294773,0.0388313,inf	954090,954090,34.5253,122.271,235.259,332.723,398.106,393.02,354.001,335.103,328.985,314.164,298.735,289.482,285.187,284.82,283.975,281.805,282.984,288.697,296.686,302.932,302.229,294.826,282.957,269.585,261.361,277.813,277.813,395.615,395.615,395.615
0.00112969	-21315063.50	0,2.40418e-06,5.57107e-06,9.74266e-06,1.52377e-05,2.2476e-05,3.20106e-05,4.45702e-05,6.11142e-05,8.29067e-05,0.000111613,0.000149426,0.000199236,0.000264847,0.000351273,0.000465119,0.000615081,0.000812619,0.00107283,0.00141558,0.00186708,0.00246181,0.00324522,0.00427716,0.00563649,0.00742707,0.0097857,0.0128926,0.0169852,0.0223761,0.0294773,0.0388313,inf	956267,956267,9.33369,75.6691,196.67,316.144,403.263,399.643,353.155,334.272,330.939,315.45,298.786,289.266,285.321,285.659,284.606,281.402,282.18,288.444,297.653,305.083,304.329,295.58,281.497,265.544,255.49,274.408,274.408,427.89,427.89,427.89
0.00118503	-21313204.70	0,2.40418e-06,5.57107e-06,9.74266e-06,1.52377e-05,2.2476e-05,3.20106e-05,4.45702e-05,6.11142e-05,8.29067e-05,0.000111613,0.000149426,0.000199236,0.000264847,0.000351273,0.000465119,0.000615081,0.000812619,0.00107283,0.00141558,0.00186708,0.00246181,0.00324522,0.00427716,0.00563649,0.00742707,0.0097857,0.0128926,0.0169852,0.0223761,0.0294773,0.0388313,inf	958325,958325,2.6495,49.0696,169.185,303.861,408.668,404.33,350.371,332.037,331.724,315.988,298.62,289.196,285.824,286.943,285.653,281.38,281.634,288.182,298.298,306.712,305.986,296.226,280.438,262.423,250.802,271.45,271.45,459.628,459.628,459.628
0.00123587	-21311732.72	0,2.40418e-06,5.57107e-06,9.74266e-06,1.52377e-05,2.2476e-05,3.20106e-05,4.45702e-05,6.11142e-05,8.29067e-05,0.000111613,0.000149426,0.000199236,0.000264847,0.000351273,0.000465119,0.000615081,0.000812619,0.00107283,0.00141558,0.00186708,0.00246181,0.00324522,0.00427716,0.00563649,0.00742707,0.0097857,0.0128926,0.0169852,0.0223761,0.0294773,0.0388313,inf	960188,960188,0.778934,32.9851,148.775,294.808,414.612,407.911,346.585,329.143,331.878,316.089,298.321,289.191,286.514,288.449,286.906,281.565,281.234,287.895,298.699,307.941,307.291,296.764,279.647,259.96,246.972,268.821,268.821,490.945,490.945,490.945
0.00128266	-21310554.31	0,2.40418e-06,5.57107e-06,9.74266e-06,1.52377e-05,2.2476e-05,3.20106e-05,4.45702e-05,6.11142e-05,8.29067e-05,0.000111613,0.000149426,0.000199236,0.000264847,0.000351273,0.000465119,0.000615081,0.000812619,0.00107283,0.00141558,0.00186708,0.00246181,0.00324522,0.00427716,0.00563649,0.00742707,0.0097857,0.0128926,0.0169852,0.0223761,0.0294773,0.0388313,inf	961923,961923,0.293329,22.7977,133.071,288.167,421.15,410.836,342.326,326.027,331.733,315.956,297.957,289.217,287.298,290.059,288.254,281.867,280.929,287.59,298.925,308.874,308.322,297.203,279.043,257.98,243.786,266.444,266.444,521.907,521.907,521.907
0.00132577	-21309602.45	0,2.40418e-06,5.57107e-06,9.74266e-06,1.52377e-05,2.2476e-05,3.20106e-05,4.45702e-05,6.11142e-05,8.29067e-05,0.000111613,0.000149426,0.000199236,0.000264847,0.000351273,0.000465119,0.000615081,0.000812619,0.00107283,0.00141558,0.00186708,0.00246181,0.00324522,0.00427716,0.00563649,0.00742707,0.0097857,0.0128926,0.0169852,0.0223761,0.0294773,0.0388313,inf	963505,963505,0.293244,16.1004,120.601,283.275,428.18,413.3,337.889,322.928,331.483,315.712,297.563,289.254,288.116,291.7,289.631,282.234,280.689,287.278,299.027,309.584,309.14,297.558,278.572,256.366,241.096,264.266,264.266,552.533,552.533,552.533
0.00136556	-21308827.71	0,2.40418e-06,5.57107e-06,9.74266e-06,1.52377e-05,2.2476e-05,3.20106e-05,4.45702e-05,6.11142e-05,8.29067e-05,0.000111613,0.000149426,0.000199236,0.000264847,0.000351273,0.000465119,0.000615081,0.000812619,0.00107283,0.00141558,0.00186708,0.00246181,0.00324522,0.00427716,0.00563649,0.00742707,0.0097857,0.0128926,0.0169852,0.0223761,0.0294773,0.0388313,inf	964988,964988,0.293244,11.5689,110.413,279.662,435.583,415.425,333.435,319.966,331.235,315.429,297.165,289.288,288.936,293.331,290.999,282.633,280.497,286.966,299.043,310.127,309.791,297.842,278.201,255.035,238.796,262.249,262.249,582.795,582.795,582.795
0.00140233	-21308193.11	0,2.40418e-06,5.57107e-06,9.74266e-06,1.52377e-05,2.2476e-05,3.20106e-05,4.45702e-05,6.11142e-05,8.29067e-05,0.000111613,0.000149426,0.000199236,0.000264847,0.000351273,0.000465119,0.000615081,0.000812619,0.00107283,0.00141558,0.00186708,0.00246181,0.00324522,0.00427716,0.00563649,0.00742707,0.0097857,0.0128926,0.0169852,0.0223761,0.0294773,0.0388313,inf	966348,966348,0.293244,8.42746,101.89,276.964,443.212,417.251,329.044,317.2,331.05,315.148,296.775,289.312,289.733,294.923,292.334,283.045,280.339,286.659,299,310.545,310.312,298.066,277.903,253.927,236.81,260.366,260.366,612.612,612.612,612.612
0.00143635	-21307670.41	0,2.40418e-06,5.57107e-06,9.74266e-06,1.52377e-05,2.2476e-05,3.20106e-05,4.45702e-05,6.11142e-05,8.29067e-05,0.000111613,0.000149426,0.000199236,0.000264847,0.000351273,0.000465119,0.000615081,0.000812619,0.00107283,0.00141558,0.00186708,0.00246181,0.00324522,0.00427716,0.00563649,0.00742707,0.0097857,0.0128926,0.0169852,0.0223761,0.0294773,0.0388313,inf	967621,967621,0.293244,6.209,94.6078,274.917,450.957,418.797,324.758,314.657,330.958,314.892,296.4,289.321,290.497,296.462,293.621,283.456,280.208,286.361,298.916,310.868,310.73,298.241,277.663,252.999,235.081,258.598,258.598,641.846,641.846,641.846
0.00146786	-21307237.86	0,2.40418e-06,5.57107e-06,9.74266e-06,1.52377e-05,2.2476e-05,3.20106e-05,4.45702e-05,6.11142e-05,8.29067e-05,0.000111613,0.000149426,0.000199236,0.000264847,0.000351273,0.000465119,0.000615081,0.000812619,0.00107283,0.00141558,0.00186708,0.00246181,0.00324522,0.00427716,0.00563649,0.00742707,0.0097857,0.0128926,0.0169852,0.0223761,0.0294773,0.0388313,inf	969541,969541,0.293244,4.61449,88.2794,273.352,458.722,420.097,320.605,312.345,330.979,314.681,296.043,289.313,291.219,297.938,294.854,283.859,280.097,286.075,298.806,311.12,311.067,298.374,277.469,252.217,233.566,256.928,256.928,670.296,670.296,670.296
0.00149708	-21306879.17	0,2.40418e-06,5.57107e-06,9.74266e-06,1.52377e-05,2.2476e-05,3.20106e-05,4.45702e-05,6.11142e-05,8.29067e-05,0.000111613,0.000149426,0.000199236,0.000264847,0.000351273,0.000465119,0.000615081,0.000812619,0.00107283,0.00141558,0.00186708,0.00246181,0.00324522,0.00427716,0.00563649,0.00742707,0.0097857,0.0128926,0.0169852,0.0223761,0.0294773,0.0388313,inf	969946,969946,0.293244,3.45879,82.7211,272.102,466.418,421.137,316.576,310.246,331.108,314.511,295.701,289.283,291.892,299.345,296.025,284.246,280,285.801,298.679,311.316,311.336,298.474,277.311,251.556,232.23,255.347,255.347,697.693,697.693,697.693
0.0015242	-21306578.83	0,2.40418e-06,5.57107e-06,9.74266e-06,1.52377e-05,2.2476e-05,3.20106e-05,4.45702e-05,6.11142e-05,8.29067e-05,0.000111613,0.000149426,0.000199236,0.000264847,0.000351273,0.000465119,0.000615081,0.000812619,0.00107283,0.00141558,0.00186708,0.00246181,0.00324522,0.00427716,0.00563649,0.00742707,0.0097857,0.0128926,0.0169852,0.0223761,0.0294773,0.0388313,inf	970899,970899,0.293244,2.60459,77.7458,271.068,474.009,421.94,312.682,308.359,331.349,314.391,295.38,289.234,292.519,300.685,297.138,284.616,279.916,285.539,298.542,311.469,311.553,298.545,277.182,250.997,231.048,253.844,253.844,723.704,723.704,723.704
0.00154939	-21306328.19	0,2.40418e-06,5.57107e-06,9.74266e-06,1.52377e-05,2.2476e-05,3.20106e-05,4.45702e-05,6.11142e-05,8.29067e-05,0.000111613,0.000149426,0.000199236,0.000264847,0.000351273,0.000465119,0.000615081,0.000812619,0.00107283,0.00141558,0.00186708,0.00246181,0.00324522,0.00427716,0.00563649,0.00742707,0.0097857,0.0128926,0.0169852,0.0223761,0.0294773,0.0388313,inf	971825,971825,0.293244,1.97501,73.2642,270.181,481.466,422.527,308.92,306.666,331.695,314.318,295.077,289.166,293.098,301.956,298.191,284.967,279.841,285.29,298.4,311.589,311.725,298.591,277.078,250.524,229.998,252.413,252.413,747.936,747.936,747.936
0.00157282	-21306118.12	0,2.40418e-06,5.57107e-06,9.74266e-06,1.52377e-05,2.2476e-05,3.20106e-05,4.45702e-05,6.11142e-05,8.29067e-05,0.000111613,0.000149426,0.000199236,0.000264847,0.000351273,0.000465119,0.000615081,0.000812619,0.00107283,0.00141558,0.00186708,0.00246181,0.00324522,0.00427716,0.00563649,0.00742707,0.0097857,0.0128926,0.0169852,0.0223761,0.0294773,0.0388313,inf	972701,972701,0.293244,1.50456,69.2049,269.41,488.755,422.906,305.289,305.154,332.136,314.29,294.791,289.08,293.632,303.161,299.186,285.297,279.773,285.054,298.257,311.685,311.863,298.618,276.994,250.124,229.064,251.049,251.049,769.952,769.952,769.952
0.00159462	-21305941.68	0,2.40418e-06,5.57107e-06,9.74266e-06,1.52377e-05,2.2476e-05,3.20106e-05,4.45702e-05,6.11142e-05,8.29067e-05,0.000111613,0.000149426,0.000199236,0.000264847,0.000351273,0.000465119,0.000615081,0.000812619,0.00107283,0.00141558,0.00186708,0.00246181,0.00324522,0.00427716,0.00563649,0.00742707,0.0097857,0.0128926,0.0169852,0.0223761,0.0294773,0.0388313,inf	973497,973497,0.293244,1.15153,65.4984,268.706,495.871,423.099,301.778,303.802,332.666,314.301,294.521,288.976,294.122,304.302,300.125,285.608,279.712,284.83,298.115,311.76,311.971,298.628,276.928,249.788,228.231,249.748,249.748,789.316,789.316,789.316
0.00161492	-21305793.24	0,2.40418e-06,5.57107e-06,9.74266e-06,1.52377e-05,2.2476e-05,3.20106e-05,4.45702e-05,6.11142e-05,8.29067e-05,0.000111613,0.000149426,0.000199236,0.000264847,0.000351273,0.000465119,0.000615081,0.000812619,0.00107283,0.00141558,0.00186708,0.00246181,0.00324522,0.00427716,0.00563649,0.00742707,0.0097857,0.0128926,0.0169852,0.0223761,0.0294773,0.0388313,inf	974243,974243,0.293244,0.884781,62.1004,268.05,502.812,423.115,298.381,302.596,333.276,314.349,294.262,288.855,294.57,305.382,301.011,285.898,279.655,284.618,297.976,311.821,312.055,298.622,276.875,249.508,227.489,248.506,248.506,805.63,805.63,805.63
0.00163383	-21305668.20	0,2.40418e-06,5.57107e-06,9.74266e-06,1.52377e-05,2.2476e-05,3.20106e-05,4.45702e-05,6.11142e-05,8.29067e-05,0.000111613,0.000149426,0.000199236,0.000264847,0.000351273,0.000465119,0.000615081,0.000812619,0.00107283,0.00141558,0.00186708,0.00246181,0.00324522,0.00427716,0.00563649,0.00742707,0.0097857,0.0128926,0.0169852,0.0223761,0.0294773,0.0388313,inf	974937,974937,0.293244,0.681478,58.9699,267.411,509.557,422.966,295.091,301.522,333.958,314.431,294.018,288.72,294.979,306.404,301.846,286.17,279.602,284.417,297.842,311.871,312.119,298.604,276.835,249.277,226.828,247.322,247.322,818.592,818.592,818.592
0.00165147	-21305562.79	0,2.40418e-06,5.57107e-06,9.74266e-06,1.52377e-05,2.2476e-05,3.20106e-05,4.45702e-05,6.11142e-05,8.29067e-05,0.000111613,0.000149426,0.000199236,0.000264847,0.000351273,0.000465119,0.000615081,0.000812619,0.00107283,0.00141558,0.00186708,0.00246181,0.00324522,0.00427716,0.00563649,0.00742707,0.0097857,0.0128926,0.0169852,0.0223761,0.0294773,0.0388313,inf	975582,975582,0.293244,0.525671,56.0723,266.788,516.119,422.67,291.901,300.57,334.702,314.541,293.787,288.571,295.351,307.372,302.634,286.423,279.553,284.227,297.713,311.912,312.166,298.575,276.805,249.088,226.24,246.192,246.192,828.043,828.043,828.043
