0.000906942	-19667781.73	0,2.55305e-06,5.9784e-06,1.05741e-05,1.674e-05,2.50126e-05,3.61117e-05,5.1003e-05,7.09822e-05,9.77877e-05,0.000133752,0.000182004,0.000246742,0.0003336,0.000450133,0.000606483,0.000816253,0.0010977,0.0014753,0.00198192,0.00266163,0.00357358,0.00479712,0.0064387,0.00864116,0.0115961,0.0155607,0.0208799,0.0280165,0.0375915,inf	292.902,292.902,292.902,292.902,292.902,266.399,280.938,287.352,285.417,283.934,285.372,287.806,289.619,289.261,287.545,287.048,288.379,290.935,294.286,297.183,298.491,297.824,297.019,295.028,288.843,258.23,258.23,258.23,258.23,258.23
0.00096879	-19664393.68	0,2.55305e-06,5.9784e-06,1.05741e-05,1.674e-05,2.50126e-05,3.61117e-05,5.1003e-05,7.09822e-05,9.77877e-05,0.000133752,0.000182004,0.000246742,0.0003336,0.000450133,0.000606483,0.000816253,0.0010977,0.0014753,0.00198192,0.00266163,0.00357358,0.00479712,0.0064387,0.00864116,0.0115961,0.0155607,0.0208799,0.0280165,0.0375915,inf	299.665,299.665,299.665,299.665,299.665,249.482,276.595,287.991,283.254,280.057,282.589,287.042,290.254,289.211,285.49,283.955,285.581,289.268,294.327,298.65,300.332,298.886,297.851,295.144,284.971,233.169,233.169,233.169,233.169,233.169
0.0010258	-19661901.46	0,2.55305e-06,5.9784e-06,1.05741e-05,1.674e-05,2.50126e-05,3.61117e-05,5.1003e-05,7.09822e-05,9.77877e-05,0.000133752,0.000182004,0.000246742,0.0003336,0.000450133,0.000606483,0.000816253,0.0010977,0.0014753,0.00198192,0.00266163,0.00357358,0.00479712,0.0064387,0.00864116,0.0115961,0.0155607,0.0208799,0.0280165,0.0375915,inf	308.79,308.79,308.79,308.79,308.79,236.093,274.637,290.276,282.419,277.703,281.396,287.887,292.556,290.997,285.499,282.985,284.632,288.919,294.989,300.101,301.803,299.701,298.931,296.471,283.912,215.918,215.918,215.918,215.918,215.918
0.00107819	-19660006.83	0,2.55305e-06,5.9784e-06,1.05741e-05,1.674e-05,2.50126e-05,3.61117e-05,5.1003e-05,7.09822e-05,9.77877e-05,0.000133752,0.000182004,0.000246742,0.0003336,0.000450133,0.000606483,0.000816253,0.0010977,0.0014753,0.00198192,0.00266163,0.00357358,0.00479712,0.0064387,0.00864116,0.0115961,0.0155607,0.0208799,0.0280165,0.0375915,inf	314.802,314.802,314.802,314.802,314.802,224.273,273.358,292.66,281.491,275.444,280.312,288.818,294.994,293.111,286.117,282.784,284.372,289.005,295.702,301.239,302.756,300.091,299.903,298.357,284.603,203.396,203.396,203.396,203.396,203.396
0.00112629	-19658541.99	0,2.55305e-06,5.9784e-06,1.05741e-05,1.674e-05,2.50126e-05,3.61117e-05,5.1003e-05,7.09822e-05,9.77877e-05,0.000133752,0.000182004,0.000246742,0.0003336,0.000450133,0.000606483,0.000816253,0.0010977,0.0014753,0.00198192,0.00266163,0.00357358,0.00479712,0.0064387,0.00864116,0.0115961,0.0155607,0.0208799,0.0280165,0.0375915,inf	320.337,320.337,320.337,320.337,320.337,213.924,272.718,295.133,280.452,273.177,279.152,289.575,297.243,295.175,286.921,282.923,284.438,289.278,296.362,302.082,303.264,300.082,300.638,300.442,286.395,193.926,193.926,193.926,193.926,193.926
0.00117046	-19657385.99	0,2.55305e-06,5.9784e-06,1.05741e-05,1.674e-05,2.50126e-05,3.61117e-05,5.1003e-05,7.09822e-05,9.77877e-05,0.000133752,0.000182004,0.000246742,0.0003336,0.000450133,0.000606483,0.000816253,0.0010977,0.0014753,0.00198192,0.00266163,0.00357358,0.00479712,0.0064387,0.00864116,0.0115961,0.0155607,0.0208799,0.0280165,0.0375915,inf	324.914,324.914,324.914,324.914,324.914,204.772,272.641,297.723,279.394,270.971,277.948,290.151,299.251,297.089,287.766,283.236,284.684,289.652,296.97,302.708,303.44,299.746,301.108,302.531,288.876,186.521,186.521,186.521,186.521,186.521
0.00121107	-19656462.57	0,2.55305e-06,5.9784e-06,1.05741e-05,1.674e-05,2.50126e-05,3.61117e-05,5.1003e-05,7.09822e-05,9.77877e-05,0.000133752,0.000182004,0.000246742,0.0003336,0.000450133,0.000606483,0.000816253,0.0010977,0.0014753,0.00198192,0.00266163,0.00357358,0.00479712,0.0064387,0.00864116,0.0115961,0.0155607,0.0208799,0.0280165,0.0375915,inf	329.692,329.692,329.692,329.692,329.692,196.651,273.067,300.467,278.389,268.889,276.759,290.592,301.037,298.835,288.59,283.635,285.035,290.09,297.542,303.186,303.383,299.165,301.327,304.516,291.777,180.569,180.569,180.569,180.569,180.569
0.00124843	-19655715.31	0,2.55305e-06,5.9784e-06,1.05741e-05,1.674e-05,2.50126e-05,3.61117e-05,5.1003e-05,7.09822e-05,9.77877e-05,0.000133752,0.000182004,0.000246742,0.0003336,0.000450133,0.000606483,0.000816253,0.0010977,0.0014753,0.00198192,0.00266163,0.00357358,0.00479712,0.0064387,0.00864116,0.0115961,0.0155607,0.0208799,0.0280165,0.0375915,inf	335.306,335.306,335.306,335.306,335.306,189.284,273.852,303.323,277.465,266.965,275.624,290.935,302.63,300.414,289.365,284.072,285.445,290.568,298.095,303.571,303.168,298.406,301.325,306.344,294.924,175.672,175.672,175.672,175.672,175.672
0.00128284	-19655104.04	0,2.55305e-06,5.9784e-06,1.05741e-05,1.674e-05,2.50126e-05,3.61117e-05,5.1003e-05,7.09822e-05,9.77877e-05,0.000133752,0.000182004,0.000246742,0.0003336,0.000450133,0.000606483,0.000816253,0.0010977,0.0014753,0.00198192,0.00266163,0.00357358,0.00479712,0.0064387,0.00864116,0.0115961,0.0155607,0.0208799,0.0280165,0.0375915,inf	338.371,338.371,338.371,338.371,338.371,182.441,274.842,306.228,276.616,265.201,274.56,291.21,304.056,301.837,290.074,284.514,285.883,291.07,298.638,303.899,302.854,297.525,301.138,307.993,298.199,171.564,171.564,171.564,171.564,171.564
0.00131457	-19654606.88	0,2.55305e-06,5.9784e-06,1.05741e-05,1.674e-05,2.50126e-05,3.61117e-05,5.1003e-05,7.09822e-05,9.77877e-05,0.000133752,0.000182004,0.000246742,0.0003336,0.000450133,0.000606483,0.000816253,0.0010977,0.0014753,0.00198192,0.00266163,0.00357358,0.00479712,0.0064387,0.00864116,0.0115961,0.0155607,0.0208799,0.0280165,0.0375915,inf	342.455,342.455,342.455,342.455,342.455,176.197,276.117,309.23,275.877,263.619,273.593,291.45,305.346,303.121,290.714,284.941,286.326,291.582,299.175,304.197,302.483,296.567,300.801,309.46,301.524,168.059,168.059,168.059,168.059,168.059
0.00134385	-19654194.71	0,2.55305e-06,5.9784e-06,1.05741e-05,1.674e-05,2.50126e-05,3.61117e-05,5.1003e-05,7.09822e-05,9.77877e-05,0.000133752,0.000182004,0.000246742,0.0003336,0.000450133,0.000606483,0.000816253,0.0010977,0.0014753,0.00198192,0.00266163,0.00357358,0.00479712,0.0064387,0.00864116,0.0115961,0.0155607,0.0208799,0.0280165,0.0375915,inf	345.434,345.434,345.434,345.434,345.434,170.327,277.491,312.233,275.209,262.194,272.715,291.661,306.519,304.277,291.282,285.341,286.761,292.095,299.707,304.48,302.082,295.565,300.344,310.751,304.849,165.025,165.025,165.025,165.025,165.025
0.00137091	-19653855.05	0,2.55305e-06,5.9784e-06,1.05741e-05,1.674e-05,2.50126e-05,3.61117e-05,5.1003e-05,7.09822e-05,9.77877e-05,0.000133752,0.000182004,0.000246742,0.0003336,0.000450133,0.000606483,0.000816253,0.0010977,0.0014753,0.00198192,0.00266163,0.00357358,0.00479712,0.0064387,0.00864116,0.0115961,0.0155607,0.0208799,0.0280165,0.0375915,inf	347.74,347.74,347.74,347.74,347.74,164.83,278.97,315.239,274.612,260.919,271.932,291.864,307.596,305.324,291.782,285.705,287.175,292.598,300.236,304.759,301.673,294.542,299.793,311.876,308.139,162.366,162.366,162.366,162.366,162.366
0.00139593	-19653573.90	0,2.55305e-06,5.9784e-06,1.05741e-05,1.674e-05,2.50126e-05,3.61117e-05,5.1003e-05,7.09822e-05,9.77877e-05,0.000133752,0.000182004,0.000246742,0.0003336,0.000450133,0.000606483,0.000816253,0.0010977,0.0014753,0.00198192,0.00266163,0.00357358,0.00479712,0.0064387,0.00864116,0.0115961,0.0155607,0.0208799,0.0280165,0.0375915,inf	349.843,349.843,349.843,349.843,349.843,159.667,280.539,318.226,274.073,259.782,271.238,292.064,308.592,306.274,292.219,286.031,287.562,293.087,300.759,305.04,301.27,293.519,299.171,312.848,311.372,160.009,160.009,160.009,160.009,160.009
0.00141909	-19653339.99	0,2.55305e-06,5.9784e-06,1.05741e-05,1.674e-05,2.50126e-05,3.61117e-05,5.1003e-05,7.09822e-05,9.77877e-05,0.000133752,0.000182004,0.000246742,0.0003336,0.000450133,0.000606483,0.000816253,0.0010977,0.0014753,0.00198192,0.00266163,0.00357358,0.00479712,0.0064387,0.00864116,0.0115961,0.0155607,0.0208799,0.0280165,0.0375915,inf	353.521,353.521,353.521,353.521,353.521,154.8,282.142,321.173,273.576,258.763,270.626,292.268,309.521,307.139,292.597,286.316,287.918,293.557,301.274,305.328,300.882,292.507,298.496,313.683,314.535,157.9,157.9,157.9,157.9,157.9
0.00144054	-19653141.60	0,2.55305e-06,5.9784e-06,1.05741e-05,1.674e-05,2.50126e-05,3.61117e-05,5.1003e-05,7.09822e-05,9.77877e-05,0.000133752,0.000182004,0.000246742,0.0003336,0.000450133,0.000606483,0.000816253,0.0010977,0.0014753,0.00198192,0.00266163,0.00357358,0.00479712,0.0064387,0.00864116,0.0115961,0.0155607,0.0208799,0.0280165,0.0375915,inf	354.785,354.785,354.785,354.785,354.785,150.061,283.644,323.995,273.082,257.839,270.082,292.473,310.391,307.931,292.921,286.562,288.239,294.004,301.781,305.623,300.515,291.517,297.784,314.393,317.618,155.997,155.997,155.997,155.997,155.997
0.00146042	-19652979.88	0,2.55305e-06,5.9784e-06,1.05741e-05,1.674e-05,2.50126e-05,3.61117e-05,5.1003e-05,7.09822e-05,9.77877e-05,0.000133752,0.000182004,0.000246742,0.0003336,0.000450133,0.000606483,0.000816253,0.0010977,0.0014753,0.00198192,0.00266163,0.00357358,0.00479712,0.0064387,0.00864116,0.0115961,0.0155607,0.0208799,0.0280165,0.0375915,inf	356.356,356.356,356.356,356.356,356.356,145.591,285.19,326.781,272.624,257.015,269.613,292.689,311.217,308.66,293.199,286.77,288.527,294.425,302.277,305.926,300.174,290.554,297.045,314.991,320.618,154.268,154.268,154.268,154.268,154.268
0.00147887	-19652844.12	0,2.55305e-06,5.9784e-06,1.05741e-05,1.674e-05,2.50126e-05,3.61117e-05,5.1003e-05,7.09822e-05,9.77877e-05,0.000133752,0.000182004,0.000246742,0.0003336,0.000450133,0.000606483,0.000816253,0.0010977,0.0014753,0.00198192,0.00266163,0.00357358,0.00479712,0.0064387,0.00864116,0.0115961,0.0155607,0.0208799,0.0280165,0.0375915,inf	357.764,357.764,357.764,357.764,357.764,141.328,286.721,329.481,272.175,256.27,269.201,292.911,312.001,309.335,293.435,286.943,288.781,294.82,302.761,306.238,299.859,289.623,296.29,315.49,323.532,152.687,152.687,152.687,152.687,152.687
0.00149599	-19652730.86	0,2.55305e-06,5.9784e-06,1.05741e-05,1.674e-05,2.50126e-05,3.61117e-05,5.1003e-05,7.09822e-05,9.77877e-05,0.000133752,0.000182004,0.000246742,0.0003336,0.000450133,0.000606483,0.000816253,0.0010977,0.0014753,0.00198192,0.00266163,0.00357358,0.00479712,0.0064387,0.00864116,0.0115961,0.0155607,0.0208799,0.0280165,0.0375915,inf	359.395,359.395,359.395,359.395,359.395,137.254,288.224,332.092,271.729,255.593,268.843,293.14,312.75,309.962,293.635,287.082,289,295.187,303.231,306.556,299.571,288.728,295.527,315.901,326.361,151.232,151.232,151.232,151.232,151.232
0.0015119	-19652635.76	0,2.55305e-06,5.9784e-06,1.05741e-05,1.674e-05,2.50126e-05,3.61117e-05,5.1003e-05,7.09822e-05,9.77877e-05,0.000133752,0.000182004,0.000246742,0.0003336,0.000450133,0.000606483,0.000816253,0.0010977,0.0014753,0.00198192,0.00266163,0.00357358,0.00479712,0.0064387,0.00864116,0.0115961,0.0155607,0.0208799,0.0280165,0.0375915,inf	361.818,361.818,361.818,361.818,361.818,133.33,289.673,334.603,271.279,254.975,268.528,293.375,313.468,310.549,293.804,287.192,289.188,295.527,303.687,306.881,299.312,287.868,294.762,316.232,329.104,149.886,149.886,149.886,149.886,149.886
0.00152668	-19652554.77	0,2.55305e-06,5.9784e-06,1.05741e-05,1.674e-05,2.50126e-05,3.61117e-05,5.1003e-05,7.09822e-05,9.77877e-05,0.000133752,0.000182004,0.000246742,0.0003336,0.000450133,0.000606483,0.000816253,0.0010977,0.0014753,0.00198192,0.00266163,0.00357358,0.00479712,0.0064387,0.00864116,0.0115961,0.0155607,0.0208799,0.0280165,0.0375915,inf	362.91,362.91,362.91,362.91,362.91,129.502,291.012,336.982,270.81,254.402,268.252,293.612,314.158,311.1,293.945,287.275,289.345,295.84,304.127,307.211,299.08,287.046,293.999,316.494,331.765,148.636,148.636,148.636,148.636,148.636
