0.0005319	-13115405.97	0,1.54842e-06,3.62589e-06,6.41316e-06,1.01528e-05,1.51701e-05,2.19017e-05,3.09332e-05,4.30506e-05,5.93081e-05,8.11202e-05,0.000110385,0.000149649,0.000202327,0.000273005,0.000367831,0.000495056,0.00066575,0.000894765,0.00120203,0.00161427,0.00216737,0.00290944,0.00390506,0.00524085,0.00703303,0.00943756,0.0126636,0.016992,0.0227991,inf	204.522,204.522,204.522,204.522,204.522,218.013,234.621,242.278,256.613,282.446,310.086,327.369,340.31,360.413,387.682,416.746,444.493,470.287,494.205,516.995,534.513,543.716,545.997,542.728,536.507,528.484,528.484,528.484,528.484,528.484
0.000550768	-13113442.70	0,1.54842e-06,3.62589e-06,6.41316e-06,1.01528e-05,1.51701e-05,2.19017e-05,3.09332e-05,4.30506e-05,5.93081e-05,8.11202e-05,0.000110385,0.000149649,0.000202327,0.000273005,0.000367831,0.000495056,0.00066575,0.000894765,0.00120203,0.00161427,0.00216737,0.00290944,0.00390506,0.00524085,0.00703303,0.00943756,0.0126636,0.016992,0.0227991,inf	152.564,152.564,152.564,152.564,152.564,173.181,191.48,191.914,202.888,233.971,269.447,285.894,294.026,315.291,350.074,388.826,425.731,459.944,492.443,525.869,553.896,571.181,579.108,577.362,568.917,557.545,557.545,557.545,557.545,557.545
0.000566652	-13112809.58	0,1.54842e-06,3.62589e-06,6.41316e-06,1.01528e-05,1.51701e-05,2.19017e-05,3.09332e-05,4.30506e-05,5.93081e-05,8.11202e-05,0.000110385,0.000149649,0.000202327,0.000273005,0.000367831,0.000495056,0.00066575,0.000894765,0.00120203,0.00161427,0.00216737,0.00290944,0.00390506,0.00524085,0.00703303,0.00943756,0.0126636,0.016992,0.0227991,inf	139.948,139.948,139.948,139.948,139.948,166.963,187.027,178.842,185.657,221.021,263.269,276.55,277.142,296.288,334.233,377.482,417.791,454.366,489.392,527.636,561.558,584.672,598.599,600.26,591.534,579.701,579.701,579.701,579.701,579.701
0.000580284	-13112508.11	0,1.54842e-06,3.62589e-06,6.41316e-06,1.01528e-05,1.51701e-05,2.19017e-05,3.09332e-05,4.30506e-05,5.93081e-05,8.11202e-05,0.000110385,0.000149649,0.000202327,0.000273005,0.000367831,0.000495056,0.00066575,0.000894765,0.00120203,0.00161427,0.00216737,0.00290944,0.00390506,0.00524085,0.00703303,0.00943756,0.0126636,0.016992,0.0227991,inf	136.699,136.699,136.699,136.699,136.699,168.854,191.278,174.244,177.403,217.476,267.222,277.299,270.278,287.032,327.165,373.309,414.976,451.572,486.589,526.831,563.889,590.847,610.078,615.621,607.403,596.79,596.79,596.79,596.79,596.79
0.000592217	-13112325.78	0,1.54842e-06,3.62589e-06,6.41316e-06,1.01528e-05,1.51701e-05,2.19017e-05,3.09332e-05,4.30506e-05,5.93081e-05,8.11202e-05,0.000110385,0.000149649,0.000202327,0.000273005,0.000367831,0.000495056,0.00066575,0.000894765,0.00120203,0.00161427,0.00216737,0.00290944,0.00390506,0.00524085,0.00703303,0.00943756,0.0126636,0.016992,0.0227991,inf	134.371,134.371,134.371,134.371,134.371,171.704,196.859,171.146,171.145,216.027,273.801,281.036,266.949,281.698,323.898,372.43,414.721,450.442,484.41,525.292,563.882,593.207,616.815,626.115,618.618,610.158,610.158,610.158,610.158,610.158
0.000602819	-13112207.39	0,1.54842e-06,3.62589e-06,6.41316e-06,1.01528e-05,1.51701e-05,2.19017e-05,3.09332e-05,4.30506e-05,5.93081e-05,8.11202e-05,0.000110385,0.000149649,0.000202327,0.000273005,0.000367831,0.000495056,0.00066575,0.000894765,0.00120203,0.00161427,0.00216737,0.00290944,0.00390506,0.00524085,0.00703303,0.00943756,0.0126636,0.016992,0.0227991,inf	134.371,134.371,134.371,134.371,134.371,174.224,202.238,168.033,165.206,214.621,280.57,285.317,264.798,277.994,322.317,373.071,415.738,450.289,482.84,523.732,562.933,593.587,620.705,633.419,626.585,620.768,620.768,620.768,620.768,620.768
0.00061234	-13112112.31	0,1.54842e-06,3.62589e-06,6.41316e-06,1.01528e-05,1.51701e-05,2.19017e-05,3.09332e-05,4.30506e-05,5.93081e-05,8.11202e-05,0.000110385,0.000149649,0.000202327,0.000273005,0.000367831,0.000495056,0.00066575,0.000894765,0.00120203,0.00161427,0.00216737,0.00290944,0.00390506,0.00524085,0.00703303,0.00943756,0.0126636,0.016992,0.0227991,inf	131.879,131.879,131.879,131.879,131.879,176.04,207.16,164.73,159.308,212.826,286.843,289.355,262.974,274.985,321.478,374.374,417.347,450.688,481.758,522.399,561.687,592.957,622.857,638.592,632.251,629.302,629.302,629.302,629.302,629.302
0.000620953	-13112050.93	0,1.54842e-06,3.62589e-06,6.41316e-06,1.01528e-05,1.51701e-05,2.19017e-05,3.09332e-05,4.30506e-05,5.93081e-05,8.11202e-05,0.000110385,0.000149649,0.000202327,0.000273005,0.000367831,0.000495056,0.00066575,0.000894765,0.00120203,0.00161427,0.00216737,0.00290944,0.00390506,0.00524085,0.00703303,0.00943756,0.0126636,0.016992,0.0227991,inf	130.236,130.236,130.236,130.236,130.236,177.779,212.044,161.472,153.588,210.717,292.552,292.979,261.203,272.297,320.955,375.918,419.184,451.371,481.033,521.351,560.437,591.836,623.935,642.317,636.26,636.253,636.253,636.253,636.253,636.253
0.000628786	-13111999.67	0,1.54842e-06,3.62589e-06,6.41316e-06,1.01528e-05,1.51701e-05,2.19017e-05,3.09332e-05,4.30506e-05,5.93081e-05,8.11202e-05,0.000110385,0.000149649,0.000202327,0.000273005,0.000367831,0.000495056,0.00066575,0.000894765,0.00120203,0.00161427,0.00216737,0.00290944,0.00390506,0.00524085,0.00703303,0.00943756,0.0126636,0.016992,0.0227991,inf	130.241,130.241,130.241,130.241,130.241,179.378,216.936,158.338,148.123,208.407,297.775,296.208,259.418,269.785,320.558,377.499,421.053,452.176,480.557,520.571,559.306,590.503,624.342,645.041,639.061,641.979,641.979,641.979,641.979,641.979
0.000635937	-13111950.44	0,1.54842e-06,3.62589e-06,6.41316e-06,1.01528e-05,1.51701e-05,2.19017e-05,3.09332e-05,4.30506e-05,5.93081e-05,8.11202e-05,0.000110385,0.000149649,0.000202327,0.000273005,0.000367831,0.000495056,0.00066575,0.000894765,0.00120203,0.00161427,0.00216737,0.00290944,0.00390506,0.00524085,0.00703303,0.00943756,0.0126636,0.016992,0.0227991,inf	130.241,130.241,130.241,130.241,130.241,180.627,221.768,155.352,142.958,206,302.619,299.115,257.626,267.402,320.212,379.024,422.852,453.005,480.246,520.021,558.336,589.111,624.328,647.064,640.969,646.746,646.746,646.746,646.746,646.746
0.000642482	-13111909.42	0,1.54842e-06,3.62589e-06,6.41316e-06,1.01528e-05,1.51701e-05,2.19017e-05,3.09332e-05,4.30506e-05,5.93081e-05,8.11202e-05,0.000110385,0.000149649,0.000202327,0.000273005,0.000367831,0.000495056,0.00066575,0.000894765,0.00120203,0.00161427,0.00216737,0.00290944,0.00390506,0.00524085,0.00703303,0.00943756,0.0126636,0.016992,0.0227991,inf	129.339,129.339,129.339,129.339,129.339,181.606,226.627,152.564,138.118,203.578,307.18,301.774,255.852,265.136,319.889,380.455,424.534,453.799,480.04,519.658,557.532,587.738,624.054,648.589,642.21,650.754,650.754,650.754,650.754,650.754
0.000648486	-13111879.63	0,1.54842e-06,3.62589e-06,6.41316e-06,1.01528e-05,1.51701e-05,2.19017e-05,3.09332e-05,4.30506e-05,5.93081e-05,8.11202e-05,0.000110385,0.000149649,0.000202327,0.000273005,0.000367831,0.000495056,0.00066575,0.000894765,0.00120203,0.00161427,0.00216737,0.00290944,0.00390506,0.00524085,0.00703303,0.00943756,0.0126636,0.016992,0.0227991,inf	129.339,129.339,129.339,129.339,129.339,182.46,231.59,149.992,133.608,201.187,311.524,304.245,254.12,262.984,319.585,381.783,426.079,454.529,479.897,519.443,556.884,586.424,623.62,649.759,642.949,654.155,654.155,654.155,654.155,654.155
0.000654002	-13111850.48	0,1.54842e-06,3.62589e-06,6.41316e-06,1.01528e-05,1.51701e-05,2.19017e-05,3.09332e-05,4.30506e-05,5.93081e-05,8.11202e-05,0.000110385,0.000149649,0.000202327,0.000273005,0.000367831,0.000495056,0.00066575,0.000894765,0.00120203,0.00161427,0.00216737,0.00290944,0.00390506,0.00524085,0.00703303,0.00943756,0.0126636,0.016992,0.0227991,inf	129.26,129.26,129.26,129.26,129.26,183.031,236.533,147.588,129.387,198.834,315.684,306.559,252.443,260.948,319.301,383.013,427.487,455.179,479.787,519.344,556.374,585.188,623.093,650.674,643.306,657.065,657.065,657.065,657.065,657.065
0.000659077	-13111826.16	0,1.54842e-06,3.62589e-06,6.41316e-06,1.01528e-05,1.51701e-05,2.19017e-05,3.09332e-05,4.30506e-05,5.93081e-05,8.11202e-05,0.000110385,0.000149649,0.000202327,0.000273005,0.000367831,0.000495056,0.00066575,0.000894765,0.00120203,0.00161427,0.00216737,0.00290944,0.00390506,0.00524085,0.00703303,0.00943756,0.0126636,0.016992,0.0227991,inf	129.26,129.26,129.26,129.26,129.26,183.339,241.464,145.345,125.444,196.532,319.682,308.746,250.831,259.029,319.042,384.153,428.763,455.746,479.692,519.334,555.984,584.036,622.515,651.405,643.372,659.575,659.575,659.575,659.575,659.575
0.000663738	-13111805.10	0,1.54842e-06,3.62589e-06,6.41316e-06,1.01528e-05,1.51701e-05,2.19017e-05,3.09332e-05,4.30506e-05,5.93081e-05,8.11202e-05,0.000110385,0.000149649,0.000202327,0.000273005,0.000367831,0.000495056,0.00066575,0.000894765,0.00120203,0.00161427,0.00216737,0.00290944,0.00390506,0.00524085,0.00703303,0.00943756,0.0126636,0.016992,0.0227991,inf	129.26,129.26,129.26,129.26,129.26,183.317,246.274,143.187,121.697,194.196,323.393,310.689,249.183,257.119,318.695,385.085,429.792,456.122,479.52,519.345,555.674,582.957,621.899,651.975,643.186,661.73,661.73,661.73,661.73,661.73
0.000668041	-13111787.09	0,1.54842e-06,3.62589e-06,6.41316e-06,1.01528e-05,1.51701e-05,2.19017e-05,3.09332e-05,4.30506e-05,5.93081e-05,8.11202e-05,0.000110385,0.000149649,0.000202327,0.000273005,0.000367831,0.000495056,0.00066575,0.000894765,0.00120203,0.00161427,0.00216737,0.00290944,0.00390506,0.00524085,0.00703303,0.00943756,0.0126636,0.016992,0.0227991,inf	129.26,129.26,129.26,129.26,129.26,183.122,251.132,141.216,118.229,191.987,327.092,312.647,247.689,255.399,318.468,386.041,430.794,456.488,479.395,519.445,555.473,581.972,621.291,652.461,642.839,663.623,663.623,663.623,663.623,663.623
0.000672012	-13111771.68	0,1.54842e-06,3.62589e-06,6.41316e-06,1.01528e-05,1.51701e-05,2.19017e-05,3.09332e-05,4.30506e-05,5.93081e-05,8.11202e-05,0.000110385,0.000149649,0.000202327,0.000273005,0.000367831,0.000495056,0.00066575,0.000894765,0.00120203,0.00161427,0.00216737,0.00290944,0.00390506,0.00524085,0.00703303,0.00943756,0.0126636,0.016992,0.0227991,inf	129.26,129.26,129.26,129.26,129.26,182.707,255.951,139.37,114.978,189.839,330.685,314.542,246.286,253.807,318.307,386.972,431.729,456.806,479.277,519.597,555.352,581.064,620.694,652.885,642.367,665.298,665.298,665.298,665.298,665.298
0.000675678	-13111758.49	0,1.54842e-06,3.62589e-06,6.41316e-06,1.01528e-05,1.51701e-05,2.19017e-05,3.09332e-05,4.30506e-05,5.93081e-05,8.11202e-05,0.000110385,0.000149649,0.000202327,0.000273005,0.000367831,0.000495056,0.00066575,0.000894765,0.00120203,0.00161427,0.00216737,0.00290944,0.00390506,0.00524085,0.00703303,0.00943756,0.0126636,0.016992,0.0227991,inf	129.259,129.259,129.259,129.259,129.259,182.083,260.73,137.635,111.919,187.733,334.151,316.353,244.951,252.319,318.191,387.867,432.588,457.066,479.152,519.781,555.292,580.225,620.114,653.265,641.799,666.789,666.789,666.789,666.789,666.789
0.000679064	-13111747.17	0,1.54842e-06,3.62589e-06,6.41316e-06,1.01528e-05,1.51701e-05,2.19017e-05,3.09332e-05,4.30506e-05,5.93081e-05,8.11202e-05,0.000110385,0.000149649,0.000202327,0.000273005,0.000367831,0.000495056,0.00066575,0.000894765,0.00120203,0.00161427,0.00216737,0.00290944,0.00390506,0.00524085,0.00703303,0.00943756,0.0126636,0.016992,0.0227991,inf	127.147,127.147,127.147,127.147,127.147,181.264,265.46,135.992,109.033,185.665,337.484,318.077,243.672,250.922,318.113,388.725,433.374,457.271,479.016,519.988,555.281,579.445,619.554,653.616,641.156,668.127,668.127,668.127,668.127,668.127
0.000682191	-13111748.58	0,1.54842e-06,3.62589e-06,6.41316e-06,1.01528e-05,1.51701e-05,2.19017e-05,3.09332e-05,4.30506e-05,5.93081e-05,8.11202e-05,0.000110385,0.000149649,0.000202327,0.000273005,0.000367831,0.000495056,0.00066575,0.000894765,0.00120203,0.00161427,0.00216737,0.00290944,0.00390506,0.00524085,0.00703303,0.00943756,0.0126636,0.016992,0.0227991,inf	127.147,127.147,127.147,127.147,127.147,180.581,270.303,134.476,106.317,183.64,340.695,319.719,242.445,249.608,318.069,389.549,434.095,457.423,478.864,520.21,555.311,578.72,619.017,653.947,640.458,669.333,669.333,669.333,669.333,669.333
