time_index	left_time_boundary	right_time_boundary	lambda
0	0	1.54382e-06	33.5094
1	1.54382e-06	3.61511e-06	33.5094
2	3.61511e-06	6.39409e-06	33.5094
3	6.39409e-06	1.01226e-05	33.5094
4	1.01226e-05	1.5125e-05	33.5094
5	1.5125e-05	2.18365e-05	232.842
6	2.18365e-05	3.08412e-05	207.829
7	3.08412e-05	4.29225e-05	69.0755
8	4.29225e-05	5.91317e-05	90.7925
9	5.91317e-05	8.0879e-05	188.487
10	8.0879e-05	0.000110057	257.203
11	0.000110057	0.000149204	283.892
12	0.000149204	0.000201726	259.127
13	0.000201726	0.000272193	272.601
14	0.000272193	0.000366737	326.505
15	0.000366737	0.000493584	373.583
16	0.000493584	0.00066377	408.642
17	0.00066377	0.000892104	450.266
18	0.000892104	0.00119845	509.625
19	0.00119845	0.00160947	575.629
20	0.00160947	0.00216092	593.394
21	0.00216092	0.00290079	556.752
22	0.00290079	0.00389345	541.624
23	0.00389345	0.00522526	604.29
24	0.00522526	0.00701212	649.764
25	0.00701212	0.00940949	404.442
26	0.00940949	0.012626	404.442
27	0.012626	0.0169414	404.442
28	0.0169414	0.0227313	404.442
29	0.0227313	inf	404.442
