0.000931049	-21284467.92	0,2.39536e-06,5.55064e-06,9.70693e-06,1.51818e-05,2.23936e-05,3.18933e-05,4.44067e-05,6.089e-05,8.26027e-05,0.000111204,0.000148878,0.000198505,0.000263876,0.000349985,0.000463413,0.000612825,0.000809639,0.00106889,0.00141039,0.00186023,0.00245278,0.00323332,0.00426148,0.00561582,0.00739983,0.00974981,0.0128453,0.0169229,0.022294,0.0293692,0.0386889,inf	677579,677579,546.316,427.662,397.879,368.88,346.667,331.362,318.542,307.315,299.144,293.491,288.781,283.482,278.779,277.172,278.246,281.004,285.021,289.849,294.309,296.647,296.981,296.244,294.602,291.775,289.591,282.112,282.112,244.799,244.799,244.799
0.00100505	-21274955.43	0,2.39536e-06,5.55064e-06,9.70693e-06,1.51818e-05,2.23936e-05,3.18933e-05,4.44067e-05,6.089e-05,8.26027e-05,0.000111204,0.000148878,0.000198505,0.000263876,0.000349985,0.000463413,0.000612825,0.000809639,0.00106889,0.00141039,0.00186023,0.00245278,0.00323332,0.00426148,0.00561582,0.00739983,0.00974981,0.0128453,0.0169229,0.022294,0.0293692,0.0386889,inf	641434,641434,114.501,217.978,309.789,327.602,326.049,322.926,315.681,305.737,298.192,293.084,287.959,280.274,272.794,270.333,272.019,276.145,282.103,289.311,295.879,298.917,298.854,297.39,294.627,289.947,286.585,273.668,273.668,212.89,212.89,212.89
0.00107287	-21271829.89	0,2.39536e-06,5.55064e-06,9.70693e-06,1.51818e-05,2.23936e-05,3.18933e-05,4.44067e-05,6.089e-05,8.26027e-05,0.000111204,0.000148878,0.000198505,0.000263876,0.000349985,0.000463413,0.000612825,0.000809639,0.00106889,0.00141039,0.00186023,0.00245278,0.00323332,0.00426148,0.00561582,0.00739983,0.00974981,0.0128453,0.0169229,0.022294,0.0293692,0.0386889,inf	654952,654952,26.1196,123.637,264.799,307.776,316.243,320.213,316.156,306.558,299.636,295.485,290.449,280.858,271.06,267.853,269.776,274.535,281.43,289.878,297.493,300.588,299.963,297.951,294.479,288.623,284.764,267.816,267.816,189.576,189.576,189.576
0.00113496	-21269449.40	0,2.39536e-06,5.55064e-06,9.70693e-06,1.51818e-05,2.23936e-05,3.18933e-05,4.44067e-05,6.089e-05,8.26027e-05,0.000111204,0.000148878,0.000198505,0.000263876,0.000349985,0.000463413,0.000612825,0.000809639,0.00106889,0.00141039,0.00186023,0.00245278,0.00323332,0.00426148,0.00561582,0.00739983,0.00974981,0.0128453,0.0169229,0.022294,0.0293692,0.0386889,inf	668332,668332,6.2759,75.3886,239.645,297.563,310.2,318.324,316.093,306.425,300.315,297.562,293.122,282.158,270.59,266.916,269.026,274.135,281.512,290.651,298.798,301.677,300.487,298.091,294.196,287.633,283.751,263.818,263.818,170.856,170.856,170.856
0.00119189	-21267607.68	0,2.39536e-06,5.55064e-06,9.70693e-06,1.51818e-05,2.23936e-05,3.18933e-05,4.44067e-05,6.089e-05,8.26027e-05,0.000111204,0.000148878,0.000198505,0.000263876,0.000349985,0.000463413,0.000612825,0.000809639,0.00106889,0.00141039,0.00186023,0.00245278,0.00323332,0.00426148,0.00561582,0.00739983,0.00974981,0.0128453,0.0169229,0.022294,0.0293692,0.0386889,inf	679861,679861,1.55678,48.3523,224.999,292.505,306.02,316.565,315.285,305.275,300.069,298.956,295.425,283.469,270.56,266.657,268.965,274.283,281.898,291.422,299.811,302.342,300.62,297.955,293.821,286.875,283.307,261.22,261.22,154.57,154.57,154.57
0.00124417	-21266168.02	0,2.39536e-06,5.55064e-06,9.70693e-06,1.51818e-05,2.23936e-05,3.18933e-05,4.44067e-05,6.089e-05,8.26027e-05,0.000111204,0.000148878,0.000198505,0.000263876,0.000349985,0.000463413,0.000612825,0.000809639,0.00106889,0.00141039,0.00186023,0.00245278,0.00323332,0.00426148,0.00561582,0.00739983,0.00974981,0.0128453,0.0169229,0.022294,0.0293692,0.0386889,inf	689817,689817,0.390074,32.1694,216.506,290.51,303.056,315.008,314.094,303.527,299.215,299.827,297.351,284.647,270.705,266.744,269.265,274.711,282.416,292.141,300.597,302.715,300.499,297.639,293.384,286.281,283.272,259.747,259.747,139.309,139.309,139.309
0.00129226	-21265036.99	0,2.39536e-06,5.55064e-06,9.70693e-06,1.51818e-05,2.23936e-05,3.18933e-05,4.44067e-05,6.089e-05,8.26027e-05,0.000111204,0.000148878,0.000198505,0.000263876,0.000349985,0.000463413,0.000612825,0.000809639,0.00106889,0.00141039,0.00186023,0.00245278,0.00323332,0.00426148,0.00561582,0.00739983,0.00974981,0.0128453,0.0169229,0.022294,0.0293692,0.0386889,inf	698478,698478,0.294327,21.9965,211.838,290.387,300.947,313.748,312.818,301.516,298.038,300.365,298.984,285.675,270.92,267.019,269.762,275.285,282.99,292.8,301.216,302.892,300.214,297.207,292.903,285.801,283.538,259.261,259.261,123.889,123.889,123.889
0.00133654	-21264152.46	0,2.39536e-06,5.55064e-06,9.70693e-06,1.51818e-05,2.23936e-05,3.18933e-05,4.44067e-05,6.089e-05,8.26027e-05,0.000111204,0.000148878,0.000198505,0.000263876,0.000349985,0.000463413,0.000612825,0.000809639,0.00106889,0.00141039,0.00186023,0.00245278,0.00323332,0.00426148,0.00561582,0.00739983,0.00974981,0.0128453,0.0169229,0.022294,0.0293692,0.0386889,inf	706077,706077,0.294325,15.3593,209.6,291.376,299.468,312.813,311.613,299.455,296.732,300.706,300.401,286.569,271.159,267.398,270.366,275.93,283.577,293.402,301.711,302.935,299.826,296.7,292.391,285.405,284.044,259.758,259.758,106.914,106.914,106.914
0.00137729	-21263481.50	0,2.39536e-06,5.55064e-06,9.70693e-06,1.51818e-05,2.23936e-05,3.18933e-05,4.44067e-05,6.089e-05,8.26027e-05,0.000111204,0.000148878,0.000198505,0.000263876,0.000349985,0.000463413,0.000612825,0.000809639,0.00106889,0.00141039,0.00186023,0.00245278,0.00323332,0.00426148,0.00561582,0.00739983,0.00974981,0.0128453,0.0169229,0.022294,0.0293692,0.0386889,inf	712754,712754,0.294325,10.8992,208.902,292.969,298.404,312.175,310.565,297.459,295.407,300.941,301.658,287.345,271.395,267.829,271.021,276.601,284.155,293.95,302.112,302.886,299.373,296.146,291.858,285.081,284.776,261.446,261.446,85.924,85.924,85.924
0.00141461	-21263044.38	0,2.39536e-06,5.55064e-06,9.70693e-06,1.51818e-05,2.23936e-05,3.18933e-05,4.44067e-05,6.089e-05,8.26027e-05,0.000111204,0.000148878,0.000198505,0.000263876,0.000349985,0.000463413,0.000612825,0.000809639,0.00106889,0.00141039,0.00186023,0.00245278,0.00323332,0.00426148,0.00561582,0.00739983,0.00974981,0.0128453,0.0169229,0.022294,0.0293692,0.0386889,inf	718623,718623,0.294323,7.82829,209.156,294.819,297.599,311.793,309.68,295.573,294.122,301.122,302.79,288.013,271.608,268.273,271.685,277.264,284.702,294.44,302.433,302.767,298.877,295.562,291.319,284.848,285.814,265.107,265.107,54.3792,54.3792,54.3792
0.00144881	-21263149.95	0,2.39536e-06,5.55064e-06,9.70693e-06,1.51818e-05,2.23936e-05,3.18933e-05,4.44067e-05,6.089e-05,8.26027e-05,0.000111204,0.000148878,0.000198505,0.000263876,0.000349985,0.000463413,0.000612825,0.000809639,0.00106889,0.00141039,0.00186023,0.00245278,0.00323332,0.00426148,0.00561582,0.00739983,0.00974981,0.0128453,0.0169229,0.022294,0.0293692,0.0386889,inf	723782,723782,0.294323,5.68347,210.069,296.755,296.996,311.664,309.01,293.868,292.945,301.318,303.855,288.617,271.82,268.739,272.363,277.927,285.237,294.903,302.716,302.626,298.386,295.007,290.872,284.915,287.724,274.235,274.235,17.5843,17.5843,17.5843
0.00147905	-21265291.74	0,2.39536e-06,5.55064e-06,9.70693e-06,1.51818e-05,2.23936e-05,3.18933e-05,4.44067e-05,6.089e-05,8.26027e-05,0.000111204,0.000148878,0.000198505,0.000263876,0.000349985,0.000463413,0.000612825,0.000809639,0.00106889,0.00141039,0.00186023,0.00245278,0.00323332,0.00426148,0.00561582,0.00739983,0.00974981,0.0128453,0.0169229,0.022294,0.0293692,0.0386889,inf	727625,727625,0.294323,4.15927,211.353,298.638,296.559,311.813,308.62,292.425,291.953,301.584,304.892,289.175,272.024,269.201,273.02,278.551,285.72,295.303,302.93,302.436,297.883,294.505,290.663,285.787,292.18,304.176,304.176,4.75975,4.75975,4.75975
0.00150475	-21266411.22	0,2.39536e-06,5.55064e-06,9.70693e-06,1.51818e-05,2.23936e-05,3.18933e-05,4.44067e-05,6.089e-05,8.26027e-05,0.000111204,0.000148878,0.000198505,0.000263876,0.000349985,0.000463413,0.000612825,0.000809639,0.00106889,0.00141039,0.00186023,0.00245278,0.00323332,0.00426148,0.00561582,0.00739983,0.00974981,0.0128453,0.0169229,0.022294,0.0293692,0.0386889,inf	730491,730491,0.294323,3.05723,212.595,300.055,295.917,311.9,308.21,290.973,290.895,301.694,305.704,289.52,272.072,269.52,273.521,278.997,285.999,295.46,302.847,301.885,296.911,293.33,289.479,285.301,294.799,344.65,344.65,0.829938,0.829938,0.829938
0.00152839	-21265763.13	0,2.39536e-06,5.55064e-06,9.70693e-06,1.51818e-05,2.23936e-05,3.18933e-05,4.44067e-05,6.089e-05,8.26027e-05,0.000111204,0.000148878,0.000198505,0.000263876,0.000349985,0.000463413,0.000612825,0.000809639,0.00106889,0.00141039,0.00186023,0.00245278,0.00323332,0.00426148,0.00561582,0.00739983,0.00974981,0.0128453,0.0169229,0.022294,0.0293692,0.0386889,inf	733634,733634,0.294323,2.25781,213.949,301.33,295.353,312.163,307.997,289.726,290.016,301.934,306.603,289.952,272.242,269.988,274.193,279.643,286.521,295.909,303.099,301.683,296.23,292.264,288.055,284.023,295.61,391.565,391.565,0.294318,0.294318,0.294318
0.00155081	-21264581.55	0,2.39536e-06,5.55064e-06,9.70693e-06,1.51818e-05,2.23936e-05,3.18933e-05,4.44067e-05,6.089e-05,8.26027e-05,0.000111204,0.000148878,0.000198505,0.000263876,0.000349985,0.000463413,0.000612825,0.000809639,0.00106889,0.00141039,0.00186023,0.00245278,0.00323332,0.00426148,0.00561582,0.00739983,0.00974981,0.0128453,0.0169229,0.022294,0.0293692,0.0386889,inf	736665,736665,0.294323,1.67316,215.312,302.382,294.738,312.45,307.809,288.504,289.112,302.073,307.334,290.207,272.266,270.319,274.734,280.176,286.956,296.3,303.312,301.438,295.428,290.851,285.823,281.094,292.998,423.368,423.368,0.0354529,0.0354529,0.0354529
0.00157219	-21263954.03	0,2.39536e-06,5.55064e-06,9.70693e-06,1.51818e-05,2.23936e-05,3.18933e-05,4.44067e-05,6.089e-05,8.26027e-05,0.000111204,0.000148878,0.000198505,0.000263876,0.000349985,0.000463413,0.000612825,0.000809639,0.00106889,0.00141039,0.00186023,0.00245278,0.00323332,0.00426148,0.00561582,0.00739983,0.00974981,0.0128453,0.0169229,0.022294,0.0293692,0.0386889,inf	739584,739584,0.294323,1.24464,216.762,303.321,294.195,312.876,307.765,287.417,288.307,302.247,308.034,290.412,272.252,270.611,275.238,280.688,287.408,296.765,303.67,301.406,294.87,289.628,283.586,277.757,289.115,444.25,444.25,0.0159673,0.0159673,0.0159673
0.00159259	-21263515.92	0,2.39536e-06,5.55064e-06,9.70693e-06,1.51818e-05,2.23936e-05,3.18933e-05,4.44067e-05,6.089e-05,8.26027e-05,0.000111204,0.000148878,0.000198505,0.000263876,0.000349985,0.000463413,0.000612825,0.000809639,0.00106889,0.00141039,0.00186023,0.00245278,0.00323332,0.00426148,0.00561582,0.00739983,0.00974981,0.0128453,0.0169229,0.022294,0.0293692,0.0386889,inf	742390,742390,0.294323,0.92825,218.274,304.132,293.7,313.41,307.842,286.456,287.599,302.466,308.722,290.581,272.207,270.86,275.686,281.146,287.835,297.255,304.132,301.577,294.599,288.724,281.615,274.509,284.905,458.861,458.861,0.0117666,0.0117666,0.0117666
0.001612	-21263211.79	0,2.39536e-06,5.55064e-06,9.70693e-06,1.51818e-05,2.23936e-05,3.18933e-05,4.44067e-05,6.089e-05,8.26027e-05,0.000111204,0.000148878,0.000198505,0.000263876,0.000349985,0.000463413,0.000612825,0.000809639,0.00106889,0.00141039,0.00186023,0.00245278,0.00323332,0.00426148,0.00561582,0.00739983,0.00974981,0.0128453,0.0169229,0.022294,0.0293692,0.0386889,inf	745013,745013,0.294323,0.694918,219.805,304.795,293.206,314.021,308.003,285.6,286.982,302.734,309.41,290.73,272.139,271.065,276.063,281.521,288.186,297.705,304.619,301.869,294.552,288.116,279.95,271.495,280.72,469.619,469.619,0.0103643,0.0103643,0.0103643
0.00163041	-21262984.33	0,2.39536e-06,5.55064e-06,9.70693e-06,1.51818e-05,2.23936e-05,3.18933e-05,4.44067e-05,6.089e-05,8.26027e-05,0.000111204,0.000148878,0.000198505,0.000263876,0.000349985,0.000463413,0.000612825,0.000809639,0.00106889,0.00141039,0.00186023,0.00245278,0.00323332,0.00426148,0.00561582,0.00739983,0.00974981,0.0128453,0.0169229,0.022294,0.0293692,0.0386889,inf	747456,747456,0.294323,0.521613,221.336,305.305,292.702,314.67,308.23,284.831,286.447,303.057,310.114,290.88,272.069,271.243,276.382,281.814,288.448,298.079,305.078,302.217,294.66,287.749,278.569,268.749,276.695,477.88,477.88,0.00978296,0.00978296,0.00978296
0.00164784	-21262806.25	0,2.39536e-06,5.55064e-06,9.70693e-06,1.51818e-05,2.23936e-05,3.18933e-05,4.44067e-05,6.089e-05,8.26027e-05,0.000111204,0.000148878,0.000198505,0.000263876,0.000349985,0.000463413,0.000612825,0.000809639,0.00106889,0.00141039,0.00186023,0.00245278,0.00323332,0.00426148,0.00561582,0.00739983,0.00974981,0.0128453,0.0169229,0.022294,0.0293692,0.0386889,inf	749738,749738,0.294323,0.392409,222.871,305.65,292.165,315.337,308.488,284.123,285.977,303.427,310.84,291.044,272.015,271.416,276.665,282.039,288.625,298.367,305.479,302.576,294.871,287.571,277.435,266.262,272.876,484.456,484.456,0.0095115,0.0095115,0.0095115
