0.000940085	-21540825.50	0,2.62019e-06,6.13562e-06,1.08522e-05,1.71802e-05,2.56704e-05,3.70614e-05,5.23443e-05,7.28489e-05,0.000100359,0.000137269,0.00018679,0.000253231,0.000342373,0.000461971,0.000622433,0.00083772,0.00112656,0.0015141,0.00203404,0.00273163,0.00366756,0.00492327,0.00660803,0.00886841,0.0119011,0.01597,0.021429,0.0287533,0.0385801,inf	278.63,278.63,278.63,278.63,278.63,296.01,309.648,323.576,321.738,312.145,302.723,292.812,285.787,283.28,283.387,284.094,285.48,287.8,290.218,292.447,294.728,296.174,294.995,293.442,294.367,276.643,276.643,276.643,276.643,276.643
0.00100909	-21536972.02	0,2.62019e-06,6.13562e-06,1.08522e-05,1.71802e-05,2.56704e-05,3.70614e-05,5.23443e-05,7.28489e-05,0.000100359,0.000137269,0.00018679,0.000253231,0.000342373,0.000461971,0.000622433,0.00083772,0.00112656,0.0015141,0.00203404,0.00273163,0.00366756,0.00492327,0.00660803,0.00886841,0.0119011,0.01597,0.021429,0.0287533,0.0385801,inf	263.547,263.547,263.547,263.547,263.547,286.764,312.404,341.288,340.295,325.178,310.435,294.354,283.374,280.139,280.867,281.956,283.835,287.083,290.358,293.404,296.936,299.414,297.489,295.397,298.228,266.129,266.129,266.129,266.129,266.129
0.00107102	-21534121.34	0,2.62019e-06,6.13562e-06,1.08522e-05,1.71802e-05,2.56704e-05,3.70614e-05,5.23443e-05,7.28489e-05,0.000100359,0.000137269,0.00018679,0.000253231,0.000342373,0.000461971,0.000622433,0.00083772,0.00112656,0.0015141,0.00203404,0.00273163,0.00366756,0.00492327,0.00660803,0.00886841,0.0119011,0.01597,0.021429,0.0287533,0.0385801,inf	251.009,251.009,251.009,251.009,251.009,273.17,307.85,350.277,350.912,332.572,314.874,294.816,281.63,278.634,280.265,281.605,283.582,287.1,290.484,293.647,297.841,301.012,298.519,296.452,301.752,257.683,257.683,257.683,257.683,257.683
0.00112685	-21531947.05	0,2.62019e-06,6.13562e-06,1.08522e-05,1.71802e-05,2.56704e-05,3.70614e-05,5.23443e-05,7.28489e-05,0.000100359,0.000137269,0.00018679,0.000253231,0.000342373,0.000461971,0.000622433,0.00083772,0.00112656,0.0015141,0.00203404,0.00273163,0.00366756,0.00492327,0.00660803,0.00886841,0.0119011,0.01597,0.021429,0.0287533,0.0385801,inf	243.351,243.351,243.351,243.351,243.351,259.744,300.956,354.943,357.041,336.666,317.328,294.572,280.19,277.955,280.619,282.144,284.038,287.507,290.644,293.581,298.102,301.715,298.726,297.002,305.109,250.828,250.828,250.828,250.828,250.828
0.00117736	-21530250.48	0,2.62019e-06,6.13562e-06,1.08522e-05,1.71802e-05,2.56704e-05,3.70614e-05,5.23443e-05,7.28489e-05,0.000100359,0.000137269,0.00018679,0.000253231,0.000342373,0.000461971,0.000622433,0.00083772,0.00112656,0.0015141,0.00203404,0.00273163,0.00366756,0.00492327,0.00660803,0.00886841,0.0119011,0.01597,0.021429,0.0287533,0.0385801,inf	240.223,240.223,240.223,240.223,240.223,247.787,293.844,357.603,360.665,338.857,318.598,293.902,278.913,277.705,281.441,283.106,284.833,288.104,290.83,293.384,298.039,301.91,298.449,297.25,308.369,245.195,245.195,245.195,245.195,245.195
0.00122319	-21528904.05	0,2.62019e-06,6.13562e-06,1.08522e-05,1.71802e-05,2.56704e-05,3.70614e-05,5.23443e-05,7.28489e-05,0.000100359,0.000137269,0.00018679,0.000253231,0.000342373,0.000461971,0.000622433,0.00083772,0.00112656,0.0015141,0.00203404,0.00273163,0.00366756,0.00492327,0.00660803,0.00886841,0.0119011,0.01597,0.021429,0.0287533,0.0385801,inf	239.607,239.607,239.607,239.607,239.607,237.336,287.289,359.418,362.892,339.955,319.177,292.997,277.744,277.688,282.481,284.246,285.771,288.776,291.028,293.138,297.817,301.811,297.879,297.306,311.559,240.503,240.503,240.503,240.503,240.503
0.00126485	-21527824.27	0,2.62019e-06,6.13562e-06,1.08522e-05,1.71802e-05,2.56704e-05,3.70614e-05,5.23443e-05,7.28489e-05,0.000100359,0.000137269,0.00018679,0.000253231,0.000342373,0.000461971,0.000622433,0.00083772,0.00112656,0.0015141,0.00203404,0.00273163,0.00366756,0.00492327,0.00660803,0.00886841,0.0119011,0.01597,0.021429,0.0287533,0.0385801,inf	241.183,241.183,241.183,241.183,241.183,228.231,281.557,360.968,364.336,340.442,319.371,291.986,276.667,277.801,283.605,285.433,286.742,289.46,291.229,292.883,297.523,301.539,297.127,297.229,314.688,236.544,236.544,236.544,236.544,236.544
0.00130281	-21526948.41	0,2.62019e-06,6.13562e-06,1.08522e-05,1.71802e-05,2.56704e-05,3.70614e-05,5.23443e-05,7.28489e-05,0.000100359,0.000137269,0.00018679,0.000253231,0.000342373,0.000461971,0.000622433,0.00083772,0.00112656,0.0015141,0.00203404,0.00273163,0.00366756,0.00492327,0.00660803,0.00886841,0.0119011,0.01597,0.021429,0.0287533,0.0385801,inf	245.651,245.651,245.651,245.651,245.651,220.179,276.626,362.502,365.338,340.591,319.36,290.945,275.676,277.991,284.745,286.6,287.692,290.123,291.426,292.639,297.206,301.167,296.261,297.056,317.757,233.161,233.161,233.161,233.161,233.161
0.00133745	-21526227.99	0,2.62019e-06,6.13562e-06,1.08522e-05,1.71802e-05,2.56704e-05,3.70614e-05,5.23443e-05,7.28489e-05,0.000100359,0.000137269,0.00018679,0.000253231,0.000342373,0.000461971,0.000622433,0.00083772,0.00112656,0.0015141,0.00203404,0.00273163,0.00366756,0.00492327,0.00660803,0.00886841,0.0119011,0.01597,0.021429,0.0287533,0.0385801,inf	248.482,248.482,248.482,248.482,248.482,212.73,272.305,364.058,366.05,340.543,319.243,289.917,274.76,278.225,285.86,287.71,288.589,290.747,291.616,292.417,296.894,300.741,295.325,296.81,320.765,230.235,230.235,230.235,230.235,230.235
0.00136911	-21525640.84	0,2.62019e-06,6.13562e-06,1.08522e-05,1.71802e-05,2.56704e-05,3.70614e-05,5.23443e-05,7.28489e-05,0.000100359,0.000137269,0.00018679,0.000253231,0.000342373,0.000461971,0.000622433,0.00083772,0.00112656,0.0015141,0.00203404,0.00273163,0.00366756,0.00492327,0.00660803,0.00886841,0.0119011,0.01597,0.021429,0.0287533,0.0385801,inf	252.191,252.191,252.191,252.191,252.191,206.005,268.654,365.779,366.626,340.418,319.095,288.934,273.921,278.489,286.935,288.748,289.42,291.325,291.796,292.221,296.602,300.289,294.346,296.506,323.712,227.676,227.676,227.676,227.676,227.676
0.00139809	-21525153.61	0,2.62019e-06,6.13562e-06,1.08522e-05,1.71802e-05,2.56704e-05,3.70614e-05,5.23443e-05,7.28489e-05,0.000100359,0.000137269,0.00018679,0.000253231,0.000342373,0.000461971,0.000622433,0.00083772,0.00112656,0.0015141,0.00203404,0.00273163,0.00366756,0.00492327,0.00660803,0.00886841,0.0119011,0.01597,0.021429,0.0287533,0.0385801,inf	255.854,255.854,255.854,255.854,255.854,199.798,265.523,367.619,367.088,340.249,318.947,288.005,273.152,278.771,287.959,289.707,290.18,291.853,291.966,292.053,296.339,299.829,293.343,296.155,326.598,225.414,225.414,225.414,225.414,225.414
0.00142464	-21524748.59	0,2.62019e-06,6.13562e-06,1.08522e-05,1.71802e-05,2.56704e-05,3.70614e-05,5.23443e-05,7.28489e-05,0.000100359,0.000137269,0.00018679,0.000253231,0.000342373,0.000461971,0.000622433,0.00083772,0.00112656,0.0015141,0.00203404,0.00273163,0.00366756,0.00492327,0.00660803,0.00886841,0.0119011,0.01597,0.021429,0.0287533,0.0385801,inf	259.959,259.959,259.959,259.959,259.959,194.019,262.838,369.562,367.47,340.064,318.817,287.138,272.448,279.064,288.931,290.587,290.868,292.333,292.125,291.913,296.109,299.374,292.331,295.764,329.423,223.397,223.397,223.397,223.397,223.397
0.001449	-21524408.73	0,2.62019e-06,6.13562e-06,1.08522e-05,1.71802e-05,2.56704e-05,3.70614e-05,5.23443e-05,7.28489e-05,0.000100359,0.000137269,0.00018679,0.000253231,0.000342373,0.000461971,0.000622433,0.00083772,0.00112656,0.0015141,0.00203404,0.00273163,0.00366756,0.00492327,0.00660803,0.00886841,0.0119011,0.01597,0.021429,0.0287533,0.0385801,inf	263.962,263.962,263.962,263.962,263.962,188.552,260.483,371.567,367.774,339.871,318.714,286.331,271.802,279.364,289.85,291.389,291.488,292.764,292.273,291.799,295.914,298.933,291.317,295.34,332.188,221.582,221.582,221.582,221.582,221.582
0.00147136	-21524123.16	0,2.62019e-06,6.13562e-06,1.08522e-05,1.71802e-05,2.56704e-05,3.70614e-05,5.23443e-05,7.28489e-05,0.000100359,0.000137269,0.00018679,0.000253231,0.000342373,0.000461971,0.000622433,0.00083772,0.00112656,0.0015141,0.00203404,0.00273163,0.00366756,0.00492327,0.00660803,0.00886841,0.0119011,0.01597,0.021429,0.0287533,0.0385801,inf	267.731,267.731,267.731,267.731,267.731,183.353,258.415,373.622,368.009,339.681,318.641,285.583,271.21,279.667,290.718,292.119,292.041,293.151,292.411,291.709,295.753,298.509,290.31,294.889,334.896,219.935,219.935,219.935,219.935,219.935
0.00149191	-21523882.42	0,2.62019e-06,6.13562e-06,1.08522e-05,1.71802e-05,2.56704e-05,3.70614e-05,5.23443e-05,7.28489e-05,0.000100359,0.000137269,0.00018679,0.000253231,0.000342373,0.000461971,0.000622433,0.00083772,0.00112656,0.0015141,0.00203404,0.00273163,0.00366756,0.00492327,0.00660803,0.00886841,0.0119011,0.01597,0.021429,0.0287533,0.0385801,inf	270.053,270.053,270.053,270.053,270.053,178.4,256.584,375.706,368.183,339.494,318.599,284.89,270.665,279.973,291.537,292.781,292.534,293.495,292.539,291.643,295.627,298.106,289.312,294.413,337.549,218.429,218.429,218.429,218.429,218.429
0.00151081	-21523681.71	0,2.62019e-06,6.13562e-06,1.08522e-05,1.71802e-05,2.56704e-05,3.70614e-05,5.23443e-05,7.28489e-05,0.000100359,0.000137269,0.00018679,0.000253231,0.000342373,0.000461971,0.000622433,0.00083772,0.00112656,0.0015141,0.00203404,0.00273163,0.00366756,0.00492327,0.00660803,0.00886841,0.0119011,0.01597,0.021429,0.0287533,0.0385801,inf	272.6,272.6,272.6,272.6,272.6,173.778,255.034,377.856,368.313,339.32,318.594,284.252,270.165,280.28,292.312,293.381,292.97,293.8,292.657,291.597,295.534,297.726,288.327,293.917,340.149,217.043,217.043,217.043,217.043,217.043
0.0015282	-21523510.53	0,2.62019e-06,6.13562e-06,1.08522e-05,1.71802e-05,2.56704e-05,3.70614e-05,5.23443e-05,7.28489e-05,0.000100359,0.000137269,0.00018679,0.000253231,0.000342373,0.000461971,0.000622433,0.00083772,0.00112656,0.0015141,0.00203404,0.00273163,0.00366756,0.00492327,0.00660803,0.00886841,0.0119011,0.01597,0.021429,0.0287533,0.0385801,inf	274.338,274.338,274.338,274.338,274.338,169.395,253.677,380.019,368.386,339.15,318.617,283.659,269.703,280.585,293.044,293.923,293.355,294.069,292.765,291.57,295.472,297.37,287.359,293.403,342.699,215.76,215.76,215.76,215.76,215.76
0.00154422	-21523366.38	0,2.62019e-06,6.13562e-06,1.08522e-05,1.71802e-05,2.56704e-05,3.70614e-05,5.23443e-05,7.28489e-05,0.000100359,0.000137269,0.00018679,0.000253231,0.000342373,0.000461971,0.000622433,0.00083772,0.00112656,0.0015141,0.00203404,0.00273163,0.00366756,0.00492327,0.00660803,0.00886841,0.0119011,0.01597,0.021429,0.0287533,0.0385801,inf	277.42,277.42,277.42,277.42,277.42,165.29,252.535,382.212,368.407,338.986,318.669,283.109,269.275,280.889,293.737,294.414,293.692,294.304,292.863,291.559,295.439,297.04,286.407,292.874,345.201,214.565,214.565,214.565,214.565,214.565
0.00155899	-21523239.82	0,2.62019e-06,6.13562e-06,1.08522e-05,1.71802e-05,2.56704e-05,3.70614e-05,5.23443e-05,7.28489e-05,0.000100359,0.000137269,0.00018679,0.000253231,0.000342373,0.000461971,0.000622433,0.00083772,0.00112656,0.0015141,0.00203404,0.00273163,0.00366756,0.00492327,0.00660803,0.00886841,0.0119011,0.01597,0.021429,0.0287533,0.0385801,inf	279.826,279.826,279.826,279.826,279.826,161.302,251.482,384.36,368.352,338.812,318.739,282.596,268.876,281.19,294.394,294.857,293.987,294.508,292.952,291.564,295.434,296.733,285.473,292.331,347.658,213.446,213.446,213.446,213.446,213.446
0.0015726	-21523132.45	0,2.62019e-06,6.13562e-06,1.08522e-05,1.71802e-05,2.56704e-05,3.70614e-05,5.23443e-05,7.28489e-05,0.000100359,0.000137269,0.00018679,0.000253231,0.000342373,0.000461971,0.000622433,0.00083772,0.00112656,0.0015141,0.00203404,0.00273163,0.00366756,0.00492327,0.00660803,0.00886841,0.0119011,0.01597,0.021429,0.0287533,0.0385801,inf	280.661,280.661,280.661,280.661,280.661,157.472,250.547,386.486,368.243,338.641,318.831,282.118,268.505,281.488,295.018,295.257,294.242,294.684,293.032,291.581,295.454,296.451,284.557,291.776,350.074,212.393,212.393,212.393,212.393,212.393
