0.000934869	-21427289.99	0,2.41507e-06,5.59633e-06,9.78683e-06,1.53068e-05,2.25779e-05,3.21558e-05,4.47722e-05,6.13912e-05,8.32826e-05,0.000112119,0.000150104,0.000200139,0.000266048,0.000352866,0.000467227,0.00061787,0.000816303,0.00107769,0.001422,0.00187554,0.00247297,0.00325993,0.00429656,0.00566205,0.00746074,0.00983006,0.0129511,0.0170622,0.0224775,0.0296109,0.0390074,inf	780139,780139,482.595,399.519,384.37,375.442,349.084,327.255,315.553,309.016,305.391,300.649,296.096,293.876,292.061,289.183,286.907,287.404,289.918,292.934,296.428,299.966,301.384,299.748,297.043,294.6,293.325,300.326,300.326,352.1,352.1,352.1
0.00100338	-21418156.24	0,2.41507e-06,5.59633e-06,9.78683e-06,1.53068e-05,2.25779e-05,3.21558e-05,4.47722e-05,6.13912e-05,8.32826e-05,0.000112119,0.000150104,0.000200139,0.000266048,0.000352866,0.000467227,0.00061787,0.000816303,0.00107769,0.001422,0.00187554,0.00247297,0.00325993,0.00429656,0.00566205,0.00746074,0.00983006,0.0129511,0.0170622,0.0224775,0.0296109,0.0390074,inf	753475,753475,97.9765,198.987,290.709,346.01,335.045,315.243,306.685,303.75,303.62,299.334,294.278,292.771,291.098,286.637,282.783,283.593,287.605,292.2,297.691,303.591,306.026,303.256,298.785,294.692,292.561,306.219,306.219,427.379,427.379,427.379
0.00106501	-21415264.38	0,2.41507e-06,5.59633e-06,9.78683e-06,1.53068e-05,2.25779e-05,3.21558e-05,4.47722e-05,6.13912e-05,8.32826e-05,0.000112119,0.000150104,0.000200139,0.000266048,0.000352866,0.000467227,0.00061787,0.000816303,0.00107769,0.001422,0.00187554,0.00247297,0.00325993,0.00429656,0.00566205,0.00746074,0.00983006,0.0129511,0.0170622,0.0224775,0.0296109,0.0390074,inf	760526,760526,21.7751,107.9,236.542,336.465,332.624,310.111,302.027,301.242,303.766,299.57,294.12,293.513,292.091,286.148,280.748,281.543,286.316,291.559,298.076,305.489,308.526,304.793,299.021,293.656,290.816,310.586,310.586,533.398,533.398,533.398
0.00112076	-21413046.40	0,2.41507e-06,5.59633e-06,9.78683e-06,1.53068e-05,2.25779e-05,3.21558e-05,4.47722e-05,6.13912e-05,8.32826e-05,0.000112119,0.000150104,0.000200139,0.000266048,0.000352866,0.000467227,0.00061787,0.000816303,0.00107769,0.001422,0.00187554,0.00247297,0.00325993,0.00429656,0.00566205,0.00746074,0.00983006,0.0129511,0.0170622,0.0224775,0.0296109,0.0390074,inf	768241,768241,5.10286,61.557,200.399,335.673,334.563,307.084,298.336,299.11,303.904,299.693,294.085,294.637,293.679,286.485,279.748,280.483,285.692,291.12,298.147,306.574,309.941,305.346,298.542,292.11,288.598,313.931,313.931,717.619,717.619,717.619
0.00117144	-21411302.52	0,2.41507e-06,5.59633e-06,9.78683e-06,1.53068e-05,2.25779e-05,3.21558e-05,4.47722e-05,6.13912e-05,8.32826e-05,0.000112119,0.000150104,0.000200139,0.000266048,0.000352866,0.000467227,0.00061787,0.000816303,0.00107769,0.001422,0.00187554,0.00247297,0.00325993,0.00429656,0.00566205,0.00746074,0.00983006,0.0129511,0.0170622,0.0224775,0.0296109,0.0390074,inf	775150,775150,1.23782,36.2359,173.771,339.117,338.191,304.749,294.912,296.966,303.755,299.438,293.832,295.717,295.381,287.146,279.286,279.998,285.485,290.854,298.106,307.249,310.782,305.399,297.74,290.356,286.161,316.554,316.554,1253.21,1253.21,1253.21
0.00121768	-21409916.40	0,2.41507e-06,5.59633e-06,9.78683e-06,1.53068e-05,2.25779e-05,3.21558e-05,4.47722e-05,6.13912e-05,8.32826e-05,0.000112119,0.000150104,0.000200139,0.000266048,0.000352866,0.000467227,0.00061787,0.000816303,0.00107769,0.001422,0.00187554,0.00247297,0.00325993,0.00429656,0.00566205,0.00746074,0.00983006,0.0129511,0.0170622,0.0224775,0.0296109,0.0390074,inf	781283,781283,0.307583,21.7852,152.92,344.827,342.451,302.712,291.684,294.889,303.434,298.887,293.36,296.656,297.029,287.91,279.107,279.849,285.533,290.71,298.026,307.704,311.303,305.201,296.807,288.534,283.612,318.619,318.619,8102.2,8102.2,8102.2
0.00121768	-21408802.89	0,2.41507e-06,5.59633e-06,9.78683e-06,1.53068e-05,2.25779e-05,3.21558e-05,4.47722e-05,6.13912e-05,8.32826e-05,0.000112119,0.000150104,0.000200139,0.000266048,0.000352866,0.000467227,0.00061787,0.000816303,0.00107769,0.001422,0.00187554,0.00247297,0.00325993,0.00429656,0.00566205,0.00746074,0.00983006,0.0129511,0.0170622,0.0224775,0.0296109,0.0390074,inf	777196,777196,0.29192,13.1817,134.633,348.464,343.548,297.958,285.898,290.126,300.087,295.194,289.791,294.424,295.482,285.661,276.147,276.949,282.723,287.63,294.936,305.059,308.854,302.471,293.797,284.978,279.567,318.917,318.917,43275.3,43275.3,43275.3
