0.000541161	-13350122.85	0,1.58049e-06,3.70099e-06,6.546e-06,1.03631e-05,1.54843e-05,2.23553e-05,3.15739e-05,4.39423e-05,6.05365e-05,8.28005e-05,0.000112671,0.000152748,0.000206518,0.00027866,0.00037545,0.00050531,0.00067954,0.000913299,0.00122693,0.00164771,0.00221226,0.00296971,0.00398594,0.0053494,0.00717871,0.00963304,0.0129259,0.0173439,0.0232714,inf	233.1,233.1,233.1,233.1,233.1,220.101,216.993,221.54,237.892,263.841,287.4,303.572,320.993,347.458,377.817,407.952,437.763,465.248,489.967,511.333,527.516,535.067,529.886,515.357,499.052,451.328,451.328,451.328,451.328,451.328
0.000559117	-13348274.70	0,1.58049e-06,3.70099e-06,6.546e-06,1.03631e-05,1.54843e-05,2.23553e-05,3.15739e-05,4.39423e-05,6.05365e-05,8.28005e-05,0.000112671,0.000152748,0.000206518,0.00027866,0.00037545,0.00050531,0.00067954,0.000913299,0.00122693,0.00164771,0.00221226,0.00296971,0.00398594,0.0053494,0.00717871,0.00963304,0.0129259,0.0173439,0.0232714,inf	207.762,207.762,207.762,207.762,207.762,182.998,170.402,167.51,182.401,213.868,241.583,254.995,269.835,301.373,340.708,380.212,420.032,456.955,491.16,522.961,550.263,566.497,560.972,537.72,510.758,422.78,422.78,422.78,422.78,422.78
0.000574381	-13347581.34	0,1.58049e-06,3.70099e-06,6.546e-06,1.03631e-05,1.54843e-05,2.23553e-05,3.15739e-05,4.39423e-05,6.05365e-05,8.28005e-05,0.000112671,0.000152748,0.000206518,0.00027866,0.00037545,0.00050531,0.00067954,0.000913299,0.00122693,0.00164771,0.00221226,0.00296971,0.00398594,0.0053494,0.00717871,0.00963304,0.0129259,0.0173439,0.0232714,inf	214.476,214.476,214.476,214.476,214.476,182.427,161.199,151.4,164.921,201.558,232.277,240.347,249.565,282.282,325.631,368.736,412.244,452.047,489.363,525.975,560.533,584.587,580.754,552.419,519.057,397.414,397.414,397.414,397.414,397.414
0.000587618	-13347217.92	0,1.58049e-06,3.70099e-06,6.546e-06,1.03631e-05,1.54843e-05,2.23553e-05,3.15739e-05,4.39423e-05,6.05365e-05,8.28005e-05,0.000112671,0.000152748,0.000206518,0.00027866,0.00037545,0.00050531,0.00067954,0.000913299,0.00122693,0.00164771,0.00221226,0.00296971,0.00398594,0.0053494,0.00717871,0.00963304,0.0129259,0.0173439,0.0232714,inf	225.731,225.731,225.731,225.731,225.731,188.658,160.085,144.354,157.363,200.054,234.399,236.808,240.206,273.543,319.599,364.413,409.293,449.324,486.906,525.399,564.628,595.211,593.744,562.592,526.039,375.881,375.881,375.881,375.881,375.881
0.00059931	-13346994.56	0,1.58049e-06,3.70099e-06,6.546e-06,1.03631e-05,1.54843e-05,2.23553e-05,3.15739e-05,4.39423e-05,6.05365e-05,8.28005e-05,0.000112671,0.000152748,0.000206518,0.00027866,0.00037545,0.00050531,0.00067954,0.000913299,0.00122693,0.00164771,0.00221226,0.00296971,0.00398594,0.0053494,0.00717871,0.00963304,0.0129259,0.0173439,0.0232714,inf	233.503,233.503,233.503,233.503,233.503,194.694,160.142,139.325,152.308,201.487,240.041,236.947,234.978,269.107,317.551,363.447,408.849,448.037,484.613,523.454,565.683,601.592,602.556,570.019,532.747,357.932,357.932,357.932,357.932,357.932
0.000609773	-13346851.22	0,1.58049e-06,3.70099e-06,6.546e-06,1.03631e-05,1.54843e-05,2.23553e-05,3.15739e-05,4.39423e-05,6.05365e-05,8.28005e-05,0.000112671,0.000152748,0.000206518,0.00027866,0.00037545,0.00050531,0.00067954,0.000913299,0.00122693,0.00164771,0.00221226,0.00296971,0.00398594,0.0053494,0.00717871,0.00963304,0.0129259,0.0173439,0.0232714,inf	238.105,238.105,238.105,238.105,238.105,199.562,160.001,134.647,147.732,203.358,246.448,238.093,231.313,266.506,317.281,364.064,409.72,447.681,482.718,521.107,565.256,605.486,608.687,575.682,539.623,343.03,343.03,343.03,343.03,343.03
0.000619214	-13346753.75	0,1.58049e-06,3.70099e-06,6.546e-06,1.03631e-05,1.54843e-05,2.23553e-05,3.15739e-05,4.39423e-05,6.05365e-05,8.28005e-05,0.000112671,0.000152748,0.000206518,0.00027866,0.00037545,0.00050531,0.00067954,0.000913299,0.00122693,0.00164771,0.00221226,0.00296971,0.00398594,0.0053494,0.00717871,0.00963304,0.0129259,0.0173439,0.0232714,inf	240.61,240.61,240.61,240.61,240.61,203.611,159.656,130.087,143.185,204.952,252.699,239.302,228.225,264.693,317.773,365.388,411.255,447.914,481.238,518.767,564.128,607.872,613.009,580.12,546.808,330.612,330.612,330.612,330.612,330.612
0.00062778	-13346683.97	0,1.58049e-06,3.70099e-06,6.546e-06,1.03631e-05,1.54843e-05,2.23553e-05,3.15739e-05,4.39423e-05,6.05365e-05,8.28005e-05,0.000112671,0.000152748,0.000206518,0.00027866,0.00037545,0.00050531,0.00067954,0.000913299,0.00122693,0.00164771,0.00221226,0.00296971,0.00398594,0.0053494,0.00717871,0.00963304,0.0129259,0.0173439,0.0232714,inf	244.532,244.532,244.532,244.532,244.532,207.308,159.324,125.705,138.67,206.166,258.556,240.29,225.346,263.219,318.55,366.972,413.09,448.507,480.121,516.6,562.702,609.313,616.055,583.638,554.293,320.184,320.184,320.184,320.184,320.184
0.000635578	-13346624.40	0,1.58049e-06,3.70099e-06,6.546e-06,1.03631e-05,1.54843e-05,2.23553e-05,3.15739e-05,4.39423e-05,6.05365e-05,8.28005e-05,0.000112671,0.000152748,0.000206518,0.00027866,0.00037545,0.00050531,0.00067954,0.000913299,0.00122693,0.00164771,0.00221226,0.00296971,0.00398594,0.0053494,0.00717871,0.00963304,0.0129259,0.0173439,0.0232714,inf	244.532,244.532,244.532,244.532,244.532,210.524,159.004,121.52,134.223,207.036,264.013,241.01,222.554,261.893,319.391,368.589,415.021,449.311,479.301,514.66,561.19,610.151,618.166,586.42,562.013,311.34,311.34,311.34,311.34,311.34
0.000642696	-13346585.56	0,1.58049e-06,3.70099e-06,6.546e-06,1.03631e-05,1.54843e-05,2.23553e-05,3.15739e-05,4.39423e-05,6.05365e-05,8.28005e-05,0.000112671,0.000152748,0.000206518,0.00027866,0.00037545,0.00050531,0.00067954,0.000913299,0.00122693,0.00164771,0.00221226,0.00296971,0.00398594,0.0053494,0.00717871,0.00963304,0.0129259,0.0173439,0.0232714,inf	247.036,247.036,247.036,247.036,247.036,213.983,159.01,117.669,129.96,207.694,269.161,241.511,219.83,260.65,320.202,370.128,416.93,450.224,478.715,512.955,559.703,610.596,619.57,588.588,569.885,303.759,303.759,303.759,303.759,303.759
0.000649204	-13346547.10	0,1.58049e-06,3.70099e-06,6.546e-06,1.03631e-05,1.54843e-05,2.23553e-05,3.15739e-05,4.39423e-05,6.05365e-05,8.28005e-05,0.000112671,0.000152748,0.000206518,0.00027866,0.00037545,0.00050531,0.00067954,0.000913299,0.00122693,0.00164771,0.00221226,0.00296971,0.00398594,0.0053494,0.00717871,0.00963304,0.0129259,0.0173439,0.0232714,inf	247.036,247.036,247.036,247.036,247.036,217.191,159.146,114.07,125.871,208.178,274.052,241.835,217.172,259.464,320.946,371.534,418.754,451.181,478.311,511.473,558.297,610.789,620.431,590.229,577.83,297.191,297.191,297.191,297.191,297.191
0.000655163	-13346521.13	0,1.58049e-06,3.70099e-06,6.546e-06,1.03631e-05,1.54843e-05,2.23553e-05,3.15739e-05,4.39423e-05,6.05365e-05,8.28005e-05,0.000112671,0.000152748,0.000206518,0.00027866,0.00037545,0.00050531,0.00067954,0.000913299,0.00122693,0.00164771,0.00221226,0.00296971,0.00398594,0.0053494,0.00717871,0.00963304,0.0129259,0.0173439,0.0232714,inf	247.036,247.036,247.036,247.036,247.036,220.578,159.563,110.762,121.992,208.562,278.759,242.041,214.6,258.339,321.617,372.793,420.459,452.14,478.048,510.191,557.001,610.821,620.87,591.411,585.78,291.439,291.439,291.439,291.439,291.439
0.000660625	-13346499.66	0,1.58049e-06,3.70099e-06,6.546e-06,1.03631e-05,1.54843e-05,2.23553e-05,3.15739e-05,4.39423e-05,6.05365e-05,8.28005e-05,0.000112671,0.000152748,0.000206518,0.00027866,0.00037545,0.00050531,0.00067954,0.000913299,0.00122693,0.00164771,0.00221226,0.00296971,0.00398594,0.0053494,0.00717871,0.00963304,0.0129259,0.0173439,0.0232714,inf	247.036,247.036,247.036,247.036,247.036,224.045,160.19,107.707,118.307,208.859,283.313,242.156,212.123,257.278,322.219,373.902,422.03,453.072,477.891,509.086,555.826,610.757,620.977,592.192,593.678,286.352,286.352,286.352,286.352,286.352
0.000665636	-13346481.90	0,1.58049e-06,3.70099e-06,6.546e-06,1.03631e-05,1.54843e-05,2.23553e-05,3.15739e-05,4.39423e-05,6.05365e-05,8.28005e-05,0.000112671,0.000152748,0.000206518,0.00027866,0.00037545,0.00050531,0.00067954,0.000913299,0.00122693,0.00164771,0.00221226,0.00296971,0.00398594,0.0053494,0.00717871,0.00963304,0.0129259,0.0173439,0.0232714,inf	247.036,247.036,247.036,247.036,247.036,227.5,160.985,104.863,114.799,209.09,287.738,242.21,209.748,256.287,322.765,374.867,423.464,453.961,477.814,508.137,554.776,610.641,620.825,592.622,601.481,281.812,281.812,281.812,281.812,281.812
0.000670225	-13346467.23	0,1.58049e-06,3.70099e-06,6.546e-06,1.03631e-05,1.54843e-05,2.23553e-05,3.15739e-05,4.39423e-05,6.05365e-05,8.28005e-05,0.000112671,0.000152748,0.000206518,0.00027866,0.00037545,0.00050531,0.00067954,0.000913299,0.00122693,0.00164771,0.00221226,0.00296971,0.00398594,0.0053494,0.00717871,0.00963304,0.0129259,0.0173439,0.0232714,inf	247.036,247.036,247.036,247.036,247.036,230.82,161.836,102.163,111.406,209.173,291.931,242.116,207.395,255.275,323.15,375.58,424.646,454.695,477.722,507.281,553.832,610.489,620.442,592.73,609.121,277.711,277.711,277.711,277.711,277.711
0.000674449	-13346455.48	0,1.58049e-06,3.70099e-06,6.546e-06,1.03631e-05,1.54843e-05,2.23553e-05,3.15739e-05,4.39423e-05,6.05365e-05,8.28005e-05,0.000112671,0.000152748,0.000206518,0.00027866,0.00037545,0.00050531,0.00067954,0.000913299,0.00122693,0.00164771,0.00221226,0.00296971,0.00398594,0.0053494,0.00717871,0.00963304,0.0129259,0.0173439,0.0232714,inf	247.036,247.036,247.036,247.036,247.036,234.12,162.845,99.66,108.201,209.273,296.126,242.073,205.216,254.413,323.586,376.259,425.779,455.435,477.721,506.574,553.025,610.355,619.916,592.583,616.624,273.996,273.996,273.996,273.996,273.996
0.000678333	-13346445.85	0,1.58049e-06,3.70099e-06,6.546e-06,1.03631e-05,1.54843e-05,2.23553e-05,3.15739e-05,4.39423e-05,6.05365e-05,8.28005e-05,0.000112671,0.000152748,0.000206518,0.00027866,0.00037545,0.00050531,0.00067954,0.000913299,0.00122693,0.00164771,0.00221226,0.00296971,0.00398594,0.0053494,0.00717871,0.00963304,0.0129259,0.0173439,0.0232714,inf	247.036,247.036,247.036,247.036,247.036,237.304,163.938,97.3124,105.147,209.333,300.251,242.026,203.159,253.654,324.027,376.863,426.82,456.137,477.767,505.977,552.329,610.24,619.272,592.208,623.966,270.604,270.604,270.604,270.604,270.604
0.000681907	-13346438.07	0,1.58049e-06,3.70099e-06,6.546e-06,1.03631e-05,1.54843e-05,2.23553e-05,3.15739e-05,4.39423e-05,6.05365e-05,8.28005e-05,0.000112671,0.000152748,0.000206518,0.00027866,0.00037545,0.00050531,0.00067954,0.000913299,0.00122693,0.00164771,0.00221226,0.00296971,0.00398594,0.0053494,0.00717871,0.00963304,0.0129259,0.0173439,0.0232714,inf	247.036,247.036,247.036,247.036,247.036,240.344,165.091,95.0856,102.216,209.332,304.28,241.957,201.203,252.979,324.462,377.387,427.763,456.787,477.838,505.465,551.73,610.152,618.539,591.633,631.133,267.487,267.487,267.487,267.487,267.487
0.000685195	-13346431.92	0,1.58049e-06,3.70099e-06,6.546e-06,1.03631e-05,1.54843e-05,2.23553e-05,3.15739e-05,4.39423e-05,6.05365e-05,8.28005e-05,0.000112671,0.000152748,0.000206518,0.00027866,0.00037545,0.00050531,0.00067954,0.000913299,0.00122693,0.00164771,0.00221226,0.00296971,0.00398594,0.0053494,0.00717871,0.00963304,0.0129259,0.0173439,0.0232714,inf	247.036,247.036,247.036,247.036,247.036,243.233,166.302,92.9723,99.4006,209.271,308.207,241.866,199.341,252.381,324.891,377.835,428.61,457.381,477.921,505.024,551.219,610.096,617.739,590.885,638.116,264.605,264.605,264.605,264.605,264.605
0.000688222	-13346427.19	0,1.58049e-06,3.70099e-06,6.546e-06,1.03631e-05,1.54843e-05,2.23553e-05,3.15739e-05,4.39423e-05,6.05365e-05,8.28005e-05,0.000112671,0.000152748,0.000206518,0.00027866,0.00037545,0.00050531,0.00067954,0.000913299,0.00122693,0.00164771,0.00221226,0.00296971,0.00398594,0.0053494,0.00717871,0.00963304,0.0129259,0.0173439,0.0232714,inf	247.036,247.036,247.036,247.036,247.036,245.963,167.565,90.9664,96.6922,209.156,312.036,241.75,197.562,251.854,325.318,378.214,429.368,457.919,478.011,504.643,550.786,610.076,616.891,589.988,644.911,261.927,261.927,261.927,261.927,261.927
