time_index	left_time_boundary	right_time_boundary	lambda
0	0	2.37113e-06	692547
1	2.37113e-06	5.4945e-06	692547
2	5.4945e-06	9.60876e-06	0.297332
3	9.60876e-06	1.50283e-05	0.297327
4	1.50283e-05	2.21671e-05	11.7937
5	2.21671e-05	3.15707e-05	201.628
6	3.15707e-05	4.39576e-05	383.466
7	4.39576e-05	6.02742e-05	334.324
8	6.02742e-05	8.17672e-05	306.219
9	8.17672e-05	0.000110079	290.445
10	0.000110079	0.000147372	283.457
11	0.000147372	0.000196497	299.011
12	0.000196497	0.000261207	317.764
13	0.000261207	0.000346446	326.986
14	0.000346446	0.000458726	318.821
15	0.000458726	0.000606627	294.33
16	0.000606627	0.00080145	280.768
17	0.00080145	0.00105808	286.475
18	0.00105808	0.00139613	299.06
19	0.00139613	0.00184142	308.511
20	0.00184142	0.00242797	308.785
21	0.00242797	0.00320062	302.308
22	0.00320062	0.00421838	296.131
23	0.00421838	0.00555902	291.915
24	0.00555902	0.00732499	287.613
25	0.00732499	0.0096512	292.596
26	0.0096512	0.0127154	286.447
27	0.0127154	0.0167517	233.785
28	0.0167517	0.0220686	233.785
29	0.0220686	0.0290721	257.86
30	0.0290721	0.0382976	257.86
31	0.0382976	inf	257.86
