0.000933679	-21488953.82	0,2.61031e-06,6.11249e-06,1.08113e-05,1.71154e-05,2.55736e-05,3.69216e-05,5.21469e-05,7.25742e-05,9.9981e-05,0.000136752,0.000186086,0.000252276,0.000341082,0.000460229,0.000620086,0.000834561,0.00112232,0.00150839,0.00202637,0.00272133,0.00365373,0.00490471,0.00658311,0.00883497,0.0118562,0.0159097,0.0213482,0.0286449,0.0384346,inf	307.481,307.481,307.481,307.481,307.481,243.788,252.301,269.025,280.43,287.672,288.086,286.286,284.521,282.807,282.15,282.757,283.423,284.564,286.934,289.578,291.779,292.632,292.039,289.354,285.858,286.882,286.882,286.882,286.882,286.882
0.00100143	-21485105.52	0,2.61031e-06,6.11249e-06,1.08113e-05,1.71154e-05,2.55736e-05,3.69216e-05,5.21469e-05,7.25742e-05,9.9981e-05,0.000136752,0.000186086,0.000252276,0.000341082,0.000460229,0.000620086,0.000834561,0.00112232,0.00150839,0.00202637,0.00272133,0.00365373,0.00490471,0.00658311,0.00883497,0.0118562,0.0159097,0.0213482,0.0286449,0.0384346,inf	327.263,327.263,327.263,327.263,327.263,212.16,228.651,257.729,277.688,290.52,290.836,287.508,284.435,281.429,280.309,281.21,281.748,282.859,286.045,289.751,292.899,294.021,292.95,288.139,281.776,283.565,283.565,283.565,283.565,283.565
0.00106302	-21482188.86	0,2.61031e-06,6.11249e-06,1.08113e-05,1.71154e-05,2.55736e-05,3.69216e-05,5.21469e-05,7.25742e-05,9.9981e-05,0.000136752,0.000186086,0.000252276,0.000341082,0.000460229,0.000620086,0.000834561,0.00112232,0.00150839,0.00202637,0.00272133,0.00365373,0.00490471,0.00658311,0.00883497,0.0118562,0.0159097,0.0213482,0.0286449,0.0384346,inf	342.298,342.298,342.298,342.298,342.298,187.05,211.058,249.666,276.265,293.522,293.506,289.04,285.194,281.44,280.273,281.567,281.805,282.52,285.927,290.072,293.677,294.919,293.576,287.094,278.336,280.723,280.723,280.723,280.723,280.723
0.00111902	-21479940.58	0,2.61031e-06,6.11249e-06,1.08113e-05,1.71154e-05,2.55736e-05,3.69216e-05,5.21469e-05,7.25742e-05,9.9981e-05,0.000136752,0.000186086,0.000252276,0.000341082,0.000460229,0.000620086,0.000834561,0.00112232,0.00150839,0.00202637,0.00272133,0.00365373,0.00490471,0.00658311,0.00883497,0.0118562,0.0159097,0.0213482,0.0286449,0.0384346,inf	355.06,355.06,355.06,355.06,355.06,166.607,197.5,243.577,275.301,295.962,295.375,290.03,285.78,281.67,280.778,282.58,282.482,282.664,286.014,290.296,294.123,295.445,294.004,286.19,275.39,278.252,278.252,278.252,278.252,278.252
0.00117006	-21478178.80	0,2.61031e-06,6.11249e-06,1.08113e-05,1.71154e-05,2.55736e-05,3.69216e-05,5.21469e-05,7.25742e-05,9.9981e-05,0.000136752,0.000186086,0.000252276,0.000341082,0.000460229,0.000620086,0.000834561,0.00112232,0.00150839,0.00202637,0.00272133,0.00365373,0.00490471,0.00658311,0.00883497,0.0118562,0.0159097,0.0213482,0.0286449,0.0384346,inf	364.602,364.602,364.602,364.602,364.602,149.707,186.946,239.046,274.738,297.958,296.581,290.513,286.081,281.873,281.465,283.846,283.406,283,286.148,290.404,294.32,295.716,294.307,285.415,272.838,276.084,276.084,276.084,276.084,276.084
0.00121665	-21476783.72	0,2.61031e-06,6.11249e-06,1.08113e-05,1.71154e-05,2.55736e-05,3.69216e-05,5.21469e-05,7.25742e-05,9.9981e-05,0.000136752,0.000186086,0.000252276,0.000341082,0.000460229,0.000620086,0.000834561,0.00112232,0.00150839,0.00202637,0.00272133,0.00365373,0.00490471,0.00658311,0.00883497,0.0118562,0.0159097,0.0213482,0.0286449,0.0384346,inf	371.775,371.775,371.775,371.775,371.775,135.627,178.74,235.821,274.599,299.696,297.342,290.646,286.162,282.009,282.21,285.206,284.426,283.414,286.28,290.416,294.345,295.818,294.532,284.755,270.607,274.165,274.165,274.165,274.165,274.165
0.00125927	-21475667.42	0,2.61031e-06,6.11249e-06,1.08113e-05,1.71154e-05,2.55736e-05,3.69216e-05,5.21469e-05,7.25742e-05,9.9981e-05,0.000136752,0.000186086,0.000252276,0.000341082,0.000460229,0.000620086,0.000834561,0.00112232,0.00150839,0.00202637,0.00272133,0.00365373,0.00490471,0.00658311,0.00883497,0.0118562,0.0159097,0.0213482,0.0286449,0.0384346,inf	378.614,378.614,378.614,378.614,378.614,123.798,172.36,233.659,274.853,301.289,297.817,290.556,286.091,282.087,282.969,286.589,285.471,283.854,286.395,290.36,294.252,295.807,294.712,284.197,268.64,272.455,272.455,272.455,272.455,272.455
0.00129833	-21474763.63	0,2.61031e-06,6.11249e-06,1.08113e-05,1.71154e-05,2.55736e-05,3.69216e-05,5.21469e-05,7.25742e-05,9.9981e-05,0.000136752,0.000186086,0.000252276,0.000341082,0.000460229,0.000620086,0.000834561,0.00112232,0.00150839,0.00202637,0.00272133,0.00365373,0.00490471,0.00658311,0.00883497,0.0118562,0.0159097,0.0213482,0.0286449,0.0384346,inf	383.576,383.576,383.576,383.576,383.576,113.652,167.344,232.298,275.414,302.78,298.104,290.328,285.924,282.117,283.717,287.956,286.503,284.293,286.491,290.255,294.079,295.722,294.866,283.727,266.892,270.923,270.923,270.923,270.923,270.923
0.00133417	-21474028.93	0,2.61031e-06,6.11249e-06,1.08113e-05,1.71154e-05,2.55736e-05,3.69216e-05,5.21469e-05,7.25742e-05,9.9981e-05,0.000136752,0.000186086,0.000252276,0.000341082,0.000460229,0.000620086,0.000834561,0.00112232,0.00150839,0.00202637,0.00272133,0.00365373,0.00490471,0.00658311,0.00883497,0.0118562,0.0159097,0.0213482,0.0286449,0.0384346,inf	387.823,387.823,387.823,387.823,387.823,104.874,163.401,231.565,276.222,304.203,298.271,290.024,285.697,282.113,284.442,289.285,287.503,284.717,286.567,290.117,293.853,295.587,295.003,283.334,265.327,269.541,269.541,269.541,269.541,269.541
0.00136712	-21473426.46	0,2.61031e-06,6.11249e-06,1.08113e-05,1.71154e-05,2.55736e-05,3.69216e-05,5.21469e-05,7.25742e-05,9.9981e-05,0.000136752,0.000186086,0.000252276,0.000341082,0.000460229,0.000620086,0.000834561,0.00112232,0.00150839,0.00202637,0.00272133,0.00365373,0.00490471,0.00658311,0.00883497,0.0118562,0.0159097,0.0213482,0.0286449,0.0384346,inf	390.293,390.293,390.293,390.293,390.293,97.1865,160.278,231.303,277.201,305.561,298.356,289.676,285.437,282.083,285.14,290.565,288.459,285.119,286.626,289.956,293.591,295.42,295.133,283.008,263.918,268.291,268.291,268.291,268.291,268.291
0.00139744	-21472931.58	0,2.61031e-06,6.11249e-06,1.08113e-05,1.71154e-05,2.55736e-05,3.69216e-05,5.21469e-05,7.25742e-05,9.9981e-05,0.000136752,0.000186086,0.000252276,0.000341082,0.000460229,0.000620086,0.000834561,0.00112232,0.00150839,0.00202637,0.00272133,0.00365373,0.00490471,0.00658311,0.00883497,0.0118562,0.0159097,0.0213482,0.0286449,0.0384346,inf	393.172,393.172,393.172,393.172,393.172,90.4303,157.837,231.421,278.312,306.868,298.389,289.317,285.161,282.033,285.805,291.791,289.367,285.496,286.67,289.781,293.307,295.232,295.26,282.739,262.642,267.153,267.153,267.153,267.153,267.153
0.00142538	-21472520.05	0,2.61031e-06,6.11249e-06,1.08113e-05,1.71154e-05,2.55736e-05,3.69216e-05,5.21469e-05,7.25742e-05,9.9981e-05,0.000136752,0.000186086,0.000252276,0.000341082,0.000460229,0.000620086,0.000834561,0.00112232,0.00150839,0.00202637,0.00272133,0.00365373,0.00490471,0.00658311,0.00883497,0.0118562,0.0159097,0.0213482,0.0286449,0.0384346,inf	396.018,396.018,396.018,396.018,396.018,84.3923,155.891,231.79,279.492,308.109,298.383,288.956,284.88,281.968,286.437,292.96,290.224,285.847,286.702,289.598,293.009,295.032,295.385,282.519,261.479,266.116,266.116,266.116,266.116,266.116
0.00145115	-21472176.74	0,2.61031e-06,6.11249e-06,1.08113e-05,1.71154e-05,2.55736e-05,3.69216e-05,5.21469e-05,7.25742e-05,9.9981e-05,0.000136752,0.000186086,0.000252276,0.000341082,0.000460229,0.000620086,0.000834561,0.00112232,0.00150839,0.00202637,0.00272133,0.00365373,0.00490471,0.00658311,0.00883497,0.0118562,0.0159097,0.0213482,0.0286449,0.0384346,inf	398.23,398.23,398.23,398.23,398.23,78.942,154.321,232.327,280.699,309.282,298.35,288.605,284.601,281.891,287.034,294.07,291.031,286.172,286.723,289.412,292.705,294.824,295.511,282.342,260.416,265.166,265.166,265.166,265.166,265.166
0.00147495	-21471890.10	0,2.61031e-06,6.11249e-06,1.08113e-05,1.71154e-05,2.55736e-05,3.69216e-05,5.21469e-05,7.25742e-05,9.9981e-05,0.000136752,0.000186086,0.000252276,0.000341082,0.000460229,0.000620086,0.000834561,0.00112232,0.00150839,0.00202637,0.00272133,0.00365373,0.00490471,0.00658311,0.00883497,0.0118562,0.0159097,0.0213482,0.0286449,0.0384346,inf	398.23,398.23,398.23,398.23,398.23,73.9972,153.059,232.989,281.909,310.389,298.298,288.27,284.329,281.804,287.597,295.124,291.789,286.472,286.736,289.226,292.399,294.614,295.639,282.203,259.438,264.295,264.295,264.295,264.295,264.295
0.00149693	-21471652.83	0,2.61031e-06,6.11249e-06,1.08113e-05,1.71154e-05,2.55736e-05,3.69216e-05,5.21469e-05,7.25742e-05,9.9981e-05,0.000136752,0.000186086,0.000252276,0.000341082,0.000460229,0.000620086,0.000834561,0.00112232,0.00150839,0.00202637,0.00272133,0.00365373,0.00490471,0.00658311,0.00883497,0.0118562,0.0159097,0.0213482,0.0286449,0.0384346,inf	399.614,399.614,399.614,399.614,399.614,69.552,152.115,233.784,283.129,311.449,298.24,287.961,284.071,281.71,288.128,296.122,292.498,286.749,286.743,289.043,292.095,294.403,295.769,282.096,258.536,263.494,263.494,263.494,263.494,263.494
0.00151726	-21471450.80	0,2.61031e-06,6.11249e-06,1.08113e-05,1.71154e-05,2.55736e-05,3.69216e-05,5.21469e-05,7.25742e-05,9.9981e-05,0.000136752,0.000186086,0.000252276,0.000341082,0.000460229,0.000620086,0.000834561,0.00112232,0.00150839,0.00202637,0.00272133,0.00365373,0.00490471,0.00658311,0.00883497,0.0118562,0.0159097,0.0213482,0.0286449,0.0384346,inf	399.614,399.614,399.614,399.614,399.614,65.4774,151.365,234.618,284.311,312.438,298.17,287.673,283.824,281.609,288.625,297.066,293.162,287.003,286.745,288.864,291.794,294.193,295.9,282.017,257.7,262.755,262.755,262.755,262.755,262.755
0.00153608	-21471282.28	0,2.61031e-06,6.11249e-06,1.08113e-05,1.71154e-05,2.55736e-05,3.69216e-05,5.21469e-05,7.25742e-05,9.9981e-05,0.000136752,0.000186086,0.000252276,0.000341082,0.000460229,0.000620086,0.000834561,0.00112232,0.00150839,0.00202637,0.00272133,0.00365373,0.00490471,0.00658311,0.00883497,0.0118562,0.0159097,0.0213482,0.0286449,0.0384346,inf	399.614,399.614,399.614,399.614,399.614,61.7591,150.816,235.503,285.46,313.369,298.097,287.41,283.592,281.501,289.091,297.959,293.783,287.237,286.743,288.691,291.498,293.986,296.034,281.963,256.923,262.073,262.073,262.073,262.073,262.073
0.00155351	-21471139.67	0,2.61031e-06,6.11249e-06,1.08113e-05,1.71154e-05,2.55736e-05,3.69216e-05,5.21469e-05,7.25742e-05,9.9981e-05,0.000136752,0.000186086,0.000252276,0.000341082,0.000460229,0.000620086,0.000834561,0.00112232,0.00150839,0.00202637,0.00272133,0.00365373,0.00490471,0.00658311,0.00883497,0.0118562,0.0159097,0.0213482,0.0286449,0.0384346,inf	400.762,400.762,400.762,400.762,400.762,58.3507,150.43,236.409,286.567,314.241,298.02,287.173,283.375,281.388,289.528,298.803,294.364,287.452,286.739,288.524,291.209,293.783,296.17,281.931,256.199,261.442,261.442,261.442,261.442,261.442
0.00156966	-21471016.76	0,2.61031e-06,6.11249e-06,1.08113e-05,1.71154e-05,2.55736e-05,3.69216e-05,5.21469e-05,7.25742e-05,9.9981e-05,0.000136752,0.000186086,0.000252276,0.000341082,0.000460229,0.000620086,0.000834561,0.00112232,0.00150839,0.00202637,0.00272133,0.00365373,0.00490471,0.00658311,0.00883497,0.0118562,0.0159097,0.0213482,0.0286449,0.0384346,inf	401.344,401.344,401.344,401.344,401.344,55.1781,150.13,237.287,287.603,315.049,297.939,286.959,283.171,281.271,289.935,299.601,294.906,287.649,286.734,288.365,290.927,293.584,296.307,281.918,255.522,260.858,260.858,260.858,260.858,260.858
0.00158464	-21470912.96	0,2.61031e-06,6.11249e-06,1.08113e-05,1.71154e-05,2.55736e-05,3.69216e-05,5.21469e-05,7.25742e-05,9.9981e-05,0.000136752,0.000186086,0.000252276,0.000341082,0.000460229,0.000620086,0.000834561,0.00112232,0.00150839,0.00202637,0.00272133,0.00365373,0.00490471,0.00658311,0.00883497,0.0118562,0.0159097,0.0213482,0.0286449,0.0384346,inf	401.641,401.641,401.641,401.641,401.641,52.2317,149.925,238.146,288.578,315.799,297.858,286.769,282.983,281.149,290.316,300.355,295.412,287.831,286.728,288.213,290.654,293.389,296.446,281.921,254.887,260.317,260.317,260.317,260.317,260.317
