0.000522904	-13072583.52	0,1.54382e-06,3.61511e-06,6.39409e-06,1.01226e-05,1.5125e-05,2.18365e-05,3.08412e-05,4.29225e-05,5.91317e-05,8.0879e-05,0.000110057,0.000149204,0.000201726,0.000272193,0.000366737,0.000493584,0.00066377,0.000892104,0.00119845,0.00160947,0.00216092,0.00290079,0.00389345,0.00522526,0.00701212,0.00940949,0.012626,0.0169414,0.0227313,inf	148.675,148.675,148.675,148.675,148.675,187.133,202.525,210.401,233.808,265.054,292.669,316.361,337.085,360.692,388.773,418.347,448.331,478.329,506.379,527.928,536.994,534.111,528.151,525.489,519.372,490.006,490.006,490.006,490.006,490.006
0.000535404	-13071467.14	0,1.54382e-06,3.61511e-06,6.39409e-06,1.01226e-05,1.5125e-05,2.18365e-05,3.08412e-05,4.29225e-05,5.91317e-05,8.0879e-05,0.000110057,0.000149204,0.000201726,0.000272193,0.000366737,0.000493584,0.00066377,0.000892104,0.00119845,0.00160947,0.00216092,0.00290079,0.00389345,0.00522526,0.00701212,0.00940949,0.012626,0.0169414,0.0227313,inf	90.1887,90.1887,90.1887,90.1887,90.1887,143.325,155.106,151.3,173.358,210.524,242.655,268.552,289.248,315.376,350.312,388.633,428.687,470.506,511.797,545.467,560.231,555.718,547.624,547.068,538.883,483.363,483.363,483.363,483.363,483.363
0.000545829	-13071188.99	0,1.54382e-06,3.61511e-06,6.39409e-06,1.01226e-05,1.5125e-05,2.18365e-05,3.08412e-05,4.29225e-05,5.91317e-05,8.0879e-05,0.000110057,0.000149204,0.000201726,0.000272193,0.000366737,0.000493584,0.00066377,0.000892104,0.00119845,0.00160947,0.00216092,0.00290079,0.00389345,0.00522526,0.00701212,0.00940949,0.012626,0.0169414,0.0227313,inf	72.3908,72.3908,72.3908,72.3908,72.3908,142.463,150.001,133.227,153.399,195.218,229.871,255.253,272.457,297.012,333.802,374.967,418.512,465.257,513.267,554.04,572.071,566.074,557.475,561.242,553.366,474.861,474.861,474.861,474.861,474.861
0.000554724	-13071059.59	0,1.54382e-06,3.61511e-06,6.39409e-06,1.01226e-05,1.5125e-05,2.18365e-05,3.08412e-05,4.29225e-05,5.91317e-05,8.0879e-05,0.000110057,0.000149204,0.000201726,0.000272193,0.000366737,0.000493584,0.00066377,0.000892104,0.00119845,0.00160947,0.00216092,0.00290079,0.00389345,0.00522526,0.00701212,0.00940949,0.012626,0.0169414,0.0227313,inf	62.3611,62.3611,62.3611,62.3611,62.3611,151.624,154.766,125.176,144.363,191.331,228.739,253.491,266.728,289.036,326.429,368.505,413.006,461.709,513.315,558.484,578.222,570.571,562.037,570.982,564.798,466.109,466.109,466.109,466.109,466.109
0.000562486	-13070995.93	0,1.54382e-06,3.61511e-06,6.39409e-06,1.01226e-05,1.5125e-05,2.18365e-05,3.08412e-05,4.29225e-05,5.91317e-05,8.0879e-05,0.000110057,0.000149204,0.000201726,0.000272193,0.000366737,0.000493584,0.00066377,0.000892104,0.00119845,0.00160947,0.00216092,0.00290079,0.00389345,0.00522526,0.00701212,0.00940949,0.012626,0.0169414,0.0227313,inf	53.9171,53.9171,53.9171,53.9171,53.9171,162.676,161.257,119.59,138.428,190.732,231.195,255.625,265.112,285.372,323.193,365.569,410.003,459.315,512.959,561.045,581.551,572.05,563.697,578.005,574.335,457.849,457.849,457.849,457.849,457.849
0.000569369	-13070979.00	0,1.54382e-06,3.61511e-06,6.39409e-06,1.01226e-05,1.5125e-05,2.18365e-05,3.08412e-05,4.29225e-05,5.91317e-05,8.0879e-05,0.000110057,0.000149204,0.000201726,0.000272193,0.000366737,0.000493584,0.00066377,0.000892104,0.00119845,0.00160947,0.00216092,0.00290079,0.00389345,0.00522526,0.00701212,0.00940949,0.012626,0.0169414,0.0227313,inf	47.5689,47.5689,47.5689,47.5689,47.5689,173.519,167.359,114.548,133.371,190.826,234.435,258.831,264.929,283.526,321.907,364.435,408.396,457.686,512.565,562.753,583.478,571.983,563.749,583.295,582.633,450.367,450.367,450.367,450.367,450.367
0.000575536	-13070975.08	0,1.54382e-06,3.61511e-06,6.39409e-06,1.01226e-05,1.5125e-05,2.18365e-05,3.08412e-05,4.29225e-05,5.91317e-05,8.0879e-05,0.000110057,0.000149204,0.000201726,0.000272193,0.000366737,0.000493584,0.00066377,0.000892104,0.00119845,0.00160947,0.00216092,0.00290079,0.00389345,0.00522526,0.00701212,0.00940949,0.012626,0.0169414,0.0227313,inf	44.3428,44.3428,44.3428,44.3428,44.3428,183.397,172.549,109.646,128.622,190.848,237.517,262.071,265.115,282.428,321.553,364.245,407.582,456.55,512.239,564.073,584.708,571.14,562.903,587.418,590.068,443.726,443.726,443.726,443.726,443.726
0.000581097	-13070950.99	0,1.54382e-06,3.61511e-06,6.39409e-06,1.01226e-05,1.5125e-05,2.18365e-05,3.08412e-05,4.29225e-05,5.91317e-05,8.0879e-05,0.000110057,0.000149204,0.000201726,0.000272193,0.000366737,0.000493584,0.00066377,0.000892104,0.00119845,0.00160947,0.00216092,0.00290079,0.00389345,0.00522526,0.00701212,0.00940949,0.012626,0.0169414,0.0227313,inf	42.3448,42.3448,42.3448,42.3448,42.3448,191.817,176.784,104.884,124.092,190.657,240.2,265.011,265.279,281.613,321.642,364.555,407.219,455.725,511.992,565.215,585.593,569.926,561.556,590.715,596.854,437.89,437.89,437.89,437.89,437.89
0.000586132	-13070922.65	0,1.54382e-06,3.61511e-06,6.39409e-06,1.01226e-05,1.5125e-05,2.18365e-05,3.08412e-05,4.29225e-05,5.91317e-05,8.0879e-05,0.000110057,0.000149204,0.000201726,0.000272193,0.000366737,0.000493584,0.00066377,0.000892104,0.00119845,0.00160947,0.00216092,0.00290079,0.00389345,0.00522526,0.00701212,0.00940949,0.012626,0.0169414,0.0227313,inf	38.3507,38.3507,38.3507,38.3507,38.3507,198.921,180.333,100.381,119.837,190.322,242.497,267.593,265.294,280.887,321.94,365.127,407.114,455.092,511.806,566.271,586.315,568.556,559.934,593.397,603.116,432.781,432.781,432.781,432.781,432.781
0.000590704	-13070939.13	0,1.54382e-06,3.61511e-06,6.39409e-06,1.01226e-05,1.5125e-05,2.18365e-05,3.08412e-05,4.29225e-05,5.91317e-05,8.0879e-05,0.000110057,0.000149204,0.000201726,0.000272193,0.000366737,0.000493584,0.00066377,0.000892104,0.00119845,0.00160947,0.00216092,0.00290079,0.00389345,0.00522526,0.00701212,0.00940949,0.012626,0.0169414,0.0227313,inf	38.3507,38.3507,38.3507,38.3507,38.3507,205.604,183.658,96.2319,115.914,189.933,244.493,269.861,265.144,280.174,322.332,365.835,407.154,454.572,511.656,567.28,586.964,567.149,558.171,595.603,608.934,428.313,428.313,428.313,428.313,428.313
0.000594851	-13070895.94	0,1.54382e-06,3.61511e-06,6.39409e-06,1.01226e-05,1.5125e-05,2.18365e-05,3.08412e-05,4.29225e-05,5.91317e-05,8.0879e-05,0.000110057,0.000149204,0.000201726,0.000272193,0.000366737,0.000493584,0.00066377,0.000892104,0.00119845,0.00160947,0.00216092,0.00290079,0.00389345,0.00522526,0.00701212,0.00940949,0.012626,0.0169414,0.0227313,inf	38.3507,38.3507,38.3507,38.3507,38.3507,210.792,186.415,92.3341,112.253,189.455,246.143,271.752,264.742,279.343,322.649,366.493,407.158,454.014,511.444,568.202,587.552,565.745,556.332,597.409,614.327,424.38,424.38,424.38,424.38,424.38
0.000598634	-13070858.88	0,1.54382e-06,3.61511e-06,6.39409e-06,1.01226e-05,1.5125e-05,2.18365e-05,3.08412e-05,4.29225e-05,5.91317e-05,8.0879e-05,0.000110057,0.000149204,0.000201726,0.000272193,0.000366737,0.000493584,0.00066377,0.000892104,0.00119845,0.00160947,0.00216092,0.00290079,0.00389345,0.00522526,0.00701212,0.00940949,0.012626,0.0169414,0.0227313,inf	38.3507,38.3507,38.3507,38.3507,38.3507,215.058,188.989,88.7927,108.947,189.093,247.71,273.525,264.308,278.578,323.064,367.263,407.279,453.559,511.289,569.138,588.166,564.419,554.497,598.914,619.378,420.937,420.937,420.937,420.937,420.937
0.000602085	-13070826.47	0,1.54382e-06,3.61511e-06,6.39409e-06,1.01226e-05,1.5125e-05,2.18365e-05,3.08412e-05,4.29225e-05,5.91317e-05,8.0879e-05,0.000110057,0.000149204,0.000201726,0.000272193,0.000366737,0.000493584,0.00066377,0.000892104,0.00119845,0.00160947,0.00216092,0.00290079,0.00389345,0.00522526,0.00701212,0.00940949,0.012626,0.0169414,0.0227313,inf	35.6059,35.6059,35.6059,35.6059,35.6059,218.536,191.427,85.5623,105.943,188.808,249.166,275.155,263.806,277.823,323.505,368.071,407.444,453.143,511.144,570.061,588.795,563.175,552.687,600.163,624.107,417.913,417.913,417.913,417.913,417.913
0.000605233	-13070848.14	0,1.54382e-06,3.61511e-06,6.39409e-06,1.01226e-05,1.5125e-05,2.18365e-05,3.08412e-05,4.29225e-05,5.91317e-05,8.0879e-05,0.000110057,0.000149204,0.000201726,0.000272193,0.000366737,0.000493584,0.00066377,0.000892104,0.00119845,0.00160947,0.00216092,0.00290079,0.00389345,0.00522526,0.00701212,0.00940949,0.012626,0.0169414,0.0227313,inf	33.5072,33.5072,33.5072,33.5072,33.5072,222.054,194.03,82.6435,103.224,188.606,250.531,276.66,263.241,277.068,323.952,368.887,407.625,452.74,510.989,570.957,589.435,562.016,550.919,601.194,628.535,415.247,415.247,415.247,415.247,415.247
0.000608108	-13070864.09	0,1.54382e-06,3.61511e-06,6.39409e-06,1.01226e-05,1.5125e-05,2.18365e-05,3.08412e-05,4.29225e-05,5.91317e-05,8.0879e-05,0.000110057,0.000149204,0.000201726,0.000272193,0.000366737,0.000493584,0.00066377,0.000892104,0.00119845,0.00160947,0.00216092,0.00290079,0.00389345,0.00522526,0.00701212,0.00940949,0.012626,0.0169414,0.0227313,inf	33.5094,33.5094,33.5094,33.5094,33.5094,225.338,196.63,79.9599,100.733,188.467,251.808,278.054,262.625,276.312,324.394,369.698,407.807,452.339,510.816,571.823,590.084,560.942,549.206,602.041,632.681,412.889,412.889,412.889,412.889,412.889
0.000610733	-13070841.95	0,1.54382e-06,3.61511e-06,6.39409e-06,1.01226e-05,1.5125e-05,2.18365e-05,3.08412e-05,4.29225e-05,5.91317e-05,8.0879e-05,0.000110057,0.000149204,0.000201726,0.000272193,0.000366737,0.000493584,0.00066377,0.000892104,0.00119845,0.00160947,0.00216092,0.00290079,0.00389345,0.00522526,0.00701212,0.00940949,0.012626,0.0169414,0.0227313,inf	33.5094,33.5094,33.5094,33.5094,33.5094,227.816,199.004,77.4554,98.4283,188.378,253.005,279.353,261.968,275.556,324.83,370.5,407.987,451.934,510.621,572.654,590.741,559.951,547.554,602.727,636.563,410.797,410.797,410.797,410.797,410.797
0.000613131	-13070822.39	0,1.54382e-06,3.61511e-06,6.39409e-06,1.01226e-05,1.5125e-05,2.18365e-05,3.08412e-05,4.29225e-05,5.91317e-05,8.0879e-05,0.000110057,0.000149204,0.000201726,0.000272193,0.000366737,0.000493584,0.00066377,0.000892104,0.00119845,0.00160947,0.00216092,0.00290079,0.00389345,0.00522526,0.00701212,0.00940949,0.012626,0.0169414,0.0227313,inf	33.5094,33.5094,33.5094,33.5094,33.5094,229.706,201.259,75.1298,96.2972,188.34,254.136,280.575,261.283,274.805,325.259,371.291,408.16,451.524,510.404,573.45,591.403,559.041,545.969,603.278,640.197,408.934,408.934,408.934,408.934,408.934
0.000615323	-13070805.02	0,1.54382e-06,3.61511e-06,6.39409e-06,1.01226e-05,1.5125e-05,2.18365e-05,3.08412e-05,4.29225e-05,5.91317e-05,8.0879e-05,0.000110057,0.000149204,0.000201726,0.000272193,0.000366737,0.000493584,0.00066377,0.000892104,0.00119845,0.00160947,0.00216092,0.00290079,0.00389345,0.00522526,0.00701212,0.00940949,0.012626,0.0169414,0.0227313,inf	33.5094,33.5094,33.5094,33.5094,33.5094,231.116,203.473,72.9679,94.3234,188.348,255.21,281.733,260.576,274.061,325.681,372.068,408.326,451.108,510.165,574.211,592.068,558.208,544.451,603.71,643.598,407.27,407.27,407.27,407.27,407.27
0.000617327	-13070789.56	0,1.54382e-06,3.61511e-06,6.39409e-06,1.01226e-05,1.5125e-05,2.18365e-05,3.08412e-05,4.29225e-05,5.91317e-05,8.0879e-05,0.000110057,0.000149204,0.000201726,0.000272193,0.000366737,0.000493584,0.00066377,0.000892104,0.00119845,0.00160947,0.00216092,0.00290079,0.00389345,0.00522526,0.00701212,0.00940949,0.012626,0.0169414,0.0227313,inf	33.5094,33.5094,33.5094,33.5094,33.5094,232.14,205.66,70.9548,92.4947,188.4,256.232,282.836,259.855,273.326,326.096,372.832,408.487,450.689,509.904,574.938,592.732,557.446,543.003,604.043,646.783,405.78,405.78,405.78,405.78,405.78
0.00061916	-13070775.76	0,1.54382e-06,3.61511e-06,6.39409e-06,1.01226e-05,1.5125e-05,2.18365e-05,3.08412e-05,4.29225e-05,5.91317e-05,8.0879e-05,0.000110057,0.000149204,0.000201726,0.000272193,0.000366737,0.000493584,0.00066377,0.000892104,0.00119845,0.00160947,0.00216092,0.00290079,0.00389345,0.00522526,0.00701212,0.00940949,0.012626,0.0169414,0.0227313,inf	33.5094,33.5094,33.5094,33.5094,33.5094,232.842,207.829,69.0755,90.7925,188.487,257.203,283.892,259.127,272.601,326.505,373.583,408.642,450.266,509.625,575.629,593.394,556.752,541.624,604.29,649.764,404.442,404.442,404.442,404.442,404.442
