Chr	Start	Stop	BlockSize	BlockLength
VIII	0	23	2	23
VIII	23	51	2	31
VIII	51	74	6	23
VIII	74	157	2	83
VIII	157	240	1	83
VIII	240	376	8	136
VIII	376	558	7	182
VIII	558	644	8	86
VIII	644	1952	1	1308
VIII	1952	2027	7	77
VIII	2027	2171	2	144
VIII	2171	2298	3	127
VIII	2298	2361	6	63
VIII	2361	2452	8	91
VIII	2452	2612	8	160
VIII	2612	2781	8	169
VIII	2781	2844	7	63
VIII	2844	5029	1	2185
VIII	5029	5077	2	48
VIII	5077	5138	2	61
VIII	5138	5173	2	35
VIII	5173	5292	1	119
VIII	5292	5374	3	82
VIII	5374	5437	1	63
VIII	5437	5536	2	99
VIII	5536	5607	4	71
VIII	5607	5645	2	38
VIII	5645	5710	3	65
VIII	5710	5772	5	64
VIII	5772	5835	3	63
VIII	5835	5878	4	49
VIII	5878	5941	5	63
VIII	5941	6308	4	368
VIII	6308	6528	5	240
VIII	6528	6700	7	172
VIII	6700	6747	8	47
VIII	6747	6953	8	206
VIII	6953	7038	8	85
VIII	7038	11985	8	4959
VIII	11985	12029	4	44
VIII	12029	12050	5	21
VIII	12050	12110	4	60
VIII	12110	12205	8	95
VIII	12205	12237	4	32
VIII	12237	12265	8	28
VIII	12265	12331	3	66
VIII	12331	12384	1	53
VIII	12384	12448	5	64
VIII	12448	12507	6	60
VIII	12507	12634	5	128
VIII	12634	12664	2	30
VIII	12664	15131	8	2467
VIII	15131	25138	8	10010
VIII	25138	35147	8	10010
VIII	35147	35215	8	68
VIII	35215	35294	7	85
VIII	35294	35770	3	476
VIII	35770	35854	2	84
VIII	35854	55590	5	19926
VIII	55590	55653	8	63
VIII	55653	55690	5	37
VIII	55690	56441	8	798
VIII	56441	62816	8	6384
VIII	62816	63657	8	850
VIII	63657	66400	3	2743
VIII	66400	67445	7	1063
VIII	67445	69155	4	1723
VIII	69155	69225	8	70
VIII	69225	71379	8	2159
VIII	71379	71457	8	78
VIII	71457	76508	3	5080
VIII	76508	77872	5	1364
VIII	77872	82048	8	4212
VIII	82048	85310	8	3354
VIII	85310	85539	8	230
VIII	85539	92127	1	6588
VIII	92127	92260	2	133
VIII	92260	92408	4	153
VIII	92408	92966	2	561
VIII	92966	94981	2	2242
VIII	94981	95044	3	63
VIII	95044	95098	2	56
VIII	95098	95162	3	64
VIII	95162	104896	2	9738
VIII	104896	104943	8	48
VIII	104943	105016	7	73
VIII	105016	105040	8	24
VIII	105040	105093	8	53
VIII	105093	116162	8	11070
VIII	116162	116421	8	260
VIII	116421	116494	2	73
VIII	116494	116543	3	50
VIII	116543	116645	1	102
VIII	116645	125841	8	9228
VIII	125841	132937	8	7101
VIII	132937	133000	7	63
VIII	133000	133002	3	50
VIII	133002	133086	8	88
VIII	133086	133118	3	32
VIII	133118	133751	8	660
VIII	133751	133781	6	30
VIII	133781	133845	4	69
VIII	133845	133929	5	84
VIII	133929	134000	7	71
VIII	134000	134049	6	49
VIII	134049	134086	8	37
VIII	134086	134172	8	86
VIII	134172	134229	7	59
VIII	134229	134334	3	106
VIII	134334	134427	8	93
VIII	134427	134490	5	63
VIII	134490	141261	6	6772
VIII	141261	146266	6	5008
VIII	146266	146338	7	72
VIII	146338	146407	4	69
VIII	146407	146422	6	15
VIII	146422	146550	1	128
VIII	146550	146671	8	128
VIII	146671	146728	7	57
VIII	146728	146758	7	30
VIII	146758	146821	3	63
VIII	146821	146828	4	103
VIII	146828	146881	8	63
VIII	146881	147047	8	166
VIII	147047	149962	3	2916
VIII	149962	161389	4	11429
VIII	161389	172811	4	11429
VIII	172811	175760	5	3023
VIII	175760	176431	7	671
VIII	176431	178672	8	2332
VIII	178672	185408	7	6742
VIII	185408	185472	7	65
VIII	185472	185543	7	71
VIII	185543	187040	5	1497
VIII	187040	192683	8	5679
VIII	192683	192859	4	182
VIII	192859	192913	8	54
VIII	192913	193119	1	206
VIII	193119	194176	6	1057
VIII	194176	194382	8	206
VIII	194382	212265	8	17884
VIII	212265	214190	2	1925
VIII	214190	214262	3	72
VIII	214262	229679	8	15421
VIII	229679	229742	3	63
VIII	229742	230017	8	275
VIII	230017	230080	7	63
VIII	230080	237844	8	7816
VIII	237844	237888	6	44
VIII	237888	237934	8	46
VIII	237934	237992	8	58
VIII	237992	238170	6	178
VIII	238170	238286	8	116
VIII	238286	238356	6	70
VIII	238356	250840	8	12487
VIII	250840	263325	8	12487
VIII	263325	275811	8	12487
VIII	275811	288295	8	12488
VIII	288295	288372	7	115
VIII	288372	288410	2	38
VIII	288410	298470	8	10080
VIII	298470	308548	8	10080
VIII	308548	318621	8	10080
VIII	318621	328700	8	10080
VIII	328700	338780	8	10080
VIII	338780	348845	8	10080
VIII	348845	358777	8	10003
VIII	358777	358840	8	63
VIII	358840	358949	8	109
VIII	358949	359007	6	58
VIII	359007	359153	8	146
VIII	359153	359178	8	25
VIII	359178	369182	8	10005
VIII	369182	379108	8	9957
VIII	379108	388892	8	9818
VIII	388892	388955	5	63
VIII	388955	388957	4	130
VIII	388957	389171	6	228
VIII	389171	389233	4	62
VIII	389233	389448	1	215
VIII	389448	389509	2	61
VIII	389509	396945	8	7497
VIII	396945	399112	8	2183
VIII	399112	409591	8	10482
VIII	409591	419889	8	10364
VIII	419889	430364	8	10483
VIII	430364	440843	8	10483
VIII	440843	451325	8	10483
VIII	451325	452210	8	885
VIII	452210	455681	8	3472
VIII	455681	455797	8	116
VIII	455797	455861	8	64
VIII	455861	462897	8	7082
VIII	462897	462931	8	34
VIII	462931	463930	8	1002
VIII	463930	465032	1	1102
VIII	465032	465727	8	706
VIII	465727	466980	1	1253
VIII	466980	471328	8	4370
VIII	471328	475765	4	4439
VIII	475765	490120	8	14359
VIII	490120	504479	8	14359
VIII	504479	505147	6	668
VIII	505147	508864	8	3718
VIII	508864	515129	6	6265
VIII	515129	525676	7	10553
VIII	525676	525979	8	306
VIII	525979	526033	7	54
VIII	526033	526079	6	46
VIII	526079	526108	2	29
VIII	526108	526205	7	97
VIII	526205	526339	1	134
VIII	526339	526383	3	44
VIII	526383	526485	2	102
VIII	526485	526525	5	40
VIII	526525	526564	3	39
VIII	526564	526609	4	45
VIII	526609	526680	3	71
VIII	526680	526733	5	53
VIII	526733	526765	6	32
VIII	526765	526868	4	103
VIII	526868	526890	6	22
VIII	526890	526954	4	64
VIII	526954	526989	1	35
VIII	526989	527020	4	31
VIII	527020	527043	6	23
VIII	527043	527085	3	42
VIII	527085	527168	5	94
VIII	527168	527225	4	65
VIII	527225	527310	7	85
VIII	527310	527342	7	32
VIII	527342	527384	7	42
VIII	527384	527508	7	139
VIII	527508	527589	3	81
VIII	527589	527768	4	179
VIII	527768	527923	5	155
VIII	527923	527984	7	61
VIII	527984	528081	8	97
VIII	528081	528417	7	472
VIII	528417	540080	8	11767
VIII	540080	540710	8	631
VIII	540710	540869	5	162
VIII	540869	541436	6	686
VIII	541436	541886	5	826
VIII	541886	542001	7	115
VIII	542001	542089	8	88
VIII	542089	542147	5	58
VIII	542147	542355	8	208
VIII	542355	542446	4	91
VIII	542446	542509	6	63
VIII	542509	542590	4	81
VIII	542590	542927	1	337
VIII	542927	542999	4	72
VIII	542999	543126	4	127
VIII	543126	550239	1	7113
VIII	550239	551222	8	1368
VIII	551222	552185	7	1175
VIII	552185	552248	4	63
VIII	552248	552311	3	63
VIII	552311	552778	6	467
VIII	552778	552863	5	85
VIII	552863	553033	5	170
VIII	553033	553096	7	63
VIII	553096	553225	7	129
VIII	553225	553259	7	34
VIII	553259	553342	7	84
VIII	553342	553405	5	63
VIII	553405	553454	6	49
VIII	553454	553549	7	98
VIII	553549	554424	8	891
VIII	554424	554718	7	294
VIII	554718	554865	5	147
VIII	554865	554928	5	63
VIII	554928	554980	4	52
VIII	554980	555328	5	350
VIII	555328	555482	2	154
VIII	555482	555545	3	63
VIII	555545	555605	1	60
VIII	555605	555658	3	55
VIII	555658	555708	5	50
VIII	555708	556060	7	352
VIII	556060	556102	8	42
VIII	556102	556334	1	232
VIII	556334	556376	2	42
VIII	556376	556441	2	65
VIII	556441	556535	1	94
VIII	556535	556554	5	40
VIII	556554	556599	5	45
VIII	556599	556661	5	62
VIII	556661	556826	2	165
VIII	556826	556877	2	51
VIII	556877	556914	4	37
VIII	556914	556990	4	105
VIII	556990	557050	5	60
VIII	557050	557127	5	77
VIII	557127	557187	4	60
VIII	557187	557284	3	97
VIII	557284	557370	5	86
VIII	557370	557579	1	209
VIII	557579	557643	7	64
VIII	557643	562387	1	4744
VIII	562387	562425	4	38
VIII	562425	562474	5	52
VIII	562474	562521	2	48
VIII	562521	562620	2	99
VIII	562620	562643	4	23
XVI	0	77	2	77
XVI	77	153	2	76
XVI	153	212	7	59
XVI	212	257	7	45
XVI	257	317	7	63
XVI	317	397	8	80
XVI	397	451	7	54
XVI	451	476	2	25
XVI	476	587	8	111
XVI	587	753	8	167
XVI	753	813	8	60
XVI	813	856	8	43
XVI	856	923	8	67
XVI	923	985	8	66
XVI	985	1337	8	352
XVI	1337	1401	5	64
XVI	1401	1470	4	69
XVI	1470	1482	7	12
XVI	1482	1930	6	448
XVI	1930	1977	8	47
XVI	1977	2073	8	135
XVI	2073	2141	1	68
XVI	2141	2257	2	116
XVI	2257	2740	1	483
XVI	2740	2803	5	63
XVI	2803	2850	6	47
XVI	2850	2873	6	23
XVI	2873	2929	7	56
XVI	2929	3007	8	78
XVI	3007	3936	1	929
XVI	3936	4381	2	446
XVI	4381	4494	1	113
XVI	4494	4570	5	76
XVI	4570	4728	6	158
XVI	4728	4938	5	277
XVI	4938	5066	7	140
XVI	5066	5146	6	80
XVI	5146	5193	7	47
XVI	5193	5262	6	69
XVI	5262	5304	6	66
XVI	5304	5332	8	28
XVI	5332	5367	7	35
XVI	5367	5416	7	50
XVI	5416	5478	7	62
XVI	5478	5535	8	57
XVI	5535	5570	5	35
XVI	5570	5882	7	411
XVI	5882	5913	8	31
XVI	5913	5988	6	94
XVI	5988	6064	8	76
XVI	6064	6117	4	53
XVI	6117	6137	2	20
XVI	6137	6214	8	77
XVI	6214	6277	5	63
XVI	6277	6326	6	49
XVI	6326	6384	4	58
XVI	6384	6491	5	107
XVI	6491	6525	6	54
XVI	6525	6526	6	96
XVI	6526	6665	5	146
XVI	6665	6697	5	32
XVI	6697	6734	7	37
XVI	6734	6808	7	74
XVI	6808	6842	2	34
XVI	6842	6992	2	151
XVI	6992	7055	2	63
XVI	7055	7076	4	21
XVI	7076	7154	3	78
XVI	7154	7216	3	62
XVI	7216	7257	5	41
XVI	7257	7306	2	49
XVI	7306	7345	4	39
XVI	7345	7402	7	57
XVI	7402	7424	7	22
XVI	7424	7611	5	205
XVI	7611	7744	2	133
XVI	7744	7779	3	35
XVI	7779	7800	6	21
XVI	7800	7895	1	95
XVI	7895	7926	7	31
XVI	7926	7950	4	24
XVI	7950	7977	2	27
XVI	7977	8056	2	79
XVI	8056	8112	2	56
XVI	8112	8134	6	22
XVI	8134	8197	5	63
XVI	8197	8289	6	92
XVI	8289	8352	5	63
XVI	8352	8402	6	50
XVI	8402	8745	7	351
XVI	8745	11924	8	3251
XVI	11924	12003	8	79
XVI	12003	12265	6	262
XVI	12265	13188	8	1005
XVI	13188	13253	8	114
XVI	13253	14793	8	1540
XVI	14793	14824	6	70
XVI	14824	14887	8	63
XVI	14887	15104	8	217
XVI	15104	15167	8	63
XVI	15167	15231	8	64
XVI	15231	15497	8	298
XVI	15497	15518	8	51
XVI	15518	15573	8	55
XVI	15573	15637	8	64
XVI	15637	15668	8	31
XVI	15668	15771	8	121
XVI	15771	15797	8	26
XVI	15797	15831	8	34
XVI	15831	16948	8	1244
XVI	16948	16996	2	48
XVI	16996	17059	5	63
XVI	17059	17898	6	840
XVI	17898	19405	8	1508
XVI	19405	22957	2	3553
XVI	22957	23394	4	437
XVI	23394	25085	7	1691
XVI	25085	25970	6	885
XVI	25970	36062	8	10093
XVI	36062	46143	8	10093
XVI	46143	56215	8	10092
XVI	56215	56226	6	61
XVI	56226	56430	7	204
XVI	56430	56536	5	106
XVI	56536	56572	3	36
XVI	56572	56585	2	207
XVI	56585	56788	6	203
XVI	56788	63068	1	6280
XVI	63068	63976	8	920
XVI	63976	74902	8	10931
XVI	74902	85830	8	10931
XVI	85830	96760	8	10932
XVI	96760	97518	8	758
XVI	97518	98172	7	654
XVI	98172	98253	3	81
XVI	98253	98299	6	46
XVI	98299	109688	8	11400
XVI	109688	121068	8	11401
XVI	121068	132458	8	11403
XVI	132458	132472	7	300
XVI	132472	135804	8	3332
XVI	135804	136380	5	576
XVI	136380	136489	6	109
XVI	136489	149012	8	12526
XVI	149012	161588	8	12576
XVI	161588	174093	8	12576
XVI	174093	174569	7	476
XVI	174569	174632	8	63
XVI	174632	193934	8	19379
XVI	193934	193998	7	64
XVI	193998	194018	3	50
XVI	194018	194082	8	64
XVI	194082	194142	8	60
XVI	194142	210243	8	16101
XVI	210243	210410	8	167
XVI	210410	220563	8	10154
XVI	220563	230715	8	10154
XVI	230715	240816	8	10101
XVI	240816	250918	8	10122
XVI	250918	261060	8	10154
XVI	261060	271214	8	10154
XVI	271214	281363	8	10154
XVI	281363	281420	6	57
XVI	281420	292073	8	10653
XVI	292073	302718	8	10653
XVI	302718	313361	8	10653
XVI	313361	324009	8	10653
XVI	324009	334658	8	10653
XVI	334658	345310	8	10653
XVI	345310	355963	8	10653
XVI	355963	366613	8	10653
XVI	366613	377266	8	10655
XVI	377266	377290	8	24
XVI	377290	377330	5	40
XVI	377330	377911	7	581
XVI	377911	381267	4	3379
XVI	381267	381388	6	121
XVI	381388	381848	4	460
XVI	381848	393310	5	11465
XVI	393310	404776	5	11466
XVI	404776	405555	4	779
XVI	405555	415857	8	10302
XVI	415857	426090	8	10302
XVI	426090	436488	8	10404
XVI	436488	443138	1	6650
XVI	443138	462152	8	19083
XVI	462152	462247	8	98
XVI	462247	463518	8	1281
XVI	463518	463606	8	88
XVI	463606	480290	8	16690
XVI	480290	481316	8	1045
XVI	481316	481367	7	51
XVI	481367	491928	8	10615
XVI	491928	502646	8	10721
XVI	502646	513995	8	11351
XVI	513995	525448	8	11593
XVI	525448	537048	8	11622
XVI	537048	548572	8	11525
XVI	548572	560227	8	11688
XVI	560227	560472	8	295
XVI	560472	560539	8	67
XVI	560539	560554	8	15
XVI	560554	560626	2	72
XVI	560626	560652	6	34
XVI	560652	560700	1	48
XVI	560700	560764	5	64
XVI	560764	569030	8	8267
XVI	569030	572114	4	3085
XVI	572114	572160	6	258
XVI	572160	572266	7	106
XVI	572266	572374	6	109
XVI	572374	581348	8	8989
XVI	581348	582080	8	995
XVI	582080	582119	5	39
XVI	582119	582161	6	44
XVI	582161	582224	6	63
XVI	582224	596423	8	14266
XVI	596423	603517	8	7095
XVI	603517	603589	8	72
XVI	603589	603667	8	113
XVI	603667	615258	8	11597
XVI	615258	615361	8	103
XVI	615361	615424	6	63
XVI	615424	626998	8	11652
XVI	626998	638694	8	11757
XVI	638694	650441	8	11759
XVI	650441	650464	8	23
XVI	650464	650489	8	25
XVI	650489	650537	6	52
XVI	650537	655079	8	4548
XVI	655079	666571	5	11492
XVI	666571	678062	5	11492
XVI	678062	689544	5	11494
XVI	689544	689584	7	98
XVI	689584	700602	8	11024
XVI	700602	700703	7	101
XVI	700703	700842	6	139
XVI	700842	701971	7	1129
XVI	701971	716565	8	14644
XVI	716565	731359	8	14795
XVI	731359	731571	8	212
XVI	731571	736291	7	4720
XVI	736291	736355	7	64
XVI	736355	736419	7	64
XVI	736419	744168	7	7796
XVI	744168	744265	7	150
XVI	744265	744346	8	286
XVI	744346	756800	7	12456
XVI	756800	769256	7	12459
XVI	769256	769300	3	45
XVI	769300	769323	8	23
XVI	769323	769427	8	104
XVI	769427	769561	1	134
XVI	769561	769577	2	16
XVI	769577	769610	6	33
XVI	769610	769682	8	72
XVI	769682	769873	8	191
XVI	769873	769930	3	57
XVI	769930	769993	5	63
XVI	769993	775778	8	5825
XVI	775778	775826	4	48
XVI	775826	775949	8	123
XVI	775949	776006	6	57
XVI	776006	776046	8	40
XVI	776046	776103	7	57
XVI	776103	776166	5	63
XVI	776166	777104	8	939
XVI	777104	777681	5	647
XVI	777681	777756	6	75
XVI	777756	777926	5	170
XVI	777926	778092	6	170
XVI	778092	778221	5	129
XVI	778221	780429	6	2228
XVI	780429	780815	5	386
XVI	780815	780837	6	22
XVI	780837	780899	6	62
XVI	780899	781019	5	120
XVI	781019	781221	6	208
XVI	781221	781537	5	316
XVI	781537	793061	8	11586
XVI	793061	804645	8	11586
XVI	804645	810228	1	5583
XVI	810228	810290	6	62
XVI	810290	810504	1	214
XVI	810504	810568	5	66
XVI	810568	819515	8	8989
XVI	819515	819548	7	33
XVI	819548	838020	8	18501
XVI	838020	844240	8	6220
XVI	844240	844355	8	115
XVI	844355	844412	8	57
XVI	844412	850339	1	5927
XVI	850339	850613	8	274
XVI	850613	850637	8	24
XVI	850637	856803	1	6166
XVI	856803	856877	2	74
XVI	856877	856915	4	38
XVI	856915	860178	8	3334
XVI	860178	860351	8	173
XVI	860351	860389	5	38
XVI	860389	872631	8	12243
XVI	872631	884846	8	12243
XVI	884846	897079	8	12244
XVI	897079	907245	3	10171
XVI	907245	917390	3	10171
XVI	917390	927531	3	10172
XVI	927531	927895	8	364
XVI	927895	929674	5	1780
XVI	929674	929885	8	211
XVI	929885	930473	5	588
XVI	930473	932704	8	2231
XVI	932704	937555	8	4851
XVI	937555	937626	7	74
XVI	937626	937676	8	51
XVI	937676	938546	8	870
XVI	938546	938609	3	63
XVI	938609	938930	5	321
XVI	938930	939830	8	902
XVI	939830	942421	6	2591
XVI	942421	942505	7	84
XVI	942505	942572	7	67
XVI	942572	942613	7	41
XVI	942613	942637	6	24
XVI	942637	942704	5	69
XVI	942704	942804	5	100
XVI	942804	942827	5	23
XVI	942827	942891	4	64
XVI	942891	942935	6	44
XVI	942935	942972	7	37
XVI	942972	943057	6	85
XVI	943057	943655	6	646
XVI	943655	943708	2	53
XVI	943708	943777	5	69
XVI	943777	943828	3	51
XVI	943828	943855	5	27
XVI	943855	943893	6	38
XVI	943893	944044	6	151
XVI	944044	944121	1	77
XVI	944121	944171	2	50
XVI	944171	944408	8	237
XVI	944408	946027	1	1619
XVI	946027	946139	6	112
XVI	946139	946203	7	64
XVI	946203	946317	6	149
XVI	946317	946372	7	55
XVI	946372	946439	6	67
XVI	946439	946477	7	38
XVI	946477	946573	6	96
XVI	946573	946605	8	32
XVI	946605	946645	7	40
XVI	946645	946666	4	21
XVI	946666	946753	2	87
XVI	946753	946787	2	34
XVI	946787	946878	2	91
XVI	946878	946915	2	37
XVI	946915	946995	2	80
XVI	946995	947033	5	38
XVI	947033	947096	6	63
XVI	947096	947125	3	29
XVI	947125	947199	7	74
XVI	947199	947223	7	24
XVI	947223	947668	5	445
XVI	947668	947732	7	64
XVI	947732	947903	8	171
XVI	947903	947925	5	22
XVI	947925	947967	2	42
XVI	947967	948049	5	82
XVI	948049	948066	2	17
X	0	6786	1	6786
X	6786	6818	3	32
X	6818	6931	5	123
X	6931	7224	1	293
X	7224	7276	3	52
X	7276	7496	1	220
X	7496	7595	3	99
X	7595	7967	1	372
X	7967	8038	3	71
X	8038	8183	1	145
X	8183	8211	7	28
X	8211	8246	6	35
X	8246	8312	7	66
X	8312	9423	1	1111
X	9423	9552	2	129
X	9552	9690	1	138
X	9690	9766	5	76
X	9766	9938	1	172
X	9938	10160	2	223
X	10160	10302	1	142
X	10302	10365	5	63
X	10365	10483	7	118
X	10483	10609	6	226
X	10609	10809	7	290
X	10809	24212	1	13403
X	24212	24715	3	515
X	24715	29843	1	5128
X	29843	30155	2	312
X	30155	31014	1	859
X	31014	31581	2	805
X	31581	31638	4	63
X	31638	31660	2	47
X	31660	31706	1	46
X	31706	31773	2	83
X	31773	31799	4	62
X	31799	32104	2	305
X	32104	45579	8	13509
X	45579	59074	8	13499
X	59074	59113	3	40
X	59113	70365	8	11487
X	70365	81588	8	11238
X	81588	93073	8	11488
X	93073	104502	8	11475
X	104502	115872	8	11377
X	115872	115953	7	113
X	115953	122441	8	6522
X	122441	135120	8	12684
X	135120	147796	8	12684
X	147796	153522	8	5747
X	153522	159508	8	6058
X	159508	159571	7	63
X	159571	164229	8	4660
X	164229	175275	7	11048
X	175275	186309	7	11048
X	186309	197351	7	11049
X	197351	197510	8	159
X	197510	197553	7	43
X	197553	197619	8	67
X	197619	203782	1	6163
X	203782	203877	3	96
X	203877	203908	3	31
X	203908	203939	2	31
X	203939	204086	1	147
X	204086	204129	4	57
X	204129	204243	3	116
X	204243	204300	7	57
X	204300	204402	8	123
X	204402	204472	8	75
X	204472	204589	7	117
X	204589	204708	5	119
X	204708	204755	5	47
X	204755	215905	8	11152
X	215905	227047	8	11152
X	227047	238197	8	11153
X	238197	238247	6	65
X	238247	238262	6	15
X	238262	238926	8	664
X	238926	239033	8	107
X	239033	252460	8	13431
X	252460	265890	8	13432
X	265890	276313	8	10423
X	276313	286721	8	10423
X	286721	296940	8	10381
X	296940	307344	8	10423
X	307344	317752	8	10423
X	317752	328123	8	10372
X	328123	338550	8	10429
X	338550	338578	4	28
X	338578	338613	6	35
X	338613	338768	7	155
X	338768	338818	3	50
X	338818	338846	2	28
X	338846	338876	2	30
X	338876	338929	2	53
X	338929	338986	7	57
X	338986	354613	8	15635
X	354613	354661	2	48
X	354661	354837	3	176
X	354837	354863	5	26
X	354863	355002	6	151
X	355002	355042	7	40
X	355042	355215	8	174
X	355215	355369	8	154
X	355369	355473	7	104
X	355473	355601	8	128
X	355601	366852	8	11255
X	366852	366912	8	142
X	366912	366932	7	74
X	366932	367040	7	273
X	367040	367140	8	100
X	367140	367268	1	128
X	367268	367318	8	50
X	367318	374343	8	7025
X	374343	374406	7	63
X	374406	374461	8	55
X	374461	374556	2	95
X	374556	374666	8	110
X	374666	374729	7	67
X	374729	374824	8	95
X	374824	374928	7	113
X	374928	378226	8	3299
X	378226	378259	3	34
X	378259	378284	5	25
X	378284	378344	7	60
X	378344	378381	8	37
X	378381	378443	6	63
X	378443	378506	7	63
X	378506	396738	8	18258
X	396738	396779	7	41
X	396779	400148	8	3439
X	400148	400193	7	45
X	400193	400252	6	59
X	400252	400331	7	88
X	400331	400421	3	120
X	400421	400447	8	26
X	400447	400512	8	65
X	400512	400549	8	37
X	400549	414987	8	14489
X	414987	415099	8	114
X	415099	416275	8	1248
X	416275	416333	5	58
X	416333	416446	3	113
X	416446	416557	4	111
X	416557	422998	8	6446
X	422998	423080	8	82
X	423080	424453	8	1373
X	424453	424485	7	32
X	424485	436612	8	12164
X	436612	448813	8	12203
X	448813	448869	7	117
X	448869	453745	8	4899
X	453745	453904	5	159
X	453904	453968	8	64
X	453968	453994	8	26
X	453994	454006	6	12
X	454006	454144	8	138
X	454144	454183	7	39
X	454183	454261	5	78
X	454261	454303	7	42
X	454303	472457	8	18242
X	472457	483972	1	11515
X	483972	495997	8	12030
X	495997	507904	8	11959
X	507904	519777	8	11894
X	519777	531705	8	11968
X	531705	531753	4	48
X	531753	531844	8	91
X	531844	531966	8	122
X	531966	537815	8	5854
X	537815	537878	7	63
X	537878	537898	7	25
X	537898	538102	2	204
X	538102	538292	2	190
X	538292	538375	3	85
X	538375	538434	5	60
X	538434	541059	8	2725
X	541059	541089	6	96
X	541089	541397	1	308
X	541397	541427	5	30
X	541427	541453	6	26
X	541453	541531	5	78
X	541531	541581	7	50
X	541581	542982	8	1403
X	542982	551992	8	9043
X	551992	566097	7	14106
X	566097	580202	7	14106
X	580202	591973	8	11781
X	591973	603903	8	11931
X	603903	615736	8	11857
X	615736	627553	8	11881
X	627553	639205	8	11935
X	639205	658132	8	19102
X	658132	661941	8	3846
X	661941	671979	8	10063
X	671979	682032	8	10065
X	682032	692096	8	10065
X	692096	702030	8	10066
X	702030	714880	8	12862
X	714880	727368	8	12956
X	727368	728460	7	1092
X	728460	728551	8	91
X	728551	728948	1	397
X	728948	729005	5	57
X	729005	729075	5	70
X	729075	729111	4	36
X	729111	729146	6	35
X	729146	729210	8	64
X	729210	729302	3	92
X	729302	729506	4	204
X	729506	729672	7	168
X	729672	729807	4	136
X	729807	730050	5	254
X	730050	730528	8	581
X	730528	735903	1	5375
X	735903	736807	4	919
X	736807	742378	1	5571
X	742378	742499	6	121
X	742499	742562	4	63
X	742562	742737	1	175
X	742737	742792	4	55
X	742792	743091	1	299
X	743091	743115	3	24
X	743115	743291	2	176
X	743291	744731	1	1440
X	744731	744766	3	35
X	744766	744852	2	86
X	744852	744913	4	63
X	744913	744960	2	47
X	744960	745031	3	71
X	745031	745081	2	50
X	745081	745184	1	103
X	745184	745247	4	67
X	745247	745272	5	25
X	745272	745311	4	39
X	745311	745365	2	54
X	745365	745378	5	13
X	745378	745447	2	69
X	745447	745469	3	22
X	745469	745492	4	23
X	745492	745533	1	41
X	745533	745551	5	18
X	745551	745635	2	84
X	745635	745662	5	37
X	745662	745719	8	63
X	745719	745750	4	31
X	745750	745751	7	1
VII	0	333	1	333
VII	333	408	2	75
VII	408	461	3	53
VII	461	542	1	81
VII	542	551	2	28
VII	551	631	6	80
VII	631	713	7	97
VII	713	727	6	14
VII	727	1085	6	463
VII	1085	1120	7	46
VII	1120	2991	6	1871
VII	2991	4010	7	1055
VII	4010	6116	6	2106
VII	6116	6333	7	224
VII	6333	7192	1	859
VII	7192	7255	8	63
VII	7255	8009	1	754
VII	8009	10898	8	2904
VII	10898	11579	5	683
VII	11579	22562	8	11011
VII	22562	33504	8	10951
VII	33504	44514	8	11012
VII	44514	56601	8	12115
VII	56601	69387	8	12817
VII	69387	73911	8	4543
VII	73911	74167	8	261
VII	74167	86287	8	12205
VII	86287	98489	8	12205
VII	98489	110687	8	12206
VII	110687	110782	6	95
VII	110782	110833	7	69
VII	110833	111698	1	866
VII	111698	115363	8	3692
VII	115363	115403	8	41
VII	115403	115525	7	123
VII	115525	115593	8	133
VII	115593	125686	8	10098
VII	125686	135785	8	10099
VII	135785	145392	8	9656
VII	145392	155486	8	10099
VII	155486	165271	8	9785
VII	165271	175241	8	9976
VII	175241	185338	8	10099
VII	185338	195234	8	9896
VII	195234	205337	8	10104
VII	205337	205395	8	58
VII	205395	217765	8	12438
VII	217765	229953	8	12288
VII	229953	242232	8	12280
VII	242232	254655	8	12488
VII	254655	255231	5	576
VII	255231	267038	8	11808
VII	267038	278782	8	11764
VII	278782	287405	8	8691
VII	287405	298029	8	10624
VII	298029	308653	8	10624
VII	308653	319274	8	10624
VII	319274	319425	5	151
VII	319425	319760	1	335
VII	319760	319819	5	59
VII	319819	319940	7	121
VII	319940	324953	8	5101
VII	324953	326270	7	1318
VII	326270	327164	4	894
VII	327164	327276	7	112
VII	327276	327340	5	64
VII	327340	327403	5	63
VII	327403	328078	8	675
VII	328078	328153	8	75
VII	328153	328226	6	73
VII	328226	328493	8	278
VII	328493	328556	2	63
VII	328556	328596	8	40
VII	328596	328633	6	37
VII	328633	328725	8	93
VII	328725	328788	6	63
VII	328788	340434	8	11684
VII	340434	352425	8	11999
VII	352425	364404	8	11999
VII	364404	364467	8	63
VII	364467	364880	4	413
VII	364880	375346	8	10467
VII	375346	385699	8	10418
VII	385699	385762	4	63
VII	385762	385836	8	74
VII	385836	385899	5	63
VII	385899	386698	8	799
VII	386698	386762	5	64
VII	386762	386825	5	63
VII	386825	386878	6	53
VII	386878	386942	5	64
VII	386942	387005	7	63
VII	387005	401516	8	14526
VII	401516	401547	3	31
VII	401547	401605	2	58
VII	401605	401679	7	74
VII	401679	401693	7	14
VII	401693	402456	1	763
VII	402456	403135	8	681
VII	403135	403450	7	368
VII	403450	403650	8	220
VII	403650	403713	7	63
VII	403713	405304	1	1591
VII	405304	405516	8	268
VII	405516	420910	8	15436
VII	420910	421036	8	126
VII	421036	422986	8	1952
VII	422986	423025	8	39
VII	423025	423049	8	24
VII	423049	423075	8	26
VII	423075	423151	8	76
VII	423151	423260	8	109
VII	423260	439384	8	16139
VII	439384	440557	8	1180
VII	440557	440714	8	160
VII	440714	440776	5	112
VII	440776	452394	8	12012
VII	452394	464391	8	12003
VII	464391	470799	8	6570
VII	470799	479750	8	8960
VII	479750	490977	8	11345
VII	490977	502229	8	11342
VII	502229	513416	8	11357
VII	513416	523811	8	10668
VII	523811	535219	8	11643
VII	535219	541562	1	6343
VII	541562	541607	8	45
VII	541607	541624	5	17
VII	541624	541681	5	57
VII	541681	541755	8	74
VII	541755	541841	6	86
VII	541841	541867	7	26
VII	541867	541947	8	80
VII	541947	561587	8	19663
VII	561587	561644	8	57
VII	561644	561716	7	72
VII	561716	561756	3	40
VII	561756	561783	8	27
VII	561783	561845	8	62
VII	561845	562148	3	306
VII	562148	567760	1	5612
VII	567760	568735	8	978
VII	568735	574700	1	5965
VII	574700	593359	8	18664
VII	593359	610126	8	16773
VII	610126	617913	8	7795
VII	617913	618046	8	133
VII	618046	627076	8	9030
VII	627076	627139	6	63
VII	627139	627205	6	66
VII	627205	627234	6	29
VII	627234	627298	6	64
VII	627298	627361	5	63
VII	627361	627383	7	22
VII	627383	627446	6	63
VII	627446	638162	8	10718
VII	638162	648581	8	10555
VII	648581	658547	8	9990
VII	658547	668500	8	10277
VII	668500	679023	8	10526
VII	679023	689741	8	10718
VII	689741	700286	8	10545
VII	700286	700349	8	63
VII	700349	700372	8	23
VII	700372	700484	8	112
VII	700484	700542	8	58
VII	700542	701162	8	621
VII	701162	701192	6	195
VII	701192	701232	7	74
VII	701232	701297	3	65
VII	701297	707189	8	5895
VII	707189	712545	1	5356
VII	712545	724069	8	11532
VII	724069	735523	8	11534
VII	735523	735552	8	29
VII	735552	735980	3	428
VII	735980	736041	2	61
VII	736041	736239	1	198
VII	736239	736322	3	83
VII	736322	736350	5	28
VII	736350	736516	8	167
VII	736516	736568	8	52
VII	736568	736618	8	50
VII	736618	739041	8	2424
VII	739041	739100	7	86
VII	739100	739121	7	22
VII	739121	739175	8	59
VII	739175	751562	8	12406
VII	751562	763876	8	12379
VII	763876	778927	8	15138
VII	778927	778982	8	55
VII	778982	779032	6	50
VII	779032	779080	1	48
VII	779080	779213	8	133
VII	779213	779268	8	55
VII	779268	790053	8	10787
VII	790053	800689	8	10787
VII	800689	811440	8	10789
VII	811440	823235	1	11795
VII	823235	823323	2	88
VII	823323	823463	8	140
VII	823463	828745	8	5285
VII	828745	828808	8	63
VII	828808	845465	8	16658
VII	845465	845535	6	70
VII	845535	845658	7	123
VII	845658	857385	8	11807
VII	857385	857449	6	64
VII	857449	875995	8	18558
VII	875995	876093	6	99
VII	876093	876186	5	133
VII	876186	876436	8	250
VII	876436	876480	7	44
VII	876480	876619	8	140
VII	876619	878909	8	2378
VII	878909	879136	6	227
VII	879136	879317	8	473
VII	879317	882633	8	3323
VII	882633	882743	8	111
VII	882743	882820	8	77
VII	882820	883033	8	213
VII	883033	883175	7	142
VII	883175	883467	1	292
VII	883467	890895	8	7443
VII	890895	890959	8	64
VII	890959	891040	7	81
VII	891040	891152	5	112
VII	891152	910090	8	18942
VII	910090	910121	8	31
VII	910121	920645	8	10526
VII	920645	931170	8	10527
VII	931170	931252	8	85
VII	931252	931541	1	289
VII	931541	931682	8	141
VII	931682	931938	1	256
VII	931938	932019	2	81
VII	932019	933301	8	1282
VII	933301	933365	8	64
VII	933365	933429	8	64
VII	933429	949016	8	15590
VII	949016	949148	8	388
VII	949148	949199	8	51
VII	949199	949282	8	97
VII	949282	964759	8	15536
VII	964759	975253	8	10496
VII	975253	985733	8	10497
VII	985733	987109	8	1423
VII	987109	993905	8	6853
VII	993905	1000925	8	7030
VII	1000925	1012208	8	11299
VII	1012208	1023498	8	11299
VII	1023498	1034790	8	11299
VII	1034790	1046085	8	11299
VII	1046085	1057244	8	11266
VII	1057244	1068371	8	11143
VII	1068371	1068408	3	37
VII	1068408	1068458	7	50
VII	1068458	1068628	3	170
VII	1068628	1068700	7	72
VII	1068700	1068806	8	106
VII	1068806	1068847	8	41
VII	1068847	1070530	8	1825
VII	1070530	1076976	1	6446
VII	1076976	1077065	8	89
VII	1077065	1077128	6	63
VII	1077128	1077215	6	88
VII	1077215	1077278	7	63
VII	1077278	1079223	8	1945
VII	1079223	1079350	8	127
VII	1079350	1079736	8	386
VII	1079736	1079951	8	215
VII	1079951	1080020	8	69
VII	1080020	1080138	7	118
VII	1080138	1080267	8	130
VII	1080267	1080336	3	69
VII	1080336	1080562	1	226
VII	1080562	1080628	7	66
VII	1080628	1080666	5	38
VII	1080666	1080716	2	50
VII	1080716	1080778	6	63
VII	1080778	1080838	8	60
VII	1080838	1081682	8	956
VII	1081682	1082145	8	463
VII	1082145	1082194	7	63
VII	1082194	1082272	6	78
VII	1082272	1082384	5	112
VII	1082384	1082448	5	64
VII	1082448	1082497	3	49
VII	1082497	1082547	3	50
VII	1082547	1082585	4	38
VII	1082585	1082778	3	193
VII	1082778	1082808	2	30
VII	1082808	1084168	1	1360
VII	1084168	1084185	7	23
VII	1084185	1084277	1	92
VII	1084277	1084342	3	65
VII	1084342	1090534	1	6192
VII	1090534	1090598	7	67
VII	1090598	1090653	8	55
VII	1090653	1090793	1	140
VII	1090793	1090878	7	85
VII	1090878	1090930	1	52
VII	1090930	1090940	5	10
III	0	219	1	219
III	219	289	6	96
III	289	342	5	79
III	342	364	6	24
III	364	593	6	240
III	593	661	7	69
III	661	1049	8	402
III	1049	1184	8	139
III	1184	4074	7	2890
III	4074	4135	8	61
III	4135	4348	7	213
III	4348	4411	6	63
III	4411	4468	3	57
III	4468	5281	4	826
III	5281	6501	3	1249
III	6501	7215	4	714
III	7215	8729	2	1514
III	8729	8773	3	44
III	8773	9133	2	360
III	9133	9199	2	66
III	9199	9265	2	66
III	9265	9328	5	63
III	9328	11116	6	1788
III	11116	11189	6	85
III	11189	11225	6	43
III	11225	11506	8	282
III	11506	11571	8	65
III	11571	11698	7	127
III	11698	11782	8	84
III	11782	12301	7	519
III	12301	13796	1	1495
III	13796	13859	8	63
III	13859	13921	1	62
III	13921	13937	8	16
III	13937	14000	7	63
III	14000	27658	8	13674
III	27658	29477	8	1819
III	29477	29578	8	113
III	29578	41592	8	12014
III	41592	41649	7	113
III	41649	57084	8	15473
III	57084	57238	8	154
III	57238	69839	3	12620
III	69839	82457	3	12620
III	82457	82698	4	241
III	82698	82719	7	40
III	82719	82759	8	45
III	82759	82773	6	14
III	82773	82899	3	149
III	82899	82925	5	27
III	82925	82961	5	36
III	82961	83029	1	68
III	83029	84655	8	1628
III	84655	84666	7	97
III	84666	84815	8	149
III	84815	90437	1	5622
III	90437	90564	8	127
III	90564	90605	5	41
III	90605	90637	4	49
III	90637	90709	3	72
III	90709	90769	7	61
III	90769	90776	1	73
III	90776	90838	4	63
III	90838	90920	5	82
III	90920	99229	8	8326
III	99229	113444	8	14248
III	113444	127528	8	14128
III	127528	127575	7	111
III	127575	127729	8	155
III	127729	142710	8	14983
III	142710	142762	5	52
III	142762	142779	5	71
III	142779	142820	7	41
III	142820	142898	6	79
III	142898	143286	8	388
III	143286	143343	6	57
III	143343	143406	6	63
III	143406	149406	8	6001
III	149406	149478	8	72
III	149478	149547	7	69
III	149547	149610	4	63
III	149610	149828	7	218
III	149828	149928	6	100
III	149928	151536	8	1610
III	151536	151604	3	68
III	151604	151727	4	123
III	151727	168383	8	16663
III	168383	168400	7	41
III	168400	168427	8	27
III	168427	169006	1	579
III	169006	169111	4	105
III	169111	169201	8	90
III	169201	169544	1	343
III	169544	184010	8	14467
III	184010	198670	8	14677
III	198670	198874	3	204
III	198874	198944	3	70
III	198944	199007	3	63
III	199007	199400	2	393
III	199400	199497	3	97
III	199497	200040	6	543
III	200040	200313	8	273
III	200313	200434	8	121
III	200434	200913	8	479
III	200913	200977	4	64
III	200977	201019	7	42
III	201019	201081	8	62
III	201081	201097	7	16
III	201097	214434	8	13422
III	214434	227842	8	13423
III	227842	227904	8	62
III	227904	238137	8	10257
III	238137	248386	8	10251
III	248386	258642	8	10257
III	258642	268593	8	10177
III	268593	268656	6	63
III	268656	268720	6	64
III	268720	268753	1	33
III	268753	268797	6	44
III	268797	268849	3	52
III	268849	268984	5	135
III	268984	269008	5	24
III	269008	269047	6	39
III	269047	269080	8	33
III	269080	269113	4	33
III	269113	269176	6	63
III	269176	269204	7	28
III	269204	269267	6	63
III	269267	281117	8	11988
III	281117	293031	8	12022
III	293031	293079	7	48
III	293079	293128	5	49
III	293128	293193	8	65
III	293193	293673	7	480
III	293673	293965	8	292
III	293965	294378	8	413
III	294378	294441	6	63
III	294441	294484	8	43
III	294484	294547	6	63
III	294547	294703	8	156
III	294703	295046	6	343
III	295046	295544	5	603
III	295544	299030	8	3490
III	299030	299094	5	64
III	299094	299158	4	64
III	299158	299221	5	63
III	299221	303152	8	3932
III	303152	303284	6	132
III	303284	303324	4	40
III	303324	303408	1	84
III	303408	303485	2	77
III	303485	303613	2	128
III	303613	303903	3	290
III	303903	304030	4	127
III	304030	304148	1	118
III	304148	304211	4	63
III	304211	304298	4	87
III	304298	304339	3	41
III	304339	304361	5	22
III	304361	304640	3	279
III	304640	305708	4	1068
III	305708	305771	6	63
III	305771	305798	4	27
III	305798	305870	6	72
III	305870	305892	6	22
III	305892	305973	6	81
III	305973	306036	7	63
III	306036	307201	8	1263
III	307201	307255	6	54
III	307255	307417	1	162
III	307417	307484	6	67
III	307484	307525	5	41
III	307525	307560	6	35
III	307560	307591	6	31
III	307591	307638	5	47
III	307638	307709	2	71
III	307709	307759	3	50
III	307759	307826	4	67
III	307826	307919	7	93
III	307919	308026	8	107
III	308026	308194	7	168
III	308194	308310	8	118
III	308310	308357	7	60
III	308357	308420	8	63
III	308420	308750	7	335
III	308750	315830	5	7150
III	315830	315992	7	164
III	315992	316064	8	166
III	316064	316129	7	67
III	316129	316281	6	156
III	316281	316352	2	71
III	316352	316391	5	49
III	316391	316501	3	110
III	316501	316575	3	82
III	316575	316620	3	46
XIII	0	6	3	9
XIII	6	55	4	49
XIII	55	97	4	47
XIII	97	121	2	24
XIII	121	5117	1	4996
XIII	5117	5222	3	105
XIII	5222	5268	4	46
XIII	5268	5369	5	101
XIII	5369	5395	5	26
XIII	5395	5499	4	104
XIII	5499	5526	5	27
XIII	5526	5562	5	41
XIII	5562	5600	2	43
XIII	5600	5702	2	102
XIII	5702	5743	8	41
XIII	5743	5863	3	120
XIII	5863	5906	5	43
XIII	5906	6097	6	191
XIII	6097	6108	7	80
XIII	6108	6157	7	83
XIII	6157	6243	7	86
XIII	6243	6276	7	33
XIII	6276	6305	8	79
XIII	6305	6331	8	26
XIII	6331	6394	8	64
XIII	6394	6437	8	43
XIII	6437	6480	7	46
XIII	6480	6575	6	95
XIII	6575	6609	7	34
XIII	6609	7307	6	706
XIII	7307	7518	8	211
XIII	7518	8121	8	837
XIII	8121	8150	8	29
XIII	8150	8321	8	171
XIII	8321	21920	8	13606
XIII	21920	21959	6	39
XIII	21959	22020	8	61
XIII	22020	35729	8	13741
XIII	35729	45881	8	10320
XIII	45881	56139	8	10298
XIII	56139	66458	8	10320
XIII	66458	76777	8	10320
XIII	76777	87058	8	10296
XIII	87058	90412	8	3354
XIII	90412	90476	6	64
XIII	90476	90539	6	63
XIII	90539	90597	8	58
XIII	90597	90660	6	63
XIII	90660	95628	8	4969
XIII	95628	95727	8	99
XIII	95727	104806	8	9101
XIII	104806	117502	2	12708
XIII	117502	130193	2	12709
XIII	130193	131494	8	1301
XIII	131494	131551	8	57
XIII	131551	131742	8	191
XIII	131742	131836	8	94
XIII	131836	131898	3	62
XIII	131898	131983	4	86
XIII	131983	132046	8	63
XIII	132046	142442	8	10464
XIII	142442	152887	8	10464
XIII	152887	163350	8	10464
XIII	163350	173495	8	10495
XIII	173495	183959	8	10467
XIII	183959	184164	8	205
XIII	184164	184305	4	144
XIII	184305	184368	8	87
XIII	184368	184445	6	80
XIII	184445	190023	1	5578
XIII	190023	190083	7	60
XIII	190083	190186	8	103
XIII	190186	190243	8	57
XIII	190243	196182	8	6021
XIII	196182	196331	8	211
XIII	196331	196375	1	44
XIII	196375	196510	4	135
XIII	196510	202172	1	5662
XIII	202172	213728	8	11557
XIII	213728	225285	8	11557
XIII	225285	236613	8	11329
XIII	236613	248163	8	11557
XIII	248163	259409	8	11297
XIII	259409	259443	2	55
XIII	259443	259502	3	62
XIII	259502	269951	8	10477
XIII	269951	280416	8	10477
XIII	280416	290791	8	10411
XIII	290791	290820	3	29
XIII	290820	303053	8	12238
XIII	303053	315283	8	12238
XIII	315283	327315	8	12138
XIII	327315	339551	8	12238
XIII	339551	339739	8	190
XIII	339739	344097	8	4365
XIII	344097	357005	8	12960
XIII	357005	362586	1	5581
XIII	362586	362659	5	73
XIII	362659	362698	1	39
XIII	362698	362903	8	205
XIII	362903	362919	5	16
XIII	362919	362946	7	47
XIII	362946	363059	5	114
XIII	363059	363083	7	24
XIII	363083	363204	5	121
XIII	363204	372500	8	9297
XIII	372500	372690	8	190
XIII	372690	378621	1	5931
XIII	378621	379553	8	933
XIII	379553	379651	8	98
XIII	379651	389772	8	10130
XIII	389772	399944	8	10174
XIII	399944	409833	8	9959
XIII	409833	420005	8	10174
XIII	420005	429918	8	10174
XIII	429918	439957	8	10144
XIII	439957	450130	8	10174
XIII	450130	460301	8	10174
XIII	460301	470376	8	10124
XIII	470376	480554	8	10179
XIII	480554	480617	7	63
XIII	480617	480684	8	67
XIII	480684	480741	8	57
XIII	480741	480821	7	80
XIII	480821	480880	5	59
XIII	480880	492273	8	11429
XIII	492273	503764	8	11499
XIII	503764	504140	1	378
XIII	504140	504367	8	227
XIII	504367	504429	6	62
XIII	504429	504524	6	95
XIII	504524	504614	7	90
XIII	504614	504684	6	71
XIII	504684	504883	3	199
XIII	504883	504954	5	71
XIII	504954	516180	8	11373
XIII	516180	527553	8	11373
XIII	527553	538921	8	11373
XIII	538921	550098	8	11255
XIII	550098	561466	8	11373
XIII	561466	572825	8	11375
XIII	572825	572943	8	118
XIII	572943	586686	8	13747
XIII	586686	586834	8	148
XIII	586834	588575	8	1745
XIII	588575	599616	8	11259
XIII	599616	599900	2	284
XIII	599900	600044	8	144
XIII	600044	600251	5	207
XIII	600251	600315	6	65
XIII	600315	600405	7	90
XIII	600405	600627	8	222
XIII	600627	600704	2	77
XIII	600704	600822	3	118
XIII	600822	600885	5	63
XIII	600885	601215	8	330
XIII	601215	601278	2	63
XIII	601278	601300	5	22
XIII	601300	601363	4	63
XIII	601363	601826	8	463
XIII	601826	602049	7	223
XIII	602049	602297	6	248
XIII	602297	602650	7	457
XIII	602650	602774	5	124
XIII	602774	602837	6	63
XIII	602837	602965	8	128
XIII	602965	603032	7	67
XIII	603032	609069	8	6049
XIII	609069	609135	8	69
XIII	609135	609174	7	42
XIII	609174	609252	6	78
XIII	609252	609393	5	332
XIII	609393	609483	7	90
XIII	609483	609518	6	35
XIII	609518	609599	8	81
XIII	609599	609623	6	24
XIII	609623	609687	6	64
XIII	609687	609723	7	105
XIII	609723	609763	7	40
XIII	609763	621323	8	11603
XIII	621323	632663	8	11430
XIII	632663	632726	5	63
XIII	632726	633449	8	738
XIII	633449	634207	5	758
XIII	634207	645226	8	11019
XIII	645226	645342	8	117
XIII	645342	645414	8	72
XIII	645414	645477	2	63
XIII	645477	645500	3	23
XIII	645500	646820	8	1320
XIII	646820	646857	7	37
XIII	646857	651881	8	5073
XIII	651881	651933	8	52
XIII	651933	663391	8	11473
XIII	663391	674865	8	11474
XIII	674865	688060	8	13196
XIII	688060	701296	8	13246
XIII	701296	712404	8	11108
XIII	712404	723512	8	11108
XIII	723512	734618	8	11108
XIII	734618	745726	8	11108
XIII	745726	756834	8	11109
XIII	756834	756915	8	81
XIII	756915	757044	8	129
XIII	757044	768380	8	11399
XIII	768380	768460	6	80
XIII	768460	768540	4	86
XIII	768540	768624	6	86
XIII	768624	768667	7	43
XIII	768667	768737	6	72
XIII	768737	768771	5	61
XIII	768771	768814	5	47
XIII	768814	768834	6	29
XIII	768834	768879	6	81
XIII	768879	782092	8	13228
XIII	782092	795308	8	13228
XIII	795308	808534	8	13230
XIII	808534	808616	7	82
XIII	808616	808843	1	227
XIII	808843	808906	6	63
XIII	808906	823256	8	14458
XIII	823256	837987	8	14732
XIII	837987	838019	7	56
XIII	838019	849407	8	11390
XIII	849407	860739	8	11353
XIII	860739	872111	8	11390
XIII	872111	883433	8	11348
XIII	883433	894819	8	11388
XIII	894819	906203	8	11390
XIII	906203	917493	8	11302
XIII	917493	917557	5	64
XIII	917557	917702	4	145
XIII	917702	917771	5	69
XIII	917771	917821	5	50
XIII	917821	917896	4	75
XIII	917896	922258	1	4362
XIII	922258	922372	2	114
XIII	922372	923777	1	1405
XIII	923777	923884	2	107
XIII	923884	923947	2	63
XIII	923947	924049	1	102
XIII	924049	924082	4	33
XIII	924082	924179	2	97
XIII	924179	924203	3	25
XIII	924203	924267	2	64
XIII	924267	924336	3	74
XIII	924336	924384	2	49
XIII	924384	924431	1	47
II	0	5971	1	5971
II	5971	5996	4	25
II	5996	6807	1	811
II	6807	6862	3	55
II	6862	6897	2	35
II	6897	6960	5	63
II	6960	7042	5	82
II	7042	7069	2	27
II	7069	8222	1	1153
II	8222	8273	4	52
II	8273	8421	8	156
II	8421	8832	6	454
II	8832	8847	7	61
II	8847	9362	1	515
II	9362	9424	7	62
II	9424	9614	6	190
II	9614	9669	8	55
II	9669	9732	7	63
II	9732	29638	8	19906
II	29638	35602	1	5964
II	35602	35807	8	205
II	35807	35850	5	43
II	35850	36221	1	371
II	36221	36453	5	232
II	36453	36507	8	54
II	36507	36620	8	113
II	36620	36684	8	64
II	36684	36748	8	64
II	36748	48400	8	11660
II	48400	59983	8	11661
II	59983	72268	8	12386
II	72268	84633	8	12383
II	84633	88521	8	3888
II	88521	88584	8	63
II	88584	88924	8	340
II	88924	101442	8	12522
II	101442	113961	8	12522
II	113961	126271	8	12323
II	126271	126349	8	113
II	126349	137477	8	11165
II	137477	148569	8	11103
II	148569	159731	8	11240
II	159731	159798	8	67
II	159798	159926	8	132
II	159926	161343	8	1417
II	161343	169979	8	8765
II	169979	170042	5	63
II	170042	188408	7	18376
II	188408	197510	8	9154
II	197510	197573	3	63
II	197573	197605	5	32
II	197605	197688	4	84
II	197688	197724	1	36
II	197724	197798	3	74
II	197798	197881	1	83
II	197881	197916	5	35
II	197916	197942	6	26
II	197942	197982	7	40
II	197982	198029	8	47
II	198029	198092	8	63
II	198092	198181	8	89
II	198181	198239	5	58
II	198239	209651	8	11417
II	209651	221050	8	11420
II	221050	221107	7	57
II	221107	226619	1	5512
II	226619	226667	4	48
II	226667	226692	3	25
II	226692	226736	4	44
II	226736	226841	2	110
II	226841	226892	2	51
II	226892	237846	8	10958
II	237846	248800	8	10958
II	248800	259578	8	10780
II	259578	265500	1	5922
II	265500	277117	8	11675
II	277117	288745	8	11630
II	288745	300164	8	11487
II	300164	301175	7	1011
II	301175	301260	6	85
II	301260	301323	7	63
II	301323	301355	6	32
II	301355	303588	7	2233
II	303588	305202	7	1614
II	305202	310706	8	5580
II	310706	315131	4	4427
II	315131	315194	5	63
II	315194	315301	5	107
II	315301	319692	5	4391
II	319692	321736	4	2048
II	321736	322029	5	295
II	322029	324217	6	2196
II	324217	324437	5	220
II	324437	326811	7	2374
II	326811	327255	8	444
II	327255	327318	4	63
II	327318	327376	7	58
II	327376	327412	8	36
II	327412	327469	5	57
II	327469	327532	5	63
II	327532	338301	8	10965
II	338301	349416	8	11116
II	349416	349569	8	153
II	349569	349658	8	89
II	349658	359732	8	10074
II	359732	369802	8	10074
II	369802	384502	8	14726
II	384502	386503	8	2090
II	386503	397671	8	11349
II	397671	405607	8	7955
II	405607	405611	8	21
II	405611	405679	7	68
II	405679	405722	8	43
II	405722	405779	5	57
II	405779	405827	7	55
II	405827	405867	7	40
II	405867	405936	7	69
II	405936	405978	7	43
II	405978	405993	7	15
II	405993	417916	8	11988
II	417916	427776	8	9865
II	427776	427998	4	222
II	427998	428486	5	488
II	428486	428541	7	55
II	428541	428642	8	101
II	428642	428705	7	63
II	428705	428804	7	99
II	428804	428958	6	154
II	428958	429626	8	668
II	429626	429775	4	149
II	429775	429848	5	73
II	429848	430336	6	488
II	430336	430681	7	345
II	430681	441855	8	11174
II	441855	453013	8	11174
II	453013	464141	8	11176
II	464141	464207	7	72
II	464207	464250	6	43
II	464250	477679	8	13459
II	477679	477717	6	38
II	477717	477780	5	63
II	477780	477919	4	139
II	477919	479050	6	1131
II	479050	489319	8	10294
II	489319	499442	8	10144
II	499442	509572	8	10239
II	509572	519863	8	10294
II	519863	530156	8	10294
II	530156	540411	8	10294
II	540411	550653	8	10273
II	550653	560940	8	10294
II	560940	571132	8	10294
II	571132	581416	8	10294
II	581416	591711	8	10296
II	591711	591751	4	40
II	591751	592332	6	581
II	592332	600360	8	8032
II	600360	600424	6	64
II	600424	600487	5	63
II	600487	604802	7	4365
II	604802	604998	6	202
II	604998	605460	7	462
II	605460	606711	8	1381
II	606711	619129	8	12425
II	619129	619200	6	77
II	619200	631210	8	12012
II	631210	643191	8	12013
II	643191	643254	4	63
II	643254	643255	4	50
II	643255	643481	8	227
II	643481	643857	1	376
II	643857	644706	8	861
II	644706	644769	6	63
II	644769	644956	7	217
II	644956	645026	6	70
II	645026	657498	7	12480
II	657498	657562	7	64
II	657562	657626	8	64
II	657626	660519	8	2893
II	660519	660563	2	44
II	660563	660702	8	139
II	660702	660743	7	41
II	660743	661542	8	799
II	661542	661605	6	63
II	661605	661679	3	74
II	661679	661742	7	63
II	661742	671875	8	10134
II	671875	681990	8	10134
II	681990	692116	8	10134
II	692116	702232	8	10134
II	702232	712362	8	10134
II	712362	722493	8	10134
II	722493	732627	8	10134
II	732627	742761	8	10134
II	742761	752602	8	9842
II	752602	762736	8	10134
II	762736	772866	8	10134
II	772866	782870	8	10022
II	782870	792829	8	10072
II	792829	801930	8	9752
II	801930	805646	8	3763
II	805646	805710	7	64
II	805710	809377	1	3667
II	809377	809442	4	65
II	809442	809552	2	110
II	809552	809795	1	243
II	809795	809987	2	192
II	809987	813184	1	3197
XIV	0	1129	1	1129
XIV	1129	1193	8	64
XIV	1193	6083	1	4890
XIV	6083	6146	8	63
XIV	6146	6239	1	93
XIV	6239	6368	6	129
XIV	6368	6417	2	49
XIV	6417	6627	2	214
XIV	6627	6790	4	169
XIV	6790	6803	5	13
XIV	6803	6839	3	38
XIV	6839	6876	1	37
XIV	6876	6913	5	39
XIV	6913	6946	7	33
XIV	6946	7008	4	62
XIV	7008	7145	2	139
XIV	7145	7182	3	37
XIV	7182	7230	6	48
XIV	7230	7302	2	72
XIV	7302	7360	2	58
XIV	7360	7459	4	99
XIV	7459	7500	2	42
XIV	7500	7594	6	94
XIV	7594	7632	3	38
XIV	7632	7696	4	64
XIV	7696	7759	3	63
XIV	7759	7871	4	119
XIV	7871	8248	4	380
XIV	8248	8325	4	77
XIV	8325	8456	4	131
XIV	8456	8573	4	117
XIV	8573	8604	3	31
XIV	8604	8731	5	168
XIV	8731	8967	4	236
XIV	8967	9037	3	70
XIV	9037	9174	4	137
XIV	9174	9238	2	64
XIV	9238	9476	2	238
XIV	9476	9522	4	51
XIV	9522	9888	6	366
XIV	9888	11236	5	1356
XIV	11236	11627	7	392
XIV	11627	12493	8	985
XIV	12493	12675	7	182
XIV	12675	12986	8	313
XIV	12986	13108	6	122
XIV	13108	13462	6	453
XIV	13462	13578	7	116
XIV	13578	13714	7	136
XIV	13714	13823	7	109
XIV	13823	13947	8	124
XIV	13947	14010	3	63
XIV	14010	14621	5	612
XIV	14621	14684	6	63
XIV	14684	14744	7	60
XIV	14744	14904	7	160
XIV	14904	15034	5	231
XIV	15034	15097	6	63
XIV	15097	15217	7	120
XIV	15217	15281	7	64
XIV	15281	15344	4	63
XIV	15344	15403	8	59
XIV	15403	15485	2	82
XIV	15485	15529	4	44
XIV	15529	15586	3	57
XIV	15586	15646	3	60
XIV	15646	15731	4	85
XIV	15731	15794	2	63
XIV	15794	15876	8	82
XIV	15876	15940	7	64
XIV	15940	28969	8	13343
XIV	28969	44759	8	15875
XIV	44759	44826	8	67
XIV	44826	46861	8	2035
XIV	46861	59336	8	12475
XIV	59336	71501	8	12325
XIV	71501	83976	8	12475
XIV	83976	96446	8	12476
XIV	96446	96546	6	100
XIV	96546	96561	6	55
XIV	96561	96648	1	87
XIV	96648	96824	3	236
XIV	96824	96868	2	44
XIV	96868	102435	1	5567
XIV	102435	102499	8	64
XIV	102499	102523	6	24
XIV	102523	102552	7	29
XIV	102552	102641	8	89
XIV	102641	102698	7	57
XIV	102698	102735	8	38
XIV	102735	104818	8	2083
XIV	104818	118236	8	13431
XIV	118236	131640	8	13432
XIV	131640	143178	8	11763
XIV	143178	154929	8	11762
XIV	154929	155003	8	74
XIV	155003	167040	8	12055
XIV	167040	180096	8	13280
XIV	180096	193372	8	13280
XIV	193372	206654	8	13282
XIV	206654	217855	7	11206
XIV	217855	223811	7	5997
XIV	223811	238106	6	14378
XIV	238106	252489	6	14384
XIV	252489	252523	3	34
XIV	252523	252553	8	30
XIV	252553	252595	8	42
XIV	252595	252658	6	63
XIV	252658	254035	8	1377
XIV	254035	254779	8	758
XIV	254779	254840	4	61
XIV	254840	254903	4	63
XIV	254903	266138	8	11363
XIV	266138	277273	8	11260
XIV	277273	288279	8	11263
XIV	288279	299552	8	11364
XIV	299552	303414	4	3864
XIV	303414	307244	4	3891
XIV	307244	319566	8	12346
XIV	319566	331908	8	12347
XIV	331908	331958	6	50
XIV	331958	332006	2	48
XIV	332006	342542	8	10549
XIV	342542	353085	8	10549
XIV	353085	363633	8	10549
XIV	363633	374182	8	10549
XIV	374182	384446	8	10549
XIV	384446	394989	8	10549
XIV	394989	405418	8	10501
XIV	405418	415472	8	10145
XIV	415472	426016	8	10549
XIV	426016	426140	7	124
XIV	426140	426185	6	45
XIV	426185	426321	6	136
XIV	426321	426378	8	57
XIV	426378	426431	8	53
XIV	426431	442814	8	16468
XIV	442814	442815	7	254
XIV	442815	443054	8	239
XIV	443054	443112	8	58
XIV	443112	443256	8	144
XIV	443256	455321	8	12068
XIV	455321	467275	8	11958
XIV	467275	479321	8	12069
XIV	479321	491598	8	12560
XIV	491598	503986	8	12729
XIV	503986	512460	4	8474
XIV	512460	519180	8	6721
XIV	519180	525086	1	5906
XIV	525086	525154	7	68
XIV	525154	535681	8	10701
XIV	535681	546737	8	11059
XIV	546737	546822	2	85
XIV	546822	546893	3	72
XIV	546893	546965	2	72
XIV	546965	547015	3	50
XIV	547015	547078	7	63
XIV	547078	547142	4	64
XIV	547142	547205	6	63
XIV	547205	552430	8	5226
XIV	552430	553086	6	656
XIV	553086	553207	8	121
XIV	553207	560601	4	7398
XIV	560601	560709	6	108
XIV	560709	560762	8	53
XIV	560762	560783	7	21
XIV	560783	560815	2	44
XIV	560815	560878	6	63
XIV	560878	561419	8	556
XIV	561419	561476	8	57
XIV	561476	561512	7	36
XIV	561512	561574	6	63
XIV	561574	561601	5	27
XIV	561601	561772	1	175
XIV	561772	561818	3	49
XIV	561818	561977	1	159
XIV	561977	562069	3	100
XIV	562069	567905	1	5836
XIV	567905	567929	3	24
XIV	567929	568027	7	98
XIV	568027	568098	5	71
XIV	568098	568162	5	64
XIV	568162	568220	5	58
XIV	568220	569718	8	1498
XIV	569718	569880	6	162
XIV	569880	571558	8	1680
XIV	571558	571643	8	85
XIV	571643	571667	8	24
XIV	571667	571692	8	25
XIV	571692	571791	8	99
XIV	571791	573378	8	1628
XIV	573378	573437	8	59
XIV	573437	573512	7	75
XIV	573512	573934	3	422
XIV	573934	573963	6	29
XIV	573963	574012	8	49
XIV	574012	574033	8	21
XIV	574033	579920	8	5889
XIV	579920	598094	6	18207
XIV	598094	598159	7	65
XIV	598159	598232	8	74
XIV	598232	598266	8	34
XIV	598266	598353	7	88
XIV	598353	598653	5	300
XIV	598653	598728	4	75
XIV	598728	598787	4	59
XIV	598787	598850	5	63
XIV	598850	599736	4	903
XIV	599736	600396	5	660
XIV	600396	600421	6	25
XIV	600421	600459	6	38
XIV	600459	600495	5	36
XIV	600495	600583	7	88
XIV	600583	600647	7	64
XIV	600647	600692	7	45
XIV	600692	602324	6	1633
XIV	602324	602354	7	30
XIV	602354	602387	6	33
XIV	602387	617060	8	14759
XIV	617060	631785	8	14759
XIV	631785	631854	5	69
XIV	631854	631907	3	53
XIV	631907	631962	8	55
XIV	631962	632021	8	59
XIV	632021	632056	7	35
XIV	632056	632108	8	52
XIV	632108	632430	1	322
XIV	632430	632470	6	40
XIV	632470	632527	5	57
XIV	632527	632590	6	63
XIV	632590	632615	8	25
XIV	632615	632674	5	59
XIV	632674	632737	6	63
XIV	632737	642907	8	10176
XIV	642907	653041	8	10176
XIV	653041	663147	8	10176
XIV	663147	673320	8	10176
XIV	673320	683495	8	10176
XIV	683495	693671	8	10176
XIV	693671	703823	8	10176
XIV	703823	703887	8	64
XIV	703887	703951	8	67
XIV	703951	720326	8	16789
XIV	720326	720363	8	37
XIV	720363	720393	8	159
XIV	720393	726069	8	5678
XIV	726069	726116	8	47
XIV	726116	726155	6	42
XIV	726155	726217	8	62
XIV	726217	726295	6	78
XIV	726295	726345	5	50
XIV	726345	726380	6	35
XIV	726380	726459	6	79
XIV	726459	726489	6	34
XIV	726489	726512	6	23
XIV	726512	726613	6	101
XIV	726613	726699	2	86
XIV	726699	726738	7	39
XIV	726738	726764	8	26
XIV	726764	726826	6	62
XIV	726826	726885	1	59
XIV	726885	726950	2	65
XIV	726950	726989	6	39
XIV	726989	737661	6	10676
XIV	737661	747794	8	10301
XIV	747794	752158	5	4370
XIV	752158	752393	4	235
XIV	752393	755266	6	2983
XIV	755266	755328	7	63
XIV	755328	755412	8	84
XIV	755412	755475	8	69
XIV	755475	755706	7	234
XIV	755706	772171	5	16488
XIV	772171	772250	8	84
XIV	772250	772294	8	45
XIV	772294	772713	7	433
XIV	772713	772768	8	55
XIV	772768	772857	7	89
XIV	772857	773058	7	201
XIV	773058	774284	8	1226
XIV	774284	774561	7	284
XIV	774561	774590	5	82
XIV	774590	774620	6	164
XIV	774620	774672	7	105
XIV	774672	774736	7	64
XIV	774736	774800	8	64
XIV	774800	774836	8	36
XIV	774836	774924	8	88
XIV	774924	775001	6	77
XIV	775001	775065	6	64
XIV	775065	775128	4	63
XIV	775128	776356	6	1237
XIV	776356	776516	8	161
XIV	776516	781106	8	4708
XIV	781106	781318	8	212
XIV	781318	781360	4	42
XIV	781360	781374	3	61
XIV	781374	781634	8	266
XIV	781634	781825	5	191
XIV	781825	781884	6	59
XIV	781884	781937	6	53
XIV	781937	782019	6	82
XIV	782019	782071	3	52
XIV	782071	782092	4	21
XIV	782092	782134	2	42
XIV	782134	782179	1	45
XIV	782179	782217	4	38
XIV	782217	782256	5	39
XIV	782256	782328	7	72
XIV	782328	782404	3	77
XIV	782404	782478	6	74
XIV	782478	782525	5	47
XIV	782525	782588	7	63
XIV	782588	782758	8	243
XIV	782758	782964	8	274
XIV	782964	783022	7	67
XIV	783022	783077	7	55
XIV	783077	783108	8	31
XIV	783108	783152	7	44
XIV	783152	783184	6	32
XIV	783184	783252	8	68
XIV	783252	783315	8	63
XIV	783315	783383	4	80
XIV	783383	783424	5	41
XIV	783424	783481	5	57
XIV	783481	783946	5	580
XIV	783946	784039	3	107
XIV	784039	784065	2	32
XIV	784065	784103	4	38
XIV	784103	784184	6	88
XIV	784184	784333	1	149
V	0	1324	1	1324
V	1324	1385	7	61
V	1385	6461	1	5076
V	6461	6507	4	46
V	6507	6568	4	61
V	6568	6622	1	54
V	6622	6691	6	70
V	6691	6754	8	63
V	6754	6817	7	63
V	6817	6889	8	72
V	6889	6952	6	63
V	6952	6985	6	33
V	6985	7073	6	88
V	7073	7128	7	55
V	7128	10018	8	2891
V	10018	10056	6	38
V	10056	10120	8	64
V	10120	10183	6	63
V	10183	13224	8	3043
V	13224	13282	5	58
V	13282	13345	6	63
V	13345	19368	8	6085
V	19368	19443	7	75
V	19443	19530	7	87
V	19530	20838	7	1315
V	20838	20901	7	63
V	20901	20965	2	64
V	20965	21329	2	364
V	21329	21403	1	74
V	21403	21466	2	63
V	21466	21520	3	54
V	21520	23119	2	1599
V	23119	23174	3	55
V	23174	23653	8	501
V	23653	36351	8	12742
V	36351	49139	8	12791
V	49139	61902	8	12765
V	61902	61968	6	66
V	61968	62069	5	101
V	62069	62141	4	72
V	62141	62217	4	76
V	62217	62416	3	199
V	62416	62457	1	42
V	62457	62474	8	17
V	62474	63969	8	1512
V	63969	63981	3	123
V	63981	75454	8	11484
V	75454	86500	8	11217
V	86500	86630	6	130
V	86630	86662	7	32
V	86662	99912	8	13254
V	99912	99970	7	58
V	99970	100033	7	63
V	100033	100362	8	426
V	100362	100420	7	58
V	100420	100483	7	63
V	100483	100589	8	109
V	100589	118156	8	17573
V	118156	118220	3	65
V	118220	135438	8	17219
V	135438	135476	5	38
V	135476	135545	7	69
V	135545	135608	4	63
V	135608	135625	6	24
V	135625	135682	5	58
V	135682	135710	2	28
V	135710	135823	1	113
V	135823	135878	3	55
V	135878	135941	6	63
V	135941	135962	5	21
V	135962	136025	6	74
V	136025	138508	8	2566
V	138508	138758	3	250
V	138758	148107	6	9356
V	148107	162524	8	14424
V	162524	176945	8	14424
V	176945	177009	6	64
V	177009	177072	6	63
V	177072	177118	8	46
V	177118	187150	8	10032
V	187150	197173	8	10032
V	197173	207096	8	10004
V	207096	207155	5	64
V	207155	207221	7	66
V	207221	210578	8	3371
V	210578	210693	6	170
V	210693	225392	8	14721
V	225392	225731	4	341
V	225731	237818	8	12200
V	237818	249923	8	12194
V	249923	250205	1	282
V	250205	250269	3	64
V	250269	250300	8	31
V	250300	256258	6	5958
V	256258	256376	8	118
V	256376	261473	6	5107
V	261473	267336	8	5924
V	267336	267400	7	113
V	267400	277768	8	10411
V	277768	277830	6	62
V	277830	277931	2	101
V	277931	277972	7	41
V	277972	288503	8	10558
V	288503	288539	5	37
V	288539	288640	5	101
V	288640	288703	8	63
V	288703	288759	8	56
V	288759	289898	8	1139
V	289898	290449	6	551
V	290449	290513	7	64
V	290513	290576	5	63
V	290576	306908	8	16353
V	306908	307021	7	117
V	307021	307081	4	60
V	307081	312216	8	5147
V	312216	312248	8	32
V	312248	312274	8	26
V	312274	312359	8	85
V	312359	322861	8	10504
V	322861	333415	8	10554
V	333415	343866	8	10476
V	343866	354422	8	10556
V	354422	354668	1	246
V	354668	354742	7	74
V	354742	354793	5	51
V	354793	363300	8	8537
V	363300	363640	1	340
V	363640	373749	8	10111
V	373749	383854	8	10108
V	383854	394151	8	10307
V	394151	394811	8	660
V	394811	394911	8	100
V	394911	395082	8	171
V	395082	397463	8	2409
V	397463	408836	8	11376
V	408836	420057	8	11226
V	420057	431531	8	11478
V	431531	431861	1	330
V	431861	432004	8	143
V	432004	432059	8	55
V	432059	434551	8	2492
V	434551	434599	7	48
V	434599	434692	8	93
V	434692	434742	1	50
V	434742	434777	5	35
V	434777	434842	6	65
V	434842	434864	6	22
V	434864	434909	6	45
V	434909	434971	7	62
V	434971	436139	8	1195
V	436139	436215	7	108
V	436215	438196	8	1982
V	438196	438310	8	137
V	438310	438464	8	154
V	438464	438519	6	55
V	438519	438719	4	200
V	438719	438776	8	57
V	438776	443393	8	4617
V	443393	443450	8	57
V	443450	443457	5	35
V	443457	443525	3	68
V	443525	443655	3	130
V	443655	443749	8	97
V	443749	443785	3	36
V	443785	449635	1	5850
V	449635	462355	8	12739
V	462355	475092	8	12739
V	475092	487831	8	12740
V	487831	487862	4	31
V	487862	487896	3	34
V	487896	487940	5	45
V	487940	488105	2	165
V	488105	492375	8	4273
V	492375	492414	8	39
V	492414	498448	1	6034
V	498448	498511	6	63
V	498511	509165	8	10654
V	509165	519818	8	10654
V	519818	530147	8	10337
V	530147	540701	8	10554
V	540701	551296	8	10654
V	551296	566702	8	15430
V	566702	566951	8	249
V	566951	567010	3	70
V	567010	567135	8	143
V	567135	567192	4	64
V	567192	567205	7	13
V	567205	568790	1	1585
V	568790	569022	6	249
V	569022	569073	3	51
V	569073	569454	1	381
V	569454	569494	7	40
V	569494	569524	6	30
V	569524	569618	7	108
V	569618	570046	8	458
V	570046	570060	8	55
V	570060	570085	4	41
V	570085	570107	3	22
V	570107	570124	6	18
V	570124	570382	2	264
V	570382	570460	4	88
V	570460	570522	2	62
V	570522	570576	3	55
V	570576	570697	1	121
V	570697	570739	5	42
V	570739	576874	1	6135
XII	0	71	4	74
XII	71	117	5	51
XII	117	144	5	27
XII	144	5174	1	5030
XII	5174	5219	3	45
XII	5219	5265	4	46
XII	5265	5283	7	18
XII	5283	5341	4	58
XII	5341	5412	5	71
XII	5412	5461	5	49
XII	5461	5611	3	150
XII	5611	5660	6	50
XII	5660	5709	5	110
XII	5709	5755	4	46
XII	5755	5888	8	157
XII	5888	10817	1	4929
XII	10817	10884	3	67
XII	10884	10927	1	43
XII	10927	11024	7	97
XII	11024	11054	8	30
XII	11054	11147	7	93
XII	11147	11235	3	88
XII	11235	11256	4	42
XII	11256	11308	3	59
XII	11308	11359	2	51
XII	11359	11445	2	87
XII	11445	11505	3	60
XII	11505	11616	2	123
XII	11616	11676	6	60
XII	11676	11752	2	76
XII	11752	11781	4	30
XII	11781	11823	3	43
XII	11823	11881	1	58
XII	11881	11902	3	21
XII	11902	11942	3	40
XII	11942	12039	3	97
XII	12039	12141	2	102
XII	12141	12239	3	98
XII	12239	12315	5	76
XII	12315	12395	2	81
XII	12395	12968	1	573
XII	12968	13059	7	93
XII	13059	13085	7	26
XII	13085	13379	1	294
XII	13379	13413	3	34
XII	13413	13479	6	66
XII	13479	13600	7	121
XII	13600	13717	1	117
XII	13717	13767	3	50
XII	13767	13808	3	41
XII	13808	13846	4	38
XII	13846	13898	3	52
XII	13898	29366	8	16173
XII	29366	29416	6	50
XII	29416	29440	6	24
XII	29440	31836	8	2408
XII	31836	32596	8	907
XII	32596	37756	8	5194
XII	37756	37884	6	128
XII	37884	47898	8	10419
XII	47898	48394	4	496
XII	48394	48437	6	43
XII	48437	52021	8	3639
XII	52021	58839	8	6819
XII	58839	58903	8	64
XII	58903	58967	8	65
XII	58967	64227	8	5260
XII	64227	64532	7	305
XII	64532	64760	4	228
XII	64760	78265	4	13517
XII	78265	91772	4	13517
XII	91772	92108	6	336
XII	92108	92163	7	55
XII	92163	92610	8	569
XII	92610	92659	7	49
XII	92659	93534	8	877
XII	93534	93598	6	64
XII	93598	94895	8	1299
XII	94895	94959	7	64
XII	94959	95022	7	63
XII	95022	95757	8	738
XII	95757	95821	2	64
XII	95821	95884	2	63
XII	95884	96339	6	455
XII	96339	96441	6	102
XII	96441	96552	2	111
XII	96552	96903	4	351
XII	96903	97044	3	141
XII	97044	97099	8	55
XII	97099	97171	7	72
XII	97171	97240	7	69
XII	97240	97303	5	63
XII	97303	103767	8	6495
XII	103767	116407	8	12757
XII	116407	129214	8	12807
XII	129214	140035	8	10848
XII	140035	150650	8	10848
XII	150650	161492	8	10848
XII	161492	167965	8	6474
XII	167965	167997	7	32
XII	167997	168042	8	45
XII	168042	168117	6	75
XII	168117	168199	3	82
XII	168199	172018	7	3822
XII	172018	172039	3	21
XII	172039	172105	6	66
XII	172105	172168	7	63
XII	172168	179751	6	7584
XII	179751	196694	4	16944
XII	196694	209756	3	13072
XII	209756	209859	3	103
XII	209859	209923	3	64
XII	209923	215073	2	5150
XII	215073	215157	1	84
XII	215157	215208	4	51
XII	215208	215263	5	55
XII	215263	215294	4	31
XII	215294	221004	1	5710
XII	221004	222871	5	1867
XII	222871	233219	8	10350
XII	233219	243563	8	10350
XII	243563	253910	8	10350
XII	253910	264082	8	10178
XII	264082	281000	8	16919
XII	281000	281043	8	69
XII	281043	282501	8	1461
XII	282501	302352	8	19854
XII	302352	312946	8	10594
XII	312946	323535	8	10594
XII	323535	323645	8	110
XII	323645	323709	8	64
XII	323709	327722	8	4014
XII	327722	339632	8	11926
XII	339632	339668	8	36
XII	339668	353304	8	13640
XII	353304	366888	8	13640
XII	366888	366946	8	58
XII	366946	373896	8	6952
XII	373896	373959	6	63
XII	373959	373998	5	39
XII	373998	374060	7	62
XII	374060	374168	2	108
XII	374168	374189	3	21
XII	374189	374270	6	81
XII	374270	374372	2	102
XII	374372	384883	8	10565
XII	384883	395542	8	10663
XII	395542	406203	8	10663
XII	406203	416865	8	10663
XII	416865	427524	8	10663
XII	427524	438187	8	10663
XII	438187	448659	8	10539
XII	448659	448769	6	110
XII	448769	451417	8	2650
XII	451417	451483	7	66
XII	451483	451551	5	68
XII	451551	451587	4	45
XII	451587	451642	4	55
XII	451642	451719	7	77
XII	451719	451816	7	99
XII	451816	459653	1	7837
XII	459653	459670	7	17
XII	459670	459757	7	87
XII	459757	459813	7	56
XII	459813	459863	7	50
XII	459863	459934	5	71
XII	459934	459963	6	29
XII	459963	460012	5	49
XII	460012	460030	5	18
XII	460030	460094	8	64
XII	460094	460133	7	39
XII	460133	460181	7	48
XII	460181	460215	8	34
XII	460215	460265	8	50
XII	460265	460335	8	70
XII	460335	460484	7	149
XII	460484	460587	7	103
XII	460587	462982	1	2395
XII	462982	463053	6	71
XII	463053	463117	8	64
XII	463117	463174	6	57
XII	463174	463198	4	24
XII	463198	463209	7	11
XII	463209	463230	5	21
XII	463230	463296	4	66
XII	463296	463324	8	28
XII	463324	463403	7	79
XII	463403	463456	7	53
XII	463456	463479	8	23
XII	463479	463517	6	38
XII	463517	463534	6	17
XII	463534	463567	8	33
XII	463567	463641	8	74
XII	463641	463695	5	54
XII	463695	463720	5	25
XII	463720	463765	7	45
XII	463765	463829	7	64
XII	463829	463847	6	18
XII	463847	463911	6	64
XII	463911	463938	7	27
XII	463938	463959	5	21
XII	463959	463989	3	30
XII	463989	464023	5	34
XII	464023	464080	3	57
XII	464080	464142	8	62
XII	464142	464188	8	46
XII	464188	464222	2	34
XII	464222	464249	7	27
XII	464249	464313	4	64
XII	464313	464346	6	33
XII	464346	464390	6	44
XII	464390	464453	7	63
XII	464453	464517	7	64
XII	464517	464573	7	56
XII	464573	464636	6	63
XII	464636	464705	8	69
XII	464705	464727	7	22
XII	464727	464791	6	64
XII	464791	464846	6	55
XII	464846	464870	6	24
XII	464870	464909	5	39
XII	464909	464959	8	50
XII	464959	464981	8	22
XII	464981	465027	8	46
XII	465027	465098	8	71
XII	465098	465134	4	50
XII	465134	465155	5	21
XII	465155	465226	5	71
XII	465226	465300	6	74
XII	465300	465357	7	57
XII	465357	465410	6	53
XII	465410	465474	5	64
XII	465474	465551	2	77
XII	465551	465629	7	78
XII	465629	465673	6	44
XII	465673	465701	7	28
XII	465701	465756	6	55
XII	465756	465820	8	64
XII	465820	465864	8	44
XII	465864	465884	8	20
XII	465884	465928	7	44
XII	465928	465966	8	38
XII	465966	466030	8	64
XII	466030	466086	8	56
XII	466086	466116	5	30
XII	466116	466169	3	53
XII	466169	466193	7	24
XII	466193	466226	6	33
XII	466226	466276	7	50
XII	466276	466306	5	30
XII	466306	466404	8	98
XII	466404	466429	8	25
XII	466429	466492	5	63
XII	466492	466559	6	67
XII	466559	466575	8	16
XII	466575	466606	7	31
XII	466606	466633	8	27
XII	466633	466664	8	31
XII	466664	466697	7	33
XII	466697	466745	8	48
XII	466745	466778	7	33
XII	466778	466789	8	11
XII	466789	466820	8	31
XII	466820	466863	8	43
XII	466863	466874	6	11
XII	466874	466945	4	71
XII	466945	466991	6	46
XII	466991	467028	8	37
XII	467028	467090	3	62
XII	467090	467120	5	30
XII	467120	467147	6	27
XII	467147	467211	4	64
XII	467211	467223	6	12
XII	467223	467302	3	79
XII	467302	467366	6	64
XII	467366	467407	7	41
XII	467407	467471	5	64
XII	467471	467511	7	40
XII	467511	467583	6	72
XII	467583	467618	5	35
XII	467618	467651	6	33
XII	467651	467675	5	24
XII	467675	467715	6	40
XII	467715	467760	4	45
XII	467760	467805	5	45
XII	467805	467865	5	60
XII	467865	467899	6	34
XII	467899	467924	6	25
XII	467924	468014	6	90
XII	468014	468050	6	36
XII	468050	468123	3	73
XII	468123	468149	6	26
XII	468149	468182	4	33
XII	468182	468211	6	29
XII	468211	468248	5	37
XII	468248	468311	3	63
XII	468311	468348	4	37
XII	468348	468373	5	25
XII	468373	468394	3	21
XII	468394	468476	7	82
XII	468476	468487	7	11
XII	468487	468537	4	50
XII	468537	468572	7	35
XII	468572	468622	7	50
XII	468622	468685	7	63
XII	468685	468741	5	56
XII	468741	468775	7	34
XII	468775	468902	5	127
XII	468902	468917	7	15
XII	468917	479112	1	10195
XII	479112	489308	1	10196
XII	489308	489324	5	16
XII	489324	489341	5	17
XII	489341	489352	7	11
XII	489352	489429	2	77
XII	489429	489479	6	50
XII	489479	490168	1	689
XII	490168	490194	6	26
XII	490194	490239	7	45
XII	490239	490258	6	19
XII	490258	490354	5	96
XII	490354	490380	6	26
XII	490380	490434	6	54
XII	490434	490511	6	77
XII	490511	490538	7	27
XII	490538	490850	8	312
XII	490850	502928	7	12082
XII	502928	514990	7	12082
XII	514990	526198	8	11208
XII	526198	537404	8	11208
XII	537404	548605	8	11208
XII	548605	559793	8	11208
XII	559793	570990	8	11208
XII	570990	582192	8	11208
XII	582192	593144	8	11012
XII	593144	593171	7	27
XII	593171	593254	7	83
XII	593254	593281	3	27
XII	593281	593333	4	52
XII	593333	593426	6	93
XII	593426	593478	8	52
XII	593478	599055	1	5577
XII	599055	605114	8	6069
XII	605114	605171	3	57
XII	605171	605228	7	57
XII	605228	605291	7	63
XII	605291	605346	8	56
XII	605346	605390	5	86
XII	605390	616788	8	11399
XII	616788	628188	8	11400
XII	628188	646397	8	18222
XII	646397	650823	8	4426
XII	650823	656748	1	5925
XII	656748	667011	8	10272
XII	667011	677277	8	10272
XII	677277	687545	8	10273
XII	687545	699948	8	12410
XII	699948	712941	6	13012
XII	712941	713180	8	239
XII	713180	731580	2	18409
XII	731580	731625	6	45
XII	731625	731667	2	42
XII	731667	731726	7	60
XII	731726	731759	8	33
XII	731759	731850	4	91
XII	731850	731874	4	24
XII	731874	731925	4	51
XII	731925	732000	7	75
XII	732000	732228	8	228
XII	732228	734727	3	2633
XII	734727	745207	8	10500
XII	745207	755705	8	10500
XII	755705	766167	8	10500
XII	766167	776667	8	10500
XII	776667	786992	8	10400
XII	786992	797484	8	10500
XII	797484	807983	8	10500
XII	807983	818474	8	10500
XII	818474	828530	8	10263
XII	828530	838675	8	10211
XII	838675	848938	8	10263
XII	848938	859200	8	10263
XII	859200	869459	8	10263
XII	869459	879615	8	10213
XII	879615	889873	8	10263
XII	889873	900136	8	10263
XII	900136	910399	8	10263
XII	910399	920662	8	10263
XII	920662	930924	8	10263
XII	930924	941191	8	10268
XII	941191	947155	1	5964
XII	947155	963023	8	15949
XII	963023	963180	8	157
XII	963180	963238	5	58
XII	963238	963301	4	63
XII	963301	963338	7	37
XII	963338	963439	7	101
XII	963439	963481	7	46
XII	963481	976036	8	12623
XII	976036	976178	7	142
XII	976178	976319	8	141
XII	976319	981638	1	5319
XII	981638	981700	4	62
XII	981700	992309	8	10609
XII	992309	1002919	8	10610
XII	1002919	1003026	6	107
XII	1003026	1003408	7	382
XII	1003408	1003461	5	53
XII	1003461	1015299	8	11850
XII	1015299	1027597	8	12310
XII	1027597	1039910	8	12328
XII	1039910	1052238	8	12330
XII	1052238	1059611	8	7482
XII	1059611	1059682	4	71
XII	1059682	1059735	7	53
XII	1059735	1059798	7	63
XII	1059798	1061104	8	1306
XII	1061104	1061167	6	63
XII	1061167	1061203	6	36
XII	1061203	1061224	3	21
XII	1061224	1061356	5	132
XII	1061356	1061422	6	66
XII	1061422	1062091	2	670
XII	1062091	1062244	1	153
XII	1062244	1062671	2	462
XII	1062671	1062873	8	205
XII	1062873	1062916	4	43
XII	1062916	1063028	3	112
XII	1063028	1063414	1	386
XII	1063414	1063481	3	67
XII	1063481	1063817	1	336
XII	1063817	1063926	8	109
XII	1063926	1064036	1	110
XII	1064036	1064069	6	33
XII	1064069	1064103	8	34
XII	1064103	1064210	3	107
XII	1064210	1064261	5	51
XII	1064261	1064287	2	26
XII	1064287	1064510	2	223
XII	1064510	1064557	3	47
XII	1064557	1064640	3	85
XII	1064640	1064702	3	62
XII	1064702	1064822	8	135
XII	1064822	1064937	3	121
XII	1064937	1064958	3	21
XII	1064958	1065107	4	165
XII	1065107	1065166	4	73
XII	1065166	1065209	4	43
XII	1065209	1065349	5	150
XII	1065349	1066509	1	1160
XII	1066509	1066554	2	55
XII	1066554	1066573	3	25
XII	1066573	1071244	1	4671
XII	1071244	1071359	5	117
XII	1071359	1071505	1	146
XII	1071505	1071548	2	43
XII	1071548	1071574	5	26
XII	1071574	1071642	3	69
XII	1071642	1071702	5	63
XII	1071702	1071716	8	14
XII	1071716	1071855	2	139
XII	1071855	1077960	1	6105
XII	1077960	1077996	7	36
XII	1077996	1078060	8	64
XII	1078060	1078177	8	117
I	0	51	4	64
I	51	125	4	74
I	125	188	4	63
I	188	508	1	320
I	508	603	2	95
I	603	713	2	110
I	713	2546	1	1833
I	2546	2649	5	103
I	2649	2682	7	36
I	2682	2708	8	26
I	2708	2745	8	37
I	2745	2771	7	26
I	2771	2809	7	38
I	2809	2845	6	36
I	2845	4737	7	1901
I	4737	4776	8	39
I	4776	5397	8	678
I	5397	5454	8	57
I	5454	6596	8	1144
I	6596	6694	8	98
I	6694	6736	1	42
I	6736	6859	8	123
I	6859	10340	8	3529
I	10340	10416	7	77
I	10416	10586	6	170
I	10586	12255	8	1677
I	12255	12326	7	224
I	12326	12425	6	99
I	12425	12584	5	243
I	12584	12647	4	73
I	12647	12727	3	156
I	12727	12741	5	21
I	12741	12822	8	99
I	12822	12845	8	28
I	12845	12876	7	31
I	12876	12887	7	99
I	12887	12932	7	53
I	12932	12991	8	167
I	12991	13066	8	78
I	13066	13100	6	106
I	13100	13133	6	33
I	13133	13252	7	122
I	13252	13296	2	44
I	13296	13326	2	30
I	13326	14925	1	1599
I	14925	14953	5	28
I	14953	24624	1	9671
I	24624	24650	7	26
I	24650	24687	7	37
I	24687	24752	1	65
I	24752	24933	5	181
I	24933	24951	7	122
I	24951	25002	7	109
I	25002	25039	7	37
I	25039	25071	7	32
I	25071	25178	8	110
I	25178	25239	7	61
I	25239	25255	6	16
I	25255	25295	5	40
I	25295	25356	7	61
I	25356	25377	4	21
I	25377	25466	1	89
I	25466	25574	5	108
I	25574	25599	8	25
I	25599	25652	1	53
I	25652	25662	8	10
I	25662	25785	7	123
I	25785	26958	1	1173
I	26958	27004	6	46
I	27004	27046	7	42
I	27046	27537	8	494
I	27537	27635	2	98
I	27635	27699	6	64
I	27699	27872	7	173
I	27872	27938	8	66
I	27938	28207	8	270
I	28207	28277	8	70
I	28277	28737	4	483
I	28737	35336	8	6955
I	35336	45634	8	10372
I	45634	46459	8	830
I	46459	58692	8	12259
I	58692	70927	8	12255
I	70927	82682	7	11758
I	82682	94441	7	11759
I	94441	94505	7	64
I	94505	94569	7	64
I	94569	94632	7	63
I	94632	105744	8	11112
I	105744	116606	8	10883
I	116606	127717	8	11112
I	127717	138831	8	11115
I	138831	138898	2	68
I	138898	138945	4	47
I	138945	138975	5	30
I	138975	139033	3	58
I	139033	139096	6	63
I	139096	139118	8	22
I	139118	139191	8	75
I	139191	139374	8	183
I	139374	139767	8	393
I	139767	140285	7	518
I	140285	141044	8	759
I	141044	141094	3	50
I	141094	141180	7	86
I	141180	160238	8	19069
I	160238	166145	1	5907
I	166145	166168	2	34
I	166168	175081	8	8954
I	175081	180294	4	5224
I	180294	182509	8	2517
I	182509	182555	8	46
I	182555	182624	6	72
I	182624	182716	4	92
I	182716	183141	1	425
I	183141	183271	8	130
I	183271	183407	4	141
I	183407	183680	8	273
I	183680	183739	8	59
I	183739	185832	8	2204
I	185832	186022	1	190
I	186022	186948	6	1038
I	186948	189196	7	2774
I	189196	189484	6	367
I	189484	189572	7	89
I	189572	189622	6	50
I	189622	189665	7	43
I	189665	189761	6	98
I	189761	190588	7	1007
I	190588	192207	4	1619
I	192207	197472	5	5271
I	197472	198595	7	1213
I	198595	198664	6	72
I	198664	199855	5	1192
I	199855	200044	8	189
I	200044	202310	6	2267
I	202310	203833	8	1594
I	203833	204425	4	595
I	204425	204498	5	73
I	204498	204550	6	52
I	204550	204595	6	45
I	204595	204636	7	41
I	204636	204689	2	53
I	204689	205744	1	1055
I	205744	205771	4	27
I	205771	205824	6	53
I	205824	205856	1	32
I	205856	205925	5	69
I	205925	206523	1	598
I	206523	206586	3	63
I	206586	206669	2	83
I	206669	206716	4	47
I	206716	206748	6	32
I	206748	206825	8	77
I	206825	206870	3	60
I	206870	206932	5	62
I	206932	207077	3	145
I	207077	221765	1	14688
I	221765	221815	2	50
I	221815	221988	1	173
I	221988	222051	7	63
I	222051	222321	8	270
I	222321	222418	6	97
I	222418	226224	8	4035
I	226224	226815	1	591
I	226815	226923	2	108
I	226923	227434	2	554
I	227434	228064	3	635
I	228064	228104	4	40
I	228104	228211	5	107
I	228211	228263	6	52
I	228263	228325	7	62
I	228325	228674	6	351
I	228674	228895	7	221
I	228895	229406	4	524
I	229406	229448	6	200
I	229448	229496	5	48
I	229496	229561	6	66
I	229561	229626	7	65
I	229626	229763	6	140
I	229763	229950	6	259
I	229950	230067	5	173
I	230067	230108	5	46
I	230108	230218	3	110
VI	0	4955	1	4955
VI	4955	5019	2	64
VI	5019	5103	4	84
VI	5103	5157	2	54
VI	5157	5196	3	39
VI	5196	5428	8	233
VI	5428	5467	7	39
VI	5467	11558	1	6091
VI	11558	11763	2	205
VI	11763	11827	7	64
VI	11827	11890	6	63
VI	11890	12028	2	138
VI	12028	12065	2	37
VI	12065	12094	4	29
VI	12094	12129	3	35
VI	12129	12177	6	48
VI	12177	12280	6	103
VI	12280	12348	6	68
VI	12348	12409	7	63
VI	12409	12610	6	201
VI	12610	12781	7	172
VI	12781	13465	8	696
VI	13465	13498	1	33
VI	13498	13548	5	50
VI	13548	13690	8	142
VI	13690	13758	7	68
VI	13758	13827	6	69
VI	13827	13991	8	166
VI	13991	15178	3	1192
VI	15178	15203	4	25
VI	15203	30088	3	14934
VI	30088	38724	8	8643
VI	38724	38787	8	63
VI	38787	50816	7	12035
VI	50816	62851	7	12036
VI	62851	62889	6	38
VI	62889	64572	6	1684
VI	64572	73369	8	8828
VI	73369	73403	8	34
VI	73403	75913	8	2521
VI	75913	77783	6	1882
VI	77783	77971	8	188
VI	77971	78010	7	39
VI	78010	78519	8	509
VI	78519	78583	6	64
VI	78583	78647	6	64
VI	78647	78710	5	63
VI	78710	92566	6	14006
VI	92566	95710	7	3399
VI	95710	96539	8	839
VI	96539	99153	8	2643
VI	99153	99330	8	177
VI	99330	99359	2	29
VI	99359	101375	8	2016
VI	101375	101437	7	62
VI	101437	117488	8	16079
VI	117488	118029	7	541
VI	118029	137761	8	19736
VI	137761	137868	3	120
VI	137868	143626	1	5758
VI	143626	143649	3	23
VI	143649	143883	8	234
VI	143883	144204	7	321
VI	144204	144248	8	44
VI	144248	144849	7	601
VI	144849	157946	8	13134
VI	157946	161948	8	4065
VI	161948	162114	8	166
VI	162114	162165	6	51
VI	162165	162196	5	31
VI	162196	162244	6	50
VI	162244	162345	7	101
VI	162345	167368	8	5030
VI	167368	167435	8	67
VI	167435	167472	6	49
VI	167472	181938	8	14688
VI	181938	181994	6	56
VI	181994	182057	5	63
VI	182057	186175	8	4132
VI	186175	186217	8	42
VI	186217	186249	6	85
VI	186249	191819	8	5635
VI	191819	204836	8	13020
VI	204836	204901	5	65
VI	204901	204983	7	82
VI	204983	205135	8	165
VI	205135	205945	1	810
VI	205945	206921	8	979
VI	206921	210402	6	3487
VI	210402	210616	8	214
VI	210616	210735	6	120
VI	210735	220600	8	9867
VI	220600	220663	7	63
VI	220663	220926	1	263
VI	220926	220989	7	74
VI	220989	231705	8	10735
VI	231705	242479	8	10820
VI	242479	253264	8	10794
VI	253264	263014	8	10852
VI	263014	263076	5	64
VI	263076	263201	2	126
VI	263201	263295	8	94
VI	263295	263363	1	68
VI	263363	265923	2	2680
VI	265923	266436	1	513
VI	266436	266512	2	76
VI	266512	269211	1	2699
VI	269211	269682	2	475
VI	269682	270161	1	479
XV	0	4	2	4
XV	4	24	2	21
XV	24	50	4	26
XV	50	214	3	171
XV	214	256	4	42
XV	256	279	4	23
XV	279	353	3	74
XV	353	439	2	86
XV	439	499	2	60
XV	499	611	2	113
XV	611	633	2	22
XV	633	763	7	131
XV	763	802	6	39
XV	802	873	2	71
XV	873	929	8	81
XV	929	962	2	33
XV	962	1034	2	72
XV	1034	1286	1	252
XV	1286	1557	8	272
XV	1557	1897	1	340
XV	1897	2027	2	130
XV	2027	11060	1	9033
XV	11060	11092	5	32
XV	11092	11164	2	72
XV	11164	11195	7	31
XV	11195	11220	4	25
XV	11220	11258	1	38
XV	11258	11288	5	30
XV	11288	11331	5	43
XV	11331	11353	7	22
XV	11353	11415	7	63
XV	11415	11477	6	62
XV	11477	11522	7	46
XV	11522	11586	5	64
XV	11586	11671	5	85
XV	11671	11757	2	86
XV	11757	11855	7	98
XV	11855	11956	2	101
XV	11956	11979	2	24
XV	11979	12017	3	38
XV	12017	12163	2	146
XV	12163	12291	4	129
XV	12291	12351	7	66
XV	12351	12404	5	53
XV	12404	12480	7	76
XV	12480	12515	8	35
XV	12515	13997	4	1483
XV	13997	16742	4	2775
XV	16742	16825	5	85
XV	16825	16877	6	52
XV	16877	18360	4	1483
XV	18360	18561	6	201
XV	18561	18639	4	78
XV	18639	18679	5	50
XV	18679	19463	4	786
XV	19463	31181	5	12202
XV	31181	31456	5	284
XV	31456	31535	8	80
XV	31535	42549	4	11277
XV	42549	42612	5	63
XV	42612	42905	8	293
XV	42905	42968	5	63
XV	42968	43018	7	50
XV	43018	43056	1	38
XV	43056	43101	6	45
XV	43101	53933	8	10834
XV	53933	53996	6	63
XV	53996	54004	8	32
XV	54004	54067	6	63
XV	54067	57877	8	3810
XV	57877	57992	8	115
XV	57992	60226	8	2234
XV	60226	60230	5	48
XV	60230	61810	6	1585
XV	61810	68020	8	6211
XV	68020	72650	6	4642
XV	72650	73058	8	438
XV	73058	76591	5	3535
XV	76591	76654	6	63
XV	76654	78553	8	1935
XV	78553	92088	6	13553
XV	92088	92468	8	380
XV	92468	92712	6	246
XV	92712	93036	7	324
XV	93036	93394	8	358
XV	93394	93508	7	176
XV	93508	94829	8	1323
XV	94829	111024	8	16327
XV	111024	111152	8	128
XV	111152	113529	8	2378
XV	113529	117689	8	4162
XV	117689	123615	1	5926
XV	123615	134421	8	10806
XV	134421	145227	8	10806
XV	145227	156032	8	10806
XV	156032	166570	8	10581
XV	166570	177371	8	10806
XV	177371	188174	8	10806
XV	188174	198967	8	10806
XV	198967	209697	8	10735
XV	209697	209761	7	64
XV	209761	209825	8	84
XV	209825	213883	8	4060
XV	213883	213975	8	93
XV	213975	216908	8	3019
XV	216908	218455	8	1549
XV	218455	226603	4	8152
XV	226603	226666	6	63
XV	226666	226942	4	276
XV	226942	226978	5	36
XV	226978	227050	6	73
XV	227050	227109	4	59
XV	227109	227485	6	388
XV	227485	227760	8	278
XV	227760	227821	6	61
XV	227821	227884	4	63
XV	227884	227906	5	22
XV	227906	227976	6	70
XV	227976	228132	2	156
XV	228132	230021	8	2007
XV	230021	230105	8	84
XV	230105	235328	8	5227
XV	235328	235418	8	105
XV	235418	246123	8	10787
XV	246123	257985	8	11862
XV	257985	269816	8	11863
XV	269816	274521	5	4708
XV	274521	274590	8	69
XV	274590	274723	8	133
XV	274723	282063	8	7345
XV	282063	282126	5	63
XV	282126	282180	8	55
XV	282180	288224	7	6044
XV	288224	288283	5	59
XV	288283	299968	8	11692
XV	299968	300032	5	64
XV	300032	300099	5	67
XV	300099	300162	6	63
XV	300162	304397	8	4245
XV	304397	304493	8	96
XV	304493	304602	8	109
XV	304602	315634	8	11039
XV	315634	315748	8	114
XV	315748	315811	5	63
XV	315811	326670	8	10862
XV	326670	340353	5	13685
XV	340353	354210	8	13874
XV	354210	354291	7	281
XV	354291	364659	8	10441
XV	364659	375212	8	10619
XV	375212	385690	8	10619
XV	385690	396302	8	10619
XV	396302	406921	8	10619
XV	406921	417286	8	10570
XV	417286	427903	8	10619
XV	427903	438285	8	10426
XV	438285	438302	6	205
XV	438302	438309	7	91
XV	438309	438321	7	67
XV	438321	438682	8	457
XV	438682	449243	8	10619
XV	449243	459939	8	10748
XV	459939	473588	8	13744
XV	473588	487301	8	13744
XV	487301	487359	6	58
XV	487359	487423	7	64
XV	487423	487449	8	26
XV	487449	498181	6	10736
XV	498181	508869	6	10736
XV	508869	508933	8	64
XV	508933	509040	8	107
XV	509040	521079	8	12055
XV	521079	522829	8	1751
XV	522829	523462	8	643
XV	523462	523592	4	130
XV	523592	523637	4	45
XV	523637	523745	3	108
XV	523745	523872	6	176
XV	523872	535882	8	12026
XV	535882	547906	8	12026
XV	547906	559852	8	11948
XV	559852	571807	8	11968
XV	571807	571975	7	168
XV	571975	575097	8	3123
XV	575097	576851	4	1754
XV	576851	577023	5	172
XV	577023	594376	8	17449
XV	594376	594438	8	62
XV	594438	594823	8	385
XV	594823	600742	1	5919
XV	600742	615603	8	14867
XV	615603	630459	8	14867
XV	630459	630492	7	45
XV	630492	641571	8	11091
XV	641571	652659	8	11091
XV	652659	663740	8	11092
XV	663740	663841	5	102
XV	663841	663904	6	64
XV	663904	663949	4	46
XV	663949	663973	8	24
XV	663973	673731	8	9846
XV	673731	683733	8	10006
XV	683733	693666	8	10005
XV	693666	703701	8	10145
XV	703701	703772	8	71
XV	703772	709533	1	5761
XV	709533	709563	3	30
XV	709563	709661	8	98
XV	709661	709712	3	51
XV	709712	709753	6	42
XV	709753	709772	7	19
XV	709772	709951	2	182
XV	709951	709963	6	13
XV	709963	710024	5	61
XV	710024	710113	1	89
XV	710113	710215	6	102
XV	710215	720244	8	10029
XV	720244	730270	8	10029
XV	730270	740295	8	10029
XV	740295	750319	8	10029
XV	750319	760348	8	10029
XV	760348	770373	8	10029
XV	770373	780340	8	10029
XV	780340	790367	8	10029
XV	790367	800392	8	10029
XV	800392	810420	8	10029
XV	810420	820446	8	10029
XV	820446	830385	8	10029
XV	830385	840409	8	10028
XV	840409	850287	8	9879
XV	850287	860287	8	10029
XV	860287	870290	8	10029
XV	870290	880319	8	10029
XV	880319	890341	8	10029
XV	890341	900245	8	9979
XV	900245	910267	8	10029
XV	910267	920276	8	10029
XV	920276	930305	8	10029
XV	930305	940330	8	10029
XV	940330	950211	8	9881
XV	950211	960238	8	10029
XV	960238	970285	8	10053
XV	970285	976257	1	5972
XV	976257	976344	8	90
XV	976344	976430	7	88
XV	976430	976554	8	124
XV	976554	980224	8	3670
XV	980224	980257	7	33
XV	980257	980297	7	65
XV	980297	980390	7	98
XV	980390	980419	4	39
XV	980419	980471	5	65
XV	980471	980487	2	30
XV	980487	980545	1	58
XV	980545	990752	8	10235
XV	990752	1000888	8	10137
XV	1000888	1011115	8	10235
XV	1011115	1021158	8	10135
XV	1021158	1031394	8	10239
XV	1031394	1038705	8	7337
XV	1038705	1038769	8	64
XV	1038769	1038833	8	64
XV	1038833	1058560	8	19733
XV	1058560	1059370	1	810
XV	1059370	1059892	8	522
XV	1059892	1060415	1	523
XV	1060415	1069708	8	9297
XV	1069708	1069897	6	189
XV	1069897	1070234	5	337
XV	1070234	1070299	6	66
XV	1070299	1070375	5	76
XV	1070375	1070452	6	78
XV	1070452	1071239	8	787
XV	1071239	1071434	3	195
XV	1071434	1072973	5	1539
XV	1072973	1075908	1	2935
XV	1075908	1075971	2	63
XV	1075971	1077902	1	1931
XV	1077902	1078015	2	113
XV	1078015	1084162	1	6147
XV	1084162	1084345	2	185
XV	1084345	1090263	1	5918
XV	1090263	1090284	3	21
XV	1090284	1090347	5	63
XV	1090347	1090758	1	411
XV	1090758	1090822	6	64
XV	1090822	1091106	1	284
XV	1091106	1091150	2	44
XV	1091150	1091203	5	53
XV	1091203	1091241	6	38
XV	1091241	1091291	3	50
IV	0	190	1	190
IV	190	215	7	34
IV	215	240	7	25
IV	240	268	7	29
IV	268	400	6	136
IV	400	744	4	358
IV	744	832	4	88
IV	832	886	3	54
IV	886	1722	1	836
IV	1722	1787	2	65
IV	1787	16553	1	14766
IV	16553	16644	3	91
IV	16644	16680	3	36
IV	16680	17102	1	422
IV	17102	17166	8	64
IV	17166	17248	3	82
IV	17248	18409	8	1178
IV	18409	18476	7	67
IV	18476	20462	8	2003
IV	20462	20848	8	386
IV	20848	21364	8	516
IV	21364	21391	5	27
IV	21391	32516	8	11133
IV	32516	35431	8	2915
IV	35431	35730	8	299
IV	35730	36171	8	441
IV	36171	43873	8	7705
IV	43873	44592	8	733
IV	44592	53763	8	9174
IV	53763	70480	8	16737
IV	70480	70606	8	126
IV	70606	70670	8	64
IV	70670	83344	8	12676
IV	83344	83422	8	79
IV	83422	83604	8	519
IV	83604	85476	8	1872
IV	85476	85568	8	92
IV	85568	96350	8	10785
IV	96350	107128	8	10786
IV	107128	117834	8	10712
IV	117834	127565	8	9794
IV	127565	130464	8	2899
IV	130464	133720	8	3257
IV	133720	133772	8	52
IV	133772	134186	8	414
IV	134186	134249	7	63
IV	134249	144781	8	10536
IV	144781	155308	8	10536
IV	155308	165776	8	10536
IV	165776	176182	8	10535
IV	176182	186703	8	10536
IV	186703	197238	8	10536
IV	197238	207771	8	10536
IV	207771	218064	8	10368
IV	218064	218128	8	64
IV	218128	218357	8	229
IV	218357	220370	8	2014
IV	220370	220426	5	56
IV	220426	220516	6	90
IV	220516	221983	8	1467
IV	221983	222027	8	44
IV	222027	222158	8	131
IV	222158	222249	8	91
IV	222249	222311	8	62
IV	222311	222410	8	99
IV	222410	222466	8	56
IV	222466	227661	8	5195
IV	227661	227725	8	64
IV	227725	227770	7	45
IV	227770	228121	7	351
IV	228121	228185	8	64
IV	228185	238821	8	10696
IV	238821	249779	8	11052
IV	249779	260828	8	11052
IV	260828	271778	8	10952
IV	271778	282827	8	11052
IV	282827	293870	8	11052
IV	293870	304919	8	11052
IV	304919	315964	8	11052
IV	315964	327022	8	11060
IV	327022	327086	8	64
IV	327086	327150	8	64
IV	327150	337920	8	10792
IV	337920	348707	8	10792
IV	348707	359497	8	10794
IV	359497	359534	3	37
IV	359534	359567	8	33
IV	359567	372162	8	12603
IV	372162	384482	8	12411
IV	384482	384539	6	63
IV	384539	397501	8	12966
IV	397501	410458	8	12967
IV	410458	422396	8	11938
IV	422396	434322	8	11938
IV	434322	434391	7	106
IV	434391	434424	8	67
IV	434424	434482	8	58
IV	434482	434510	2	28
IV	434510	434708	8	198
IV	434708	434739	6	31
IV	434739	437156	8	2423
IV	437156	437535	1	379
IV	437535	437602	8	67
IV	437602	437665	8	63
IV	437665	437791	2	126
IV	437791	437831	6	40
IV	437831	444134	8	6309
IV	444134	444191	3	57
IV	444191	444254	4	63
IV	444254	458063	8	13818
IV	458063	471851	8	13818
IV	471851	488728	8	16923
IV	488728	488807	7	113
IV	488807	501475	8	12752
IV	501475	514020	8	12749
IV	514020	520744	1	6724
IV	520744	520809	2	66
IV	520809	520833	3	30
IV	520833	527249	8	6569
IV	527249	535010	1	7761
IV	535010	549787	8	14790
IV	549787	564338	8	14639
IV	564338	568877	8	4633
IV	568877	568934	6	57
IV	568934	568981	3	50
IV	568981	569004	8	23
IV	569004	569059	8	55
IV	569059	569122	8	63
IV	569122	581801	8	12682
IV	581801	581864	8	73
IV	581864	593137	8	11380
IV	593137	604283	8	11385
IV	604283	604288	8	35
IV	604288	604331	8	43
IV	604331	619966	8	15772
IV	619966	632327	8	12942
IV	632327	645209	8	12951
IV	645209	645244	3	51
IV	645244	645305	8	61
IV	645305	645419	1	114
IV	645419	645493	4	74
IV	645493	645580	3	87
IV	645580	651417	1	5837
IV	651417	651441	6	24
IV	651441	651482	4	41
IV	651482	651565	5	83
IV	651565	651609	6	48
IV	651609	651775	5	166
IV	651775	651845	7	101
IV	651845	651853	6	21
IV	651853	651882	7	80
IV	651882	651931	3	49
IV	651931	651943	5	61
IV	651943	654380	8	2447
IV	654380	668639	8	14325
IV	668639	668702	7	63
IV	668702	668836	8	136
IV	668836	677026	8	8190
IV	677026	686998	8	10051
IV	686998	696962	8	10022
IV	696962	707041	8	10083
IV	707041	717124	8	10083
IV	717124	727183	8	10083
IV	727183	737264	8	10083
IV	737264	747332	8	10083
IV	747332	757366	8	10072
IV	757366	757403	3	37
IV	757403	757444	6	41
IV	757444	757480	6	36
IV	757480	757514	2	34
IV	757514	757571	5	57
IV	757571	757650	6	100
IV	757650	757733	3	83
IV	757733	757784	3	51
IV	757784	757829	4	45
IV	757829	757871	6	42
IV	757871	757939	5	68
IV	757939	758003	4	64
IV	758003	758062	7	59
IV	758062	758125	3	63
IV	758125	758156	8	31
IV	758156	758189	4	33
IV	758189	758219	5	30
IV	758219	759337	1	1118
IV	759337	759365	5	28
IV	759365	759503	1	138
IV	759503	759539	4	36
IV	759539	759577	1	38
IV	759577	759622	4	45
IV	759622	759691	7	69
IV	759691	759755	5	64
IV	759755	759811	5	56
IV	759811	759874	6	63
IV	759874	770453	8	10582
IV	770453	780799	8	10430
IV	780799	791380	8	10582
IV	791380	801899	8	10583
IV	801899	802740	8	848
IV	802740	802924	8	184
IV	802924	805738	1	2814
IV	805738	816751	8	11028
IV	816751	827772	8	11028
IV	827772	838785	8	11028
IV	838785	849806	8	11028
IV	849806	860834	8	11028
IV	860834	871820	8	11029
IV	871820	877784	1	5964
IV	877784	877820	4	36
IV	877820	877857	5	59
IV	877857	877907	5	52
IV	877907	877937	8	30
IV	877937	877978	8	42
IV	877978	878302	8	324
IV	878302	884225	1	5923
IV	884225	884415	8	190
IV	884415	884578	8	163
IV	884578	891184	8	6619
IV	891184	909729	8	18546
IV	909729	915369	5	5640
IV	915369	922990	8	7623
IV	922990	923053	5	63
IV	923053	923102	7	77
IV	923102	923165	6	63
IV	923165	934357	8	11204
IV	934357	945396	8	11039
IV	945396	945438	8	42
IV	945438	945486	6	48
IV	945486	945536	4	76
IV	945536	945600	5	65
IV	945600	945663	8	63
IV	945663	945720	7	57
IV	945720	945783	8	63
IV	945783	945886	8	103
IV	945886	946052	4	166
IV	946052	946233	1	181
IV	946233	946290	6	57
IV	946290	946344	4	54
IV	946344	955004	8	8681
IV	955004	966496	7	11493
IV	966496	966692	8	507
IV	966692	980340	7	13653
IV	980340	980521	8	182
IV	980521	981034	7	603
IV	981034	981232	8	198
IV	981232	981244	7	12
IV	981244	981442	2	198
IV	981442	981484	1	42
IV	981484	981504	6	20
IV	981504	992493	1	10989
IV	992493	992529	4	39
IV	992529	992581	3	52
IV	992581	992642	1	61
IV	992642	992839	8	197
IV	992839	1003066	8	10231
IV	1003066	1013270	8	10231
IV	1013270	1023059	8	10159
IV	1023059	1023138	7	79
IV	1023138	1023222	8	84
IV	1023222	1023561	7	339
IV	1023561	1037878	8	14319
IV	1037878	1052195	8	14320
IV	1052195	1052262	7	121
IV	1052262	1052308	4	46
IV	1052308	1063951	8	11693
IV	1063951	1075643	8	11693
IV	1075643	1087988	8	12349
IV	1087988	1088263	2	275
IV	1088263	1088326	4	63
IV	1088326	1095760	8	7435
IV	1095760	1101691	1	5931
IV	1101691	1108586	8	6921
IV	1108586	1120477	8	11895
IV	1120477	1120540	8	64
IV	1120540	1132707	8	12183
IV	1132707	1144890	8	12184
IV	1144890	1144933	8	43
IV	1144933	1151234	8	6375
IV	1151234	1151262	4	28
IV	1151262	1151284	2	22
IV	1151284	1151331	6	47
IV	1151331	1151403	5	76
IV	1151403	1151504	6	104
IV	1151504	1151617	5	113
IV	1151617	1151740	8	123
IV	1151740	1154131	8	2391
IV	1154131	1154160	8	29
IV	1154160	1154583	1	423
IV	1154583	1155397	2	814
IV	1155397	1155870	1	473
IV	1155870	1159552	5	3710
IV	1159552	1159615	8	63
IV	1159615	1159677	7	160
IV	1159677	1159733	5	56
IV	1159733	1159975	8	242
IV	1159975	1160768	8	793
IV	1160768	1160799	7	31
IV	1160799	1161161	6	384
IV	1161161	1163167	8	2008
IV	1163167	1163230	8	63
IV	1163230	1163252	7	22
IV	1163252	1163315	3	63
IV	1163315	1164148	8	833
IV	1164148	1164366	6	218
IV	1164366	1175148	8	10816
IV	1175148	1175172	7	24
IV	1175172	1175214	6	42
IV	1175214	1175247	8	33
IV	1175247	1175316	8	69
IV	1175316	1175420	6	104
IV	1175420	1175471	2	51
IV	1175471	1175556	7	85
IV	1175556	1175586	8	30
IV	1175586	1175666	8	80
IV	1175666	1175701	8	35
IV	1175701	1188763	8	13062
IV	1188763	1201826	8	13063
IV	1201826	1201910	8	85
IV	1201910	1206706	8	4797
IV	1206706	1212629	1	5923
IV	1212629	1222831	8	10207
IV	1222831	1233031	8	10207
IV	1233031	1243229	8	10207
IV	1243229	1244983	4	1754
IV	1244983	1245046	8	63
IV	1245046	1245155	4	109
IV	1245155	1257032	8	11936
IV	1257032	1257095	8	63
IV	1257095	1257352	5	258
IV	1257352	1267407	8	10070
IV	1267407	1277477	8	10073
IV	1277477	1287537	8	10073
IV	1287537	1297532	8	10073
IV	1297532	1307607	8	10076
IV	1307607	1307732	8	335
IV	1307732	1307738	4	238
IV	1307738	1307822	1	84
IV	1307822	1307877	5	55
IV	1307877	1307918	4	41
IV	1307918	1307953	3	35
IV	1307953	1308149	2	196
IV	1308149	1308227	6	78
IV	1308227	1308257	6	30
IV	1308257	1308341	4	84
IV	1308341	1308366	5	25
IV	1308366	1308465	6	99
IV	1308465	1308494	5	29
IV	1308494	1308534	7	40
IV	1308534	1319515	8	10981
IV	1319515	1330493	8	10981
IV	1330493	1341471	8	10981
IV	1341471	1352452	8	10984
IV	1352452	1352494	7	42
IV	1352494	1352646	8	152
IV	1352646	1352740	5	94
IV	1352740	1352787	6	47
IV	1352787	1352822	6	35
IV	1352822	1352859	5	40
IV	1352859	1352966	1	107
IV	1352966	1363622	8	10924
IV	1363622	1374546	8	10924
IV	1374546	1385467	8	10924
IV	1385467	1396377	8	10924
IV	1396377	1407293	8	10924
IV	1407293	1418208	8	10924
IV	1418208	1429111	8	10924
IV	1429111	1440023	8	10924
IV	1440023	1450942	8	10924
IV	1450942	1461840	8	10926
IV	1461840	1472290	8	10483
IV	1472290	1482773	8	10483
IV	1482773	1493244	8	10483
IV	1493244	1503723	8	10483
IV	1503723	1513764	8	10179
IV	1513764	1518791	3	5035
IV	1518791	1518852	2	61
IV	1518852	1519279	3	429
IV	1519279	1521250	8	2029
IV	1521250	1523277	3	2032
IV	1523277	1524082	1	805
IV	1524082	1524163	7	82
IV	1524163	1524214	8	51
IV	1524214	1524429	1	215
IV	1524429	1524493	2	64
IV	1524493	1524518	2	25
IV	1524518	1525380	1	862
IV	1525380	1525529	4	174
IV	1525529	1531933	1	6404
XI	0	24	5	27
XI	24	90	6	72
XI	90	196	2	106
XI	196	1767	1	1571
XI	1767	1849	6	82
XI	1849	2510	1	661
XI	2510	2654	8	144
XI	2654	2732	4	81
XI	2732	2757	6	25
XI	2757	3352	8	599
XI	3352	3415	5	63
XI	3415	3478	5	63
XI	3478	5535	2	2057
XI	5535	5587	4	52
XI	5587	5650	4	63
XI	5650	14361	3	8713
XI	14361	25224	8	10897
XI	25224	36119	8	10897
XI	36119	47014	8	10897
XI	47014	59330	8	12316
XI	59330	71642	8	12316
XI	71642	83699	8	12229
XI	83699	83756	8	57
XI	83756	84034	8	280
XI	84034	95427	8	11480
XI	95427	107006	8	11580
XI	107006	118570	8	11578
XI	118570	130093	8	11568
XI	130093	141029	8	11355
XI	141029	141075	6	46
XI	141075	141127	8	52
XI	141127	141153	5	26
XI	141153	141222	2	69
XI	141222	141291	3	69
XI	141291	141983	4	692
XI	141983	142959	8	977
XI	142959	144462	4	1503
XI	144462	144526	5	64
XI	144526	144624	8	98
XI	144624	144722	6	98
XI	144722	144849	7	166
XI	144849	144855	5	28
XI	144855	154825	8	10024
XI	154825	164844	8	10024
XI	164844	179409	8	14759
XI	179409	194140	8	14759
XI	194140	202643	8	8509
XI	202643	202682	1	39
XI	202682	202988	2	307
XI	202988	203057	8	69
XI	203057	219765	8	17046
XI	219765	219828	6	63
XI	219828	219912	8	85
XI	219912	219951	5	39
XI	219951	230620	7	10671
XI	230620	241265	7	10671
XI	241265	251930	7	10671
XI	251930	262590	7	10671
XI	262590	273259	7	10671
XI	273259	283912	7	10672
XI	283912	302326	8	18433
XI	302326	302389	7	63
XI	302389	302445	6	56
XI	302445	302520	5	75
XI	302520	302583	8	63
XI	302583	313596	8	11215
XI	313596	313760	1	164
XI	313760	313795	4	35
XI	313795	313856	4	61
XI	313856	313918	8	62
XI	313918	322088	8	8176
XI	322088	333658	8	11572
XI	333658	345207	8	11622
XI	345207	356501	8	11307
XI	356501	367987	8	11559
XI	367987	379606	8	11624
XI	379606	379670	8	64
XI	379670	379692	7	63
XI	379692	384950	8	5369
XI	384950	385105	8	155
XI	385105	396813	8	11916
XI	396813	408731	8	11919
XI	408731	420648	8	11919
XI	420648	432542	8	11920
XI	432542	432573	5	31
XI	432573	432659	5	86
XI	432659	445363	8	12714
XI	445363	458076	8	12715
XI	458076	458139	8	63
XI	458139	458201	7	62
XI	458201	458412	1	211
XI	458412	458471	8	59
XI	458471	458483	8	12
XI	458483	458546	5	63
XI	458546	458608	2	62
XI	458608	468933	8	10422
XI	468933	479851	8	10922
XI	479851	490768	8	10922
XI	490768	490978	8	215
XI	490978	510638	6	19676
XI	510638	510701	4	63
XI	510701	510825	8	125
XI	510825	513220	6	2395
XI	513220	513283	5	63
XI	513283	513341	8	59
XI	513341	513794	8	454
XI	513794	513857	7	63
XI	513857	517306	8	3457
XI	517306	517455	8	149
XI	517455	517601	1	146
XI	517601	517784	8	183
XI	517784	517861	8	77
XI	517861	517985	8	127
XI	517985	518048	7	63
XI	518048	518119	6	82
XI	518119	524048	8	6001
XI	524048	528506	5	4480
XI	528506	541775	8	13270
XI	541775	555046	8	13271
XI	555046	566829	8	11785
XI	566829	578598	8	11786
XI	578598	578656	5	58
XI	578656	578719	6	63
XI	578719	579011	8	292
XI	579011	579067	4	56
XI	579067	579130	7	63
XI	579130	590402	8	11433
XI	590402	601834	8	11433
XI	601834	613223	8	11394
XI	613223	613454	7	231
XI	613454	613537	8	83
XI	613537	613850	7	343
XI	613850	617494	6	3651
XI	617494	617573	7	82
XI	617573	627169	8	9603
XI	627169	637193	8	10034
XI	637193	647261	8	10074
XI	647261	647909	1	648
XI	647909	648207	8	807
XI	648207	651947	8	3749
XI	651947	652054	8	107
XI	652054	652169	8	115
XI	652169	658571	8	6406
XI	658571	658634	8	63
XI	658634	658699	7	65
XI	658699	660469	6	1770
XI	660469	660532	6	63
XI	660532	660887	8	380
XI	660887	660966	7	79
XI	660966	661107	5	141
XI	661107	661243	3	136
XI	661243	662502	4	1265
XI	662502	662552	3	50
XI	662552	664396	7	1864
XI	664396	664466	7	82
XI	664466	665223	7	757
XI	665223	665286	4	63
XI	665286	665344	7	58
XI	665344	665407	4	63
XI	665407	665528	6	168
XI	665528	665605	5	100
XI	665605	665682	7	77
XI	665682	665739	6	62
XI	665739	665769	7	30
XI	665769	665804	6	35
XI	665804	665866	7	64
XI	665866	665975	8	109
XI	665975	666053	3	78
XI	666053	666122	2	69
XI	666122	666186	6	64
XI	666186	666303	2	120
XI	666303	666342	3	39
XI	666342	666380	3	38
XI	666380	666437	5	57
XI	666437	666486	5	83
XI	666486	666568	5	85
XI	666568	666685	2	117
XI	666685	666732	6	63
XI	666732	666766	5	34
XI	666766	666816	1	50
IX	0	219	5	280
IX	219	12140	1	11921
IX	12140	24061	1	11921
IX	24061	24133	2	72
IX	24133	24426	7	371
IX	24426	24509	4	83
IX	24509	24572	2	63
IX	24572	24619	4	47
IX	24619	24651	4	32
IX	24651	24714	7	63
IX	24714	25708	8	994
IX	25708	37357	8	11682
IX	37357	46239	8	8886
IX	46239	56630	8	10403
IX	56630	67033	8	10403
IX	67033	76899	8	9873
IX	76899	87302	8	10403
IX	87302	97704	8	10403
IX	97704	107898	8	10330
IX	107898	118301	8	10403
IX	118301	128702	8	10405
IX	128702	137104	8	8405
IX	137104	149566	8	12569
IX	149566	162380	8	12822
IX	162380	175116	8	12824
IX	175116	175169	8	53
IX	175169	185926	8	10765
IX	185926	196647	8	10768
IX	196647	197023	1	376
IX	197023	197063	8	40
IX	197063	197121	8	58
IX	197121	197327	8	206
IX	197327	197429	5	102
IX	197429	197516	5	97
IX	197516	197579	6	63
IX	197579	197602	6	28
IX	197602	197637	4	35
IX	197637	205145	8	7510
IX	205145	205223	6	78
IX	205223	205281	3	58
IX	205281	210555	1	5274
IX	210555	210586	2	31
IX	210586	210649	6	63
IX	210649	210683	2	34
IX	210683	221111	8	10428
IX	221111	231460	8	10354
IX	231460	231524	7	65
IX	231524	231559	7	35
IX	231559	231643	7	84
IX	231643	231667	6	24
IX	231667	231727	2	60
IX	231727	231777	6	59
IX	231777	241050	8	9303
IX	241050	245761	8	4712
IX	245761	248662	8	2908
IX	248662	248910	8	248
IX	248910	249055	8	148
IX	249055	249776	8	721
IX	249776	259841	8	10070
IX	259841	269904	8	10070
IX	269904	279943	8	10070
IX	279943	290009	8	10070
IX	290009	300062	8	10073
IX	300062	300406	8	345
IX	300406	300616	8	210
IX	300616	300656	6	40
IX	300656	300689	7	34
IX	300689	301452	6	763
IX	301452	303070	8	1618
IX	303070	317449	8	14419
IX	317449	317512	6	63
IX	317512	317775	8	263
IX	317775	317838	6	63
IX	317838	324242	8	6405
IX	324242	324295	8	53
IX	324295	324373	7	78
IX	324373	324481	6	108
IX	324481	324736	1	255
IX	324736	324777	5	41
IX	324777	324857	3	80
IX	324857	324888	4	36
IX	324888	324915	6	27
IX	324915	324926	6	11
IX	324926	325171	1	245
IX	325171	325768	3	597
IX	325768	325803	6	35
IX	325803	336288	8	10590
IX	336288	336310	3	22
IX	336310	336360	4	50
IX	336360	336816	8	461
IX	336816	336938	6	122
IX	336938	339105	8	2170
IX	339105	339168	2	63
IX	339168	339238	4	70
IX	339238	352869	8	13642
IX	352869	366503	8	13641
IX	366503	366585	6	82
IX	366585	366616	3	31
IX	366616	366679	6	63
IX	366679	370148	8	3469
IX	370148	370236	4	88
IX	370236	370459	5	223
IX	370459	382864	4	12429
IX	382864	385656	2	2792
IX	385656	389985	8	4398
IX	389985	390080	7	123
IX	390080	391105	8	1408
IX	391105	391294	7	189
IX	391294	391356	7	62
IX	391356	391512	8	259
IX	391512	391665	7	189
IX	391665	391705	8	46
IX	391705	391804	4	124
IX	391804	391861	5	57
IX	391861	391907	4	46
IX	391907	391983	3	88
IX	391983	392027	3	44
IX	392027	392962	1	935
IX	392962	393060	8	104
IX	393060	394064	8	1051
IX	394064	394680	8	616
IX	394680	395054	6	389
IX	395054	395114	8	60
IX	395114	395245	8	131
IX	395245	397166	8	1922
IX	397166	397229	8	64
IX	397229	397302	8	73
IX	397302	411819	8	14517
IX	411819	426150	8	14417
IX	426150	426213	8	63
IX	426213	426268	6	55
IX	426268	426354	5	111
IX	426354	426425	5	71
IX	426425	432570	4	6212
IX	432570	432675	6	105
IX	432675	432714	4	39
IX	432714	433324	8	612
IX	433324	433387	3	63
IX	433387	433440	2	53
IX	433440	433486	7	46
IX	433486	433552	3	66
IX	433552	433681	5	151
IX	433681	433735	5	54
IX	433735	433833	5	98
IX	433833	433883	8	51
IX	433883	433954	8	71
IX	433954	434208	1	254
IX	434208	434256	3	48
IX	434256	434368	3	117
IX	434368	434532	1	164
IX	434532	434746	4	229
IX	434746	435292	4	548
IX	435292	435343	4	51
IX	435343	435849	8	515
IX	435849	437703	8	1949
IX	437703	437852	8	149
IX	437852	437972	7	120
IX	437972	438099	8	127
IX	438099	438134	8	35
IX	438134	438191	8	58
IX	438191	438255	3	65
IX	438255	439496	1	1241
IX	439496	439535	6	39
IX	439535	439561	5	26
IX	439561	439607	5	46
IX	439607	439770	5	163
IX	439770	439882	4	164
IX	439882	439888	5	6
Mito	0	253	8	309
Mito	253	558	8	601
Mito	558	1172	7	1068
Mito	1172	1818	7	790
Mito	1818	3359	6	1801
Mito	3359	3382	2	23
Mito	3382	3664	2	282
Mito	3664	3794	7	141
Mito	3794	3925	2	131
Mito	3925	4152	1	227
Mito	4152	4192	6	95
Mito	4192	4860	8	941
Mito	4860	4926	1	67
Mito	4926	5105	8	321
Mito	5105	5273	3	169
Mito	5273	5447	8	174
Mito	5447	5513	5	137
Mito	5513	8795	8	4055
Mito	8795	8858	7	63
Mito	8858	8863	8	24
Mito	8863	9767	8	1611
Mito	9767	9770	8	33
Mito	9770	9803	8	64
Mito	9803	16115	8	8009
Mito	16115	16184	7	70
Mito	16184	16409	8	225
Mito	16409	17497	8	1095
Mito	17497	17565	8	68
Mito	17565	26004	8	9668
Mito	26004	26067	2	63
Mito	26067	26085	8	18
Mito	26085	26149	3	64
Mito	26149	26386	8	237
Mito	26386	30327	8	4875
Mito	30327	30409	7	99
Mito	30409	30921	6	537
Mito	30921	31029	2	108
Mito	31029	32464	1	1435
Mito	32464	32822	8	753
Mito	32822	32992	7	182
Mito	32992	33097	8	113
Mito	33097	35066	8	2902
Mito	35066	35345	7	292
Mito	35345	36279	8	1214
Mito	36279	36302	2	23
Mito	36302	36463	1	161
Mito	36463	36523	5	62
Mito	36523	38953	8	2963
Mito	38953	38983	7	30
Mito	38983	42611	8	4171
Mito	42611	42899	8	289
Mito	42899	43167	6	369
Mito	43167	43819	7	754
Mito	43819	43932	8	127
Mito	43932	43978	8	94
Mito	43978	44090	8	119
Mito	44090	44795	7	747
Mito	44795	44877	6	82
Mito	44877	44941	2	64
Mito	44941	45918	7	1384
Mito	45918	45981	5	120
Mito	45981	46157	5	184
Mito	46157	48007	7	2074
Mito	48007	54047	8	8707
Mito	54047	54164	7	117
Mito	54164	54173	8	38
Mito	54173	54582	7	656
Mito	54582	54640	8	58
Mito	54640	54761	7	121
Mito	54761	54871	6	371
Mito	54871	54923	7	52
Mito	54923	54986	8	63
Mito	54986	55327	7	742
Mito	55327	55536	6	209
Mito	55536	55693	7	157
Mito	55693	55777	8	85
Mito	55777	55843	8	116
Mito	55843	55908	8	68
Mito	55908	56200	7	292
Mito	56200	56259	8	93
Mito	56259	56301	7	42
Mito	56301	56364	8	66
Mito	56364	56616	7	253
Mito	56616	56617	8	39
Mito	56617	56637	8	30
Mito	56637	56700	8	64
Mito	56700	62388	8	6535
Mito	62388	63463	7	1686
Mito	63463	63522	6	59
Mito	63522	63673	7	290
Mito	63673	70625	8	9060
Mito	70625	77217	8	9125
Mito	77217	77362	6	145
Mito	77362	82385	8	7939
Mito	82385	82448	8	63
Mito	82448	82532	7	84
Mito	82532	82583	5	51
Mito	82583	82666	8	83
Mito	82666	82729	6	64
Mito	82729	85715	7	3701
Mito	85715	85779	8	66
