Chr	Start	Stop	BlockSize	BlockLength
VIII	240	338	8	98
VIII	375	376	8	1
VIII	558	644	8	86
VIII	2361	2452	8	91
VIII	2452	2612	8	160
VIII	2612	2781	8	169
VIII	6700	6747	8	47
VIII	6747	6953	8	206
VIII	6953	7038	8	85
VIII	7038	11961	8	4935
VIII	11984	11985	8	1
VIII	12121	12205	8	84
VIII	12237	12265	8	28
VIII	12664	15131	8	2467
VIII	15131	20161	8	5033
VIII	20197	35147	8	14951
VIII	35147	35203	8	56
VIII	35214	35215	8	1
VIII	55590	55653	8	63
VIII	55690	56426	8	742
VIII	56432	56438	8	6
VIII	56441	56441	8	1
VIII	56441	62713	8	6277
VIII	62725	62816	8	91
VIII	62816	62849	8	33
VIII	62861	63657	8	797
VIII	69155	69225	8	70
VIII	69225	71379	8	2159
VIII	71379	71457	8	78
VIII	77872	78014	8	142
VIII	78020	78893	8	882
VIII	78908	81740	8	2835
VIII	81750	81867	8	118
VIII	81888	82048	8	161
VIII	82048	84523	8	2484
VIII	84535	85310	8	783
VIII	85310	85433	8	123
VIII	85451	85507	8	57
VIII	85524	85539	8	15
VIII	104896	104943	8	48
VIII	105016	105040	8	24
VIII	105040	105093	8	53
VIII	105093	111524	8	6432
VIII	111546	116162	8	4616
VIII	116162	116421	8	260
VIII	116758	125841	8	9115
VIII	125853	131643	8	5795
VIII	131659	132937	8	1278
VIII	133002	133045	8	47
VIII	133084	133086	8	2
VIII	133118	133751	8	660
VIII	134049	134086	8	37
VIII	134086	134172	8	86
VIII	134334	134427	8	93
VIII	146550	146557	8	7
VIII	146575	146594	8	19
VIII	146607	146610	8	3
VIII	146670	146671	8	1
VIII	146828	146881	8	63
VIII	146881	147047	8	166
VIII	176431	176832	8	401
VIII	176852	177226	8	374
VIII	177246	178672	8	1432
VIII	187084	188949	8	1871
VIII	188959	192683	8	3724
VIII	192859	192913	8	54
VIII	194176	194382	8	206
VIII	194382	212265	8	17884
VIII	214262	229679	8	15421
VIII	229742	230017	8	275
VIII	230080	236902	8	6822
VIII	236977	237844	8	867
VIII	237888	237934	8	46
VIII	237934	237992	8	58
VIII	238170	238286	8	116
VIII	238356	278926	8	40577
VIII	278945	288295	8	9353
VIII	288410	293266	8	4858
VIII	293287	336190	8	42931
VIII	336206	340067	8	3861
VIII	340076	358513	8	18439
VIII	358524	358777	8	253
VIII	358777	358840	8	63
VIII	358840	358949	8	109
VIII	359007	359153	8	146
VIII	359153	359178	8	25
VIII	359178	365397	8	6219
VIII	365418	370537	8	5120
VIII	370553	374505	8	3952
VIII	374518	382134	8	7618
VIII	382238	386089	8	3877
VIII	386109	388892	8	2784
VIII	389509	396945	8	7497
VIII	396945	399044	8	2099
VIII	399056	399112	8	56
VIII	399112	409537	8	10428
VIII	409591	413623	8	4071
VIII	413629	420551	8	6931
VIII	420578	451325	8	30760
VIII	451325	452210	8	885
VIII	452210	455681	8	3472
VIII	455681	455797	8	116
VIII	455797	455861	8	64
VIII	455861	461613	8	5754
VIII	461619	461629	8	10
VIII	461635	461672	8	37
VIII	461818	461864	8	46
VIII	461870	462004	8	136
VIII	462025	462897	8	877
VIII	462897	462931	8	34
VIII	462931	463930	8	1002
VIII	465032	465594	8	566
VIII	465612	465727	8	122
VIII	466980	468078	8	1100
VIII	468095	471328	8	3253
VIII	475765	504479	8	28718
VIII	505147	508795	8	3649
VIII	508863	508864	8	1
VIII	525676	525979	8	306
VIII	527984	528081	8	97
VIII	528417	528877	8	460
VIII	528885	530053	8	1178
VIII	530073	532638	8	2565
VIII	532661	536703	8	4048
VIII	536973	536979	8	6
VIII	536996	539416	8	2421
VIII	539554	539860	8	306
VIII	539869	540080	8	212
VIII	540080	540710	8	631
VIII	542001	542089	8	88
VIII	542147	542355	8	208
VIII	550239	550310	8	71
VIII	550328	550353	8	25
VIII	550387	550399	8	12
VIII	550407	550475	8	73
VIII	550491	550675	8	194
VIII	550680	551222	8	833
VIII	553556	554049	8	499
VIII	554078	554424	8	352
VIII	556060	556079	8	19
VIII	556101	556102	8	1
XVI	317	397	8	80
XVI	476	587	8	111
XVI	587	753	8	167
XVI	753	813	8	60
XVI	813	856	8	43
XVI	856	923	8	67
XVI	923	985	8	66
XVI	985	1337	8	352
XVI	1930	1977	8	47
XVI	1984	2073	8	92
XVI	2970	3007	8	37
XVI	5304	5332	8	28
XVI	5478	5535	8	57
XVI	5882	5913	8	31
XVI	5988	6064	8	76
XVI	6137	6214	8	77
XVI	8745	9033	8	288
XVI	9044	9512	8	468
XVI	9527	11256	8	1731
XVI	11269	11924	8	655
XVI	11924	12003	8	79
XVI	12265	12823	8	558
XVI	12831	13188	8	357
XVI	13195	13253	8	58
XVI	13253	14793	8	1540
XVI	14824	14887	8	63
XVI	14887	15104	8	217
XVI	15104	15167	8	63
XVI	15167	15231	8	64
XVI	15231	15497	8	298
XVI	15497	15518	8	51
XVI	15518	15573	8	55
XVI	15573	15637	8	64
XVI	15637	15668	8	31
XVI	15675	15771	8	96
XVI	15771	15797	8	26
XVI	15797	15831	8	34
XVI	15831	16367	8	536
XVI	16379	16940	8	561
XVI	16948	16948	8	1
XVI	17898	19357	8	1460
XVI	19378	19405	8	27
XVI	25970	38889	8	12920
XVI	38899	56212	8	17326
XVI	56215	56215	8	1
XVI	63068	63962	8	906
XVI	63975	63976	8	1
XVI	63976	64167	8	194
XVI	64187	64347	8	161
XVI	64376	79503	8	15131
XVI	79545	85395	8	5850
XVI	85411	96415	8	11006
XVI	96431	96760	8	329
XVI	96760	97518	8	758
XVI	98299	108296	8	10003
XVI	108308	126525	8	18246
XVI	126541	132458	8	5923
XVI	132472	135804	8	3332
XVI	136489	144683	8	8197
XVI	144704	162370	8	17666
XVI	162382	174093	8	11713
XVI	174569	174632	8	63
XVI	174632	185376	8	10744
XVI	185389	187307	8	1918
XVI	187313	193934	8	6647
XVI	194018	194082	8	64
XVI	194082	194142	8	60
XVI	194142	210243	8	16101
XVI	210243	210410	8	167
XVI	210410	211563	8	1153
XVI	211912	239126	8	27217
XVI	239147	244262	8	5118
XVI	244276	260940	8	16665
XVI	260946	281363	8	20422
XVI	281420	296842	8	15423
XVI	296858	298496	8	1640
XVI	298512	312937	8	14430
XVI	312945	377266	8	64336
XVI	377266	377290	8	24
XVI	405555	407949	8	2394
XVI	408005	422785	8	14780
XVI	422794	436488	8	13700
XVI	443138	444151	8	1013
XVI	444164	453454	8	9294
XVI	453474	453572	8	98
XVI	453587	453629	8	42
XVI	453641	460660	8	7020
XVI	460670	462152	8	1482
XVI	462152	462247	8	98
XVI	462261	463518	8	1267
XVI	463518	463606	8	88
XVI	463606	480290	8	16690
XVI	480299	481316	8	1017
XVI	481367	485921	8	4557
XVI	485927	488382	8	2459
XVI	488398	490107	8	1710
XVI	490132	502646	8	12517
XVI	502646	502666	8	20
XVI	502687	503271	8	584
XVI	503395	507199	8	3804
XVI	507297	520968	8	13674
XVI	520997	521024	8	27
XVI	521046	521079	8	33
XVI	521106	521164	8	58
XVI	521175	522100	8	934
XVI	522105	536719	8	14643
XVI	536758	543618	8	6861
XVI	543689	560222	8	16536
XVI	560227	560227	8	1
XVI	560233	560472	8	239
XVI	560472	560539	8	67
XVI	560539	560554	8	15
XVI	560764	569006	8	8243
XVI	569029	569030	8	1
XVI	572374	581334	8	8975
XVI	581347	581348	8	1
XVI	581348	581494	8	147
XVI	581504	582080	8	577
XVI	582224	591714	8	9555
XVI	591736	596423	8	4689
XVI	596423	600554	8	4131
XVI	600570	603517	8	2948
XVI	603517	603589	8	72
XVI	603606	603667	8	61
XVI	603667	607461	8	3797
XVI	607477	615258	8	7784
XVI	615258	615361	8	103
XVI	615424	621900	8	6479
XVI	621909	622566	8	657
XVI	622578	628855	8	6279
XVI	628868	650441	8	21615
XVI	650441	650464	8	23
XVI	650464	650489	8	25
XVI	650537	655079	8	4548
XVI	689584	695610	8	6028
XVI	695627	698520	8	2893
XVI	698534	700602	8	2069
XVI	701971	711621	8	9651
XVI	711640	728627	8	16988
XVI	728649	731359	8	2710
XVI	731359	731571	8	212
XVI	744277	744282	8	5
XVI	744295	744346	8	51
XVI	769300	769323	8	23
XVI	769323	769412	8	89
XVI	769426	769427	8	1
XVI	769610	769682	8	72
XVI	769682	769873	8	191
XVI	769993	773704	8	3713
XVI	773724	775778	8	2055
XVI	775826	775949	8	123
XVI	776006	776046	8	40
XVI	776166	776786	8	620
XVI	776813	777104	8	292
XVI	781537	804645	8	23172
XVI	810568	814895	8	4332
XVI	814897	818536	8	3640
XVI	818541	819515	8	974
XVI	819548	819659	8	111
XVI	819675	821936	8	2261
XVI	821951	830791	8	8850
XVI	830801	832885	8	2092
XVI	832912	837806	8	4897
XVI	837828	838020	8	192
XVI	838020	840620	8	2600
XVI	840645	840994	8	349
XVI	841014	844240	8	3226
XVI	844240	844355	8	115
XVI	844355	844399	8	44
XVI	844411	844412	8	1
XVI	850339	850613	8	274
XVI	850613	850637	8	24
XVI	856915	860178	8	3334
XVI	860178	860299	8	121
XVI	860337	860351	8	14
XVI	860389	876238	8	15850
XVI	876244	886448	8	10212
XVI	886464	892130	8	5669
XVI	892140	897079	8	4939
XVI	927531	927895	8	364
XVI	929674	929885	8	211
XVI	930473	932704	8	2231
XVI	932704	937555	8	4851
XVI	937626	937676	8	51
XVI	937676	938546	8	870
XVI	938930	939133	8	204
XVI	939167	939830	8	664
XVI	944171	944408	8	237
XVI	946573	946605	8	32
XVI	947732	947742	8	10
XVI	947790	947791	8	1
XVI	947807	947903	8	96
X	32104	33348	8	1251
X	33394	33407	8	13
X	33471	33493	8	22
X	33512	33527	8	15
X	33557	33564	8	7
X	33589	33609	8	20
X	33654	36381	8	2741
X	36397	36674	8	278
X	36690	37820	8	1138
X	37836	37846	8	10
X	37860	56313	8	18455
X	56327	59074	8	2747
X	59113	59484	8	371
X	59496	74420	8	14943
X	74489	76559	8	2070
X	76570	99497	8	22942
X	99525	105104	8	5582
X	105171	114865	8	9701
X	114895	115872	8	977
X	115953	121019	8	5069
X	121132	122441	8	1311
X	122441	122687	8	249
X	122708	134106	8	11400
X	134123	136905	8	2782
X	136924	147796	8	10880
X	147796	153522	8	5747
X	153522	154943	8	1422
X	154959	156816	8	1857
X	156943	159500	8	2559
X	159508	159508	8	1
X	159571	164229	8	4660
X	197351	197510	8	159
X	197553	197619	8	67
X	204300	204402	8	123
X	204402	204472	8	75
X	204755	204949	8	194
X	204965	207446	8	2481
X	207463	238197	8	30749
X	238262	238926	8	664
X	238926	239033	8	107
X	239033	265890	8	26863
X	265890	291889	8	26015
X	291903	294426	8	2571
X	294450	297590	8	3174
X	297592	317074	8	19498
X	317092	338550	8	21461
X	338986	342342	8	3356
X	342359	349402	8	7043
X	349412	353915	8	4504
X	353960	354600	8	641
X	354612	354613	8	1
X	355042	355140	8	99
X	355180	355215	8	35
X	355215	355369	8	154
X	355473	355601	8	128
X	355601	358017	8	2417
X	358037	358207	8	172
X	358223	366852	8	8630
X	366859	366909	8	50
X	366912	366912	8	1
X	367040	367140	8	100
X	367268	367318	8	50
X	367318	374343	8	7025
X	374406	374461	8	55
X	374556	374666	8	110
X	374729	374824	8	95
X	374928	378226	8	3299
X	378344	378381	8	37
X	378506	391000	8	12505
X	391013	391428	8	415
X	391447	396738	8	5303
X	396779	399776	8	3046
X	399800	400098	8	310
X	400122	400148	8	35
X	400421	400447	8	26
X	400496	400498	8	2
X	400511	400512	8	1
X	400528	400549	8	21
X	400549	401005	8	489
X	401026	401959	8	945
X	401983	402018	8	35
X	402066	404060	8	1997
X	404084	414987	8	10906
X	414987	415033	8	46
X	415050	415099	8	49
X	415099	415971	8	872
X	415983	416259	8	276
X	416261	416275	8	14
X	416557	422998	8	6446
X	423021	423080	8	59
X	423080	424453	8	1373
X	424485	424915	8	430
X	424938	448813	8	23902
X	448869	453745	8	4899
X	453904	453968	8	64
X	453968	453994	8	26
X	454006	454017	8	11
X	454143	454144	8	1
X	454303	456066	8	1763
X	456092	457897	8	1805
X	457919	464349	8	6436
X	464365	470125	8	5760
X	470131	470136	8	6
X	470148	472457	8	2310
X	483972	497093	8	13126
X	497107	497297	8	190
X	497314	519156	8	21844
X	519169	519246	8	77
X	519279	525710	8	6438
X	525725	531705	8	5984
X	531753	531821	8	68
X	531843	531844	8	1
X	531844	531966	8	122
X	531966	537815	8	5854
X	538434	539484	8	1050
X	539519	540853	8	1335
X	540865	541059	8	194
X	541581	542982	8	1403
X	542982	543596	8	614
X	543705	543938	8	233
X	543957	549981	8	6047
X	549991	551992	8	2006
X	580287	594181	8	13903
X	594205	604376	8	10172
X	604455	617962	8	13519
X	617973	620109	8	2139
X	620135	639205	8	19355
X	639205	639211	8	6
X	639224	639513	8	289
X	639559	639702	8	143
X	639727	639984	8	257
X	639990	641870	8	1882
X	641877	658132	8	16296
X	658132	658647	8	515
X	658689	661110	8	2428
X	661141	661758	8	617
X	661781	661941	8	160
X	661941	662853	8	912
X	662870	663547	8	695
X	663563	663627	8	65
X	663644	663942	8	298
X	663960	701764	8	37823
X	701787	701868	8	81
X	701880	702030	8	152
X	702030	709118	8	7092
X	709142	711503	8	2361
X	711524	712783	8	1259
X	712905	712939	8	34
X	713104	714139	8	1035
X	714514	714970	8	652
X	714972	715002	8	30
X	715009	715220	8	278
X	715227	727368	8	12148
X	728460	728551	8	91
X	729160	729178	8	18
X	729209	729210	8	1
X	730050	730116	8	66
X	730119	730127	8	8
X	730128	730528	8	422
X	745681	745702	8	21
X	745718	745719	8	1
VII	7224	7255	8	31
VII	8009	8620	8	619
VII	8782	10898	8	2123
VII	11579	20881	8	9329
VII	20908	21511	8	604
VII	21529	44514	8	22996
VII	44514	52576	8	8077
VII	52610	53130	8	522
VII	53163	56218	8	3064
VII	56231	56601	8	372
VII	56601	69380	8	12788
VII	69387	69387	8	1
VII	69387	70159	8	772
VII	70205	73911	8	3707
VII	73911	73964	8	53
VII	73987	74167	8	185
VII	74167	75468	8	1376
VII	75486	78996	8	3513
VII	79026	80599	8	1573
VII	80623	110687	8	30082
VII	111698	115363	8	3692
VII	115374	115403	8	29
VII	115531	115593	8	62
VII	115593	117602	8	2012
VII	117641	139168	8	21529
VII	139248	140286	8	1040
VII	140329	154573	8	14253
VII	154589	156099	8	1510
VII	156140	158910	8	2770
VII	158948	164423	8	5475
VII	164515	167616	8	3107
VII	167632	173134	8	5502
VII	173221	187346	8	14127
VII	187407	192242	8	4835
VII	192266	205337	8	13072
VII	205337	205395	8	58
VII	205395	205566	8	171
VII	205581	224842	8	19286
VII	224848	228047	8	3219
VII	228056	232317	8	4261
VII	232423	245648	8	13226
VII	245659	254655	8	8996
VII	255231	278774	8	23558
VII	278782	278782	8	1
VII	278782	278784	8	2
VII	278812	280045	8	1233
VII	280141	280170	8	29
VII	280182	287400	8	7218
VII	287405	287405	8	1
VII	287405	298087	8	10682
VII	298103	307186	8	9083
VII	307224	319274	8	12053
VII	319940	323356	8	3416
VII	323380	324201	8	838
VII	324233	324446	8	213
VII	324448	324539	8	91
VII	324556	324953	8	398
VII	327403	328066	8	663
VII	328077	328078	8	1
VII	328078	328153	8	75
VII	328226	328321	8	95
VII	328327	328493	8	166
VII	328556	328596	8	40
VII	328633	328725	8	93
VII	328788	338238	8	9451
VII	338268	340214	8	1946
VII	340288	364404	8	24144
VII	364404	364467	8	63
VII	364880	366192	8	1312
VII	366210	377579	8	11370
VII	377587	378020	8	433
VII	378038	379156	8	1118
VII	379174	385699	8	6525
VII	385762	385836	8	74
VII	385899	386698	8	799
VII	387005	400547	8	13546
VII	400559	401516	8	958
VII	402456	402568	8	113
VII	402586	402819	8	233
VII	402840	403073	8	234
VII	403091	403135	8	44
VII	403450	403490	8	40
VII	403507	403634	8	147
VII	403649	403650	8	1
VII	405304	405409	8	105
VII	405421	405510	8	90
VII	405516	405516	8	1
VII	405521	413255	8	7736
VII	413309	420910	8	7603
VII	420910	421036	8	126
VII	421036	422986	8	1952
VII	422986	423025	8	39
VII	423025	423049	8	24
VII	423049	423075	8	26
VII	423075	423151	8	76
VII	423151	423260	8	109
VII	423260	429772	8	6515
VII	429808	439384	8	9588
VII	439384	440557	8	1180
VII	440557	440664	8	107
VII	440678	440714	8	36
VII	440776	440893	8	145
VII	440905	440912	8	7
VII	440924	441105	8	182
VII	441117	442146	8	1030
VII	442209	442429	8	220
VII	442441	443048	8	611
VII	443060	446301	8	3251
VII	446313	448892	8	2586
VII	448930	449266	8	336
VII	449279	452394	8	3116
VII	452394	464391	8	12003
VII	464391	467700	8	3312
VII	467712	467730	8	18
VII	467742	469218	8	1479
VII	469263	470799	8	1536
VII	470799	479563	8	8765
VII	479579	479750	8	179
VII	479750	482644	8	2894
VII	482654	484346	8	1711
VII	484358	484893	8	546
VII	484905	485841	8	954
VII	485853	489691	8	3848
VII	489703	494401	8	4709
VII	494413	495325	8	918
VII	495337	496865	8	1538
VII	496877	497022	8	149
VII	497034	497108	8	75
VII	497120	498002	8	883
VII	498019	498202	8	184
VII	498214	502444	8	4236
VII	502465	502594	8	130
VII	502606	502727	8	123
VII	502739	505978	8	3248
VII	505990	508594	8	2620
VII	508610	508761	8	155
VII	508773	508780	8	7
VII	508791	511018	8	2229
VII	511030	511334	8	304
VII	511346	517534	8	6192
VII	517546	517680	8	134
VII	517691	517771	8	80
VII	517783	517871	8	88
VII	517883	518291	8	408
VII	518303	519113	8	813
VII	519174	520340	8	1169
VII	520352	521393	8	1046
VII	521405	522164	8	761
VII	522176	522190	8	14
VII	522202	522942	8	742
VII	522954	522991	8	37
VII	523003	523811	8	812
VII	523811	530019	8	6227
VII	530024	530657	8	644
VII	530667	531623	8	959
VII	531634	531839	8	205
VII	531855	535219	8	3369
VII	541562	541607	8	45
VII	541681	541755	8	74
VII	541867	541947	8	80
VII	541947	555975	8	14048
VII	556002	561587	8	5588
VII	561587	561644	8	57
VII	561756	561783	8	27
VII	561783	561831	8	48
VII	561844	561845	8	1
VII	567760	568735	8	978
VII	574700	574869	8	169
VII	574884	593359	8	18480
VII	593359	593369	8	10
VII	593386	610126	8	16746
VII	610126	617913	8	7795
VII	617913	618046	8	133
VII	618046	627076	8	9030
VII	627446	639668	8	12224
VII	639693	640611	8	920
VII	640635	644767	8	4133
VII	644799	648516	8	3718
VII	648736	652010	8	3285
VII	652135	653242	8	1107
VII	653273	661672	8	8457
VII	661672	678019	8	16431
VII	678102	687516	8	9415
VII	687534	699896	8	12362
VII	699914	699991	8	77
VII	700017	700286	8	269
VII	700286	700349	8	63
VII	700349	700372	8	23
VII	700372	700484	8	112
VII	700484	700542	8	58
VII	700542	701099	8	558
VII	701117	701162	8	45
VII	701297	707066	8	5770
VII	707119	707189	8	70
VII	712545	720129	8	7584
VII	720148	733109	8	12972
VII	733126	735523	8	2397
VII	735523	735552	8	29
VII	736350	736516	8	167
VII	736516	736568	8	52
VII	736568	736618	8	50
VII	736618	739041	8	2424
VII	739128	739175	8	47
VII	739175	739177	8	2
VII	739190	739206	8	16
VII	739220	739239	8	19
VII	739255	739698	8	444
VII	739710	746569	8	6863
VII	746588	753165	8	6577
VII	753171	753290	8	123
VII	753314	763876	8	10567
VII	763876	773929	8	10073
VII	773941	774401	8	460
VII	774416	778927	8	4516
VII	778927	778982	8	55
VII	779080	779213	8	133
VII	779213	779268	8	55
VII	779268	807372	8	28260
VII	807382	807532	8	156
VII	807534	807868	8	334
VII	807882	808380	8	499
VII	808399	811440	8	3041
VII	823323	823463	8	140
VII	823463	828745	8	5285
VII	828745	828808	8	63
VII	828808	845465	8	16658
VII	845658	845874	8	216
VII	845891	848525	8	2634
VII	848536	853179	8	4645
VII	853282	857385	8	4103
VII	857449	869335	8	11895
VII	869411	875995	8	6587
VII	876186	876436	8	250
VII	876480	876619	8	140
VII	876619	876935	8	316
VII	876947	877179	8	232
VII	877239	878759	8	1520
VII	878771	878865	8	94
VII	878867	878909	8	42
VII	879136	879232	8	96
VII	879242	879317	8	75
VII	879317	882633	8	3323
VII	882633	882743	8	111
VII	882743	882820	8	77
VII	882820	883033	8	213
VII	883467	890895	8	7443
VII	890895	890959	8	64
VII	891152	910090	8	18942
VII	910090	910106	8	16
VII	910120	910121	8	1
VII	910121	931157	8	21040
VII	931169	931170	8	1
VII	931170	931252	8	85
VII	931541	931682	8	141
VII	932019	933301	8	1282
VII	933301	933365	8	64
VII	933365	933429	8	64
VII	933429	949016	8	15590
VII	949016	949099	8	84
VII	949111	949148	8	37
VII	949148	949199	8	51
VII	949199	949247	8	48
VII	949266	949282	8	16
VII	949282	959786	8	10513
VII	959808	961263	8	1470
VII	961283	964759	8	3511
VII	964759	977908	8	13153
VII	977923	979748	8	1825
VII	979758	982255	8	2498
VII	982262	985722	8	3461
VII	985732	985733	8	1
VII	985740	987109	8	1372
VII	987109	993905	8	6853
VII	993905	1000925	8	7030
VII	1000925	1004501	8	3577
VII	1004514	1043762	8	39267
VII	1043773	1048404	8	4631
VII	1048415	1048634	8	219
VII	1048645	1057705	8	9064
VII	1057783	1063408	8	5627
VII	1063417	1067097	8	3681
VII	1067113	1068371	8	1258
VII	1068700	1068806	8	106
VII	1068806	1068847	8	41
VII	1068847	1068989	8	142
VII	1069008	1069047	8	40
VII	1069067	1069186	8	123
VII	1069203	1069227	8	25
VII	1069247	1069351	8	115
VII	1069364	1069462	8	115
VII	1069492	1069509	8	17
VII	1069534	1069537	8	3
VII	1069554	1069568	8	14
VII	1069586	1069598	8	12
VII	1069628	1069630	8	2
VII	1069655	1069758	8	165
VII	1069774	1069805	8	36
VII	1069840	1069857	8	17
VII	1069898	1069961	8	81
VII	1069978	1070091	8	129
VII	1070109	1070136	8	27
VII	1070154	1070530	8	383
VII	1076976	1077028	8	52
VII	1077046	1077065	8	19
VII	1077278	1079223	8	1945
VII	1079223	1079350	8	127
VII	1079350	1079736	8	386
VII	1079736	1079951	8	215
VII	1079951	1080020	8	69
VII	1080138	1080238	8	101
VII	1080266	1080267	8	1
VII	1080778	1080838	8	60
VII	1080838	1081033	8	195
VII	1081054	1081165	8	115
VII	1081177	1081682	8	505
VII	1081682	1081878	8	196
VII	1081896	1082145	8	249
VII	1090598	1090653	8	55
III	661	1049	8	402
III	1049	1184	8	139
III	4074	4135	8	61
III	11225	11506	8	282
III	11506	11571	8	65
III	11698	11782	8	84
III	13796	13859	8	63
III	13921	13937	8	16
III	14000	18462	8	4464
III	18474	27658	8	9192
III	27670	29477	8	1807
III	29486	29578	8	92
III	29578	41581	8	12003
III	41591	41592	8	1
III	41649	42000	8	351
III	42018	44546	8	2528
III	44590	45689	8	1099
III	45825	50314	8	4520
III	50333	52434	8	2108
III	52450	57084	8	4634
III	57084	57223	8	139
III	57237	57238	8	1
III	82728	82741	8	13
III	82751	82759	8	8
III	83039	84067	8	1028
III	84088	84115	8	27
III	84351	84622	8	273
III	84643	84655	8	12
III	84684	84815	8	131
III	90437	90460	8	23
III	90487	90564	8	77
III	90920	91299	8	379
III	91309	99229	8	7921
III	99229	101871	8	2642
III	101884	120483	8	18610
III	120513	122584	8	2071
III	122596	124122	8	1530
III	124471	127528	8	3057
III	127575	127729	8	155
III	127729	142710	8	14983
III	143051	143286	8	235
III	143406	149406	8	6001
III	149406	149478	8	72
III	149928	151536	8	1610
III	151727	168383	8	16663
III	168400	168427	8	27
III	169111	169201	8	90
III	169544	177621	8	8077
III	177690	198670	8	20998
III	200040	200313	8	273
III	200313	200434	8	121
III	200434	200913	8	479
III	201019	201081	8	62
III	201097	204412	8	3315
III	204430	205730	8	1303
III	205895	208080	8	2186
III	208097	209782	8	1686
III	209797	225631	8	15839
III	225655	227842	8	2197
III	227842	227851	8	9
III	227869	227904	8	35
III	227904	230999	8	3098
III	231017	233777	8	2760
III	233819	234887	8	1068
III	234893	242441	8	7554
III	242457	247960	8	5503
III	247974	249308	8	1335
III	249344	260021	8	10677
III	260028	263324	8	3297
III	263336	264209	8	873
III	264237	266529	8	2292
III	266538	268593	8	2058
III	269047	269080	8	33
III	269267	270992	8	1821
III	271020	271488	8	468
III	271510	273019	8	1509
III	273036	291221	8	18194
III	291233	291570	8	338
III	291595	292566	8	971
III	292582	293031	8	452
III	293128	293193	8	65
III	293673	293965	8	292
III	293965	294378	8	413
III	294441	294484	8	43
III	294547	294703	8	156
III	295544	299030	8	3490
III	299221	299927	8	706
III	299954	303152	8	3199
III	306036	306711	8	677
III	306723	306787	8	65
III	306798	307094	8	296
III	307104	307190	8	86
III	307200	307201	8	1
III	307919	308026	8	107
III	308194	308310	8	118
III	308357	308420	8	63
III	316014	316064	8	50
XIII	5702	5721	8	19
XIII	5742	5743	8	1
XIII	6276	6298	8	22
XIII	6305	6305	8	1
XIII	6305	6331	8	26
XIII	6331	6394	8	64
XIII	6394	6437	8	43
XIII	7307	7518	8	211
XIII	7518	7575	8	57
XIII	7588	7944	8	356
XIII	7957	8121	8	170
XIII	8121	8150	8	29
XIII	8150	8321	8	171
XIII	8321	21920	8	13606
XIII	21959	22020	8	61
XIII	22020	26544	8	4529
XIII	26596	26810	8	217
XIII	26827	35729	8	8926
XIII	35729	41947	8	6269
XIII	41960	44391	8	2435
XIII	44407	45958	8	1551
XIII	45964	65922	8	19978
XIII	65938	86983	8	21049
XIII	87057	87058	8	1
XIII	87058	90412	8	3354
XIII	90539	90597	8	58
XIII	90660	95628	8	4969
XIII	95628	95727	8	99
XIII	95739	99593	8	3858
XIII	99611	103920	8	4313
XIII	103932	104806	8	879
XIII	130193	131494	8	1301
XIII	131494	131551	8	57
XIII	131551	131742	8	191
XIII	131742	131836	8	94
XIII	131983	132046	8	63
XIII	132046	132694	8	649
XIII	132707	133071	8	364
XIII	133077	146081	8	13037
XIII	146100	164386	8	18307
XIII	164405	165369	8	964
XIII	165385	165416	8	31
XIII	165436	168307	8	2873
XIII	168319	168322	8	3
XIII	168613	168628	8	15
XIII	168699	168769	8	70
XIII	168781	168821	8	40
XIII	168833	169470	8	640
XIII	169491	183959	8	14471
XIII	183959	184164	8	205
XIII	184332	184368	8	44
XIII	184368	184368	8	1
XIII	190083	190186	8	103
XIII	190186	190243	8	57
XIII	190243	191984	8	1741
XIII	191995	196182	8	4263
XIII	196182	196331	8	211
XIII	202172	209063	8	6892
XIII	209079	209865	8	786
XIII	209881	234634	8	24753
XIII	234757	238757	8	4001
XIII	238778	239347	8	571
XIII	239371	256658	8	17299
XIII	256681	259337	8	2657
XIII	259370	259389	8	23
XIII	259408	259409	8	1
XIII	259502	280712	8	21250
XIII	280744	290791	8	10058
XIII	290820	321153	8	30348
XIII	321164	321322	8	158
XIII	321333	339551	8	18221
XIII	339551	339739	8	190
XIII	339739	344097	8	4365
XIII	344097	354568	8	10477
XIII	354589	355018	8	430
XIII	355046	357005	8	1968
XIII	362698	362903	8	205
XIII	363204	367518	8	4314
XIII	367537	372500	8	4964
XIII	372500	372549	8	49
XIII	372573	372690	8	117
XIII	378621	379553	8	933
XIII	379553	379651	8	98
XIII	379651	380304	8	653
XIII	380319	388678	8	8362
XIII	388704	409188	8	20492
XIII	409215	409511	8	296
XIII	409522	421166	8	11887
XIII	421166	430267	8	9108
XIII	430278	433347	8	3074
XIII	433366	463591	8	30232
XIII	463605	480554	8	16950
XIII	480617	480672	8	55
XIII	480683	480684	8	1
XIII	480684	480741	8	57
XIII	480880	483737	8	2860
XIII	483753	484199	8	446
XIII	484214	489735	8	5524
XIII	489759	503764	8	14013
XIII	504140	504367	8	227
XIII	504954	538621	8	33819
XIII	538651	539493	8	842
XIII	539509	541121	8	1614
XIII	541151	541430	8	279
XIII	541435	561873	8	20443
XIII	561884	564240	8	2357
XIII	564246	572825	8	8579
XIII	572825	572943	8	118
XIII	572943	586686	8	13747
XIII	586686	586834	8	148
XIII	586834	587633	8	800
XIII	587655	588575	8	923
XIII	588575	588599	8	138
XIII	588602	599616	8	11016
XIII	599900	600044	8	144
XIII	600405	600627	8	222
XIII	600885	601215	8	330
XIII	601363	601826	8	463
XIII	602837	602965	8	128
XIII	603032	608982	8	5950
XIII	609017	609044	8	27
XIII	609068	609069	8	1
XIII	609069	609113	8	44
XIII	609131	609135	8	4
XIII	609518	609599	8	81
XIII	609780	609801	8	21
XIII	609819	609828	8	9
XIII	609842	622170	8	12332
XIII	622177	622537	8	360
XIII	622581	625408	8	2830
XIII	625437	625702	8	265
XIII	625717	632663	8	6948
XIII	632726	633029	8	303
XIII	633035	633449	8	414
XIII	634207	645226	8	11019
XIII	645226	645342	8	117
XIII	645342	645414	8	72
XIII	645500	646820	8	1320
XIII	646857	651854	8	4997
XIII	651867	651881	8	14
XIII	651881	651933	8	52
XIII	651933	654911	8	2979
XIII	654927	674865	8	19940
XIII	674865	695624	8	20761
XIII	695636	701296	8	5663
XIII	701296	756834	8	55541
XIII	756834	756915	8	81
XIII	756915	756954	8	39
XIII	756978	757044	8	66
XIII	757044	758899	8	1858
XIII	758915	768380	8	9525
XIII	768879	808534	8	39686
XIII	808906	822586	8	13703
XIII	822624	822626	8	2
XIII	822645	828317	8	5672
XIII	828341	837987	8	9647
XIII	838019	851727	8	13710
XIII	851750	861844	8	10101
XIII	861851	861899	8	52
XIII	861915	874013	8	12101
XIII	874026	878826	8	4800
XIII	878827	908154	8	29340
XIII	908238	908437	8	199
XIII	908560	916518	8	7961
XIII	916549	917493	8	945
II	8273	8421	8	156
II	9614	9669	8	55
II	9732	29638	8	19906
II	35602	35763	8	161
II	35786	35807	8	21
II	36453	36507	8	54
II	36507	36620	8	113
II	36620	36684	8	64
II	36684	36748	8	64
II	36748	40589	8	3844
II	40598	43098	8	2500
II	43122	59978	8	16857
II	59983	59983	8	1
II	59983	68295	8	8319
II	68321	84456	8	16140
II	84467	84633	8	166
II	84633	88478	8	3845
II	88495	88521	8	26
II	88521	88584	8	63
II	88584	88924	8	340
II	88924	115433	8	26516
II	115448	122580	8	7138
II	122594	123305	8	711
II	123385	126271	8	2886
II	126271	126342	8	71
II	126349	126349	8	1
II	126349	133882	8	7562
II	133900	137602	8	3710
II	137615	137648	8	33
II	137673	145912	8	8244
II	145924	150345	8	4421
II	150351	159731	8	9383
II	159731	159786	8	55
II	159797	159798	8	1
II	159798	159919	8	121
II	159926	159926	8	1
II	159926	161343	8	1417
II	161343	165875	8	4534
II	165917	165919	8	2
II	165935	169283	8	3354
II	169294	169894	8	600
II	169904	169959	8	55
II	169978	169979	8	1
II	188408	188727	8	319
II	188741	197510	8	8777
II	197982	198029	8	47
II	198029	198092	8	63
II	198092	198181	8	89
II	198239	205761	8	7524
II	205774	217248	8	11476
II	217269	220811	8	3542
II	220829	221050	8	240
II	226892	226945	8	53
II	226976	237927	8	10955
II	238093	255446	8	17358
II	255536	258987	8	3452
II	259005	259578	8	573
II	265500	266167	8	667
II	266178	272531	8	6354
II	272551	274303	8	1754
II	274321	296117	8	21802
II	296135	299561	8	3427
II	299567	300027	8	464
II	300045	300164	8	119
II	305202	306234	8	1037
II	306244	307954	8	1721
II	307992	308636	8	652
II	308646	308692	8	46
II	308702	308855	8	157
II	308868	310706	8	1840
II	326811	327255	8	444
II	327376	327412	8	36
II	327532	333536	8	6007
II	333547	337088	8	3541
II	337100	337243	8	143
II	337246	338635	8	1406
II	338653	349416	8	10764
II	349416	349569	8	153
II	349569	349658	8	89
II	349658	351444	8	1786
II	351475	369802	8	18331
II	369802	371226	8	1424
II	371242	372345	8	1104
II	372375	381531	8	9161
II	381561	384502	8	2943
II	384502	386199	8	1697
II	386229	386238	8	9
II	386250	386503	8	253
II	386503	389482	8	2983
II	389520	389650	8	130
II	389662	389737	8	75
II	389749	391746	8	1998
II	391758	392730	8	974
II	392744	392868	8	125
II	392879	393223	8	346
II	393229	393496	8	273
II	393510	395461	8	1959
II	395494	397671	8	2180
II	397671	400939	8	3270
II	400945	405607	8	4668
II	405608	405611	8	3
II	405679	405722	8	43
II	405993	414258	8	8267
II	414269	417916	8	3650
II	417916	418814	8	900
II	418831	427776	8	8948
II	428541	428642	8	101
II	428958	429626	8	668
II	430681	452579	8	21902
II	452585	455241	8	2660
II	455286	462598	8	7356
II	462633	464013	8	1380
II	464046	464141	8	95
II	464250	467298	8	3049
II	467313	477083	8	9773
II	477105	477679	8	574
II	479050	486944	8	7901
II	486949	497364	8	10436
II	497431	499531	8	2100
II	499548	505215	8	5672
II	505219	528723	8	23519
II	528747	536473	8	7731
II	536497	541471	8	5012
II	541505	541596	8	91
II	541623	547261	8	5641
II	547279	559756	8	12483
II	559778	561217	8	1441
II	561241	563024	8	1784
II	563040	568710	8	5670
II	568726	576024	8	7298
II	576040	591711	8	15682
II	592332	600360	8	8032
II	605466	605740	8	278
II	605751	605816	8	66
II	605826	605964	8	138
II	605974	606315	8	344
II	606321	606539	8	220
II	606549	606711	8	162
II	606711	619129	8	12425
II	619200	628889	8	9691
II	628928	642994	8	14066
II	643012	643191	8	179
II	643255	643481	8	227
II	643857	644084	8	227
II	644130	644706	8	576
II	657562	657626	8	64
II	657626	660519	8	2893
II	660576	660702	8	126
II	660743	661542	8	799
II	661742	673533	8	11793
II	673543	679521	8	5980
II	679523	681984	8	2462
II	681995	702000	8	20025
II	702020	712777	8	10763
II	712801	746356	8	33556
II	746375	752132	8	5758
II	752266	757156	8	4890
II	757172	777908	8	20743
II	777934	780377	8	2458
II	780435	784829	8	4394
II	784843	788443	8	3603
II	788471	788557	8	87
II	788573	791883	8	3336
II	791910	792033	8	133
II	792057	792277	8	230
II	792316	792326	8	10
II	792364	792435	8	75
II	792464	792548	8	88
II	792568	792942	8	388
II	792969	793011	8	42
II	793052	793151	8	119
II	793151	793905	8	757
II	793923	796567	8	2848
II	796583	799773	8	3354
II	799824	799859	8	35
II	799903	800261	8	399
II	800304	801930	8	1634
II	801930	801988	8	86
II	802005	802029	8	24
II	802054	802161	8	113
II	802177	802266	8	97
II	802282	802464	8	185
II	802482	802494	8	12
II	802510	802569	8	59
II	802589	802590	8	1
II	802608	805646	8	3040
XIV	1129	1193	8	64
XIV	6109	6128	8	19
XIV	6145	6146	8	1
XIV	11627	12173	8	549
XIV	12183	12493	8	310
XIV	12675	12986	8	313
XIV	13823	13947	8	124
XIV	15344	15403	8	59
XIV	15794	15876	8	82
XIV	15940	16836	8	896
XIV	16849	23664	8	6820
XIV	23688	26635	8	2956
XIV	26647	26778	8	131
XIV	26791	28969	8	2180
XIV	28969	31540	8	2576
XIV	31561	33258	8	1698
XIV	33270	43276	8	10014
XIV	43288	44759	8	1471
XIV	44759	44826	8	67
XIV	44826	46861	8	2035
XIV	46861	51862	8	5001
XIV	51878	60206	8	8331
XIV	60223	61985	8	1763
XIV	61996	63617	8	1633
XIV	63626	87839	8	24215
XIV	87857	96446	8	8595
XIV	102435	102463	8	28
XIV	102484	102499	8	15
XIV	102552	102563	8	11
XIV	102640	102641	8	1
XIV	102698	102735	8	38
XIV	102735	104818	8	2083
XIV	104818	118981	8	14179
XIV	119000	129411	8	10412
XIV	129422	131640	8	2228
XIV	131640	135872	8	4236
XIV	135880	136875	8	995
XIV	136887	138049	8	1168
XIV	138059	138251	8	194
XIV	138261	138344	8	84
XIV	138354	138355	8	1
XIV	138365	138398	8	35
XIV	138408	138502	8	99
XIV	138512	138530	8	18
XIV	138543	139439	8	899
XIV	139451	144076	8	4635
XIV	144148	154918	8	10781
XIV	154928	154929	8	1
XIV	154929	155003	8	74
XIV	155003	167040	8	12055
XIV	167040	169545	8	2515
XIV	169555	169842	8	293
XIV	169852	206654	8	36989
XIV	252536	252553	8	17
XIV	252553	252595	8	42
XIV	252658	254035	8	1377
XIV	254035	254136	8	102
XIV	254146	254779	8	634
XIV	254903	255121	8	219
XIV	255131	256991	8	1864
XIV	257001	258211	8	1210
XIV	258221	259329	8	1117
XIV	259339	263342	8	4012
XIV	263357	264720	8	1374
XIV	264730	267469	8	2753
XIV	267484	268819	8	1335
XIV	268829	270161	8	1341
XIV	270171	270476	8	305
XIV	270486	271327	8	848
XIV	271344	274078	8	2751
XIV	274088	274173	8	85
XIV	274183	280076	8	5908
XIV	280086	280098	8	12
XIV	280108	282696	8	2595
XIV	282711	283743	8	1038
XIV	283753	283936	8	183
XIV	283946	287688	8	3746
XIV	287698	287744	8	46
XIV	287754	289476	8	1725
XIV	289486	290001	8	515
XIV	290049	290141	8	92
XIV	290151	291890	8	1742
XIV	291900	292903	8	1021
XIV	292932	293041	8	110
XIV	293051	295554	8	2506
XIV	295564	295720	8	156
XIV	295730	299552	8	3842
XIV	307244	309312	8	2069
XIV	309322	331908	8	22602
XIV	332006	333266	8	1260
XIV	333273	348887	8	15615
XIV	348909	357009	8	8107
XIV	357035	359340	8	2305
XIV	359378	359577	8	199
XIV	359594	381103	8	21511
XIV	381115	394305	8	13190
XIV	394315	397806	8	3491
XIV	397824	398548	8	724
XIV	398559	412088	8	13530
XIV	412098	413442	8	1346
XIV	413465	415101	8	1636
XIV	415108	426016	8	10934
XIV	426321	426378	8	57
XIV	426378	426431	8	53
XIV	426431	440840	8	14423
XIV	440856	441268	8	412
XIV	441303	442487	8	1185
XIV	442503	442814	8	381
XIV	442815	443054	8	239
XIV	443054	443112	8	58
XIV	443112	443256	8	144
XIV	443256	479321	8	36095
XIV	479321	479330	8	9
XIV	479341	479459	8	118
XIV	479468	486552	8	7085
XIV	486562	499938	8	13395
XIV	499949	503007	8	3061
XIV	503023	503514	8	492
XIV	503526	503986	8	460
XIV	512483	515979	8	3496
XIV	515996	519165	8	3170
XIV	519179	519180	8	1
XIV	525154	525539	8	387
XIV	525555	527476	8	1921
XIV	527506	529348	8	1842
XIV	529357	531504	8	2147
XIV	531515	542861	8	11349
XIV	542878	546737	8	3859
XIV	547205	552430	8	5226
XIV	553086	553207	8	121
XIV	560709	560762	8	53
XIV	560878	561419	8	556
XIV	561419	561476	8	57
XIV	568231	569718	8	1487
XIV	569880	571558	8	1680
XIV	571558	571643	8	85
XIV	571643	571667	8	24
XIV	571667	571692	8	25
XIV	571692	571791	8	99
XIV	571791	572552	8	779
XIV	572564	573378	8	814
XIV	573378	573437	8	59
XIV	573963	574012	8	49
XIV	574012	574033	8	21
XIV	574033	576876	8	2843
XIV	577089	579920	8	2833
XIV	598159	598232	8	74
XIV	598232	598266	8	34
XIV	602387	605714	8	3360
XIV	605728	605772	8	44
XIV	605785	631785	8	26039
XIV	631907	631962	8	55
XIV	631962	632021	8	59
XIV	632056	632108	8	52
XIV	632590	632615	8	25
XIV	632737	646585	8	13858
XIV	646597	651854	8	5258
XIV	651861	652051	8	193
XIV	652068	654642	8	2599
XIV	654654	662243	8	7592
XIV	662261	667317	8	5061
XIV	667342	694140	8	26799
XIV	694164	694961	8	797
XIV	694972	697524	8	2552
XIV	697537	703823	8	6286
XIV	703823	703887	8	64
XIV	703887	703951	8	67
XIV	703951	704308	8	389
XIV	704308	704308	8	8
XIV	704313	704458	8	145
XIV	704464	720276	8	15850
XIV	720282	720326	8	44
XIV	720326	720363	8	37
XIV	720363	720393	8	77
XIV	720393	720393	8	1
XIV	720393	725338	8	4945
XIV	725353	726069	8	718
XIV	726069	726116	8	47
XIV	726155	726217	8	62
XIV	726738	726744	8	6
XIV	726763	726764	8	1
XIV	737661	738667	8	1006
XIV	738694	742770	8	4088
XIV	742780	743510	8	733
XIV	743520	743966	8	449
XIV	743976	746231	8	2271
XIV	746241	746405	8	164
XIV	746415	746437	8	22
XIV	746447	746544	8	99
XIV	746554	746750	8	196
XIV	746760	746917	8	158
XIV	746927	747327	8	400
XIV	747367	747794	8	427
XIV	755328	755412	8	84
XIV	755412	755475	8	69
XIV	772171	772250	8	84
XIV	772250	772294	8	45
XIV	772713	772768	8	55
XIV	773058	774284	8	1226
XIV	774736	774800	8	64
XIV	774800	774836	8	36
XIV	774836	774924	8	88
XIV	776356	776516	8	161
XIV	776516	777552	8	1037
XIV	777567	778750	8	1183
XIV	778766	779314	8	548
XIV	779331	781077	8	1746
XIV	781099	781106	8	7
XIV	781106	781318	8	212
XIV	781374	781392	8	18
XIV	781418	781452	8	40
XIV	781534	781538	8	4
XIV	781589	781591	8	2
XIV	781633	781634	8	1
XIV	782588	782710	8	195
XIV	782734	782758	8	24
XIV	782758	782830	8	110
XIV	782877	782964	8	117
XIV	783077	783108	8	31
XIV	783184	783252	8	68
XIV	783252	783262	8	10
XIV	783281	783298	8	17
XIV	783314	783315	8	1
V	6691	6754	8	63
V	6817	6889	8	72
V	7128	10018	8	2891
V	10084	10120	8	36
V	10183	13224	8	3043
V	13345	14640	8	1295
V	14727	16076	8	1350
V	16092	18913	8	2821
V	18933	18951	8	18
V	18964	19368	8	406
V	23186	23278	8	94
V	23290	23653	8	367
V	23653	31440	8	7789
V	31453	36283	8	4834
V	36299	59354	8	23058
V	59369	61902	8	2535
V	62457	62461	8	4
V	62473	62474	8	1
V	62474	63804	8	1347
V	63968	63969	8	1
V	63981	79207	8	15237
V	79236	80127	8	891
V	80135	81188	8	1053
V	81224	83208	8	1984
V	83220	86487	8	3271
V	86499	86500	8	1
V	86662	99660	8	13002
V	99685	99912	8	227
V	100033	100141	8	108
V	100153	100362	8	210
V	100483	100574	8	94
V	100588	100589	8	1
V	100589	118156	8	17573
V	118220	122722	8	4502
V	122739	132560	8	9821
V	132577	135438	8	2862
V	136031	138508	8	2477
V	148107	175653	8	27555
V	175737	176945	8	1209
V	177072	177118	8	46
V	177118	192686	8	15570
V	192698	198590	8	5893
V	198598	202803	8	4207
V	202815	207096	8	4282
V	207221	208817	8	1597
V	208875	210578	8	1716
V	210693	213850	8	3158
V	213853	225392	8	11546
V	225731	225778	8	47
V	225793	241861	8	16069
V	241887	243662	8	1777
V	243680	249923	8	6276
V	250269	250300	8	31
V	256258	256297	8	39
V	256315	256376	8	61
V	261489	266902	8	5414
V	266913	267336	8	423
V	267400	275898	8	8507
V	275923	277768	8	1845
V	277972	284400	8	6433
V	284427	288503	8	4078
V	288640	288703	8	63
V	288703	288759	8	56
V	288759	289898	8	1139
V	290576	303733	8	13162
V	303749	305713	8	1964
V	305718	306908	8	1190
V	307090	312216	8	5129
V	312216	312248	8	32
V	312248	312274	8	26
V	312274	312359	8	85
V	312359	335297	8	22940
V	335312	354422	8	19113
V	354793	354999	8	206
V	355016	363300	8	8289
V	363640	369766	8	6126
V	369841	374758	8	4919
V	374772	382312	8	7543
V	382393	394151	8	11768
V	394151	394811	8	660
V	394811	394911	8	100
V	394911	395082	8	171
V	395082	397463	8	2409
V	397492	416834	8	19350
V	416910	431496	8	14590
V	431516	431531	8	15
V	431861	432004	8	143
V	432004	432059	8	55
V	432059	434551	8	2492
V	434599	434692	8	93
V	434971	436002	8	1031
V	436139	436139	8	1
V	436215	438196	8	1982
V	438196	438303	8	107
V	438310	438310	8	1
V	438310	438464	8	154
V	438719	438776	8	57
V	438776	443363	8	4587
V	443392	443393	8	1
V	443393	443450	8	57
V	443655	443682	8	27
V	443709	443730	8	21
V	443743	443749	8	6
V	449635	487831	8	38218
V	488105	492375	8	4273
V	492375	492414	8	39
V	498511	517527	8	19016
V	517548	522003	8	4456
V	522136	540722	8	18591
V	540759	544467	8	3709
V	544479	545186	8	707
V	545211	551296	8	6088
V	551296	566702	8	15430
V	566702	566951	8	249
V	567010	567100	8	90
V	567112	567135	8	23
V	569618	570028	8	440
V	570045	570046	8	1
V	570046	570060	8	55
XII	5755	5888	8	157
XII	11024	11054	8	30
XII	13898	14556	8	658
XII	14568	22805	8	8239
XII	22825	25559	8	2745
XII	25569	25571	8	2
XII	25581	27025	8	1447
XII	27035	28352	8	1331
XII	28362	28648	8	291
XII	28658	28804	8	148
XII	28814	29271	8	462
XII	29281	29356	8	75
XII	29365	29366	8	1
XII	29440	31836	8	2408
XII	31836	32122	8	290
XII	32132	32596	8	468
XII	32596	35277	8	2684
XII	35287	35517	8	234
XII	35853	37756	8	1925
XII	37884	40567	8	2693
XII	40577	41199	8	622
XII	41248	41394	8	146
XII	41406	46287	8	4881
XII	46307	47898	8	1592
XII	48437	48852	8	415
XII	48876	52021	8	3148
XII	52021	58839	8	6819
XII	58839	58903	8	64
XII	58903	58967	8	65
XII	58967	64227	8	5260
XII	92163	92589	8	426
XII	92602	92604	8	2
XII	92610	92610	8	1
XII	92659	93534	8	877
XII	93598	94895	8	1299
XII	95022	95757	8	738
XII	97044	97099	8	55
XII	97303	103767	8	6495
XII	103767	104829	8	1161
XII	104839	105412	8	573
XII	105422	125398	8	19979
XII	125409	129214	8	3805
XII	129232	132247	8	3035
XII	132262	151220	8	19193
XII	151230	161492	8	10262
XII	161492	167965	8	6474
XII	167997	168042	8	45
XII	222871	252906	8	30044
XII	252926	264082	8	11164
XII	264100	281000	8	16901
XII	281000	281036	8	37
XII	281043	281043	8	1
XII	281043	282501	8	1461
XII	282501	282684	8	184
XII	282699	302352	8	19655
XII	302352	323535	8	21188
XII	323535	323645	8	110
XII	323645	323709	8	64
XII	323709	327722	8	4014
XII	327722	329436	8	1714
XII	329537	339632	8	10102
XII	339632	339668	8	36
XII	339684	366128	8	26449
XII	366140	366888	8	748
XII	366888	366946	8	58
XII	366946	373896	8	6952
XII	374372	375288	8	917
XII	375299	375324	8	25
XII	375337	421490	8	46164
XII	421506	441519	8	20016
XII	441530	442824	8	1294
XII	442835	448659	8	5829
XII	448769	451417	8	2650
XII	460030	460094	8	64
XII	460181	460193	8	12
XII	460214	460215	8	1
XII	460228	460265	8	37
XII	460283	460310	8	27
XII	460334	460335	8	1
XII	463053	463117	8	64
XII	463296	463324	8	28
XII	463456	463479	8	23
XII	463534	463543	8	9
XII	463566	463567	8	1
XII	463567	463641	8	74
XII	464080	464142	8	62
XII	464142	464160	8	18
XII	464187	464188	8	1
XII	464636	464690	8	54
XII	464704	464705	8	1
XII	464909	464959	8	50
XII	464959	464981	8	22
XII	464981	465027	8	46
XII	465027	465098	8	71
XII	465756	465820	8	64
XII	465820	465864	8	44
XII	465864	465884	8	20
XII	465928	465966	8	38
XII	465966	466030	8	64
XII	466030	466086	8	56
XII	466306	466404	8	98
XII	466404	466429	8	25
XII	466559	466575	8	16
XII	466606	466614	8	8
XII	466632	466633	8	1
XII	466633	466664	8	31
XII	466697	466745	8	48
XII	466778	466789	8	11
XII	466789	466820	8	31
XII	466820	466863	8	43
XII	467009	467014	8	5
XII	467027	467028	8	1
XII	490538	490850	8	312
XII	514990	522250	8	7260
XII	522266	555552	8	33304
XII	555570	592560	8	37019
XII	592567	593126	8	559
XII	593143	593144	8	1
XII	593426	593478	8	52
XII	599055	605114	8	6069
XII	605291	605346	8	56
XII	605390	605676	8	286
XII	605692	628188	8	22497
XII	628188	645225	8	17040
XII	645241	646397	8	1166
XII	646397	650823	8	4426
XII	656748	657066	8	321
XII	657082	666007	8	8931
XII	666046	680912	8	14873
XII	680929	687545	8	6620
XII	687545	687581	8	36
XII	687599	699927	8	12335
XII	699947	699948	8	1
XII	712941	713180	8	239
XII	731726	731744	8	18
XII	731758	731759	8	1
XII	732000	732228	8	228
XII	734727	757466	8	22761
XII	757483	766497	8	9016
XII	766513	769156	8	2643
XII	769172	784386	8	15215
XII	784397	789104	8	4707
XII	789200	818474	8	29292
XII	818476	823436	8	5002
XII	823470	829392	8	5928
XII	829414	837513	8	8099
XII	837524	875417	8	37900
XII	875428	915069	8	39646
XII	915085	941191	8	26108
XII	947155	963017	8	15864
XII	963023	963023	8	1
XII	963023	963180	8	157
XII	963481	976036	8	12623
XII	976178	976319	8	141
XII	981700	1002919	8	21219
XII	1003461	1003700	8	239
XII	1003875	1024974	8	21112
XII	1024991	1031401	8	6413
XII	1031403	1041426	8	10026
XII	1041442	1052238	8	10798
XII	1052238	1053283	8	1046
XII	1053300	1053317	8	17
XII	1053333	1059358	8	6034
XII	1059370	1059611	8	241
XII	1059798	1061104	8	1306
XII	1062671	1062873	8	205
XII	1063817	1063926	8	109
XII	1064069	1064103	8	34
XII	1064702	1064733	8	38
XII	1064750	1064822	8	80
XII	1071702	1071716	8	14
XII	1077996	1078060	8	64
XII	1078060	1078157	8	97
XII	1078176	1078177	8	1
I	2682	2708	8	26
I	2708	2745	8	37
I	4737	4776	8	39
I	4776	5072	8	307
I	5090	5397	8	307
I	5397	5454	8	57
I	5454	6545	8	1093
I	6595	6596	8	1
I	6596	6694	8	98
I	6736	6804	8	68
I	6842	6859	8	17
I	6859	9844	8	2990
I	9857	10340	8	483
I	10586	11892	8	1314
I	11931	12255	8	324
I	12757	12768	8	11
I	12786	12813	8	28
I	12822	12822	8	1
I	12822	12845	8	28
I	12939	12991	8	52
I	12991	13025	8	37
I	13043	13066	8	23
I	25071	25178	8	110
I	25574	25599	8	25
I	25652	25662	8	10
I	27046	27537	8	494
I	27872	27938	8	66
I	27938	28207	8	270
I	28207	28263	8	56
I	28276	28277	8	1
I	28750	29425	8	712
I	29441	29587	8	226
I	29609	29754	8	156
I	29772	30606	8	869
I	30623	30913	8	424
I	30934	30984	8	59
I	31016	31122	8	111
I	31147	31186	8	48
I	31202	33400	8	2221
I	33414	34984	8	1575
I	34996	35117	8	122
I	35136	35336	8	200
I	35336	37176	8	1845
I	37198	37388	8	195
I	37400	37431	8	31
I	37443	40746	8	3306
I	40758	45634	8	4896
I	45634	46459	8	830
I	46459	51716	8	5257
I	51734	54798	8	3070
I	54822	56040	8	1220
I	56046	69813	8	13791
I	69835	70915	8	1082
I	70926	70927	8	1
I	94632	101275	8	6643
I	101295	110706	8	9411
I	110718	111651	8	933
I	111722	113535	8	1813
I	113573	138831	8	25260
I	139096	139118	8	22
I	139118	139191	8	75
I	139209	139374	8	165
I	139374	139398	8	24
I	139414	139767	8	353
I	140285	141044	8	759
I	141180	153593	8	12418
I	153617	160238	8	6627
I	166168	166334	8	166
I	166347	175081	8	8738
I	180294	180921	8	727
I	181045	181060	8	15
I	181126	181796	8	718
I	181814	182509	8	849
I	182509	182555	8	46
I	183141	183164	8	23
I	183191	183271	8	80
I	183407	183487	8	80
I	183504	183509	8	5
I	183550	183586	8	36
I	183603	183630	8	27
I	183673	183680	8	7
I	183680	183739	8	59
I	183745	184306	8	561
I	184330	185501	8	1218
I	185589	185712	8	124
I	185740	185832	8	99
I	199855	199902	8	47
I	199922	200044	8	122
I	202310	203734	8	1424
I	203806	203809	8	3
I	203833	203833	8	1
I	206748	206825	8	77
I	222051	222321	8	270
I	222418	223126	8	708
I	223151	225074	8	1924
I	225089	225590	8	501
I	225602	226224	8	622
VI	5196	5428	8	233
VI	12781	12854	8	82
VI	12872	13465	8	594
VI	13548	13690	8	142
VI	13827	13991	8	166
VI	30088	32496	8	2413
VI	32754	38724	8	5972
VI	38724	38787	8	63
VI	64572	65117	8	555
VI	65123	68882	8	3770
VI	68984	73369	8	4387
VI	73369	73403	8	34
VI	73403	75913	8	2521
VI	77783	77971	8	188
VI	78010	78519	8	509
VI	95710	96032	8	322
VI	96037	96539	8	502
VI	96539	98676	8	2155
VI	98698	99153	8	466
VI	99171	99330	8	159
VI	99359	100379	8	1020
VI	100397	101353	8	956
VI	101374	101375	8	1
VI	101437	103930	8	2497
VI	103946	104564	8	618
VI	104592	106875	8	2286
VI	106893	107774	8	881
VI	107829	115145	8	7316
VI	115187	117488	8	2301
VI	118029	137761	8	19736
VI	143649	143689	8	40
VI	143706	143712	8	6
VI	143727	143794	8	67
VI	143875	143883	8	8
VI	144204	144248	8	44
VI	144849	157946	8	13134
VI	157952	161948	8	4009
VI	161948	162100	8	152
VI	162113	162114	8	1
VI	162345	166620	8	4276
VI	166632	167368	8	736
VI	167368	167372	8	4
VI	167392	167435	8	43
VI	167472	168313	8	841
VI	168350	169653	8	1305
VI	169673	178078	8	8405
VI	178229	179306	8	1077
VI	179317	180962	8	1645
VI	180986	181301	8	315
VI	181311	181938	8	629
VI	182057	186175	8	4132
VI	186175	186217	8	42
VI	186249	191546	8	5301
VI	191557	191819	8	262
VI	191819	204836	8	13020
VI	205001	205135	8	134
VI	205945	206921	8	979
VI	210402	210509	8	107
VI	210528	210616	8	88
VI	210735	220600	8	9867
VI	220989	222191	8	1202
VI	222207	222923	8	716
VI	222945	226622	8	3681
VI	226645	226662	8	17
VI	226681	226779	8	98
VI	226794	227346	8	552
VI	227356	227472	8	116
VI	227488	232986	8	5498
VI	232999	245968	8	12981
VI	245981	253336	8	7355
VI	253348	255356	8	2020
VI	255375	256395	8	1047
VI	256411	256443	8	32
VI	256512	256518	8	6
VI	256622	259907	8	3875
VI	259923	260144	8	231
VI	260160	260935	8	812
VI	260952	261288	8	344
VI	261485	262010	8	625
VI	262031	262277	8	345
VI	262297	262333	8	74
VI	262355	262440	8	204
VI	262461	262509	8	50
VI	262528	262615	8	106
VI	262618	262826	8	223
VI	262844	263014	8	176
VI	263201	263219	8	18
VI	263294	263295	8	1
XV	873	929	8	81
XV	1286	1424	8	139
XV	1446	1494	8	48
XV	1520	1557	8	37
XV	12480	12515	8	35
XV	31456	31524	8	69
XV	31534	31535	8	1
XV	42612	42905	8	293
XV	43101	45687	8	2587
XV	45721	53933	8	8213
XV	53996	54004	8	32
XV	54067	55096	8	1029
XV	55128	57877	8	2749
XV	57877	57992	8	115
XV	57992	60226	8	2234
XV	61810	68020	8	6211
XV	72650	72711	8	61
XV	72723	73058	8	338
XV	76654	77109	8	458
XV	77130	77233	8	106
XV	77251	77290	8	40
XV	77292	77349	8	57
XV	77365	78553	8	1201
XV	92088	92468	8	380
XV	93036	93394	8	358
XV	93508	94829	8	1323
XV	94829	111018	8	16220
XV	111024	111024	8	1
XV	111024	111152	8	128
XV	111152	113529	8	2378
XV	113529	115125	8	1598
XV	115161	117689	8	2528
XV	123615	123618	8	3
XV	123635	160270	8	36640
XV	160321	161832	8	1514
XV	161847	197134	8	35308
XV	197152	200333	8	3181
XV	200356	204627	8	4273
XV	204638	209697	8	5059
XV	209768	209825	8	57
XV	209825	213883	8	4060
XV	213883	213975	8	93
XV	213975	216908	8	3019
XV	216908	218455	8	1549
XV	227485	227760	8	278
XV	228132	228172	8	40
XV	228225	228343	8	136
XV	228355	230021	8	1670
XV	230021	230105	8	84
XV	230105	235328	8	5227
XV	235328	235418	8	105
XV	235418	236196	8	784
XV	236214	236287	8	73
XV	236303	236957	8	654
XV	237014	238349	8	1335
XV	238360	238816	8	456
XV	238965	239615	8	650
XV	239737	269751	8	30021
XV	269751	269816	8	77
XV	274521	274590	8	69
XV	274590	274704	8	114
XV	274722	274723	8	1
XV	274723	277871	8	3152
XV	277887	282063	8	4177
XV	282126	282180	8	55
XV	288283	299968	8	11692
XV	300162	301209	8	1047
XV	301219	301298	8	79
XV	301314	304397	8	3088
XV	304397	304493	8	96
XV	304493	304602	8	109
XV	304602	307235	8	2635
XV	307259	315623	8	8369
XV	315633	315634	8	1
XV	315634	315748	8	114
XV	315811	316399	8	588
XV	316436	326189	8	9754
XV	326206	326670	8	466
XV	340353	342939	8	2586
XV	343044	344824	8	1780
XV	344905	344996	8	91
XV	345047	354210	8	9180
XV	354291	355081	8	816
XV	355103	361767	8	6664
XV	361818	372134	8	10323
XV	372148	414275	8	42349
XV	414275	418065	8	3814
XV	418081	421835	8	3754
XV	421851	427897	8	6047
XV	427915	427946	8	31
XV	427995	430165	8	2172
XV	430226	438285	8	8061
XV	438321	438682	8	420
XV	438682	448672	8	10000
XV	448692	459933	8	11243
XV	459939	459939	8	1
XV	459944	462770	8	2831
XV	462783	487301	8	24567
XV	487423	487449	8	26
XV	508869	508933	8	64
XV	508933	509040	8	107
XV	509040	520975	8	11950
XV	521041	521079	8	39
XV	521079	522829	8	1751
XV	522850	523462	8	612
XV	523872	534506	8	10635
XV	534548	535162	8	614
XV	535166	536843	8	1681
XV	536859	537050	8	191
XV	537070	537251	8	181
XV	537268	571007	8	33745
XV	571020	571807	8	787
XV	571975	575097	8	3123
XV	577023	579516	8	2495
XV	579525	581663	8	2138
XV	581675	594376	8	12708
XV	594376	594438	8	62
XV	594438	594823	8	385
XV	600742	609376	8	8639
XV	609397	630459	8	21074
XV	630492	663740	8	33274
XV	663949	663973	8	24
XV	663973	664802	8	829
XV	665152	667556	8	2407
XV	667579	669125	8	1547
XV	669132	670685	8	1553
XV	670773	675335	8	4564
XV	675458	682470	8	7015
XV	682492	685553	8	3063
XV	685560	699201	8	13641
XV	699213	702638	8	3425
XV	702653	703701	8	1048
XV	703701	703759	8	58
XV	703771	703772	8	1
XV	709563	709661	8	98
XV	710215	769927	8	59724
XV	769939	770618	8	679
XV	770631	805009	8	34387
XV	805025	815961	8	10938
XV	815979	818364	8	2385
XV	818380	822917	8	4538
XV	822931	846115	8	23236
XV	846186	853159	8	6974
XV	853169	854271	8	1102
XV	854628	854980	8	352
XV	855001	859576	8	4575
XV	859586	860885	8	1303
XV	860890	868052	8	7166
XV	868068	882613	8	14548
XV	882635	889743	8	7112
XV	889755	896861	8	7108
XV	896870	922967	8	26124
XV	922984	923120	8	136
XV	923136	944463	8	21331
XV	944488	954135	8	9647
XV	954158	970285	8	16135
XV	976257	976333	8	79
XV	976343	976344	8	1
XV	976430	976554	8	124
XV	976554	980224	8	3670
XV	980545	980553	8	8
XV	980573	981533	8	982
XV	981549	998345	8	16803
XV	998422	1011450	8	13036
XV	1011461	1013019	8	1565
XV	1013035	1031379	8	18353
XV	1031393	1031394	8	1
XV	1031394	1034300	8	2906
XV	1034310	1034773	8	471
XV	1034783	1037499	8	2716
XV	1037509	1038705	8	1196
XV	1038705	1038769	8	64
XV	1038769	1038833	8	64
XV	1038833	1045533	8	6704
XV	1045609	1049315	8	3707
XV	1049333	1058560	8	9228
XV	1059370	1059892	8	522
XV	1060415	1060745	8	333
XV	1061009	1069708	8	8700
XV	1070452	1071239	8	787
IV	17102	17287	8	185
IV	17312	17379	8	67
IV	17441	17514	8	75
IV	17552	18183	8	634
IV	18196	18409	8	213
IV	18476	19838	8	1362
IV	19844	20462	8	618
IV	20462	20519	8	57
IV	20559	20848	8	289
IV	20848	21364	8	516
IV	21391	32191	8	10802
IV	32201	32516	8	316
IV	32516	35431	8	2915
IV	35431	35730	8	299
IV	35730	36171	8	441
IV	36171	43873	8	7705
IV	43881	44592	8	711
IV	44604	53763	8	9162
IV	53763	56972	8	3209
IV	56984	70480	8	13508
IV	70480	70606	8	126
IV	70606	70670	8	64
IV	70670	73910	8	3241
IV	73929	79471	8	5543
IV	79553	83344	8	3791
IV	83344	83422	8	79
IV	83429	83604	8	175
IV	83604	85476	8	1872
IV	85476	85568	8	92
IV	85568	92677	8	7111
IV	92699	95808	8	3110
IV	95826	101099	8	5273
IV	101111	118263	8	17161
IV	118450	124568	8	6123
IV	124724	126544	8	1820
IV	126565	127565	8	1000
IV	127565	130464	8	2899
IV	130464	133720	8	3257
IV	133720	133772	8	52
IV	133772	134186	8	414
IV	134249	135451	8	1202
IV	135465	137785	8	2320
IV	137866	148049	8	10187
IV	148059	149108	8	1052
IV	149135	155667	8	6532
IV	155677	161534	8	5861
IV	161540	169815	8	8282
IV	169828	169892	8	64
IV	169915	212222	8	42333
IV	212239	212426	8	187
IV	212451	216021	8	3581
IV	216042	216488	8	446
IV	216500	218064	8	1565
IV	218064	218128	8	64
IV	218295	218357	8	62
IV	218357	220370	8	2014
IV	220516	221983	8	1467
IV	221983	222027	8	44
IV	222027	222158	8	131
IV	222158	222249	8	91
IV	222249	222311	8	62
IV	222311	222410	8	99
IV	222410	222466	8	56
IV	222466	226815	8	4349
IV	226857	227661	8	804
IV	227661	227725	8	64
IV	228121	228185	8	64
IV	228185	230967	8	2794
IV	231002	232541	8	1541
IV	232584	240132	8	7550
IV	240144	273626	8	33489
IV	273647	309610	8	35981
IV	309626	327022	8	17401
IV	327022	327086	8	64
IV	327086	327150	8	64
IV	327150	329782	8	2632
IV	329788	336200	8	6412
IV	336216	340280	8	4064
IV	340295	343998	8	3703
IV	344020	358202	8	14191
IV	358228	359497	8	1269
IV	359534	359567	8	33
IV	359567	363954	8	4388
IV	363990	367499	8	3511
IV	367517	369253	8	1739
IV	369273	370959	8	1686
IV	370979	384052	8	13110
IV	384058	384162	8	104
IV	384481	384482	8	1
IV	384539	384879	8	340
IV	385086	390547	8	5465
IV	390583	392140	8	1557
IV	392158	410458	8	18310
IV	410458	410616	8	158
IV	410642	411777	8	1135
IV	411794	432131	8	20349
IV	432147	434322	8	2175
IV	434391	434424	8	67
IV	434424	434482	8	58
IV	434510	434520	8	10
IV	434559	434583	8	24
IV	434602	434635	8	33
IV	434667	434676	8	9
IV	434701	434708	8	7
IV	434739	435922	8	1184
IV	435938	436379	8	442
IV	436412	437156	8	748
IV	437535	437602	8	67
IV	437602	437665	8	63
IV	437831	444134	8	6309
IV	444254	449689	8	5435
IV	449706	450182	8	484
IV	450198	460633	8	10437
IV	460663	471851	8	11217
IV	471851	488728	8	16923
IV	488807	492048	8	3245
IV	492059	505227	8	13170
IV	505249	509673	8	4429
IV	509691	513281	8	3619
IV	513299	513303	8	4
IV	513319	513334	8	15
IV	513353	513851	8	668
IV	513869	513913	8	44
IV	513929	514020	8	91
IV	520833	522524	8	1724
IV	522535	522981	8	446
IV	522997	527249	8	4317
IV	535010	538728	8	3726
IV	538752	544674	8	5922
IV	544807	548556	8	3749
IV	548583	558488	8	9906
IV	558495	561001	8	2507
IV	561043	564338	8	3298
IV	564338	564726	8	388
IV	564738	565780	8	1045
IV	565792	567380	8	1588
IV	567392	567440	8	48
IV	567452	568703	8	1256
IV	568715	568806	8	91
IV	568818	568877	8	59
IV	568981	569004	8	23
IV	569004	569059	8	55
IV	569059	569122	8	63
IV	569122	581801	8	12682
IV	581801	581830	8	29
IV	581842	581864	8	22
IV	581864	587834	8	6006
IV	587852	588395	8	545
IV	588407	592131	8	3738
IV	592143	592179	8	36
IV	592191	592552	8	367
IV	592566	592977	8	411
IV	592991	593873	8	888
IV	593885	596841	8	2959
IV	596853	596945	8	92
IV	596957	598310	8	1362
IV	598322	600711	8	2398
IV	600723	600992	8	269
IV	601047	601137	8	90
IV	601189	601192	8	3
IV	601212	601349	8	137
IV	601361	604283	8	2942
IV	604283	604288	8	13
IV	604288	604331	8	43
IV	604331	606987	8	2656
IV	606999	607010	8	12
IV	607022	607054	8	32
IV	607067	607262	8	197
IV	607274	608386	8	1115
IV	608398	608407	8	9
IV	608444	616656	8	8236
IV	616668	617271	8	608
IV	617286	617713	8	430
IV	617725	619966	8	2245
IV	619966	620142	8	176
IV	620163	620171	8	8
IV	620183	620209	8	26
IV	620221	620224	8	3
IV	620245	620273	8	28
IV	620285	620306	8	21
IV	620325	620334	8	9
IV	620346	620415	8	69
IV	620427	620745	8	322
IV	620757	620896	8	142
IV	620908	620980	8	72
IV	620987	621330	8	350
IV	621342	621502	8	160
IV	621514	621887	8	379
IV	621905	622068	8	164
IV	622080	624927	8	2847
IV	624932	626303	8	1375
IV	626315	628842	8	2546
IV	628854	629220	8	373
IV	629232	629293	8	62
IV	629305	629309	8	4
IV	629321	629329	8	8
IV	629341	629376	8	35
IV	629388	629408	8	20
IV	629420	629476	8	56
IV	629488	629997	8	515
IV	630009	632522	8	2522
IV	632536	638966	8	6443
IV	638978	639941	8	963
IV	639953	644072	8	4128
IV	644084	645209	8	1129
IV	645262	645293	8	31
IV	645304	645305	8	1
IV	651943	654380	8	2447
IV	654380	654674	8	300
IV	654686	654690	8	4
IV	654702	654805	8	106
IV	654821	657800	8	2992
IV	657812	668084	8	10281
IV	668442	668639	8	197
IV	668702	668836	8	136
IV	668836	677026	8	8190
IV	677026	678007	8	982
IV	678035	682100	8	4078
IV	682119	688071	8	5956
IV	688098	722926	8	34861
IV	722938	734076	8	11140
IV	734094	742284	8	8190
IV	742296	747517	8	5227
IV	747537	757366	8	9831
IV	758125	758156	8	31
IV	759874	778724	8	18853
IV	778765	801690	8	22928
IV	801695	801899	8	240
IV	801899	802740	8	848
IV	802740	802924	8	184
IV	805738	810466	8	4731
IV	810472	812956	8	2484
IV	812974	831878	8	18911
IV	831902	840416	8	8529
IV	840430	851065	8	10638
IV	851083	864865	8	13782
IV	864870	864956	8	86
IV	864964	866205	8	1243
IV	866215	867567	8	1352
IV	867577	867796	8	220
IV	867808	871820	8	4020
IV	877933	877937	8	4
IV	877937	877978	8	42
IV	877978	878302	8	324
IV	884225	884415	8	190
IV	884415	884567	8	152
IV	884577	884578	8	1
IV	884594	887046	8	2455
IV	887056	891184	8	4130
IV	891184	892660	8	1476
IV	892723	909729	8	17006
IV	915369	922990	8	7623
IV	923165	927620	8	4460
IV	927630	930959	8	3330
IV	930979	935949	8	4970
IV	936055	945396	8	9341
IV	945396	945438	8	42
IV	945600	945663	8	63
IV	945720	945783	8	63
IV	945783	945886	8	103
IV	946344	946628	8	284
IV	946646	955004	8	8379
IV	966496	966498	8	2
IV	966508	966687	8	179
IV	966692	966692	8	1
IV	980340	980521	8	182
IV	981034	981232	8	198
IV	992642	992839	8	197
IV	992839	1013838	8	21031
IV	1013848	1015737	8	1889
IV	1015749	1017261	8	1537
IV	1017274	1021671	8	4397
IV	1021684	1023059	8	1376
IV	1023138	1023222	8	84
IV	1023561	1052195	8	28639
IV	1052308	1056076	8	3769
IV	1056103	1075643	8	19590
IV	1075643	1080938	8	5298
IV	1080975	1087988	8	7014
IV	1088326	1090107	8	1781
IV	1090124	1095760	8	5637
IV	1101691	1101988	8	297
IV	1102001	1108586	8	6588
IV	1108586	1120477	8	11895
IV	1120477	1120540	8	64
IV	1120540	1144890	8	24367
IV	1144890	1144933	8	43
IV	1144933	1150874	8	5941
IV	1150885	1151210	8	326
IV	1151233	1151234	8	1
IV	1151617	1151740	8	123
IV	1151740	1154131	8	2391
IV	1154131	1154160	8	29
IV	1159552	1159615	8	63
IV	1159733	1159975	8	242
IV	1159975	1160768	8	793
IV	1161161	1163167	8	2008
IV	1163167	1163230	8	63
IV	1163315	1164148	8	833
IV	1164366	1166446	8	2082
IV	1166456	1175148	8	8702
IV	1175214	1175247	8	33
IV	1175247	1175316	8	69
IV	1175556	1175586	8	30
IV	1175586	1175666	8	80
IV	1175666	1175701	8	35
IV	1175701	1201826	8	26125
IV	1201826	1201910	8	85
IV	1201910	1206706	8	4797
IV	1212629	1239025	8	26409
IV	1239044	1239835	8	791
IV	1239851	1243229	8	3380
IV	1244983	1245046	8	63
IV	1245155	1254739	8	9593
IV	1254749	1257032	8	2291
IV	1257032	1257078	8	46
IV	1257094	1257095	8	1
IV	1257352	1258101	8	752
IV	1258111	1290980	8	32892
IV	1290986	1307607	8	16640
IV	1307607	1307648	8	41
IV	1307700	1307725	8	25
IV	1307732	1307732	8	1
IV	1308534	1341635	8	33107
IV	1341651	1346531	8	4881
IV	1346549	1352452	8	5905
IV	1352494	1352623	8	129
IV	1352645	1352646	8	1
IV	1352966	1352979	8	13
IV	1352991	1357469	8	4478
IV	1357501	1385027	8	27528
IV	1385043	1385466	8	425
IV	1385482	1385514	8	32
IV	1385520	1412417	8	26915
IV	1412427	1418464	8	6037
IV	1418476	1428232	8	9758
IV	1428242	1458150	8	29934
IV	1458152	1461840	8	3690
IV	1461840	1462115	8	275
IV	1462133	1462851	8	719
IV	1462853	1492667	8	29833
IV	1492683	1493401	8	719
IV	1493418	1503817	8	10435
IV	1503822	1503853	8	34
IV	1503869	1503891	8	22
IV	1503914	1504322	8	408
IV	1504550	1505742	8	1193
IV	1505777	1513614	8	7839
IV	1513651	1513677	8	26
IV	1513695	1513764	8	69
IV	1519279	1519357	8	85
IV	1519387	1519615	8	244
IV	1519632	1519644	8	12
IV	1519646	1520897	8	1262
IV	1520915	1521250	8	350
IV	1524163	1524179	8	16
IV	1524196	1524214	8	18
XI	2510	2654	8	144
XI	2757	3352	8	599
XI	14361	19276	8	4916
XI	19292	22035	8	2776
XI	22061	26585	8	4524
XI	26611	36582	8	9973
XI	36600	38624	8	2025
XI	38646	42329	8	3683
XI	42347	47014	8	4668
XI	47014	64011	8	16998
XI	64044	67768	8	3724
XI	67789	78797	8	11020
XI	78801	83699	8	4919
XI	83699	83756	8	57
XI	83756	84034	8	280
XI	84034	84238	8	204
XI	84247	114771	8	30534
XI	114774	126103	8	11334
XI	126113	136097	8	9985
XI	136106	136229	8	123
XI	136239	137283	8	1046
XI	137316	141029	8	3713
XI	141075	141127	8	52
XI	141983	142256	8	273
XI	142325	142391	8	66
XI	142474	142520	8	46
XI	142572	142959	8	388
XI	144526	144624	8	98
XI	144855	145197	8	342
XI	145210	158929	8	13726
XI	158945	164844	8	5902
XI	164850	179245	8	14398
XI	179250	184503	8	5263
XI	184508	194140	8	9635
XI	194140	196205	8	2065
XI	196221	196354	8	133
XI	196387	196842	8	455
XI	196860	202643	8	5789
XI	202988	203057	8	69
XI	203057	203596	8	546
XI	203608	216932	8	13329
XI	216944	219765	8	2821
XI	219828	219912	8	85
XI	283912	302326	8	18433
XI	302520	302583	8	63
XI	302583	308156	8	5573
XI	308169	308780	8	611
XI	308797	313596	8	4918
XI	313856	313918	8	62
XI	313918	314181	8	263
XI	314530	321759	8	7235
XI	321791	322088	8	297
XI	322088	335096	8	13010
XI	335103	335169	8	67
XI	335186	337526	8	2340
XI	337564	353390	8	15844
XI	353528	357979	8	4463
XI	357991	362441	8	4454
XI	362451	364321	8	1871
XI	364334	367748	8	3414
XI	367759	374332	8	6574
XI	374348	379606	8	5262
XI	379606	379670	8	64
XI	379692	380938	8	1253
XI	380940	381502	8	562
XI	381529	381666	8	137
XI	381677	382550	8	873
XI	382568	384840	8	2273
XI	384846	384950	8	104
XI	384950	385105	8	155
XI	385123	386882	8	1760
XI	386915	426995	8	40291
XI	427007	431302	8	4308
XI	431329	432519	8	1193
XI	432541	432542	8	1
XI	432659	451562	8	18913
XI	451580	458076	8	6498
XI	458076	458139	8	63
XI	458412	458471	8	59
XI	458471	458483	8	12
XI	458608	463258	8	4650
XI	463274	464434	8	1160
XI	464458	466849	8	2400
XI	466860	490768	8	23917
XI	490768	490978	8	215
XI	510701	510825	8	125
XI	513283	513341	8	59
XI	513341	513794	8	454
XI	513857	514537	8	687
XI	514586	517306	8	2721
XI	517306	517438	8	132
XI	517454	517455	8	1
XI	517601	517784	8	183
XI	517784	517861	8	77
XI	517861	517985	8	127
XI	518129	519807	8	1682
XI	519833	523643	8	3811
XI	523666	524040	8	374
XI	524048	524048	8	1
XI	528506	555046	8	26541
XI	555046	571477	8	16437
XI	571487	576487	8	5000
XI	576504	578598	8	2097
XI	578719	579011	8	292
XI	579130	579725	8	595
XI	579732	580881	8	1149
XI	580889	613115	8	32237
XI	613165	613223	8	58
XI	613454	613537	8	83
XI	617573	618060	8	487
XI	618234	632826	8	14599
XI	632836	647261	8	14432
XI	647909	648032	8	123
XI	648083	648207	8	124
XI	648207	650472	8	2266
XI	650484	651947	8	1467
XI	651947	652054	8	107
XI	652054	652169	8	115
XI	652169	658571	8	6406
XI	658571	658634	8	63
XI	660532	660572	8	40
XI	660578	660887	8	309
XI	665866	665881	8	15
XI	665911	665975	8	64
IX	24714	25324	8	610
IX	25504	25576	8	72
IX	25707	25708	8	1
IX	25708	25794	8	86
IX	25842	37357	8	11548
IX	37357	44272	8	6916
IX	44292	46239	8	1947
IX	46239	69289	8	23069
IX	69463	69683	8	220
IX	69700	102530	8	32832
IX	102548	105328	8	2781
IX	105342	105343	8	5
IX	105349	105799	8	453
IX	105819	128702	8	22887
IX	128702	128721	8	19
IX	128740	137104	8	8367
IX	137104	137683	8	591
IX	137713	138423	8	711
IX	138442	144112	8	5686
IX	144134	146936	8	2802
IX	147025	153588	8	6564
IX	153598	163240	8	9643
IX	163256	174161	8	10907
IX	174173	175116	8	977
IX	175116	175169	8	53
IX	175169	177459	8	2290
IX	177473	187818	8	10345
IX	187845	196647	8	8806
IX	197023	197063	8	40
IX	197063	197121	8	58
IX	197121	197327	8	206
IX	197637	205123	8	7488
IX	205144	205145	8	1
IX	210683	231460	8	20782
IX	231784	241050	8	9276
IX	241050	241193	8	143
IX	241209	245761	8	4553
IX	245761	245953	8	192
IX	245973	246208	8	235
IX	246558	248662	8	2111
IX	248662	248910	8	248
IX	248910	248942	8	32
IX	248954	249055	8	102
IX	249055	249776	8	721
IX	249776	253997	8	4222
IX	254014	259944	8	5934
IX	259960	274027	8	14076
IX	274033	300062	8	26060
IX	300062	300392	8	331
IX	300405	300406	8	1
IX	300406	300616	8	210
IX	301452	303070	8	1618
IX	303070	310477	8	7409
IX	310492	317449	8	6963
IX	317512	317775	8	263
IX	317838	324242	8	6405
IX	324242	324295	8	53
IX	325803	334341	8	8540
IX	334347	334366	8	19
IX	334390	336288	8	1899
IX	336360	336816	8	461
IX	336938	339105	8	2170
IX	339249	350039	8	10791
IX	350043	366503	8	16467
IX	366679	368429	8	1750
IX	368473	369838	8	1365
IX	369857	370148	8	291
IX	385656	387141	8	1492
IX	387165	387654	8	489
IX	387700	387976	8	276
IX	388007	389985	8	1983
IX	390080	390382	8	302
IX	390389	390773	8	384
IX	390917	390972	8	55
IX	390982	391105	8	123
IX	391381	391386	8	5
IX	391396	391451	8	55
IX	391465	391488	8	23
IX	391511	391512	8	1
IX	391665	391700	8	35
IX	391705	391705	8	1
IX	392962	393060	8	104
IX	393060	393329	8	269
IX	393331	394064	8	735
IX	394064	394680	8	616
IX	395054	395114	8	60
IX	395114	395245	8	131
IX	395245	397166	8	1922
IX	397166	397229	8	64
IX	397229	397302	8	73
IX	397302	400007	8	2705
IX	400038	419490	8	19452
IX	419511	423650	8	4142
IX	423662	424961	8	1299
IX	424971	426150	8	1216
IX	426150	426213	8	63
IX	432714	433149	8	437
IX	433165	433324	8	159
IX	433833	433883	8	51
IX	433883	433954	8	71
IX	435343	435369	8	26
IX	435405	435705	8	302
IX	435723	435827	8	111
IX	435848	435849	8	1
IX	435849	435990	8	141
IX	436010	436065	8	55
IX	436091	436927	8	868
IX	436943	437328	8	448
IX	437346	437703	8	357
IX	437703	437852	8	149
IX	437972	438099	8	127
IX	438099	438134	8	35
IX	438134	438191	8	58
Mito	0	78	8	80
Mito	90	199	8	112
Mito	211	224	8	13
Mito	235	253	8	20
Mito	253	332	8	96
Mito	344	472	8	128
Mito	549	558	8	9
Mito	4192	4285	8	93
Mito	4301	4810	8	524
Mito	4816	4860	8	50
Mito	4926	5023	8	97
Mito	5036	5105	8	69
Mito	5273	5447	8	174
Mito	5513	5626	8	113
Mito	5645	6127	8	483
Mito	6146	6163	8	19
Mito	6177	6492	8	356
Mito	6506	7013	8	547
Mito	7026	7551	8	525
Mito	7564	8289	8	725
Mito	8332	8795	8	594
Mito	8858	8863	8	24
Mito	8863	9527	8	699
Mito	9544	9578	8	34
Mito	9594	9767	8	226
Mito	9767	9767	8	331
Mito	9767	9770	8	33
Mito	9770	9803	8	64
Mito	9803	10001	8	307
Mito	10014	10198	8	199
Mito	10216	10286	8	70
Mito	10304	11260	8	1022
Mito	11266	11812	8	554
Mito	11815	11898	8	84
Mito	11908	12215	8	307
Mito	12231	12424	8	193
Mito	12432	12763	8	332
Mito	12772	13161	8	389
Mito	13172	13484	8	312
Mito	13552	13716	8	164
Mito	13733	13758	8	25
Mito	13823	15206	8	1383
Mito	15218	16115	8	897
Mito	16184	16409	8	225
Mito	16409	16465	8	56
Mito	16516	17497	8	981
Mito	17497	17565	8	68
Mito	17565	19399	8	1921
Mito	19404	19589	8	202
Mito	19609	20166	8	583
Mito	20216	20329	8	136
Mito	20365	20382	8	17
Mito	20386	20388	8	2
Mito	20404	21967	8	1611
Mito	21983	22339	8	440
Mito	22357	22389	8	35
Mito	22410	22414	8	4
Mito	22459	22481	8	22
Mito	22528	22705	8	196
Mito	22733	22870	8	212
Mito	22891	22947	8	58
Mito	22972	23160	8	258
Mito	23195	23316	8	122
Mito	23339	23518	8	222
Mito	23549	23589	8	40
Mito	23609	23826	8	218
Mito	23932	24126	8	194
Mito	24132	24566	8	442
Mito	24624	26004	8	1420
Mito	26067	26085	8	18
Mito	26149	26386	8	237
Mito	26386	26887	8	501
Mito	26902	27138	8	239
Mito	27162	27558	8	407
Mito	27571	27881	8	357
Mito	27901	27920	8	19
Mito	27952	28060	8	120
Mito	28079	28123	8	162
Mito	28193	28243	8	50
Mito	28249	28299	8	59
Mito	28393	28403	8	10
Mito	28429	29334	8	908
Mito	29352	29400	8	49
Mito	29420	29481	8	70
Mito	29561	29611	8	50
Mito	29635	29672	8	37
Mito	29699	29785	8	86
Mito	29801	30237	8	592
Mito	30248	30262	8	14
Mito	30282	30292	8	20
Mito	30307	30327	8	20
Mito	32464	32724	8	348
Mito	32742	32822	8	95
Mito	32992	33097	8	113
Mito	33097	33218	8	169
Mito	33247	33490	8	283
Mito	33522	33586	8	93
Mito	33603	33678	8	79
Mito	33694	33757	8	63
Mito	33822	34163	8	345
Mito	34248	34280	8	32
Mito	34332	34638	8	329
Mito	34684	34735	8	51
Mito	34746	34785	8	39
Mito	34801	35059	8	263
Mito	35066	35066	8	1
Mito	35345	35559	8	215
Mito	35653	35729	8	76
Mito	35852	36036	8	184
Mito	36072	36107	8	35
Mito	36128	36279	8	151
Mito	36523	36802	8	279
Mito	36854	37539	8	688
Mito	37555	37794	8	242
Mito	37899	38027	8	128
Mito	38045	38464	8	423
Mito	38464	38579	8	193
Mito	38579	38818	8	246
Mito	38824	38953	8	227
Mito	39062	39067	8	5
Mito	39093	39102	8	9
Mito	39139	39398	8	265
Mito	39404	40386	8	982
Mito	40399	40684	8	285
Mito	40699	40963	8	264
Mito	40976	42611	8	1644
Mito	42611	42899	8	289
Mito	43819	43879	8	62
Mito	43891	43932	8	41
Mito	43932	43978	8	94
Mito	43978	44014	8	36
Mito	44026	44090	8	64
Mito	48007	48352	8	374
Mito	48372	48477	8	166
Mito	48494	48558	8	64
Mito	48564	48690	8	135
Mito	48706	48825	8	119
Mito	48832	49401	8	612
Mito	49413	49762	8	349
Mito	49769	50185	8	429
Mito	50255	50317	8	69
Mito	50333	50727	8	398
Mito	50791	50976	8	188
Mito	50990	51175	8	191
Mito	51188	51382	8	200
Mito	51400	51870	8	483
Mito	51876	52119	8	285
Mito	52141	52307	8	166
Mito	52314	52599	8	285
Mito	52606	52769	8	177
Mito	52815	52847	8	37
Mito	52853	53151	8	339
Mito	53157	53272	8	120
Mito	53319	53529	8	210
Mito	53546	53654	8	113
Mito	53762	54007	8	278
Mito	54013	54047	8	38
Mito	54164	54173	8	38
Mito	54582	54640	8	58
Mito	54923	54986	8	63
Mito	55693	55777	8	85
Mito	55777	55800	8	24
Mito	55812	55843	8	73
Mito	55843	55908	8	68
Mito	56200	56259	8	93
Mito	56301	56364	8	66
Mito	56616	56617	8	39
Mito	56617	56637	8	30
Mito	56637	56700	8	64
Mito	56700	57086	8	391
Mito	57099	57252	8	187
Mito	57269	57466	8	199
Mito	57481	58184	8	756
Mito	58197	58516	8	319
Mito	58529	58544	8	15
Mito	58551	59199	8	648
Mito	59211	59520	8	314
Mito	59520	60134	8	623
Mito	60170	61685	8	1519
Mito	61700	62388	8	688
Mito	63673	64776	8	1103
Mito	64787	65045	8	258
Mito	65058	65725	8	667
Mito	65738	65894	8	156
Mito	65945	66427	8	525
Mito	66433	66622	8	197
Mito	66633	66976	8	349
Mito	66981	67204	8	274
Mito	67217	67592	8	375
Mito	67609	67854	8	245
Mito	67872	67913	8	41
Mito	67931	68566	8	738
Mito	68583	68803	8	222
Mito	68815	68860	8	45
Mito	68881	69119	8	238
Mito	69139	69966	8	835
Mito	69973	70309	8	355
Mito	70315	70792	8	477
Mito	70807	71012	8	205
Mito	71036	71545	8	509
Mito	71551	71611	8	65
Mito	71633	71760	8	127
Mito	71771	72353	8	622
Mito	72359	72771	8	424
Mito	72797	73004	8	223
Mito	73055	73089	8	67
Mito	73109	73249	8	143
Mito	73262	73472	8	210
Mito	73485	73634	8	154
Mito	73657	74565	8	908
Mito	74579	74932	8	365
Mito	74951	75341	8	390
Mito	75354	75612	8	264
Mito	75685	75864	8	179
Mito	75907	76164	8	265
Mito	76175	76580	8	406
Mito	76644	77166	8	522
Mito	77178	77217	8	57
Mito	77217	77217	8	186
Mito	79165	79186	8	21
Mito	79198	79463	8	265
Mito	79476	80263	8	1213
Mito	80263	80432	8	1088
Mito	80438	80496	8	58
Mito	80548	80914	8	401
Mito	80937	81096	8	159
Mito	81113	81216	8	103
Mito	81229	81343	8	114
Mito	81359	81397	8	38
Mito	81449	81659	8	220
Mito	81670	82102	8	432
Mito	82114	82321	8	207
Mito	82331	82385	8	54
Mito	82385	82448	8	63
Mito	82583	82599	8	16
Mito	82626	82666	8	40
Mito	85715	85779	8	66
