time_index	left_time_boundary	right_time_boundary	lambda
0	0	3.57334e-06	2482.71
1	3.57334e-06	8.13322e-06	2482.71
2	8.13322e-06	1.3952e-05	2482.71
3	1.3952e-05	2.13773e-05	2482.71
4	2.13773e-05	3.08526e-05	2482.71
5	3.08526e-05	4.29438e-05	20.9102
6	4.29438e-05	5.83733e-05	265.283
7	5.83733e-05	7.80626e-05	1559.52
8	7.80626e-05	0.000103188	4407.5
9	0.000103188	0.00013525	7215.22
10	0.00013525	0.000176163	7456.88
11	0.000176163	0.000228372	6247.28
12	0.000228372	0.000294996	5133.97
13	0.000294996	0.000380013	4116.67
14	0.000380013	0.000488502	3073.81
15	0.000488502	0.000626943	2135.65
16	0.000626943	0.000803605	1551.85
17	0.000803605	0.00102904	1464.5
18	0.00102904	0.00131672	1790.86
19	0.00131672	0.00168381	1808.12
20	0.00168381	0.00215226	252.009
21	0.00215226	0.00275004	12.6658
22	0.00275004	0.00351286	1.87188
23	0.00351286	0.00448628	0.946125
24	0.00448628	0.00572844	2.59244
25	0.00572844	0.00731355	10.656
26	0.00731355	0.00933628	10.656
27	0.00933628	0.0119174	10.656
28	0.0119174	0.0152112	10.656
29	0.0152112	inf	10.656
