Chr	Start	Stop	BlockSize	BlockLength
XIII	128	208	26	80
XIII	7797	7830	26	33
XIII	7830	43823	26	36143
XIII	43823	43878	26	55
XIII	43878	43944	26	70
XIII	43944	44066	26	129
XIII	44066	49730	26	5748
XIII	49730	49850	26	122
XIII	49850	49896	26	46
XIII	49896	168348	26	118947
XIII	168891	184168	26	15490
XIII	184426	184501	26	75
XIII	190083	196182	26	6119
XIII	196182	196331	26	149
XIII	196624	196668	26	44
XIII	202119	266854	26	65101
XIII	266854	290741	26	23972
XIII	290814	321130	26	30410
XIII	321130	321158	26	28
XIII	321158	357113	26	35993
XIII	362871	363084	26	216
XIII	363084	372457	26	9373
XIII	372457	372964	26	608
XIII	379109	379236	26	127
XIII	379236	379348	26	112
XIII	379348	379421	26	74
XIII	379421	379487	26	66
XIII	379487	403794	26	24357
XIII	403859	409605	26	5762
XIII	409605	409717	26	112
XIII	409717	414052	26	4337
XIII	414120	432223	26	18683
XIII	432223	432929	26	708
XIII	432929	504169	26	71371
XIII	504386	504770	26	384
XIII	504770	504956	26	186
XIII	504956	538571	26	33761
XIII	538619	538636	26	78
XIII	538636	541342	26	2719
XIII	541342	541444	26	149
XIII	541444	572816	26	31514
XIII	572816	572893	26	77
XIII	586691	599490	26	12963
XIII	600666	601700	26	1034
XIII	602357	609005	26	6773
XIII	609530	609587	26	102
XIII	609644	609725	26	110
XIII	609725	632663	26	23023
XIII	634241	647063	26	12842
XIII	647063	697142	26	50308
XIII	697142	697835	26	693
XIII	697835	698680	26	845
XIII	698680	768296	26	69635
XIII	768394	768453	26	59
XIII	768453	808528	26	40332
XIII	808903	835190	26	26527
XIII	835190	835291	26	363
XIII	835291	835323	26	32
XIII	835323	837108	26	2063
XIII	837108	837159	26	51
XIII	837159	837217	26	58
XIII	837217	837706	26	811
XIII	838018	851738	26	13720
XIII	851738	873543	26	21838
XIII	873543	917493	26	44415
XIII	923542	923792	26	255
XIII	923792	923811	26	48
XIII	923811	923879	26	68
XIII	923879	924170	26	311
XIII	924170	924200	26	36
VII	8585	8996	26	413
VII	9029	11778	26	2759
VII	11778	15194	26	3561
VII	15194	21636	26	6793
VII	21636	74165	26	52717
VII	74165	74283	26	119
VII	74283	110959	26	36751
VII	111765	111833	26	68
VII	111833	254655	26	143480
VII	254655	287408	26	32846
VII	287473	287864	26	391
VII	287864	287922	26	58
VII	287922	319414	26	31495
VII	319760	328551	26	8976
VII	328636	364404	26	35813
VII	364464	386744	26	22312
VII	386922	388793	26	1876
VII	388793	388845	26	53
VII	388845	397840	26	9002
VII	400413	400556	26	145
VII	400556	401536	26	981
VII	403010	403247	26	243
VII	405265	530620	26	126482
VII	530620	530665	26	45
VII	530665	532677	26	2037
VII	532677	532774	26	97
VII	532774	532838	26	64
VII	532838	535219	26	2387
VII	541681	541867	26	186
VII	541867	542003	26	150
VII	542003	544545	26	2543
VII	544545	544609	26	113
VII	544609	561596	26	17127
VII	561658	561715	26	57
VII	561756	561837	26	81
VII	567760	568735	26	977
VII	574700	648530	26	74000
VII	648533	653323	26	4807
VII	653323	653419	26	96
VII	653419	653520	26	101
VII	653717	654025	26	308
VII	661740	700010	26	38407
VII	700010	700060	26	50
VII	700518	701123	26	606
VII	701258	707189	26	6009
VII	712545	712789	26	244
VII	712847	735509	26	22736
VII	736038	739135	26	3173
VII	739135	739198	26	63
VII	739198	740914	26	1721
VII	740914	747749	26	6841
VII	747749	747812	26	63
VII	747812	761347	26	13554
VII	761347	763884	26	2538
VII	764352	764482	26	130
VII	764482	774188	26	9730
VII	774398	808361	26	34466
VII	808449	811446	26	3001
VII	823325	828657	26	5335
VII	828657	828749	26	92
VII	828749	876013	26	47415
VII	876172	878688	26	2538
VII	878688	878768	26	81
VII	878768	878849	26	81
VII	879224	883123	26	3945
VII	883565	931122	26	47664
VII	931938	931987	26	49
VII	931987	1000773	26	68910
VII	1001325	1043768	26	42682
VII	1043768	1048639	26	4913
VII	1062700	1063272	26	572
VII	1063309	1064083	26	805
VII	1068632	1070533	26	1927
XI	2664	2686	26	23
XI	2686	2727	26	43
XI	2727	2753	26	26
XI	2753	2777	26	24
XI	2777	2944	26	167
XI	2944	8333	26	5452
XI	8333	9594	26	1262
XI	9640	22054	26	12463
XI	22054	36344	26	14352
XI	36344	74392	26	38300
XI	74392	137619	26	63458
XI	137695	140917	26	3364
XI	141284	142232	26	948
XI	142718	144438	26	1721
XI	144891	162498	26	17684
XI	162568	162651	26	83
XI	162863	202638	26	39967
XI	202964	203022	26	58
XI	203140	208022	26	4882
XI	208022	219912	26	11916
XI	219912	220721	26	820
XI	220721	220819	26	100
XI	220819	277054	26	56307
XI	277054	302841	26	25821
XI	302841	313581	26	10811
XI	313855	313941	26	86
XI	313941	314432	26	660
XI	314432	314461	26	29
XI	314461	320824	26	6364
XI	320824	322088	26	1265
XI	322088	322164	26	76
XI	322164	323760	26	1603
XI	323760	323866	26	106
XI	323866	323930	26	64
XI	323930	335103	26	11182
XI	337308	337454	26	199
XI	337516	337621	26	105
XI	379693	432509	26	53525
XI	457944	458056	26	112
XI	458604	463271	26	4671
XI	491025	513851	26	23125
XI	513851	517455	26	3619
XI	517792	517902	26	110
XI	517902	525300	26	7589
XI	525300	525416	26	128
XI	525416	525461	26	45
XI	525533	525582	26	49
XI	525582	555046	26	29475
XI	555046	579748	26	24845
XI	579748	647302	26	67666
XI	647605	647624	26	19
XI	647813	647921	26	112
XI	647972	658699	26	10732
XI	660960	661414	26	458
XI	661461	662510	26	1049
XI	662593	665429	26	2984
XI	665429	665488	26	63
XVI	557	587	26	30
XVI	2090	2151	26	61
XVI	3372	3452	26	80
XVI	3856	3875	26	19
XVI	3924	3942	26	18
XVI	3942	3981	26	39
XVI	3981	4014	26	33
XVI	4141	4176	26	35
XVI	4239	4305	26	66
XVI	4321	4356	26	35
XVI	4415	4443	26	28
XVI	4443	4504	26	61
XVI	4685	4729	26	44
XVI	4932	4953	26	21
XVI	5016	5131	26	115
XVI	5131	5154	26	23
XVI	5154	5183	26	29
XVI	5183	5239	26	56
XVI	5239	5285	26	46
XVI	5285	5337	26	52
XVI	5774	5819	26	45
XVI	5819	5840	26	21
XVI	7078	7139	26	61
XVI	8455	8572	26	119
XVI	8681	8808	26	128
XVI	8889	9029	26	140
XVI	9029	9055	26	26
XVI	9055	9139	26	84
XVI	9139	9258	26	119
XVI	9258	9312	26	56
XVI	9312	9387	26	75
XVI	9387	9518	26	155
XVI	9612	10899	26	1336
XVI	10899	10952	26	53
XVI	10952	11013	26	64
XVI	11013	11044	26	31
XVI	11153	11215	26	63
XVI	11215	12777	26	1566
XVI	12777	12825	26	48
XVI	12929	13070	26	141
XVI	13070	13126	26	56
XVI	13126	13203	26	116
XVI	13203	14824	26	1632
XVI	14824	16667	26	1905
XVI	16667	16715	26	48
XVI	16715	16821	26	106
XVI	16821	16963	26	142
XVI	17003	17026	26	23
XVI	17026	17513	26	686
XVI	25822	56358	26	30712
XVI	63976	96823	26	32893
XVI	96823	96853	26	30
XVI	96853	97161	26	308
XVI	97161	97468	26	307
XVI	98316	135804	26	37552
XVI	135804	139613	26	3809
XVI	139613	174093	26	34502
XVI	174573	193877	26	19316
XVI	194094	210526	26	16447
XVI	210647	338861	26	128379
XVI	338909	338946	26	37
XVI	339111	377430	26	38333
XVI	377430	377911	26	481
XVI	377911	379345	26	1445
XVI	379345	379460	26	115
XVI	379460	380749	26	1289
XVI	380749	381858	26	1109
XVI	381896	383271	26	1375
XVI	383271	383323	26	52
XVI	383323	386742	26	3420
XVI	386742	435881	26	49205
XVI	435881	435944	26	63
XVI	435945	436376	26	431
XVI	436517	436590	26	74
XVI	443296	517143	26	74190
XVI	517167	521055	26	4049
XVI	521055	560196	26	39501
XVI	560227	560306	26	79
XVI	560306	560331	26	25
XVI	560331	560387	26	56
XVI	560823	581205	26	20537
XVI	581205	581313	26	108
XVI	581313	581338	26	58
XVI	581338	581370	26	32
XVI	581370	581420	26	51
XVI	581420	581461	26	42
XVI	581461	581519	26	58
XVI	581519	689544	26	108425
XVI	689544	700602	26	11073
XVI	700602	731308	26	30708
XVI	731308	769194	26	37981
XVI	769584	775788	26	6283
XVI	775966	804544	26	28882
XVI	804544	804596	26	55
XVI	804596	804645	26	49
XVI	810585	810611	26	26
XVI	810674	810695	26	21
XVI	819588	838092	26	18527
XVI	838433	838496	26	63
XVI	838566	844405	26	5840
XVI	850339	850613	26	274
XVI	856216	856280	26	64
XVI	856962	860138	26	3183
XVI	860534	876243	26	15712
XVI	876243	880466	26	4299
XVI	880466	880515	26	49
XVI	880515	880581	26	66
XVI	880665	897065	26	16411
XVI	897065	897134	26	69
XVI	897134	942442	26	45527
XVI	942809	942836	26	27
XVI	942836	942878	26	42
XVI	942878	942899	26	21
XVI	942899	942965	26	87
XVI	942965	943005	26	41
XVI	943005	943088	26	83
XVI	943088	943107	26	38
XVI	943143	943177	26	34
XVI	943177	943282	26	134
XVI	943430	943451	26	21
XVI	943451	943533	26	82
XVI	947108	947132	26	24
XVI	947132	947200	26	68
XVI	947200	947224	26	24
XVI	947224	947251	26	27
XVI	947251	947313	26	62
XVI	947363	947392	26	29
XIV	6320	6351	26	35
XIV	6351	6382	26	39
XIV	9245	9283	26	38
XIV	9432	10071	26	751
XIV	10071	10108	26	37
XIV	10108	10134	26	26
XIV	10134	10169	26	35
XIV	10233	10628	26	402
XIV	10691	11580	26	1187
XIV	11827	11888	26	61
XIV	11988	12095	26	107
XIV	14178	14282	26	104
XIV	14344	14432	26	88
XIV	16090	16526	26	436
XIV	16881	96671	26	80036
XIV	102478	102527	26	49
XIV	102778	102806	26	28
XIV	102806	104276	26	1470
XIV	104276	104341	26	65
XIV	104341	104399	26	58
XIV	104399	116302	26	11909
XIV	116302	116408	26	106
XIV	116408	118554	26	2148
XIV	118554	119004	26	450
XIV	119004	252927	26	134242
XIV	253561	282606	26	29058
XIV	282846	282887	26	41
XIV	282887	425945	26	143442
XIV	426425	442703	26	16322
XIV	442703	442756	26	53
XIV	442756	442814	26	58
XIV	442840	442995	26	155
XIV	443058	479646	26	36618
XIV	479646	479738	26	113
XIV	479738	479799	26	61
XIV	479799	479856	26	57
XIV	479856	479919	26	133
XIV	479919	519180	26	39359
XIV	525086	546737	26	21686
XIV	547037	547082	26	45
XIV	547082	560702	26	13860
XIV	560776	560865	26	101
XIV	560865	561401	26	551
XIV	561401	561679	26	279
XIV	568001	568087	26	86
XIV	568154	569799	26	1645
XIV	569799	569853	26	54
XIV	574070	574162	26	92
XIV	574162	576631	26	2470
XIV	576631	576879	26	248
XIV	576929	598222	26	21372
XIV	598222	598316	26	96
XIV	598316	598379	26	63
XIV	598379	598582	26	203
XIV	598582	600410	26	1865
XIV	600410	600482	26	72
XIV	600482	600546	26	64
XIV	600546	601099	26	553
XIV	601099	601180	26	81
XIV	601180	601246	26	66
XIV	602329	602388	26	59
XIV	602418	602445	26	27
XIV	602445	631908	26	29527
XIV	632489	632659	26	256
XIV	632659	632686	26	27
XIV	632686	704372	26	72067
XIV	704387	704429	26	42
XIV	704492	704540	26	48
XIV	704540	704591	26	51
XIV	704591	726294	26	21846
XIV	726598	751166	26	24603
XIV	752982	766859	26	13905
XIV	767343	767620	26	277
XIV	768181	771152	26	3074
XIV	771152	772749	26	1633
XIV	773747	773793	26	46
XIV	773960	775960	26	2052
XIV	783001	783022	26	21
XIV	783108	783140	26	32
XIV	783140	783207	26	67
IV	15271	16015	26	766
IV	18409	18446	26	37
IV	18509	18575	26	67
IV	18575	21529	26	3001
IV	21529	35799	26	14276
IV	35799	35863	26	64
IV	35863	35927	26	65
IV	35927	44933	26	9007
IV	45156	82618	26	37583
IV	82618	118336	26	35829
IV	118444	122511	26	4067
IV	122511	123808	26	1297
IV	124719	126544	26	1825
IV	130462	130502	26	41
IV	130502	132188	26	1686
IV	132188	132292	26	105
IV	132292	133311	26	1019
IV	133311	133445	26	134
IV	134549	169841	26	35437
IV	169906	205635	26	35816
IV	205785	205890	26	233
IV	205890	205911	26	21
IV	205911	218118	26	12306
IV	218124	220270	26	2146
IV	220270	220307	26	37
IV	220516	222027	26	1511
IV	222027	222158	26	131
IV	222158	223016	26	858
IV	223016	223149	26	133
IV	223149	225436	26	2287
IV	225436	226866	26	1430
IV	226866	226909	26	43
IV	226909	227593	26	684
IV	228547	359270	26	130894
IV	359270	359389	26	119
IV	359389	359452	26	63
IV	359452	359567	26	116
IV	359567	359617	26	50
IV	359617	434277	26	75710
IV	434741	437209	26	2468
IV	437493	437519	26	26
IV	437519	471856	26	34395
IV	472848	472912	26	64
IV	472975	513991	26	41512
IV	520804	520983	26	179
IV	561117	581801	26	20693
IV	581960	584629	26	2678
IV	584629	600993	26	16503
IV	601205	601254	26	49
IV	601317	601350	26	33
IV	601478	604276	26	2857
IV	604276	619967	26	15704
IV	619967	620024	26	57
IV	620095	645501	26	25526
IV	651999	653346	26	1348
IV	653346	668019	26	14675
IV	668058	668081	26	23
IV	668436	668500	26	64
IV	668611	668689	26	78
IV	668689	757487	26	89126
IV	757814	757840	26	26
IV	759781	759874	26	93
IV	759874	778693	26	18822
IV	778900	802924	26	24146
IV	805738	871902	26	66458
IV	878034	878308	26	274
IV	884225	884369	26	144
IV	884369	884433	26	64
IV	884433	884591	26	173
IV	884591	915531	26	30949
IV	945432	945445	26	34
IV	945445	945697	26	297
IV	945697	945944	26	247
IV	946290	946338	26	48
IV	946338	946401	26	63
IV	946401	980901	26	34509
IV	980994	981021	26	27
IV	981021	981056	26	35
IV	981424	981514	26	92
IV	991556	991976	26	420
IV	991976	992217	26	241
IV	992286	992372	26	91
IV	992705	1017290	26	24673
IV	1017333	1022838	26	5507
IV	1022838	1022902	26	64
IV	1022902	1022966	26	64
IV	1022966	1023197	26	231
IV	1023434	1087893	26	64762
IV	1087943	1088724	26	839
IV	1088724	1095766	26	7098
IV	1101697	1150775	26	49206
IV	1150775	1150833	26	58
IV	1151625	1154147	26	2522
IV	1154666	1155466	26	800
IV	1161104	1162956	26	1854
IV	1164318	1164425	26	110
IV	1164425	1174978	26	10632
IV	1174978	1175315	26	414
IV	1175652	1206706	26	31060
IV	1212629	1243229	26	30689
IV	1243229	1257095	26	13878
IV	1257095	1307514	26	50569
IV	1307892	1307984	26	92
IV	1308519	1308807	26	288
IV	1308807	1352485	26	43768
IV	1352485	1357480	26	5002
IV	1357480	1431941	26	74574
IV	1431941	1493280	26	61570
IV	1493280	1503859	26	10593
IV	1503943	1504106	26	163
IV	1504106	1504226	26	323
IV	1504639	1505880	26	1463
IV	1505880	1523217	26	17369
IV	1524547	1524580	26	33
IV	1524580	1524626	26	46
I	805	816	26	11
I	2669	2740	26	73
I	2740	4776	26	2045
I	4776	5335	26	742
I	5429	6745	26	1434
I	6745	8347	26	1602
I	8347	10516	26	2170
I	10613	11563	26	955
I	26934	27542	26	623
I	27836	113078	26	85497
I	113078	139042	26	26016
I	139260	139764	26	506
I	141135	160238	26	19245
I	166168	176784	26	10655
I	177495	180294	26	2811
I	180294	180800	26	602
I	180847	180901	26	54
I	180901	181130	26	229
I	181199	182653	26	1660
I	182653	182680	26	27
I	183141	183407	26	356
I	183407	185510	26	2153
I	185832	186051	26	221
I	188851	188896	26	46
I	188909	189202	26	309
I	189808	192306	26	2529
I	192306	192367	26	122
I	192367	193964	26	1598
I	194008	198585	26	4599
I	198585	198707	26	124
I	198707	199086	26	393
I	219319	219382	26	63
I	219382	223610	26	4332
I	229680	229761	26	84
VIII	12879	12948	26	69
VIII	12948	13014	26	70
VIII	13136	13190	26	67
VIII	13253	13439	26	186
VIII	13563	13666	26	103
VIII	13666	13773	26	108
VIII	13773	15142	26	1369
VIII	15187	16214	26	1027
VIII	16409	16461	26	52
VIII	16598	17120	26	522
VIII	17597	20161	26	2565
VIII	20161	21171	26	1010
VIII	21171	21232	26	61
VIII	21232	35167	26	13979
VIII	35230	35294	26	64
VIII	35294	35860	26	648
VIII	35860	62692	26	27003
VIII	62692	62816	26	124
VIII	62838	66553	26	3715
VIII	66553	66659	26	181
VIII	66659	75983	26	9329
VIII	75983	85395	26	9436
VIII	92217	116462	26	24502
VIII	116753	133048	26	16340
VIII	133084	133118	26	34
VIII	133118	133825	26	734
VIII	134015	134095	26	80
VIII	134095	146252	26	12169
VIII	146671	187032	26	40624
VIII	187032	192653	26	5651
VIII	193925	194077	26	171
VIII	194077	212265	26	18189
VIII	214262	229511	26	15260
VIII	229760	230095	26	335
VIII	230151	237765	26	7627
VIII	237828	237880	26	53
VIII	237880	237951	26	71
VIII	237951	282766	26	44907
VIII	282766	282830	26	64
VIII	282830	288304	26	5475
VIII	288304	292143	26	3842
VIII	292206	293284	26	1079
VIII	293284	326794	26	33682
VIII	326794	326836	26	42
VIII	326836	340080	26	13264
VIII	340080	359183	26	19167
VIII	359208	370566	26	11415
VIII	370566	389006	26	18533
VIII	389045	389100	26	58
VIII	389787	451325	26	61707
VIII	451325	452273	26	948
VIII	452273	465782	26	13677
VIII	465832	466894	26	1065
VIII	466894	475917	26	9119
VIII	475944	504479	26	28556
VIII	504479	514829	26	10351
VIII	514871	525833	26	11047
VIII	526759	527399	26	704
VIII	550239	554015	26	4571
VIII	554745	556027	26	1286
Mito	11533	11748	26	245
Mito	11748	11799	26	51
Mito	11943	12052	26	145
Mito	13478	13949	26	577
Mito	13949	16470	26	2636
Mito	18953	18988	26	35
Mito	20504	20650	26	222
Mito	20650	21924	26	1397
Mito	22039	22240	26	286
Mito	22265	23753	26	1981
Mito	23826	23957	26	189
Mito	26216	26903	26	804
Mito	26903	28174	26	1617
Mito	28299	29285	26	1011
Mito	29285	29471	26	254
Mito	29471	29565	26	95
Mito	30058	30090	26	41
Mito	30145	30207	26	222
Mito	30218	30719	26	938
Mito	30719	30883	26	334
Mito	31254	31650	26	429
Mito	36523	38414	26	2075
Mito	38499	38840	26	541
Mito	38961	39130	26	238
Mito	39130	39348	26	218
Mito	39461	42560	26	3255
Mito	42670	42948	26	287
Mito	43167	44028	26	1129
Mito	45279	45323	26	53
Mito	58762	58838	26	123
Mito	58838	59836	26	1180
Mito	59836	60081	26	246
Mito	60193	60389	26	255
Mito	60389	60723	26	334
Mito	61866	62381	26	516
Mito	62381	62432	26	51
Mito	62726	62749	26	23
Mito	62749	62778	26	68
Mito	62778	62837	26	75
Mito	62837	62930	26	106
Mito	62941	62991	26	59
Mito	63114	63237	26	124
Mito	70581	70994	26	586
Mito	70994	71120	26	196
Mito	71255	71535	26	355
Mito	71864	71934	26	81
Mito	72047	72140	26	99
Mito	72157	72224	26	74
Mito	72224	74311	26	3647
Mito	74311	74986	26	1111
Mito	74986	75101	26	115
Mito	78657	78700	26	43
Mito	80127	80167	26	40
Mito	82002	82074	26	72
Mito	82080	82160	26	130
Mito	82160	82295	26	215
Mito	82361	82382	26	21
III	615	705	26	273
III	735	798	26	65
III	798	961	26	164
III	1002	1429	26	630
III	10999	11035	26	36
III	11035	11062	26	27
III	11062	11108	26	46
III	11218	12301	26	1084
III	12384	13753	26	1486
III	13947	14010	26	144
III	14010	82640	26	69124
III	83080	84427	26	1462
III	84733	84793	26	66
III	90718	90757	26	58
III	90757	127468	26	36822
III	127751	127805	26	54
III	127805	131965	26	4194
III	131965	149406	26	17566
III	149406	151518	26	2265
III	151889	168326	26	16489
III	169564	169628	26	64
III	169628	169703	26	83
III	169703	199463	26	29842
III	201097	201189	26	92
III	201189	227496	26	26450
III	227628	293094	26	66730
III	294547	295186	26	639
III	295186	295243	26	57
III	295243	301206	26	6073
III	301206	302008	26	802
III	303902	303976	26	74
III	304018	304121	26	103
III	308305	314175	26	5960
III	314175	314250	26	75
III	314250	314307	26	57
IX	22175	22315	26	141
IX	22315	22382	26	208
IX	22382	22960	26	668
IX	23112	23215	26	104
IX	24378	25710	26	1429
IX	26148	69702	26	43788
IX	69702	105767	26	36234
IX	146993	175019	26	28066
IX	175089	175249	26	162
IX	175249	178134	26	2885
IX	178134	178188	26	54
IX	178188	178262	26	74
IX	178325	178376	26	51
IX	178376	178497	26	121
IX	178497	178528	26	31
IX	178528	178662	26	134
IX	178662	183131	26	4538
IX	183131	183248	26	123
IX	183248	183314	26	66
IX	183314	183422	26	108
IX	183422	183591	26	534
IX	183591	183788	26	292
IX	183802	183891	26	90
IX	183891	184977	26	1086
IX	184977	185129	26	152
IX	185129	185205	26	76
IX	185205	187831	26	2626
IX	187831	189322	26	1514
IX	189322	196647	26	7333
IX	197023	205071	26	8076
IX	205071	205125	26	54
IX	205125	205210	26	85
IX	210721	222334	26	11614
IX	222334	245535	26	23212
IX	245535	245599	26	64
IX	247593	247756	26	163
IX	247756	247780	26	24
IX	247780	247843	26	63
IX	247843	248818	26	978
IX	248818	248870	26	52
IX	248910	300281	26	51427
IX	300365	300406	26	41
IX	300406	317437	26	17130
IX	317838	324314	26	6477
IX	324859	325390	26	586
IX	325390	325642	26	252
IX	325705	325765	26	61
IX	325806	336360	26	10710
IX	336429	363059	26	26819
IX	363059	389153	26	26319
IX	389153	390195	26	1103
IX	390466	390501	26	35
IX	390501	390919	26	418
IX	390919	390950	26	31
IX	392962	392992	26	33
IX	394808	394867	26	59
IX	394867	394944	26	203
IX	394944	394987	26	43
IX	396056	399732	26	3696
IX	399732	399873	26	141
IX	399873	399918	26	47
IX	399918	400006	26	88
IX	400006	400094	26	88
IX	400094	400119	26	25
IX	400119	400674	26	604
IX	400674	429019	26	28596
IX	429469	432048	26	2614
IX	432048	432471	26	425
IX	432471	432520	26	50
IX	433120	433183	26	63
IX	437526	437589	26	63
XV	1316	1690	26	388
XV	14955	16401	26	1479
XV	23935	24087	26	152
XV	24235	24375	26	140
XV	24375	24523	26	148
XV	24523	24580	26	57
XV	24580	24742	26	162
XV	24768	25035	26	270
XV	25035	25129	26	94
XV	25158	25239	26	369
XV	25304	25405	26	101
XV	25405	25428	26	23
XV	25682	25745	26	63
XV	25745	25783	26	38
XV	25783	25820	26	37
XV	25820	25853	26	33
XV	25853	26037	26	184
XV	26037	26198	26	161
XV	26198	26237	26	39
XV	26237	26274	26	37
XV	26274	26296	26	22
XV	26296	26327	26	31
XV	26327	26360	26	33
XV	26360	26391	26	31
XV	26391	26454	26	63
XV	26454	26693	26	239
XV	26693	26895	26	202
XV	26895	27396	26	776
XV	27396	27525	26	129
XV	27525	27586	26	61
XV	27586	27697	26	111
XV	27697	27732	26	35
XV	27732	27777	26	45
XV	28357	29293	26	1041
XV	29485	29803	26	443
XV	29803	30594	26	791
XV	30594	30761	26	230
XV	31597	36260	26	4679
XV	36260	37141	26	881
XV	43207	97538	26	54920
XV	97601	97665	26	64
XV	97728	110811	26	13217
XV	110811	111475	26	763
XV	111602	111635	26	33
XV	111698	113529	26	1832
XV	113575	113673	26	98
XV	113738	113817	26	81
XV	113851	117689	26	4029
XV	123615	159800	26	36241
XV	159800	216898	26	57182
XV	216898	217076	26	510
XV	217076	226683	26	9613
XV	228392	228511	26	136
XV	228511	282138	26	53745
XV	282225	288085	26	5861
XV	288085	288208	26	123
XV	288289	290586	26	2300
XV	290586	290693	26	107
XV	290693	296056	26	5363
XV	296056	298765	26	2713
XV	298765	300031	26	1266
XV	300031	300095	26	64
XV	300095	300162	26	67
XV	300162	304306	26	4205
XV	304369	304430	26	61
XV	304493	304539	26	46
XV	304602	305045	26	445
XV	305108	309102	26	4000
XV	309102	309397	26	295
XV	309397	318393	26	9026
XV	318393	340285	26	21905
XV	340445	344953	26	4537
XV	344953	384729	26	40022
XV	384729	430175	26	45653
XV	430175	437770	26	7596
XV	437770	438397	26	880
XV	438726	438750	26	24
XV	438750	438802	26	52
XV	438802	464335	26	25804
XV	464381	522826	26	58549
XV	522826	522998	26	189
XV	522998	523353	26	355
XV	523812	549855	26	26048
XV	549855	549930	26	113
XV	549930	571747	26	21827
XV	571918	572004	26	86
XV	572017	575097	26	3082
XV	575097	594823	26	19800
XV	600742	664812	26	64164
XV	665151	699213	26	34124
XV	699277	703494	26	4219
XV	703494	703578	26	84
XV	710081	710143	26	62
XV	710143	710200	26	57
XV	710215	710273	26	59
XV	710273	822911	26	112798
XV	822911	822972	26	85
XV	822972	823008	26	64
XV	823008	830717	26	7751
XV	830835	923134	26	92529
XV	923134	959631	26	36506
XV	959631	959681	26	50
XV	959681	962316	26	2635
XV	962316	964685	26	2579
XV	964685	969313	26	4631
XV	969313	969448	26	180
XV	969448	969625	26	231
XV	969625	969766	26	170
XV	969766	969784	26	25
XV	969784	969966	26	182
XV	970088	970193	26	105
XV	970193	970345	26	196
XV	970609	970628	26	35
XV	975917	976081	26	164
XV	976175	979230	26	3096
XV	979230	980367	26	1145
XV	980367	1057785	26	77851
XV	1069530	1069572	26	42
XII	15160	15210	26	50
XII	15210	15734	26	798
XII	15734	16164	26	430
XII	16164	16562	26	398
XII	16562	19915	26	3353
XII	19915	20167	26	253
XII	20167	20224	26	57
XII	20224	24552	26	4329
XII	24552	25333	26	781
XII	25333	25385	26	52
XII	25385	27299	26	1936
XII	27299	29748	26	2455
XII	29748	31720	26	2405
XII	31720	31729	26	73
XII	31729	32266	26	639
XII	32266	32321	26	55
XII	32321	34146	26	1825
XII	34146	35482	26	1397
XII	35482	36669	26	1199
XII	36669	36724	26	55
XII	36724	39668	26	2944
XII	39668	39726	26	58
XII	39726	41167	26	1443
XII	41167	41205	26	38
XII	41205	47898	26	6769
XII	64857	95748	26	31090
XII	97414	167926	26	71027
XII	167926	167971	26	45
XII	168242	215079	26	47093
XII	215079	215096	26	17
XII	221004	373998	26	153183
XII	374343	448607	26	74334
XII	448607	448665	26	60
XII	448665	451328	26	2663
XII	451328	451479	26	151
XII	459799	459851	26	64
XII	460261	460287	26	26
XII	460287	460328	26	41
XII	462638	462719	26	81
XII	462743	462771	26	28
XII	463138	463180	26	42
XII	463180	463202	26	22
XII	463202	463225	26	23
XII	463225	463289	26	64
XII	463289	463334	26	45
XII	463612	463676	26	64
XII	463734	463763	26	29
XII	463811	463862	26	100
XII	464292	464303	26	11
XII	464696	464727	26	31
XII	464852	464893	26	41
XII	464973	465032	26	59
XII	465032	465092	26	60
XII	465092	465154	26	62
XII	465154	465191	26	37
XII	465191	465234	26	43
XII	465234	465255	26	21
XII	465255	465300	26	45
XII	466570	466601	26	31
XII	466601	466634	26	33
XII	466634	466682	26	48
XII	466716	466780	26	64
XII	466780	466807	26	27
XII	466807	466846	26	39
XII	468343	468365	26	22
XII	468365	468389	26	24
XII	468389	468410	26	21
XII	468546	468565	26	19
XII	490538	592762	26	102809
XII	599296	605377	26	6095
XII	605444	650818	26	45406
XII	656743	688911	26	32213
XII	688969	731662	26	42921
XII	732000	732135	26	135
XII	732135	732194	26	59
XII	732194	734309	26	2116
XII	766518	784415	26	17971
XII	784415	818487	26	34094
XII	818550	941191	26	123041
XII	947155	963023	26	15877
XII	963057	963248	26	191
XII	963248	975871	26	12624
XII	975934	975997	26	63
XII	975997	976036	26	39
XII	976036	976060	26	24
XII	981697	1052007	26	70439
XII	1052238	1059324	26	7092
XII	1059324	1059423	26	99
XII	1071361	1071388	26	27
XII	1071388	1071522	26	134
XII	1076698	1076734	26	36
X	7529	7591	26	62
X	7680	7748	26	68
X	19924	19948	26	24
X	29768	30155	26	392
X	30327	31229	26	913
X	31229	31349	26	120
X	32676	32739	26	63
X	32739	59066	26	26515
X	59113	59637	26	672
X	59768	116276	26	56570
X	116843	120780	26	4126
X	120780	120852	26	72
X	120964	120985	26	21
X	121000	121042	26	42
X	121042	153522	26	32634
X	153522	177930	26	24594
X	177930	197323	26	19423
X	197323	197373	26	50
X	204449	204589	26	140
X	204793	338687	26	134137
X	338929	354605	26	15757
X	355470	366850	26	11399
X	366850	374455	26	7827
X	374645	374881	26	236
X	374881	378226	26	3366
X	378415	396748	26	18481
X	396807	400158	26	3352
X	400158	400231	26	73
X	400272	415018	26	14813
X	415018	415924	26	907
X	415924	415992	26	68
X	416056	416189	26	133
X	416189	416562	26	626
X	416562	453965	26	37539
X	454355	472462	26	18208
X	483977	517874	26	33928
X	518092	519266	26	1178
X	519266	519348	26	82
X	519348	525068	26	5800
X	525068	525234	26	216
X	525280	531460	26	6220
X	531460	531788	26	328
X	531873	531937	26	64
X	531937	538097	26	6164
X	538372	538434	26	63
X	538434	540936	26	2508
X	541531	542884	26	1356
X	542982	543059	26	77
X	543059	617664	26	74654
X	617784	702030	26	84843
X	702030	712726	26	10785
X	713194	713251	26	273
X	713251	713523	26	292
X	713571	714243	26	672
X	714599	714675	26	76
X	714675	715000	26	424
X	715072	715171	26	135
X	715171	726142	26	11086
X	726202	727805	26	1622
X	727805	728438	26	634
X	728925	728962	26	37
X	729245	729387	26	142
X	729521	729784	26	276
X	730206	732649	26	2729
X	738229	738467	26	238
X	738467	738968	26	501
X	739070	739109	26	39
X	739147	739292	26	149
X	739395	739432	26	37
X	739432	739537	26	105
II	6956	7018	26	62
II	8814	8846	26	33
II	9314	9481	26	169
II	9614	29638	26	20142
II	35602	35845	26	243
II	36221	88138	26	52146
II	88138	88521	26	418
II	88521	197307	26	109483
II	197307	197324	26	116
II	198012	205726	26	7716
II	205726	205781	26	131
II	205781	221036	26	15321
II	226913	226969	26	56
II	226969	255451	26	28490
II	255509	259260	26	3760
II	259260	259578	26	318
II	265493	266389	26	896
II	266389	266440	26	51
II	266440	266538	26	100
II	266538	300055	26	33647
II	300164	311583	26	11423
II	311639	315412	26	3774
II	315412	315542	26	130
II	315542	316715	26	1174
II	316715	316779	26	65
II	316779	316949	26	170
II	316949	326322	26	9373
II	326322	326382	26	60
II	326382	326804	26	422
II	326961	347632	26	20700
II	347756	372249	26	24497
II	372385	387679	26	15306
II	387679	387743	26	64
II	387743	387849	26	106
II	387849	389575	26	1730
II	405886	405897	26	25
II	406042	406111	26	69
II	406111	430094	26	24215
II	430094	449504	26	19410
II	449636	455618	26	5992
II	465994	466039	26	45
II	466039	477679	26	11643
II	477679	561173	26	83804
II	561173	561230	26	60
II	561233	561384	26	151
II	563046	591851	26	28938
II	591851	643481	26	51861
II	643857	644171	26	369
II	644171	644660	26	489
II	644822	644860	26	61
II	644860	660519	26	15669
II	660689	700356	26	39730
II	700356	702042	26	1699
II	702042	702106	26	64
II	702106	780403	26	78343
II	780403	780499	26	104
II	780526	780562	26	36
II	780562	780589	26	27
II	780589	796546	26	16084
II	796546	800876	26	4387
II	801448	801598	26	156
II	801598	801661	26	63
II	801661	801790	26	170
II	801790	801841	26	179
II	801841	802063	26	589
II	802427	802459	26	59
II	804511	804633	26	122
II	805460	806991	26	1531
II	812374	812447	26	73
V	6567	6621	26	54
V	7184	7767	26	584
V	10057	13809	26	3770
V	13809	19586	26	5792
V	19586	20493	26	907
V	23033	59313	26	36313
V	59313	61698	26	2392
V	61698	61751	26	54
V	61751	61967	26	312
V	62026	62129	26	103
V	62596	62651	26	60
V	62651	63821	26	1170
V	63852	63981	26	130
V	63981	65293	26	1313
V	65293	79959	26	14691
V	79959	85988	26	6074
V	86083	99977	26	13902
V	99977	100193	26	298
V	100193	100594	26	406
V	100594	118420	26	17833
V	118420	118600	26	181
V	118600	118644	26	48
V	118644	132591	26	13949
V	132591	132636	26	45
V	132636	135478	26	2843
V	135865	135879	26	14
V	136035	175587	26	39757
V	175587	175623	26	36
V	175842	176760	26	918
V	177118	198602	26	21662
V	198602	207160	26	8639
V	243682	249900	26	6303
V	249900	249923	26	23
V	250269	250319	26	50
V	250319	266744	26	16475
V	266907	267090	26	183
V	267090	267252	26	162
V	267252	277445	26	10255
V	277445	277741	26	296
V	278008	288378	26	10438
V	288378	288440	26	89
V	288463	289835	26	1372
V	290449	323821	26	33744
V	323821	354420	26	30606
V	354819	363237	26	8676
V	363237	364570	26	1333
V	364570	374827	26	10259
V	374827	386151	26	11392
V	386151	386260	26	109
V	386260	394147	26	7938
V	394147	394980	26	834
V	394980	396343	26	1363
V	396343	397491	26	1262
V	397491	430532	26	33056
V	430532	430638	26	111
V	430728	430815	26	87
V	430815	431471	26	679
V	431662	434488	26	2834
V	434488	434515	26	27
V	434515	434592	26	78
V	436506	438774	26	2271
V	438837	442995	26	4162
V	442995	443116	26	121
V	443116	443218	26	103
V	443654	443735	26	81
V	449653	487828	26	38454
V	488165	492430	26	4272
V	492430	492543	26	177
V	498345	551298	26	52995
V	551298	551422	26	124
V	551422	551533	26	117
V	551576	552392	26	945
V	552454	566702	26	14263
V	566747	566951	26	204
V	569517	569758	26	309
VI	7553	7651	26	99
VI	14749	26886	26	12443
VI	26886	29784	26	2957
VI	30088	31102	26	1015
VI	31102	33572	26	2472
VI	33572	99174	26	65857
VI	99553	117415	26	18209
VI	118029	137421	26	19394
VI	137542	137662	26	120
VI	137932	138020	26	88
VI	143542	143657	26	116
VI	143657	144641	26	1053
VI	144641	161789	26	17224
VI	161789	161953	26	255
VI	161987	167470	26	5566
VI	181442	183129	26	2206
VI	183129	186183	26	3159
VI	186183	186224	26	41
VI	186224	192604	26	6388
VI	192778	205009	26	12252
VI	205745	206483	26	755
VI	206483	206539	26	59
VI	206539	206708	26	172
VI	207228	220600	26	13400
VI	220600	227485	26	7002
VI	227485	241534	26	14124
VI	241534	241586	26	52
VI	241586	265911	26	25582
VI	266426	266512	26	87
VI	269211	269695	26	489
